Time,Actual,STL processed
1-8-2017 0:00,4.3751169502E9,5.443924438012571E8
1-8-2017 1:00,4.26184452782E9,1.017836394482727E8
1-8-2017 2:00,4.23912363343E9,-3.0728442281175137E7
1-8-2017 3:00,4.23733056848E9,-1.2250547057443905E8
1-8-2017 4:00,4.24160875865E9,-2.416775682588005E8
1-8-2017 5:00,4.24252276732E9,-2.4810980810233927E8
1-8-2017 6:00,4.23858536447E9,-2.49116515977468E8
1-8-2017 7:00,4.23994327038E9,-2.198738136421032E8
1-8-2017 8:00,4.24654755157E9,-2.8226985057573223E8
1-8-2017 9:00,4.249237149E9,-4.0550310031977654E8
1-8-2017 10:00,4.29067162962E9,-4.4799646934965134E8
1-8-2017 11:00,4.26874241028E9,-6.580377508195152E8
1-8-2017 12:00,4.40307897682E9,-6.443281366624985E8
1-8-2017 13:00,5.38518530728E9,1.3177401555191994E8
1-8-2017 14:00,6.45555814395E9,1.0223764392556839E9
1-8-2017 15:00,6.67103177385E9,1.0966278297099962E9
1-8-2017 16:00,6.68347662332E9,9.599934460491085E8
1-8-2017 17:00,6.62668225192E9,7.653620883777218E8
1-8-2017 18:00,6.55078632107E9,6.414178435156441E8
1-8-2017 19:00,6.50403031725E9,5.1263696598368835E8
1-8-2017 20:00,6.41053054292E9,4.443792173768997E8
1-8-2017 21:00,6.36223138478E9,6.235276032312298E8
1-8-2017 22:00,6.3572017152E9,2.900676833896551E8
1-8-2017 23:00,6.35113919832E9,2.3588177540035343E8
2-8-2017 0:00,6.35168271017E9,-5.305110433254719E7
2-8-2017 1:00,6.35368723795E9,-2.6221818076983166E8
2-8-2017 2:00,6.33498064217E9,-2.83086697353487E8
2-8-2017 3:00,6.34428675408E9,-2.572488283991289E8
2-8-2017 4:00,6.3440578151E9,-2.722561742500124E8
2-8-2017 5:00,6.34091907743E9,-1.6061498210153294E8
2-8-2017 6:00,6.3321809442E9,-4.590066676394081E7
2-8-2017 7:00,6.33793762642E9,1.068049872976408E8
2-8-2017 8:00,6.35019373227E9,1.7704994557319355E8
2-8-2017 9:00,6.35169319593E9,1.8801460480246067E8
2-8-2017 10:00,6.35495251973E9,2.3738169903129292E8
2-8-2017 11:00,6.37562869075E9,2.0317381298635387E8
2-8-2017 12:00,6.36026180952E9,1.932662798222227E8
2-8-2017 13:00,6.35585604265E9,1.172818578548193E8
2-8-2017 14:00,6.35567428948E9,7.955044423821545E7
2-8-2017 15:00,6.4056301977E9,1.2377152362185669E8
2-8-2017 16:00,6.35696753318E9,6.366905378970528E7
2-8-2017 17:00,6.78941949955E9,4.9079488311030483E8
2-8-2017 18:00,6.46431200598E9,2.506879963083849E8
2-8-2017 19:00,6.27418420562E9,1.1498033865734386E8
2-8-2017 20:00,6.08355308892E9,7.873749908010483E7
2-8-2017 21:00,5.86790644398E9,1.8716999555812645E8
2-8-2017 22:00,5.7712574464E9,-1.35168390805233E8
2-8-2017 23:00,5.74551665328E9,-1.3051691171856785E8
3-8-2017 0:00,5.74129089198E9,-3.1692941581635475E8
3-8-2017 1:00,5.73830769315E9,-4.7501326873400784E8
3-8-2017 2:00,5.74875500545E9,-4.2119243832794E8
3-8-2017 3:00,5.73739193688E9,-3.7160185709202576E8
3-8-2017 4:00,5.74268200278E9,-3.3451241134748936E8
3-8-2017 5:00,5.73651812355E9,-2.189024232778635E8
3-8-2017 6:00,5.74231150593E9,-8.426707958842087E7
3-8-2017 7:00,5.7419305233E9,6.623270861168289E7
3-8-2017 8:00,5.7470213598E9,1.4116919165872192E8
3-8-2017 9:00,5.7573638144E9,1.5915709737988472E8
3-8-2017 10:00,5.76572446037E9,2.0645338500780773E8
3-8-2017 11:00,5.77321478828E9,1.550799120681734E8
3-8-2017 12:00,5.77072966317E9,1.469326866232729E8
3-8-2017 13:00,5.7666087594E9,4.734683533559418E7
3-8-2017 14:00,5.771259194E9,-1643453.559832573
3-8-2017 15:00,5.68177022293E9,-1.1969165842531776E8
3-8-2017 16:00,6.00650022913E9,1.7292618578499413E8
3-8-2017 17:00,5.9495747857E9,8.645527125309181E7
3-8-2017 18:00,5.84420338342E9,4.240321324684429E7
3-8-2017 19:00,5.67626519895E9,-9.140016179546452E7
3-8-2017 20:00,5.2922696772E9,-3.485915047253399E8
3-8-2017 21:00,5.58012825597E9,2.511191071310196E8
3-8-2017 22:00,5.66259701078E9,1.0178058897573948E8
3-8-2017 23:00,5.64491102893E9,8.414379698823452E7
4-8-2017 0:00,5.76207891113E9,1.755583951542282E7
4-8-2017 1:00,5.761662976E9,-1.3984639967256927E8
4-8-2017 2:00,5.74695844523E9,-1.2359857352674961E8
4-8-2017 3:00,5.56916714152E9,-2.5397093476925278E8
4-8-2017 4:00,5.72872895152E9,-7.398836990776062E7
4-8-2017 5:00,5.75306115752E9,5.851687502733517E7
4-8-2017 6:00,5.72581915312E9,1.4491157883295345E8
4-8-2017 7:00,5.77670305108E9,3.300133685549984E8
4-8-2017 8:00,5.34657368067E9,-3.900823924305725E7
4-8-2017 9:00,5.1743975015E9,-2.081376191914692E8
4-8-2017 10:00,5.73570897235E9,3.821584664730816E8
4-8-2017 11:00,5.37866709673E9,-4.050585185370922E7
4-8-2017 12:00,5.20844301657E9,-2.3029237882184124E8
4-8-2017 13:00,5.22823139328E9,-3.504243971610365E8
4-8-2017 14:00,5.48941419862E9,-1.7954253347652912E8
4-8-2017 15:00,5.30362051243E9,-4.37289013532382E8
4-8-2017 16:00,5.76704217085E9,-4.722102889084816E7
4-8-2017 17:00,5.69967291052E9,-2.0295057232825089E8
4-8-2017 18:00,5.3985446025E9,-5.010362765218277E8
4-8-2017 19:00,5.5554203102E9,-3.649065706284027E8
4-8-2017 20:00,5.22508042235E9,-6.306218559139137E8
4-8-2017 21:00,5.3138808286E9,-2.5083803143203735E8
4-8-2017 22:00,5.42963662845E9,-3.81648895252058E8
4-8-2017 23:00,4.92637898535E9,-9.238419373565531E8
5-8-2017 0:00,5.6751816704E9,-3.690056953772087E8
5-8-2017 1:00,7.72524649147E9,1.5580400265714283E9
5-8-2017 2:00,7.72823580668E9,1.615413392413969E9
5-8-2017 3:00,7.53002173788E9,1.4869364136500168E9
5-8-2017 4:00,7.65036330995E9,1.6521729705054312E9
5-8-2017 5:00,7.24359446547E9,1.412265708320856E9
5-8-2017 6:00,7.12035707567E9,1.4597491453475075E9
5-8-2017 7:00,6.66566830753E9,1.1949047616263504E9
5-8-2017 8:00,5.7657157223E9,4.196114267980585E8
5-8-2017 9:00,5.54095170903E9,3.1382307040313244E8
5-8-2017 10:00,4.43384070142E9,-6.537268396826267E8
5-8-2017 11:00,4.71822499837E9,-3.211961177435112E8
5-8-2017 12:00,4.46827418965E9,-4.840822101918125E8
5-8-2017 13:00,4.06631131815E9,-8.63515014558198E8
5-8-2017 14:00,4.0046515541E9,-8.452300287094283E8
5-8-2017 15:00,3.96213878785E9,-7.961832391813221E8
5-8-2017 16:00,4.0994935057E9,-5.665177971842408E8
5-8-2017 17:00,3.96055369042E9,-6.524887980432482E8
5-8-2017 18:00,3.93933400745E9,-5.2879870810025835E8
5-8-2017 19:00,3.85785091412E9,-4.857647049372058E8
5-8-2017 20:00,4.12210779477E9,-1.8918888444457054E7
5-8-2017 21:00,1.99226818563E9,-1.813198844598669E9
5-8-2017 22:00,4.12296063662E9,1.216124016249609E8
5-8-2017 23:00,4.26771480578E9,2.538914325218668E8
6-8-2017 0:00,4.2669930359E9,1.1443746578176165E8
6-8-2017 1:00,4.26388575567E9,-5.0449366893181324E7
6-8-2017 2:00,4.25775508142E9,-5.149195505412769E7
6-8-2017 3:00,4.2557627869E9,-3.4156670229735374E7
6-8-2017 4:00,4.25353980592E9,-3.973809476060438E7
6-8-2017 5:00,4.25761876643E9,2.6925477566456318E7
6-8-2017 6:00,4.25913046358E9,9.327660632544804E7
6-8-2017 7:00,4.25897142952E9,1.756229355023985E8
6-8-2017 8:00,4.26317097638E9,2.050677067151785E8
6-8-2017 9:00,4.26550930095E9,2.0685037219019413E8
6-8-2017 10:00,4.26977875292E9,2.257972307705803E8
6-8-2017 11:00,4.27428238678E9,1.5675598369205904E8
6-8-2017 12:00,4.273092253E9,1.1379755564004564E8
6-8-2017 13:00,4.27490978473E9,7073332.993880749
6-8-2017 14:00,4.27269204648E9,-3.847624749567461E7
6-8-2017 15:00,4.27244038832E9,-7.717828392619658E7
6-8-2017 16:00,4.27271476565E9,-1.124510682161541E8
6-8-2017 17:00,4.27221144918E9,-1.498125244382763E8
6-8-2017 18:00,4.27452006408E9,-9.188301924022818E7
6-8-2017 19:00,4.27151938902E9,-5.625955120905638E7
6-8-2017 20:00,4.27176056153E9,5.337883872044325E7
6-8-2017 21:00,4.27211183447E9,3.6890059467700815E8
6-8-2017 22:00,4.2701562402E9,1.567838498211565E8
6-8-2017 23:00,4.26270436013E9,9.83516875063324E7
7-8-2017 0:00,4.26339117748E9,-4.942485051635647E7
7-8-2017 1:00,4.25047796393E9,-2.0254436965697575E8
7-8-2017 2:00,4.24411310758E9,-1.9278340428350687E8
7-8-2017 3:00,4.24668736168E9,-1.6095738135286903E8
7-8-2017 4:00,4.24503061167E9,-1.5389230307211924E8
7-8-2017 5:00,4.24927384908E9,-7.496510390655947E7
7-8-2017 6:00,4.25402739358E9,5122797.401637077
7-8-2017 7:00,4.25911648263E9,1.0175454892355824E8
7-8-2017 8:00,4.2642912051E9,1.491367901142702E8
7-8-2017 9:00,4.27067878055E9,1.7155595213698292E8
7-8-2017 10:00,4.0705947512E9,-2615799.8787312508
7-8-2017 11:00,4.37624416945E9,2.4391599314286232E8
7-8-2017 12:00,4.25003406678E9,8.322314729488945E7
7-8-2017 13:00,4.20406099972E9,-7.275874409575939E7
7-8-2017 14:00,4.0578196002E9,-2.5600382643834686E8
7-8-2017 15:00,4.20246366893E9,-1.5021531847220373E8
7-8-2017 16:00,4.27464414552E9,-1.1183521876626348E8
7-8-2017 17:00,4.13142264487E9,-2.9113495323753643E8
7-8-2017 18:00,4.3505121143E9,-1.5106616020466805E7
7-8-2017 19:00,4.3915079407E9,6.922684058179188E7
7-8-2017 20:00,4.45970732378E9,2.4423816317101145E8
7-8-2017 21:00,4.32603485523E9,4.3178460702627945E8
7-8-2017 22:00,4.36444768943E9,2.7219327278204536E8
7-8-2017 23:00,4.33673906862E9,1.8143615370658445E8
8-8-2017 0:00,4.31568366243E9,2.862316159240961E7
8-8-2017 1:00,4.19640814252E9,-2.2195451826110888E8
8-8-2017 2:00,4.23275877703E9,-1.7110942760044718E8
8-8-2017 3:00,4.23331452233E9,-1.4404682519078588E8
8-8-2017 4:00,4.22845786787E9,-1.4076976161278105E8
8-8-2017 5:00,4.16810358107E9,-1.3147350301858091E8
8-8-2017 6:00,4.17974102697E9,-5.113954141104126E7
8-8-2017 7:00,4.18909082968E9,4.1658446201924324E7
8-8-2017 8:00,4.05551273297E9,-4.988161422335291E7
8-8-2017 9:00,3.91570434732E9,-1.6544001420129108E8
8-8-2017 10:00,4.13135623508E9,7.89909650365901E7
8-8-2017 11:00,4.27594263215E9,1.705189360079937E8
8-8-2017 12:00,4.27535018663E9,1.3436124182375717E8
8-8-2017 13:00,4.27356760745E9,1.8536961564361095E7
8-8-2017 14:00,4.27166269445E9,-1.6609281635520935E7
8-8-2017 15:00,4.27341206868E9,-5.668645745697498E7
8-8-2017 16:00,4.27385946113E9,-9.085848510453081E7
8-8-2017 17:00,4.27404820475E9,-1.345742410290861E8
8-8-2017 18:00,4.26517200898E9,-9.379976317712784E7
8-8-2017 19:00,4.27096014847E9,-4.8566528792367935E7
8-8-2017 20:00,4.2716574515E9,4.775141341798401E7
8-8-2017 21:00,4.27215552512E9,3.6796331222226334E8
8-8-2017 22:00,4.27489929905E9,1.773072654921136E8
8-8-2017 23:00,4.27326526793E9,9.300388572848988E7
9-8-2017 0:00,4.27036945067E9,-3.223540897854519E7
9-8-2017 1:00,4.26909717835E9,-1.562878871392393E8
9-8-2017 2:00,4.26960748553E9,-1.4371051904131126E8
9-8-2017 3:00,4.26864978593E9,-1.2156000010318995E8
9-8-2017 4:00,4.26245444943E9,-1.2127590351336193E8
9-8-2017 5:00,4.25869180942E9,-6.478029156072092E7
9-8-2017 6:00,4.25966174202E9,-6175612.1574049
9-8-2017 7:00,4.26291582288E9,6.829252996842098E7
9-8-2017 8:00,4.26801190233E9,1.1286867079687357E8
9-8-2017 9:00,4.27371615567E9,1.4709769913046122E8
9-8-2017 10:00,4.27460919303E9,1.7567116747041273E8
9-8-2017 11:00,4.27516843345E9,1.2473506019929361E8
9-8-2017 12:00,4.27197027673E9,8.199844636448812E7
9-8-2017 13:00,4.27246135973E9,-3.081298242149353E7
9-8-2017 14:00,4.2743400585E9,-5.473975224318981E7
9-8-2017 15:00,4.27364625067E9,-9.572729396384954E7
9-8-2017 16:00,4.20223822505E9,-1.993004568507762E8
9-8-2017 17:00,4.2739782997E9,-1.665471333960948E8
9-8-2017 18:00,4.2741827721E9,-1.1346682457477045E8
9-8-2017 19:00,4.24164196347E9,-9.93457686588974E7
9-8-2017 20:00,4.26495530325E9,1.9221222785535336E7
9-8-2017 21:00,4.27058790402E9,3.507195064836674E8
9-8-2017 22:00,4.273148177E9,1.7167803734368467E8
9-8-2017 23:00,4.27413383848E9,7.960758519405365E7
10-8-2017 0:00,4.27298215252E9,-2.676735206762457E7
10-8-2017 1:00,4.2681988983E9,-1.4723786872968388E8
10-8-2017 2:00,4.26667496798E9,-1.405511440686798E8
10-8-2017 3:00,4.26230764883E9,-1.2663789395628834E8
10-8-2017 4:00,4.26354322085E9,-1.2200627554839659E8
10-8-2017 5:00,4.2616942319E9,-7.788865963388014E7
10-8-2017 6:00,4.26086760442E9,-3.704166288135624E7
10-8-2017 7:00,4.26464422572E9,2.0816115407904625E7
10-8-2017 8:00,4.27085179567E9,5.90469911906662E7
10-8-2017 9:00,4.27469832188E9,8.967296173628712E7
10-8-2017 10:00,4.28280556203E9,1.1834259378226566E8
10-8-2017 11:00,4.45504815108E9,2.3463353496257782E8
10-8-2017 12:00,4.43565823322E9,1.6571257295115948E8
10-8-2017 13:00,4.3607392256E9,-2.9639712237630844E7
10-8-2017 14:00,4.3203026398E9,-9.631586009736681E7
10-8-2017 15:00,4.28858321575E9,-1.7466615695345592E8
10-8-2017 16:00,4.27384198487E9,-2.2698838060582256E8
10-8-2017 17:00,4.27356935503E9,-2.677100634449706E8
10-8-2017 18:00,4.47009521662E9,-2.1463252787345886E7
10-8-2017 19:00,4.60092080137E9,1.5686022606012917E8
10-8-2017 20:00,4.45467765418E9,9.912300291913033E7
10-8-2017 21:00,4.42823606262E9,4.032299221724529E8
10-8-2017 22:00,4.45338091527E9,2.571016208424816E8
10-8-2017 23:00,4.32773354837E9,2.6541884926683426E7
11-8-2017 0:00,4.4334230187E9,4.265883970020485E7
11-8-2017 1:00,4.36803556688E9,-1.3164644475495625E8
11-8-2017 2:00,4.32810055005E9,-1.6755072613261127E8
11-8-2017 3:00,4.29611898182E9,-1.8640288796768522E8
11-8-2017 4:00,4.31300105552E9,-1.695312630922513E8
11-8-2017 5:00,4.3999821823E9,-4.843861218721104E7
11-8-2017 6:00,4.35384134313E9,-6.643038333682537E7
11-8-2017 7:00,4.29828603897E9,-8.26006601910801E7
11-8-2017 8:00,4.29684249935E9,-5.704087493096638E7
11-8-2017 9:00,4.28122395987E9,-4.018543856642628E7
11-8-2017 10:00,4.27258019835E9,-2.7944960810237885E7
11-8-2017 11:00,4.27483288908E9,-7.866033166431046E7
11-8-2017 12:00,4.33438326783E9,-7.119369763815975E7
11-8-2017 13:00,5.00688224262E9,4.822913077589998E8
11-8-2017 14:00,4.68943459672E9,1.4672008028998566E8
11-8-2017 15:00,4.55219347452E9,-3.493897967277336E7
11-8-2017 16:00,4.70230761473E9,8.072838621817875E7
11-8-2017 17:00,4.64269082623E9,-1.3791858241660118E7
11-8-2017 18:00,4.8088202172E9,2.0591149328540516E8
11-8-2017 19:00,4.60694312277E9,5.9376221347623825E7
11-8-2017 20:00,4.55006311762E9,9.126231147433376E7
11-8-2017 21:00,4.50915117743E9,3.9710634271540356E8
11-8-2017 22:00,4.45956576593E9,1.98100998107996E8
11-8-2017 23:00,4.38607631697E9,1.9367557478586197E7
12-8-2017 0:00,4.33639303853E9,-9.27128680401392E7
12-8-2017 1:00,4.34035316057E9,-1.6316100393725586E8
12-8-2017 2:00,4.29850274477E9,-1.7742045892242432E8
12-8-2017 3:00,4.3059546248E9,-1.3425019047381735E8
12-8-2017 4:00,4.27432957257E9,-1.4155204184969616E8
12-8-2017 5:00,4.26685846865E9,-9.1423681323565E7
12-8-2017 6:00,4.2606316749E9,-4.768294220475578E7
12-8-2017 7:00,4.25946600792E9,1.1183309498034477E7
12-8-2017 8:00,4.26238454447E9,7.142821103606796E7
12-8-2017 9:00,4.268607843E9,1.410499434639349E8
12-8-2017 10:00,4.27028905983E9,1.8916717349473858E8
12-8-2017 11:00,4.27134986918E9,1.654734340906887E8
12-8-2017 12:00,4.27212756313E9,1.3684460928881645E8
12-8-2017 13:00,4.27336138747E9,2.8968871778853893E7
12-8-2017 14:00,4.27359207422E9,2.767705681748581E7
12-8-2017 15:00,3.98854892198E9,-2.910859987750168E8
12-8-2017 16:00,4.27324779173E9,-2.921458552381611E7
12-8-2017 17:00,4.27463715497E9,-6.287103824807739E7
12-8-2017 18:00,4.27225688743E9,-1.3512290785306454E7
12-8-2017 19:00,4.26601261733E9,3.7741232957921505E7
12-8-2017 20:00,4.26292456108E9,1.1799148616860771E8
12-8-2017 21:00,2.13557007703E9,-1.6685966140982003E9
12-8-2017 22:00,4.0558465297E9,1.0191607807133293E8
12-8-2017 23:00,4.26857289043E9,1.868697762126894E8
13-8-2017 0:00,4.2669860455E9,1.2786410441609526E8
13-8-2017 1:00,4.26574173533E9,3.989899329495907E7
13-8-2017 2:00,4.26588154545E9,4.436787188021374E7
13-8-2017 3:00,4.26330379607E9,5.327537523043728E7
13-8-2017 4:00,4.18916772518E9,-1.9025962838817596E7
13-8-2017 5:00,4.25881414318E9,6.71992240573268E7
13-8-2017 6:00,4.25805392565E9,7.37163683734827E7
13-8-2017 7:00,4.2595359129E9,9.136852981224298E7
13-8-2017 8:00,4.26656836267E9,1.2154174880711794E8
13-8-2017 9:00,4.27081334778E9,1.634006666950798E8
13-8-2017 10:00,4.269207279E9,1.770734258672676E8
13-8-2017 11:00,4.27103704408E9,1.2565319585000801E8
13-8-2017 12:00,4.27155608912E9,6.273398893688059E7
13-8-2017 13:00,4.27074868567E9,-6.190976301044989E7
13-8-2017 14:00,4.27239320238E9,-6.981786234441566E7
13-8-2017 15:00,4.27030828373E9,-1.1955584412690687E8
13-8-2017 16:00,4.27222717782E9,-1.534762829057045E8
13-8-2017 17:00,4.27131491672E9,-1.9167160885347176E8
13-8-2017 18:00,4.27193881943E9,-1.432385255740757E8
13-8-2017 19:00,4.26787733503E9,-8.974113365892029E7
13-8-2017 20:00,4.27138307418E9,-1.041975974334097E7
13-8-2017 21:00,4.27104053923E9,3.356277250573616E8
13-8-2017 22:00,4.27089024337E9,1.969830649192238E8
13-8-2017 23:00,4.26895387302E9,5.6358584676733494E7
14-8-2017 0:00,4.26729712303E9,1.3874551647658348E7
14-8-2017 1:00,4.26838589437E9,-5.644074095591736E7
14-8-2017 2:00,4.26741421412E9,-4.8715965068659306E7
14-8-2017 3:00,4.26349778243E9,-3.775099969523907E7
14-8-2017 4:00,4.26253134498E9,-3.174189233628893E7
14-8-2017 5:00,4.2558501682E9,-2.0804504624910355E7
14-8-2017 6:00,4.25650727587E9,-1.3499714986184597E7
14-8-2017 7:00,4.26216958635E9,6531516.333768368
14-8-2017 8:00,4.26913038337E9,4.450797796070671E7
14-8-2017 9:00,4.27079587153E9,9.805457543542767E7
14-8-2017 10:00,4.26795423062E9,1.193862548856659E8
14-8-2017 11:00,4.26995526315E9,7.969352363186216E7
14-8-2017 12:00,4.27323206313E9,2.555201611414385E7
14-8-2017 13:00,4.27138482188E9,-1.0024045487476206E8
14-8-2017 14:00,4.27170288983E9,-1.0288721189553213E8
14-8-2017 15:00,4.27330371587E9,-1.4825470336221933E8
14-8-2017 16:00,4.26986613418E9,-1.8592565979776287E8
14-8-2017 17:00,4.27261165567E9,-2.1989834402718258E8
14-8-2017 18:00,4.49646515543E9,5.0636609880689144E7
14-8-2017 19:00,4.39782036818E9,1.241343787838316E7
14-8-2017 20:00,4.41564616017E9,1.0133384639946985E8
14-8-2017 21:00,4.27110694913E9,3.082054082628956E8
14-8-2017 22:00,4.25612978852E9,1.6539951262771273E8
14-8-2017 23:00,4.26838938965E9,2.7451789592001915E7
15-8-2017 0:00,4.26763266725E9,1855561.0110707283
15-8-2017 1:00,4.26758897653E9,-5.702615161948156E7
15-8-2017 2:00,4.2638542985E9,-5.044768081475878E7
15-8-2017 3:00,4.26540444327E9,-3.337068962267971E7
15-8-2017 4:00,4.26585358342E9,-2.3555681198207855E7
15-8-2017 5:00,4.26379837445E9,-1.1110709539254665E7
15-8-2017 6:00,4.26463024457E9,-8419016.785619736
15-8-2017 7:00,4.26582387375E9,1184727.6455421448
15-8-2017 8:00,4.26672040615E9,3.6814267794559956E7
15-8-2017 9:00,4.26940650835E9,1.0005602987880039E8
15-8-2017 10:00,4.27138831698E9,1.2951363022468567E8
15-8-2017 11:00,4.27238096893E9,9.477672865193415E7
15-8-2017 12:00,4.26985390083E9,3.525927645722294E7
15-8-2017 13:00,4.269698362E9,-8.969823615093756E7
15-8-2017 14:00,4.27174832813E9,-8.477316671619272E7
15-8-2017 15:00,4.26879658663E9,-1.3475634289475536E8
15-8-2017 16:00,4.26712236028E9,-1.6980556123504782E8
15-8-2017 17:00,4.26716954623E9,-2.0791716966356802E8
15-8-2017 18:00,4.27062460415E9,-1.6091383180466604E8
15-8-2017 19:00,4.25830558378E9,-1.1195343864542723E8
15-8-2017 20:00,4.2681220028E9,-3.7768361979828835E7
15-8-2017 21:00,4.26956903767E9,3.047286922214594E8
15-8-2017 22:00,4.2690028066E9,1.7161926783413887E8
15-8-2017 23:00,4.26884202492E9,-5648139.829885483
16-8-2017 0:00,4.2645253871E9,-3.4230141463775635E7
16-8-2017 1:00,4.26222376268E9,-1.090718687367096E8
16-8-2017 2:00,4.26222376283E9,-1.2424086856711149E8
16-8-2017 3:00,4.26060021763E9,-1.3677956722119856E8
16-8-2017 4:00,4.25896968195E9,-1.5390513853236198E8
16-8-2017 5:00,4.25925978808E9,-1.724743974558897E8
16-8-2017 6:00,4.25889628152E9,-2.056549850077839E8
16-8-2017 7:00,4.26412692827E9,-2.2731265857770061E8
16-8-2017 8:00,4.26532055733E9,-2.1628166921827602E8
16-8-2017 9:00,4.26860434763E9,-1.6241268897043037E8
16-8-2017 10:00,4.57974830423E9,1.6095252203289223E8
16-8-2017 11:00,5.72958354087E9,1.2617864432055597E9
16-8-2017 12:00,5.24994740225E9,7.085718919720821E8
16-8-2017 13:00,4.77606270298E9,1.0288957108339119E8
16-8-2017 14:00,4.4082484565E9,-2.6304203478328228E8
16-8-2017 15:00,5.0644088696E9,3.3916043019936943E8
16-8-2017 16:00,4.73572922715E9,-2.910911702445507E7
16-8-2017 17:00,4.44044148738E9,-3.5875844261615515E8
16-8-2017 18:00,4.7907113097E9,3.4072443076869965E7
16-8-2017 19:00,4.70432088067E9,1.273827278275013E7
16-8-2017 20:00,4.4340416785E9,-1.9704586184088612E8
16-8-2017 21:00,4.71281085097E9,4.417889858696213E8
16-8-2017 22:00,4.47647754925E9,9.703391295889091E7
16-8-2017 23:00,4.27738267645E9,-2.7603185566759586E8
17-8-2017 0:00,4.44465676283E9,-1.0360514982017899E8
17-8-2017 1:00,4.38311933275E9,-2.082301864222412E8
17-8-2017 2:00,4.34540030622E9,-2.4344578447451496E8
17-8-2017 3:00,4.31565220527E9,-2.6739646148151112E8
17-8-2017 4:00,4.29150000465E9,-2.8875061776786804E8
17-8-2017 5:00,4.26323214338E9,-3.3140890483945656E8
17-8-2017 6:00,4.27852737197E9,-3.4577917593245935E8
17-8-2017 7:00,4.34055064238E9,-3.0811389542378235E8
17-8-2017 8:00,5.42144812383E9,7.955540648657188E8
17-8-2017 9:00,5.05879898788E9,4.986134508132534E8
17-8-2017 10:00,4.57943547905E9,4.131103775934219E7
17-8-2017 11:00,4.28739133435E9,-2.879118056672497E8
17-8-2017 12:00,5.57478051833E9,9.344053158658323E8
17-8-2017 13:00,5.47568484345E9,7.109131374850683E8
17-8-2017 14:00,4.9443648307E9,1.948800686154318E8
17-8-2017 15:00,4.47870227797E9,-3.172701797122469E8
17-8-2017 16:00,5.00996156077E9,1.825811970934515E8
17-8-2017 17:00,4.6790816563E9,-1.6402112159222984E8
17-8-2017 18:00,4.50911797247E9,-2.7756899556588364E8
17-8-2017 19:00,4.67898728448E9,-2.4025012530189514E7
17-8-2017 20:00,4.54595444737E9,-8.559480510988617E7
17-8-2017 21:00,4.42236403713E9,1.7964472212216568E8
17-8-2017 22:00,4.44521949857E9,1.2794809169094658E8
17-8-2017 23:00,4.39806328843E9,-8.029502692507839E7
18-8-2017 0:00,4.37095585107E9,-6.308360434343529E7
18-8-2017 1:00,4.31539705168E9,-1.3483982077591515E8
18-8-2017 2:00,4.27829318998E9,-1.543301323913498E8
18-8-2017 3:00,4.31827189745E9,-9.440373043254852E7
18-8-2017 4:00,4.28617498635E9,-1.0797142415805626E8
18-8-2017 5:00,4.27459521192E9,-1.373466844656973E8
18-8-2017 6:00,4.26915310255E9,-1.7717671153780174E8
18-8-2017 7:00,4.2799202304E9,-1.9611106941731453E8
18-8-2017 8:00,4.2908708591E9,-1.5733066958451462E8
18-8-2017 9:00,4.29687745195E9,-8.00946380996294E7
18-8-2017 10:00,4.29438009347E9,-6.0293460585318565E7
18-8-2017 11:00,4.32512084648E9,-6.451119071570778E7
18-8-2017 12:00,4.29493583867E9,-1.6086431196060562E8
18-8-2017 13:00,4.65596754598E9,6.929000645433617E7
18-8-2017 14:00,5.53279903063E9,9.609307347395172E8
18-8-2017 15:00,4.95464742912E9,3.2987968663928795E8
18-8-2017 16:00,4.666322234E9,4446580.792286873
18-8-2017 17:00,4.54871569755E9,-1.4080736199438858E8
18-8-2017 18:00,4.57141387268E9,-7.840279425173187E7
18-8-2017 19:00,4.49931728222E9,-7.877046512323761E7
18-8-2017 20:00,4.44559698603E9,-8.062390352601147E7
18-8-2017 21:00,4.41196216315E9,2.6352690429590702E8
18-8-2017 22:00,4.36884122283E9,1.3991498242252064E8
18-8-2017 23:00,4.34345345023E9,-7.348428030472565E7
19-8-2017 0:00,4.34138775543E9,-3.1873443690532684E7
19-8-2017 1:00,4.32368954035E9,-9.480171182597065E7
19-8-2017 2:00,4.3269418734E9,-1.1474853257710743E8
19-8-2017 3:00,4.28240186027E9,-1.811134061650467E8
19-8-2017 4:00,4.31477664438E9,-1.704010571322422E8
19-8-2017 5:00,4.28285100018E9,-3.1033984465847015E8
19-8-2017 6:00,4.28456192685E9,-4.345518510822091E8
19-8-2017 7:00,4.28442036903E9,-5.565509878324413E8
19-8-2017 8:00,4.2658378547E9,-6.290570361088767E8
19-8-2017 9:00,4.26586931197E9,-6.469353281879396E8
19-8-2017 10:00,4.27128520707E9,-7.136435615967045E8
19-8-2017 11:00,4.27547601577E9,-8.368511251721878E8
19-8-2017 12:00,4.27356935505E9,-1.0006820550363669E9
19-8-2017 13:00,4.27377907022E9,-1.243778504655777E9
19-8-2017 14:00,4.27380004178E9,-1.3353738802058363E9
19-8-2017 15:00,7.28413066585E9,1.5096976557813263E9
19-8-2017 16:00,7.77262901932E9,1.8494402032915678E9
19-8-2017 17:00,7.71793529512E9,1.640317318904561E9
19-8-2017 18:00,7.74985569627E9,1.580377933694189E9
19-8-2017 19:00,7.70562151772E9,1.4810701615661469E9
19-8-2017 20:00,7.6246067882E9,1.317469341360962E9
19-8-2017 21:00,4.33064334678E9,-1.7103370098984528E9
19-8-2017 22:00,2.42132626095E9,-3.8066682007352076E9
19-8-2017 23:00,7.14537085612E9,6.01856088885129E8
20-8-2017 0:00,7.01571618123E9,4.1465138311067104E8
20-8-2017 1:00,7.13590571002E9,4.606343988850956E8
20-8-2017 2:00,7.14257640103E9,4.033494082610769E8
20-8-2017 3:00,7.52542023678E9,7.22652004659215E8
20-8-2017 4:00,6.88573819572E9,2.117205212314892E7
20-8-2017 5:00,7.26831988725E9,3.1952832789149E8
20-8-2017 6:00,7.38363004243E9,3.313859195992727E8
20-8-2017 7:00,6.99576003247E9,-1.5649237747852325E8
20-8-2017 8:00,7.12978377385E9,-4.414009011103821E7
20-8-2017 9:00,7.26361178112E9,1.1716385324135685E8
20-8-2017 10:00,6.76152912553E9,-4.169407219450722E8
20-8-2017 11:00,7.15552107187E9,-1.0826216360024357E8
20-8-2017 12:00,7.67530369023E9,2.8836490332170486E8
20-8-2017 13:00,7.6796080948E9,1.2515171332873154E8
20-8-2017 14:00,7.68370278398E9,1.194218107742176E8
20-8-2017 15:00,7.68753882453E9,3.385646786955738E7
20-8-2017 16:00,7.69136437938E9,-3.450433235216904E7
20-8-2017 17:00,7.69474428928E9,-7.7785789325593E7
20-8-2017 18:00,7.70017940823E9,-6.122708854507828E7
20-8-2017 19:00,7.70493644795E9,-3796608.4057397842
20-8-2017 20:00,7.70950823932E9,1.8285690970578194E7
20-8-2017 21:00,7.7135941905E9,3.9039846012890434E8
20-8-2017 22:00,7.71637116922E9,3.1313647874785805E8
20-8-2017 23:00,7.71614922058E9,8.338367749485111E7
21-8-2017 0:00,7.71411498323E9,1.36071115320817E8
21-8-2017 1:00,7.71384060582E9,1.2479313218398476E8
21-8-2017 2:00,7.7011440981E9,9.956378224596977E7
21-8-2017 3:00,7.55925778428E9,-5.540078257093048E7
21-8-2017 4:00,7.68398240438E9,5.956981690301609E7
21-8-2017 5:00,7.69522663423E9,4883776.220053673
21-8-2017 6:00,7.69965861538E9,-7.715901881651402E7
21-8-2017 7:00,7.70834606757E9,-1.5212314426774693E8
21-8-2017 8:00,7.67128516838E9,-1.8409599987221336E8
21-8-2017 9:00,7.77339972268E9,-3537424.4122257233
21-8-2017 10:00,7.19155888122E9,-5.717155769101925E8
21-8-2017 11:00,6.96742401363E9,-8.33496448568922E8
21-8-2017 12:00,6.99988268373E9,-8.798422125547142E8
21-8-2017 13:00,8.63169631573E9,6.17944878346077E8
21-8-2017 14:00,8.51566744918E9,5.3158565867444134E8
21-8-2017 15:00,9.12830147247E9,1.08837848637529E9
21-8-2017 16:00,8.74660844885E9,6.68771095469388E8
21-8-2017 17:00,8.35359735813E9,2.56241007366601E8
21-8-2017 18:00,8.13566525442E9,7.179042985505676E7
21-8-2017 19:00,8.03504390143E9,5.0964199258208275E7
21-8-2017 20:00,7.94598834178E9,-1109605.7175369263
21-8-2017 21:00,7.77217987925E9,2.2668747315273666E8
21-8-2017 22:00,7.67232573435E9,8.547853559311104E7
21-8-2017 23:00,7.65484597245E9,-1.438336034475279E8
22-8-2017 0:00,7.6261936332E9,-7.378353892542553E7
22-8-2017 1:00,7.60294146057E9,-4.4249695959386826E7
22-8-2017 2:00,7.57623248208E9,-3.148196321727562E7
22-8-2017 3:00,7.5810192317E9,1.1276237794911385E7
22-8-2017 4:00,7.55976983895E9,3.2903700113578796E7
22-8-2017 5:00,7.54697546423E9,2003608.858469963
22-8-2017 6:00,7.5044557073E9,-8.048372820329285E7
22-8-2017 7:00,7.51203341648E9,-1.1067114319896698E8
22-8-2017 8:00,7.52248771925E9,-3.8839555256388664E7
22-8-2017 9:00,7.52330269578E9,8.042225080148792E7
22-8-2017 10:00,7.55892049235E9,1.64422432444417E8
22-8-2017 11:00,7.58627958778E9,1.9083799528456116E8
22-8-2017 12:00,7.36038456895E9,-8.047525272654057E7
22-8-2017 13:00,7.52035910997E9,-3.569539848279381E7
22-8-2017 14:00,7.25360982243E9,-2.479399996723652E8
22-8-2017 15:00,7.21980242152E9,-3.186876074468174E8
22-8-2017 16:00,7.40959249297E9,-1.4719863096991444E8
22-8-2017 17:00,7.58039095978E9,1.9691464446598053E7
22-8-2017 18:00,7.29990736555E9,-2.1648440271834278E8
22-8-2017 19:00,7.11303335488E9,-3.079730574564867E8
22-8-2017 20:00,7.2644461272E9,-1.1163873222940063E8
22-8-2017 21:00,7.23904306285E9,2.5635266543914032E8
22-8-2017 22:00,7.2066074032E9,1.7945686193641758E8
22-8-2017 23:00,7.20037857047E9,-6.269539109636974E7
23-8-2017 0:00,7.16761042502E9,4585482.622662544
23-8-2017 1:00,7.13793820005E9,-1.0519532198259354E7
23-8-2017 2:00,7.0982478506E9,-6.154841604499912E7
23-8-2017 3:00,7.20810657577E9,3.448791078488159E7
23-8-2017 4:00,7.2371026146E9,5.6065096049674034E7
23-8-2017 5:00,7.0393563273E9,-2.24835981471941E8
23-8-2017 6:00,7.06294885028E9,-3.0674591868968296E8
23-8-2017 7:00,6.98932279523E9,-4.8349906435013866E8
23-8-2017 8:00,7.13581658115E9,-3.31045490185977E8
23-8-2017 9:00,7.15283671722E9,-2.262441160986929E8
23-8-2017 10:00,7.18197664427E9,-1.8509153829325104E8
23-8-2017 11:00,7.6118348413E9,2.100415848035307E8
23-8-2017 12:00,7.77858580475E9,2.9605515916464233E8
23-8-2017 13:00,9.1750108729E9,1.5502858982732687E9
23-8-2017 14:00,8.14656578442E9,5.553532253434334E8
23-8-2017 15:00,7.5531043909E9,-1.0196320518669796E8
23-8-2017 16:00,7.60198230475E9,-9.616834272606564E7
23-8-2017 17:00,7.56875220307E9,-1.4951492704501534E8
23-8-2017 18:00,7.50131085308E9,-1.9495385002660084E8
23-8-2017 19:00,7.62529593572E9,6837513.000576973
23-8-2017 20:00,7.46367600412E9,-1.3480720532309818E8
23-8-2017 21:00,7.3957234733E9,1.9424947702928638E8
23-8-2017 22:00,7.39544880472E9,1.577732461094885E8
23-8-2017 23:00,7.38106365273E9,-1.050593221849308E8
24-8-2017 0:00,7.21802756097E9,-1.5629610301630116E8
24-8-2017 1:00,7.06535868197E9,-2.48774853667943E8
24-8-2017 2:00,7.18238456957E9,-1.1006102244729519E8
24-8-2017 3:00,7.12043193237E9,-1.5378818407348156E8
24-8-2017 4:00,7.23173172105E9,-1.636119942844677E7
24-8-2017 5:00,7.2956025241E9,-1.160162173067379E7
24-8-2017 6:00,7.20230241618E9,-1.8684643135849667E8
24-8-2017 7:00,7.36081652388E9,-1.077283356782322E8
24-8-2017 8:00,7.15008973937E9,-2.7881978384698296E8
24-8-2017 9:00,7.33524437677E9,1.4898677559612274E7
24-8-2017 10:00,8.6814473148E9,1.3881931246300068E9
24-8-2017 11:00,8.47518018213E9,1.1648679692858667E9
24-8-2017 12:00,8.03453708972E9,6.596169204816341E8
24-8-2017 13:00,7.62945120948E9,1.1327437656296921E8
24-8-2017 14:00,7.82210957312E9,3.46390192580698E8
24-8-2017 15:00,6.62343690918E9,-9.151150308872824E8
24-8-2017 16:00,4.08463911597E9,-3.4938399332863746E9
24-8-2017 17:00,7.69621404328E9,1.0638124012751484E8
24-8-2017 18:00,7.56321091582E9,-1953920.392408371
24-8-2017 19:00,7.51488729097E9,3.4920938253388405E7
24-8-2017 20:00,7.51385968645E9,5.389348603224659E7
24-8-2017 21:00,7.39585818623E9,3.43861063140955E8
24-8-2017 22:00,7.37210444455E9,2.995097916687403E8
24-8-2017 23:00,7.3716850142E9,4.5464400047348976E7
25-8-2017 0:00,7.36919115092E9,1.7386559049023056E8
25-8-2017 1:00,7.36338378762E9,2.1465265669868183E8
25-8-2017 2:00,7.353083276E9,1.9984794967753315E8
25-8-2017 3:00,7.35379980278E9,1.916192089060936E8
25-8-2017 4:00,7.34626753187E9,1.845416845985365E8
25-8-2017 5:00,7.36516112378E9,1.0650532068961525E8
25-8-2017 6:00,7.35845198512E9,-2.04530565243721E7
25-8-2017 7:00,7.36896046423E9,-1.2747184180435276E8
25-8-2017 8:00,7.37207298732E9,-1.1291076523698044E8
25-8-2017 9:00,7.36956863825E9,-6475812.605784416
25-8-2017 10:00,7.43717382827E9,8.289261102465439E7
25-8-2017 11:00,7.45667209902E9,8.259277664467621E7
25-8-2017 12:00,7.45514991623E9,1.2184936440185547E7
25-8-2017 13:00,7.45735367337E9,-1.277257044673872E8
25-8-2017 14:00,7.45717716313E9,-8.229512523371506E7
25-8-2017 15:00,7.46038930093E9,-1.4268846921116543E8
25-8-2017 16:00,7.45879022252E9,-1.8285411434159946E8
25-8-2017 17:00,7.4599943373E9,-1.9293592920220852E8
25-8-2017 18:00,7.46035784368E9,-1.7393382043781185E8
25-8-2017 19:00,7.4472681199E9,-1.0312776210073853E8
25-8-2017 20:00,7.39467329542E9,-1.4439239974668312E8
25-8-2017 21:00,7.39085647867E9,2.81066501364007E8
25-8-2017 22:00,7.39017140908E9,2.857347109050293E8
25-8-2017 23:00,7.39928003923E9,4.638561119231892E7
26-8-2017 0:00,7.40724222633E9,2.14685371185112E8
26-8-2017 1:00,7.41016251033E9,3.350148927829523E8
26-8-2017 2:00,7.41385000278E9,3.924165577393017E8
26-8-2017 3:00,7.42872230562E9,4.555833568319044E8
26-8-2017 4:00,7.41732603203E9,5.0337988741105175E8
26-8-2017 5:00,7.40720552612E9,4.9364564723702145E8
26-8-2017 6:00,7.4085372176E9,4.7155851533845615E8
26-8-2017 7:00,7.40476409173E9,4.472618247298136E8
26-8-2017 8:00,7.38297468248E9,5.43869138114892E8
26-8-2017 9:00,7.09357120173E9,5.0126549721314144E8
26-8-2017 10:00,6.69692461055E9,2.5853892466607666E8
26-8-2017 11:00,6.30829787822E9,-1.5140934797283173E7
26-8-2017 12:00,6.27187908608E9,1.2761975080422401E7
26-8-2017 13:00,6.68100897445E9,4.137967070049076E8
26-8-2017 14:00,6.27569065983E9,1.9411209492549324E8
26-8-2017 15:00,6.00626604717E9,-4813945.7904577255
26-8-2017 16:00,6.14577209348E9,2.323630522387333E8
26-8-2017 17:00,5.48232932007E9,-3.2660764813256836E8
26-8-2017 18:00,5.19988838397E9,-4.8074916798004436E8
26-8-2017 19:00,4.825808896E9,-6.565453967878866E8
26-8-2017 20:00,4.7338907238E9,-6.3011316919483E8
26-8-2017 21:00,1.40415685972E9,-3.456130771007555E9
26-8-2017 22:00,4.8359224114E9,6.007277260131073E7
26-8-2017 23:00,4.72331233957E9,-2.4269289380811214E8
27-8-2017 0:00,4.63016209065E9,-9.292914679080677E7
27-8-2017 1:00,4.7045323436E9,1.1696247598678493E8
27-8-2017 2:00,4.65441215823E9,1.260721551709919E8
27-8-2017 3:00,4.69022627163E9,2.147178527679987E8
27-8-2017 4:00,4.92929810433E9,5.190178713442116E8
27-8-2017 5:00,4.84900689237E9,3.5144940919776726E8
27-8-2017 6:00,4.78969419107E9,1.8056856221731853E8
27-8-2017 7:00,4.70057396895E9,-1.705126246728897E7
27-8-2017 8:00,4.6079200461E9,-6.934003100180817E7
27-8-2017 9:00,4.63012539053E9,7.35825638582573E7
27-8-2017 10:00,4.69739503617E9,1.6298588558844852E8
27-8-2017 11:00,4.55539337895E9,6732951.666467667
27-8-2017 12:00,4.50770414258E9,-1.0737035081886768E8
27-8-2017 13:00,4.48957601112E9,-2.5965703769455767E8
27-8-2017 14:00,4.46555663017E9,-2.1809874360929298E8
27-8-2017 15:00,4.47010220713E9,-2.6903318155597734E8
27-8-2017 16:00,4.47114029738E9,-2.9416926171939373E8
27-8-2017 17:00,4.470266484E9,-2.9234111031112814E8
27-8-2017 18:00,4.46821826563E9,-2.7395720949021626E8
27-8-2017 19:00,4.47493439478E9,-1.7209845506271553E8
27-8-2017 20:00,4.47998503592E9,-1.5920531210039616E8
27-8-2017 21:00,4.47736010067E9,2.6675768048011875E8
27-8-2017 22:00,4.45615265112E9,2.5950405681348228E8
27-8-2017 23:00,4.44980527105E9,-2.8265661395998955E7
28-8-2017 0:00,4.45571399673E9,1.5356460442247486E8
28-8-2017 1:00,4.45972829532E9,2.5338782169712448E8
28-8-2017 2:00,4.47389805235E9,2.7447855195650005E8
28-8-2017 3:00,4.45102161915E9,2.5114620752521515E8
28-8-2017 4:00,4.44753335628E9,2.610969288658018E8
28-8-2017 5:00,4.49968078847E9,1.961813742632656E8
28-8-2017 6:00,4.48510732968E9,3.9768226807252884E7
28-8-2017 7:00,4.48532753063E9,-9.860943331699848E7
28-8-2017 8:00,4.45201601873E9,-1.1170957990479565E8
28-8-2017 9:00,4.4452544512E9,4356745.996425629
28-8-2017 10:00,4.40514991447E9,-1.7207224766788483E7
28-8-2017 11:00,3.5953870985E9,-8.422262345880518E8
28-8-2017 12:00,4.46545526788E9,-4.1114667037091255E7
28-8-2017 13:00,4.47474739882E9,-1.797040277822709E8
28-8-2017 14:00,4.48447818413E9,-1.1211113224164295E8
28-8-2017 15:00,4.4136888184E9,-2.5201863702837706E8
28-8-2017 16:00,4.6666700117E9,-3.671559326807022E7
28-8-2017 17:00,4.68203864067E9,-2.625941475674057E7
28-8-2017 18:00,4.65203014315E9,-4.954739714394474E7
28-8-2017 19:00,4.59590511273E9,-1.951180444692135E7
28-8-2017 20:00,4.538602182E9,-8.532149960116386E7
28-8-2017 21:00,4.5109040469E9,3.1666292550488186E8
28-8-2017 22:00,4.48618911055E9,3.1164567539549446E8
28-8-2017 23:00,4.47892073127E9,7916240.818703651
29-8-2017 0:00,4.4780451704E9,1.921977906910963E8
29-8-2017 1:00,4.47521401517E9,2.9992282212454414E8
29-8-2017 2:00,4.48174489605E9,3.155255040308256E8
29-8-2017 3:00,4.4785607202E9,3.13057640642993E8
29-8-2017 4:00,4.47110709257E9,3.217179484237652E8
29-8-2017 5:00,4.46930354187E9,2.0054576126179028E8
29-8-2017 6:00,4.46951675218E9,5.612782685687065E7
29-8-2017 7:00,4.45856262827E9,-9.603843380006695E7
29-8-2017 8:00,4.46419173382E9,-6.2867769104185104E7
29-8-2017 9:00,3.19791737515E9,-1.1956003764829912E9
29-8-2017 10:00,4.2395465592E9,-1.3042155463300848E8
29-8-2017 11:00,4.31202587992E9,-6.5601162956952095E7
29-8-2017 12:00,4.46034171223E9,1.9817713766903877E7
29-8-2017 13:00,4.49109295103E9,-9.837367396102762E7
29-8-2017 14:00,4.50018934787E9,-2.646893026829624E7
29-8-2017 15:00,4.47961978195E9,-1.1713295796834087E8
29-8-2017 16:00,4.44932467368E9,-1.8395242293056345E8
29-8-2017 17:00,4.45161406458E9,-1.9094076021639442E8
29-8-2017 18:00,4.44833726468E9,-1.9795951152193832E8
29-8-2017 19:00,4.42228189865E9,-1.4359454543591976E8
29-8-2017 20:00,4.44223455237E9,-1.4525621122724771E8
29-8-2017 21:00,4.45028586838E9,2.827444522446747E8
29-8-2017 22:00,4.45655984817E9,3.0362053757108974E8
29-8-2017 23:00,4.44797725357E9,-2.730127054445553E7
30-8-2017 0:00,4.44640613713E9,1.5110777240239716E8
30-8-2017 1:00,4.4458084489E9,2.2937963223314762E8
30-8-2017 2:00,4.44813279227E9,1.9785900115126514E8
30-8-2017 3:00,4.44867106127E9,1.592170294122429E8
30-8-2017 4:00,4.44371828737E9,1.2746616166027069E8
30-8-2017 5:00,4.44338798592E9,-8.536062972986317E7
30-8-2017 6:00,4.44406781272E9,-3.1991921395664597E8
30-8-2017 7:00,4.44207027543E9,-5.514546940985255E8
30-8-2017 8:00,4.4398735087E9,-6.054588316108866E8
30-8-2017 9:00,4.43794412882E9,-5.746460341485415E8
30-8-2017 10:00,4.44053061632E9,-6.657163062514553E8
30-8-2017 11:00,4.50795929603E9,-7.14904759025198E8
30-8-2017 12:00,4.75295034025E9,-6.050059738893461E8
30-8-2017 13:00,4.61941243905E9,-9.753446207266016E8
30-8-2017 14:00,4.6118714299E9,-1.012273177653306E9
30-8-2017 15:00,5.68419942402E9,-1.0837033062303925E8
30-8-2017 16:00,7.15098423293E9,1.2275263888632984E9
30-8-2017 17:00,7.3756661077E9,1.3769524181939917E9
30-8-2017 18:00,6.89436972375E9,8.066563069048605E8
30-8-2017 19:00,6.51572718252E9,4.168109914672556E8
30-8-2017 20:00,6.23065082542E9,1.5381872015180588E7
30-8-2017 21:00,6.91208541522E9,1.0690715696649714E9
30-8-2017 22:00,6.5483518771E9,6.638103979462337E8
30-8-2017 23:00,6.2877789935E9,2.288429765122223E7
31-8-2017 0:00,6.12757929988E9,-1.3329164969462395E7
31-8-2017 1:00,6.33924310347E9,2.722346184107065E8
31-8-2017 2:00,6.5012480956E9,3.841949309427757E8
31-8-2017 3:00,6.4217223442E9,2.5230945593467903E8
31-8-2017 4:00,6.3516005717E9,1.391934876646881E8
31-8-2017 5:00,6.27417022463E9,-1.0112727302000332E8
31-8-2017 6:00,6.21875298307E9,-3.3965626211504936E8
31-8-2017 7:00,6.24284052142E9,-4.906966774139185E8
31-8-2017 8:00,6.32035125932E9,-4.016064449165726E8
31-8-2017 9:00,6.19265043112E9,-3.9987585243741894E8
31-8-2017 10:00,6.15900861775E9,-4.468930149380846E8
31-8-2017 11:00,6.16973030737E9,-4.642588533664837E8
31-8-2017 12:00,7.32015274668E9,6.763638312365093E8
31-8-2017 13:00,7.18221956435E9,4.181329097399206E8
31-8-2017 14:00,7.38227912702E9,7.009701555837755E8
31-8-2017 15:00,7.86648530942E9,1.1227816311643448E9
31-8-2017 16:00,7.55772686337E9,7.931298196975346E8
31-8-2017 17:00,6.98604497572E9,2.771131682736063E8
31-8-2017 18:00,6.86721859582E9,1.8092848401973534E8
31-8-2017 19:00,6.5258756505E9,-6.634269183158016E7
31-8-2017 20:00,6.14982309195E9,-4.565888055744896E8
31-8-2017 21:00,6.02405164378E9,-7.7623521624897E7
31-8-2017 22:00,5.97602336767E9,-4.313478334772682E7
31-8-2017 23:00,5.93883736753E9,-3.3851361624114513E8
1-9-2017 0:00,5.93533512363E9,-9.384917040830612E7
1-9-2017 1:00,5.91365057198E9,7.217163891035748E7
1-9-2017 2:00,5.89535641603E9,1.0640804766545391E8
1-9-2017 3:00,5.88813522255E9,1.5242259715735912E8
1-9-2017 4:00,5.86704136878E9,1.909161835141573E8
1-9-2017 5:00,5.71906108082E9,-8.242366555791283E7
1-9-2017 6:00,5.59427704147E9,-3.5026801277403927E8
1-9-2017 7:00,5.59821619202E9,-4.7912103529473877E8
1-9-2017 8:00,5.62508070912E9,-3.8936436684253025E8
1-9-2017 9:00,5.74187285167E9,-1.4398193242916775E8
1-9-2017 10:00,5.56134476463E9,-3.5513434202603626E8
1-9-2017 11:00,5.77135531342E9,-1.8221210074754333E8
1-9-2017 12:00,6.29182999212E9,3.5622494372413635E8
1-9-2017 13:00,5.95380229458E9,-1.1789568000086308E8
1-9-2017 14:00,5.9163576456E9,-9.269560834552956E7
1-9-2017 15:00,5.89032849412E9,-2.073872198637352E8
1-9-2017 16:00,5.97081194495E9,-1.7010060393277073E8
1-9-2017 17:00,5.95969179645E9,-1.4785672532722855E8
1-9-2017 18:00,5.8914329941E9,-2.3505469983174038E8
1-9-2017 19:00,6.20993096363E9,1.2956729205732536E8
1-9-2017 20:00,6.0480116053E9,-9.76087050923233E7
1-9-2017 21:00,5.9764095932E9,3.0055250548256683E8
1-9-2017 22:00,5.92917473965E9,2.9242418059114265E8
1-9-2017 23:00,5.86975718062E9,-7.048096096518612E7
2-9-2017 0:00,5.83082355375E9,9.54774269166727E7
2-9-2017 1:00,5.8345425032E9,2.474234092484331E8
2-9-2017 2:00,5.85525537448E9,2.699583802711563E8
2-9-2017 3:00,5.91636813145E9,3.366186375276642E8
2-9-2017 4:00,5.91145730053E9,3.405931733658514E8
2-9-2017 5:00,5.89827670013E9,1.833426983303089E8
2-9-2017 6:00,5.87778402985E9,3599993.8270015717
2-9-2017 7:00,5.83603148115E9,-1.8485011339162922E8
2-9-2017 8:00,5.83818805242E9,-1.2472990004065228E8
2-9-2017 9:00,5.84088988333E9,5.031460121770668E7
2-9-2017 10:00,5.8433295701E9,4.947449930542183E7
2-9-2017 11:00,5.92097138007E9,1.2562072960159302E8
2-9-2017 12:00,5.94191668563E9,2.3688402871274948E8
2-9-2017 13:00,5.94023546883E9,1.5687236781880093E8
2-9-2017 14:00,5.95219972095E9,2.8490604714507675E8
2-9-2017 15:00,6.05034293927E9,3.4167672131755924E8
2-9-2017 16:00,6.01233205933E9,3.117232061057596E8
2-9-2017 17:00,5.98549200898E9,3.740849114486313E8
2-9-2017 18:00,5.84604363435E9,2.522554345713358E8
2-9-2017 19:00,5.7180457096E9,2.0057272277864456E8
2-9-2017 20:00,5.96455369387E9,4.088999223101139E8
2-9-2017 21:00,3.63358846977E9,-1.3977064119138594E9
2-9-2017 22:00,0.0,-4.946029662108042E9
2-9-2017 23:00,5.55208758615E9,3.468447683885565E8
3-9-2017 0:00,5.23077069475E9,2.767143934052725E8
3-9-2017 1:00,5.44281373353E9,6.856252741818018E8
3-9-2017 2:00,5.38005995518E9,6.621042678138304E8
3-9-2017 3:00,5.14730404522E9,4.7532675265661335E8
3-9-2017 4:00,5.00002805085E9,3.7435318887786484E8
3-9-2017 5:00,5.57410418688E9,7.915829018468819E8
3-9-2017 6:00,5.56833177603E9,6.1630449551443E8
3-9-2017 7:00,5.26217729368E9,1.5548083429590607E8
3-9-2017 8:00,5.10278150828E9,5.5053946803684235E7
3-9-2017 9:00,5.13355896145E9,2.0290254280414486E8
3-9-2017 10:00,4.99388863832E9,-1.1726941136449814E7
3-9-2017 11:00,4.95693157715E9,-1.136107601454916E8
3-9-2017 12:00,4.77793790635E9,-2.2895471561775398E8
3-9-2017 13:00,4.68182368252E9,-4.3506125819009304E8
3-9-2017 14:00,4.63556400467E9,-4.012511590023174E8
3-9-2017 15:00,4.63588731563E9,-4.844348330385914E8
3-9-2017 16:00,4.64966909952E9,-5.007658415325947E8
3-9-2017 17:00,4.66247396008E9,-4.0605967062577534E8
3-9-2017 18:00,4.81810885293E9,-2.593859840492382E8
3-9-2017 19:00,4.91444677297E9,-1.1967983438707161E8
3-9-2017 20:00,4.86665966933E9,-2.4171004261786556E8
3-9-2017 21:00,4.81072513025E9,2.0221425528735924E8
3-9-2017 22:00,4.8134252134E9,2.5724252883848286E8
3-9-2017 23:00,4.82477255338E9,-2.5444580053926468E7
4-9-2017 0:00,4.830326511E9,1.9849467555570793E8
4-9-2017 1:00,4.83302309882E9,3.5291066486017036E8
4-9-2017 2:00,4.84447529633E9,3.4721705696466255E8
4-9-2017 3:00,4.84083499005E9,3.3619679037688637E8
4-9-2017 4:00,4.8286400511E9,3.139320962243633E8
4-9-2017 5:00,4.83635931825E9,1.1431986377220249E8
4-9-2017 6:00,4.8380527684E9,-1.0145717093513107E8
4-9-2017 7:00,4.83336563362E9,-3.0649363304928875E8
4-9-2017 8:00,4.84330613425E9,-2.742875068004465E8
4-9-2017 9:00,4.86270828543E9,-1.6330053490971184E8
4-9-2017 10:00,4.91975606275E9,-2.2310608513044643E8
4-9-2017 11:00,4.94502849198E9,-2.9640638650653076E8
4-9-2017 12:00,4.9704651981E9,-2.0420303788403988E8
4-9-2017 13:00,5.07167171468E9,-2.4934059827585506E8
4-9-2017 14:00,5.18217910045E9,-9.945296921766472E7
4-9-2017 15:00,5.23936581402E9,-1.7259756507377625E8
4-9-2017 16:00,5.46349165223E9,-2.144434062898159E7
4-9-2017 17:00,5.49425133795E9,6.2249445998960495E7
4-9-2017 18:00,5.49052598045E9,1316014.106505394
4-9-2017 19:00,5.4440565874E9,-5.639792252303505E7
4-9-2017 20:00,5.38312849635E9,-2.49297227882658E8
4-9-2017 21:00,5.36559980088E9,2.0751045908881855E8
4-9-2017 22:00,5.34537684765E9,2.0565699421957302E8
4-9-2017 23:00,5.333843968E9,-1.3575330038751888E8
5-9-2017 0:00,5.32818457028E9,4.3149708589362144E7
5-9-2017 1:00,5.4929508124E9,2.944419531092386E8
5-9-2017 2:00,5.58065108758E9,2.8857288692367554E8
5-9-2017 3:00,5.64581717332E9,2.7295569867281723E8
5-9-2017 4:00,5.5799534933E9,1.2060036614232159E8
5-9-2017 5:00,5.55913052158E9,-2.0723523451823616E8
5-9-2017 6:00,5.54833018878E9,-5.326665943476715E8
5-9-2017 7:00,5.52223812267E9,-8.539891021317673E8
5-9-2017 8:00,5.52746207008E9,-9.124037672661695E8
5-9-2017 9:00,5.00954795577E9,-1.399258429130951E9
5-9-2017 10:00,4.9336861036E9,-1.668910726195716E9
5-9-2017 11:00,5.59692964743E9,-1.1729288363627357E9
5-9-2017 12:00,6.0837626584E9,-6.51255206339386E8
5-9-2017 13:00,8.10103384745E9,1.2097227790761003E9
5-9-2017 14:00,8.8729701581E9,2.0067524308314838E9
5-9-2017 15:00,9.45106452477E9,2.434093795212309E9
5-9-2017 16:00,9.2924162867E9,2.1860177590132504E9
5-9-2017 17:00,9.03924940803E9,2.007380032750597E9
5-9-2017 18:00,8.51973053552E9,1.4329684786674347E9
5-9-2017 19:00,6.61137362487E9,-4.9068044369185543E8
5-9-2017 20:00,7.10764746067E9,-1.3354062684835148E8
5-9-2017 21:00,6.60944235182E9,-8.926409039076519E7
5-9-2017 22:00,6.7584972845E9,1.3787209409881687E8
5-9-2017 23:00,6.6389884564E9,-2.5368664955376625E8
6-9-2017 0:00,6.25722698413E9,-3.915957785034733E8
6-9-2017 1:00,6.11188969012E9,-2.8355206931541157E8
6-9-2017 2:00,6.04873235568E9,-2.8349970925718975E8
6-9-2017 3:00,6.0479647108E9,-2.0261806536988544E8
6-9-2017 4:00,5.97694990088E9,-2.0346466628604698E8
6-9-2017 5:00,5.92394190852E9,-3.909845150022335E8
6-9-2017 6:00,5.98797363888E9,-4.6859245790252495E8
6-9-2017 7:00,5.9308900351E9,-6.478982026435022E8
6-9-2017 8:00,6.3036197729E9,-1.5804481351660252E8
6-9-2017 9:00,6.99750445508E9,6.680334466057673E8
6-9-2017 10:00,6.73161470853E9,2.9397599608184147E8
6-9-2017 11:00,6.250606683E9,-2.6551823578967857E8
6-9-2017 12:00,6.65978579622E9,3.17352800825264E8
6-9-2017 13:00,7.0202069993E9,5.750508363151369E8
6-9-2017 14:00,6.57487589837E9,2.0290804657756138E8
6-9-2017 15:00,5.99729984855E9,-4.8180310793056107E8
6-9-2017 16:00,5.82474501687E9,-7.01854210332469E8
6-9-2017 17:00,6.06766366722E9,-3.52698978622942E8
6-9-2017 18:00,6.12971460838E9,-3.302255023303671E8
6-9-2017 19:00,6.19886382642E9,-2.746831105048313E8
6-9-2017 20:00,6.12489989687E9,-4.8551656416655254E8
6-9-2017 21:00,6.14776031002E9,6.070050382169056E7
6-9-2017 22:00,6.07590663968E9,3.3279378164019585E7
6-9-2017 23:00,6.04399352038E9,-2.968659567039461E8
7-9-2017 0:00,5.99540949905E9,-1.2922057356672478E8
7-9-2017 1:00,6.0238579484E9,4.9627058958045006E7
7-9-2017 2:00,6.02989745492E9,5818475.0185709
7-9-2017 3:00,6.150565251E9,1.0073130180255413E8
7-9-2017 4:00,6.29429880598E9,2.0144832240938282E8
7-9-2017 5:00,6.44444906382E9,8.10793379115324E7
7-9-2017 6:00,6.63378548058E9,-6740723.385650635
7-9-2017 7:00,6.69450676913E9,-2.0374777290689754E8
7-9-2017 8:00,6.50191248497E9,-4.069706396920805E8
7-9-2017 9:00,6.24481621338E9,-6.326543423166828E8
7-9-2017 10:00,7.30156382433E9,1.9962900875498772E8
7-9-2017 11:00,7.39527302252E9,1.0170815143371964E8
7-9-2017 12:00,7.39473999647E9,2.117990562950077E8
7-9-2017 13:00,7.33693578815E9,-1.3956697979253769E7
7-9-2017 14:00,7.3080285867E9,-4.0379032558309555E7
7-9-2017 15:00,7.28379337383E9,-2.4692986692390442E8
7-9-2017 16:00,7.63182303007E9,-2.3260924332434654E7
7-9-2017 17:00,8.32077095818E9,7.413238858229027E8
7-9-2017 18:00,7.65784082205E9,-8175626.735151291
7-9-2017 19:00,7.63621248568E9,-1.0402773950496483E8
7-9-2017 20:00,7.64350445792E9,-2.936429322120886E8
7-9-2017 21:00,7.49766646897E9,8.782329065812969E7
7-9-2017 22:00,7.58170109723E9,2.0571850957841206E8
7-9-2017 23:00,7.87707330558E9,1.9975295545026398E8
8-9-2017 0:00,7.75014318088E9,2.8450604946961784E8
8-9-2017 1:00,7.64437827123E9,3.6828280429450226E8
8-9-2017 2:00,7.66076372762E9,3.6388668659073925E8
8-9-2017 3:00,7.93436633322E9,6.464543661548128E8
8-9-2017 4:00,7.88872269367E9,5.867352657421293E8
8-9-2017 5:00,7.84600632878E9,3.255695829799881E8
8-9-2017 6:00,7.773261369E9,2.8228650793283463E7
8-9-2017 7:00,7.69281083163E9,-2.5737839822072792E8
8-9-2017 8:00,7.71086090243E9,-1.8963112046048927E8
8-9-2017 9:00,7.7067146581E9,-3.845441981585312E7
8-9-2017 10:00,7.65405866663E9,-2.071797131458683E8
8-9-2017 11:00,7.6436835897E9,-2.976371808341627E8
8-9-2017 12:00,7.60503919497E9,-6.4034123213807106E7
8-9-2017 13:00,7.72923282765E9,1.5972053599750614E8
8-9-2017 14:00,7.72288166113E9,4.178917428766794E8
8-9-2017 15:00,7.66334438967E9,4.335992839633217E8
8-9-2017 16:00,8.62983873422E9,1.531609422787879E9
8-9-2017 17:00,8.60155776568E9,1.8229944781963959E9
8-9-2017 18:00,8.10648280178E9,1.4689870675250797E9
8-9-2017 19:00,7.7152955051E9,1.2175878854772863E9
8-9-2017 20:00,8.15321142615E9,1.6731878419621296E9
8-9-2017 21:00,7.80042968182E9,1.9913901941296606E9
8-9-2017 22:00,7.90263525832E9,2.25661673496323E9
8-9-2017 23:00,8.3487956082E9,2.538066103150237E9
9-9-2017 0:00,1.81749386808E9,-3.6463662763029404E9
9-9-2017 1:00,0.0,-5.1491670334521885E9
9-9-2017 2:00,0.0,-5.0548731260244875E9
9-9-2017 3:00,0.0,-4.925179043644574E9
9-9-2017 4:00,0.0,-4.824304465841016E9
9-9-2017 5:00,0.0,-4.927407358637197E9
9-9-2017 6:00,4.17596527962E9,-8.602010451631665E8
9-9-2017 7:00,1.13358026979E10,6.210328188510308E9
9-9-2017 8:00,1.026693383975E10,5.314758827516219E9
9-9-2017 9:00,8.21968095005E9,3.3872106955615454E9
9-9-2017 10:00,6.17089743068E9,1.1712242691112976E9
9-9-2017 11:00,5.65110956938E9,5.2337311856742954E8
9-9-2017 12:00,5.64593950723E9,7.925454669682999E8
9-9-2017 13:00,5.35999720115E9,3.846055836839247E8
9-9-2017 14:00,5.07025526325E9,1.3235234949006462E8
9-9-2017 15:00,5.01183356012E9,-8.233528327231884E7
9-9-2017 16:00,4.78030652302E9,-4.1554119439593697E8
9-9-2017 17:00,4.5797736448E9,-4.135160197085781E8
9-9-2017 18:00,4.48851767753E9,-4.972046170374923E8
9-9-2017 19:00,4.40643966295E9,-5.86619738897604E8
9-9-2017 20:00,4.34048131982E9,-7.814399591551285E8
9-9-2017 21:00,2.52343018383E9,-1.9234563604519792E9
9-9-2017 22:00,3.51108100558E9,-7.832534471768136E8
9-9-2017 23:00,4.2962066546E9,-1.658412455463438E8
10-9-2017 0:00,4.28179019085E9,1.6216854683625317E8
10-9-2017 1:00,4.28077511105E9,4.157495244629059E8
10-9-2017 2:00,4.28010664398E9,4.39201946382102E8
10-9-2017 3:00,4.27382101338E9,4.9809090661789036E8
10-9-2017 4:00,4.26413333612E9,5.18979345867723E8
10-9-2017 5:00,4.25077709932E9,2.9080271997386456E8
10-9-2017 6:00,4.2463323022E9,6.637204159498882E7
10-9-2017 7:00,4.25035475628E9,-1.3012928326768446E8
10-9-2017 8:00,4.26340952743E9,-4.723664613973951E7
10-9-2017 9:00,4.27434238868E9,4.266305079420471E7
10-9-2017 10:00,4.2774735531E9,-1.7766203191834784E8
10-9-2017 11:00,4.28808164698E9,-3.482178605998626E8
10-9-2017 12:00,4.35217731127E9,-1.280456239054346E7
10-9-2017 13:00,4.29878149122E9,-1.4994209602524376E8
10-9-2017 14:00,4.25896909938E9,-1.1948498649677658E8
10-9-2017 15:00,4.26262018278E9,-2.4379610755282116E8
10-9-2017 16:00,4.26387556127E9,-3.1759980402925205E8
10-9-2017 17:00,4.26269300058E9,-1.434893258325405E8
10-9-2017 18:00,4.26458771912E9,-1.776844636185403E8
10-9-2017 19:00,4.26395711717E9,-2.4293443774045706E8
10-9-2017 20:00,4.26872085617E9,-4.237355314098401E8
10-9-2017 21:00,4.27090393315E9,1.7615847091141033E8
10-9-2017 22:00,4.26684943933E9,2.3281274826065493E8
10-9-2017 23:00,4.25493208172E9,-3.1194969982930183E7
11-9-2017 0:00,4.25004600885E9,2.2052766119792557E8
11-9-2017 1:00,4.2502746567E9,4.5106335103692055E8
11-9-2017 2:00,4.24590559007E9,4.3645019302405643E8
11-9-2017 3:00,4.23694026512E9,4.639480054321594E8
11-9-2017 4:00,4.23953694697E9,4.626303805647106E8
11-9-2017 5:00,4.24521090843E9,2.442136578785467E8
11-9-2017 6:00,4.24663959322E9,1.6876747542137623E7
11-9-2017 7:00,4.25345242447E9,-1.856025932413149E8
11-9-2017 8:00,4.26226046293E9,-1.0797111873596239E8
11-9-2017 9:00,4.2710233543E9,-2.8398186683409214E7
11-9-2017 10:00,4.275744859E9,-2.708051421082783E8
11-9-2017 11:00,4.27442394453E9,-4.7380948539745E8
11-9-2017 12:00,4.36439613442E9,-8.296331115969515E7
11-9-2017 13:00,4.3509830997E9,-1.8610756742943716E8
11-9-2017 14:00,4.32679303392E9,-1.5149270576335716E8
11-9-2017 15:00,4.28029888288E9,-3.418907076677809E8
11-9-2017 16:00,4.27640458812E9,-4.3846967186752367E8
11-9-2017 17:00,4.2758730183E9,-2.6185118779405499E8
11-9-2017 18:00,4.2759793323E9,-3.123699273597398E8
11-9-2017 19:00,4.2641333362E9,-4.169957635000372E8
11-9-2017 20:00,4.27424626917E9,-6.200288217178516E8
11-9-2017 21:00,5.01738518753E9,7.172319426242943E8
11-9-2017 22:00,4.91383102578E9,6.562774748198957E8
11-9-2017 23:00,4.69262954953E9,1.7234296782453537E8
12-9-2017 0:00,4.57584439748E9,3.000832108759279E8
12-9-2017 1:00,4.51322110857E9,4.547309738467903E8
12-9-2017 2:00,4.47786516493E9,3.860189837813902E8
12-9-2017 3:00,4.45301973912E9,3.801782671813326E8
12-9-2017 4:00,4.42626357465E9,3.2627059297714424E8
12-9-2017 5:00,4.39843844562E9,5.961149237815666E7
12-9-2017 6:00,4.35313996232E9,-2.2870529228630257E8
12-9-2017 7:00,4.48673582648E9,-3.186425820185375E8
12-9-2017 8:00,4.96270777457E9,2.1966578341621685E8
12-9-2017 9:00,4.73622264037E9,7.142790148864174E7
12-9-2017 10:00,4.44682440247E9,-4.731766378254957E8
12-9-2017 11:00,4.6678933505E9,-4.5871625316927814E8
12-9-2017 12:00,4.6758989369E9,-1.0468596029004192E8
12-9-2017 13:00,5.56452631893E9,7.233502279634371E8
12-9-2017 14:00,4.95259338522E9,1.938871835153923E8
12-9-2017 15:00,4.66614572373E9,-2.172764395091467E8
12-9-2017 16:00,5.16685532732E9,2.0825224489292622E8
12-9-2017 17:00,4.71472828875E9,-2.1287076283911705E7
12-9-2017 18:00,4.91467425557E9,1.570792882236576E8
12-9-2017 19:00,4.60680942935E9,-2.2814538044997597E8
12-9-2017 20:00,4.4958671758E9,-5.3623431825118065E8
12-9-2017 21:00,4.43430120107E9,5.2581166341020584E7
12-9-2017 22:00,4.40351967002E9,1.0613931957050133E8
12-9-2017 23:00,4.35984211057E9,-1.5106487317911625E8
13-9-2017 0:00,4.34767425993E9,1.2872721007893753E8
13-9-2017 1:00,4.23269644508E9,2.8811913443949986E8
13-9-2017 2:00,4.22623605188E9,2.944116307554369E8
13-9-2017 3:00,4.2317061233E9,3.7079171249432564E8
13-9-2017 4:00,4.242009839E9,3.997353256170654E8
13-9-2017 5:00,4.24836828725E9,1.9212995715438366E8
13-9-2017 6:00,4.25243443195E9,-2.114228868102455E7
13-9-2017 7:00,4.26075604767E9,-2.1020673531337023E8
13-9-2017 8:00,4.26819511177E9,-1.0668159207838488E8
13-9-2017 9:00,4.27293409285E9,-2.5125506696012974E7
13-9-2017 10:00,4.273250122E9,-2.959178162254257E8
13-9-2017 11:00,4.27786385633E9,-5.1220478988056326E8
13-9-2017 12:00,4.29105115593E9,-1.1633298785287285E8
13-9-2017 13:00,4.34378287783E9,-1.2766855315504408E8
13-9-2017 14:00,4.31197170347E9,-8.563035593682575E7
13-9-2017 15:00,4.37227356158E9,-1.6312403869763136E8
13-9-2017 16:00,4.35738378237E9,-2.6856327998845816E8
13-9-2017 17:00,4.3265833188E9,-7.662016746782494E7
13-9-2017 18:00,4.29196574723E9,-1.5057840855540895E8
13-9-2017 19:00,4.26632952033E9,-2.8432074113722706E8
13-9-2017 20:00,4.271046656E9,-5.0649270839025164E8
13-9-2017 21:00,4.27331857067E9,1.3660963044279575E8
13-9-2017 22:00,4.27172094863E9,1.940033198265028E8
13-9-2017 23:00,4.27356469475E9,-3.407558515119696E7
14-9-2017 0:00,4.26738537818E9,2.3312680253954887E8
14-9-2017 1:00,4.26455276657E9,4.771005876992512E8
14-9-2017 2:00,4.265562021E9,4.5230963781596756E8
14-9-2017 3:00,4.26647369965E9,4.913745981232443E8
14-9-2017 4:00,4.26632952033E9,4.709998645363474E8
14-9-2017 5:00,4.26151917793E9,1.8908297094309425E8
14-9-2017 6:00,4.2604152604E9,-9.16923156301384E7
14-9-2017 7:00,4.2641566379E9,-3.472024986248894E8
14-9-2017 8:00,4.27059518582E9,-2.989407994619684E8
14-9-2017 9:00,4.2736011036E9,-2.8037454160516787E8
14-9-2017 10:00,4.27461909618E9,-6.261932012787066E8
14-9-2017 11:00,4.27465987407E9,-9.211715522940493E8
14-9-2017 12:00,4.27221028403E9,-5.641031202667556E8
14-9-2017 13:00,4.27539096463E9,-6.574316623861094E8
14-9-2017 14:00,4.43628621363E9,-4.6027340158316183E8
14-9-2017 15:00,4.40161038788E9,-6.747901896317658E8
14-9-2017 16:00,5.32083143113E9,1.0954677164827442E8
14-9-2017 17:00,5.54961469438E9,5.501240576732683E8
14-9-2017 18:00,5.98920979335E9,9.215120079074211E8
14-9-2017 19:00,6.26995494912E9,1.0522987357084618E9
14-9-2017 20:00,6.1030838363E9,6.176900422346601E8
14-9-2017 21:00,5.40951037715E9,5.618086636633778E8
14-9-2017 22:00,5.21156544285E9,4.039187606434698E8
14-9-2017 23:00,4.89889901228E9,-1.4865424611015415E8
15-9-2017 0:00,5.062782703E9,2.764450119454422E8
15-9-2017 1:00,4.8236534897E9,3.050633783430586E8
15-9-2017 2:00,4.6884964123E9,1.5405752816932774E8
15-9-2017 3:00,4.62806930765E9,1.475315018837633E8
15-9-2017 4:00,4.70217974672E9,2.110454723445177E8
15-9-2017 5:00,4.76610851268E9,4.775410135778904E7
15-9-2017 6:00,5.18268154318E9,2.3535193303382778E8
15-9-2017 7:00,4.928876635E9,-2.2654083308226871E8
15-9-2017 8:00,4.9446766365E9,-1.1015140753034973E8
15-9-2017 9:00,4.64416931842E9,-3.137880964106293E8
15-9-2017 10:00,4.61025953565E9,-6.276957790772471E8
15-9-2017 11:00,4.53353144323E9,-9.309943553917494E8
15-9-2017 12:00,4.87654832358E9,-1.0905886740380478E8
15-9-2017 13:00,5.55239633347E9,5.745175118760977E8
15-9-2017 14:00,5.13702916552E9,2.945065235802145E8
15-9-2017 15:00,4.71627493837E9,-2.114545596697483E8
15-9-2017 16:00,5.40180043093E9,4.315317586575985E8
15-9-2017 17:00,5.76539415887E9,1.0187913717218132E9
15-9-2017 18:00,5.30169783177E9,4.8084283233256435E8
15-9-2017 19:00,5.20280692053E9,2.1296258650132275E8
15-9-2017 20:00,4.90408218168E9,-3.715267950683956E8
15-9-2017 21:00,4.85970702795E9,1.6488814786106873E8
15-9-2017 22:00,4.90535794923E9,1.7789417994261932E8
15-9-2017 23:00,4.5620905757E9,-4.690273351918516E8
16-9-2017 0:00,4.7337351851E9,-1.0209693571632862E8
16-9-2017 1:00,5.3486580168E8,-4.082898497915615E9
16-9-2017 2:00,0.0,-4.694282582234611E9
16-9-2017 3:00,0.0,-4.695254648567829E9
16-9-2017 4:00,0.0,-4.766837972924243E9
16-9-2017 5:00,7.76709006227E9,2.7055092979666815E9
16-9-2017 6:00,1.116797665283E10,5.810707791243122E9
16-9-2017 7:00,1.128854541637E10,5.656943330726814E9
16-9-2017 8:00,1.019051740732E10,4.600861949858857E9
16-9-2017 9:00,8.30239029473E9,2.6933448184784374E9
16-9-2017 10:00,6.40673236763E9,3.8695680672568417E8
16-9-2017 11:00,5.83319333547E9,-5.42275001431036E8
16-9-2017 12:00,5.45237092127E9,-5.223491595354996E8
16-9-2017 13:00,5.4402351103E9,-6.431642475558815E8
16-9-2017 14:00,5.06639737742E9,-1.0031978714801369E9
16-9-2017 15:00,4.9676404509E9,-1.3131727864510021E9
16-9-2017 16:00,5.08380752553E9,-1.3678452168658905E9
16-9-2017 17:00,6.48100708347E9,3.225907069420881E8
16-9-2017 18:00,6.87247196163E9,6.914569276539774E8
16-9-2017 19:00,6.47020908092E9,1.5887242412499714E8
16-9-2017 20:00,6.28643157333E9,-2.709981698560972E8
16-9-2017 21:00,3.54297227943E9,-2.3049308673151054E9
16-9-2017 22:00,2.75172848073E9,-3.015880991991313E9
16-9-2017 23:00,6.09786702507E9,1.4849432902414608E8
17-9-2017 0:00,6.11239854082E9,4.7802034129037476E8
17-9-2017 1:00,6.19800603302E9,8.292487046420422E8
17-9-2017 2:00,6.29113560173E9,8.824232892556343E8
17-9-2017 3:00,6.45297311287E9,1.0856483977726116E9
17-9-2017 4:00,6.62525269333E9,1.2225906065368853E9
17-9-2017 5:00,6.67272260283E9,9.980697303203926E8
17-9-2017 6:00,6.55838995358E9,6.11610745422163E8
17-9-2017 7:00,6.440681472E9,2.435983337605667E8
17-9-2017 8:00,6.27236609143E9,1.488614455976677E8
17-9-2017 9:00,6.07078318077E9,-1.5278614350633621E7
17-9-2017 10:00,6.05308554807E9,-4.01344998967268E8
17-9-2017 11:00,6.13861002807E9,-6.27542069573947E8
17-9-2017 12:00,6.1123825209E9,-1.5809815469856167E8
17-9-2017 13:00,6.29370752572E9,-1.2073778540613174E7
17-9-2017 14:00,6.17480774543E9,-4.8935225744626045E7
17-9-2017 15:00,6.09905395483E9,-2.721318423177757E8
17-9-2017 16:00,5.99643622967E9,-4.841031085062847E8
17-9-2017 17:00,6.00163250632E9,-1.842303191576109E8
17-9-2017 18:00,5.9858689138E9,-2.390693481976509E8
17-9-2017 19:00,5.9484871794E9,-4.36235327557436E8
17-9-2017 20:00,5.88889165373E9,-7.703827172029734E8
17-9-2017 21:00,5.8474962033E9,-1.1208915703179169E8
17-9-2017 22:00,5.84670248962E9,-5.822471908709526E7
17-9-2017 23:00,5.87523832035E9,-2.2813527902304173E8
18-9-2017 0:00,5.91646628985E9,1.0922180781255627E8
18-9-2017 1:00,5.98874230328E9,5.0407814143473434E8
18-9-2017 2:00,6.07654306708E9,5.978936187904787E8
18-9-2017 3:00,6.20011774867E9,8.146219605772152E8
18-9-2017 4:00,6.26940240782E9,8.942215998017368E8
18-9-2017 5:00,6.41661665273E9,8.288902947382584E8
18-9-2017 6:00,6.52263642448E9,7.23038722555789E8
18-9-2017 7:00,6.5301264611E9,5.409473531493387E8
18-9-2017 8:00,6.34501784468E9,4.9774232344192696E8
18-9-2017 9:00,6.08853178595E9,3.2685793927535725E8
18-9-2017 10:00,5.8730712633E9,-2.2328404820554256E8
18-9-2017 11:00,6.0118401024E9,-3.609395799725666E8
18-9-2017 12:00,5.89114900483E9,1.0028986480228233E8
18-9-2017 13:00,5.88569640962E9,9.84307703446703E7
18-9-2017 14:00,5.83412540302E9,1.626478019870119E8
18-9-2017 15:00,5.74977474558E9,-3.985503792231369E7
18-9-2017 16:00,5.4601551417E9,-4.118265919177933E8
18-9-2017 17:00,9.237808925E7,-5.438132266906683E9
18-9-2017 18:00,5.26577536573E9,-2.7493248808691216E8
18-9-2017 19:00,5.45822838332E9,-2.2637101918496895E8
18-9-2017 20:00,5.827547045E9,-1.1470768065241528E8
18-9-2017 21:00,5.48284661755E9,2.676527849428091E8
18-9-2017 22:00,5.63330271003E9,4.8434199240061283E8
18-9-2017 23:00,5.44017976887E9,1.13299978985466E8
19-9-2017 0:00,5.43743162592E9,4.250260599426384E8
19-9-2017 1:00,5.25895670898E9,5.416641092626858E8
19-9-2017 2:00,5.53166802483E9,7.819330333479357E8
19-9-2017 3:00,5.34291269407E9,6.536706226317863E8
19-9-2017 4:00,5.34368456245E9,6.259838229527454E8
19-9-2017 5:00,5.25005692013E9,2.527408156141348E8
19-9-2017 6:00,5.43604517553E9,1.6059766800928116E8
19-9-2017 7:00,5.53866581332E9,7845099.9538908005
19-9-2017 8:00,5.5434834375E9,9.637708127787876E7
19-9-2017 9:00,5.54103676018E9,1.38589501872674E8
19-9-2017 10:00,5.35605775927E9,-4.364852401792002E8
19-9-2017 11:00,5.53687449605E9,-5.858972579232798E8
19-9-2017 12:00,5.5386745515E9,-5029103.22567749
19-9-2017 13:00,5.2598072206E9,-2.9336737822606945E8
19-9-2017 14:00,5.32128581408E9,-1.3430961561459827E8
19-9-2017 15:00,5.76911223467E9,1.726966917426777E8
19-9-2017 16:00,5.47310651163E9,-2.3061902626753044E8
19-9-2017 17:00,5.48353838647E9,1.2781358360352707E8
19-9-2017 18:00,5.46961271467E9,9.230284581062126E7
19-9-2017 19:00,4.72376060593E9,-8.218155613947382E8
19-9-2017 20:00,5.1704190293E9,-6.561833663931227E8
19-9-2017 21:00,5.59380634738E9,5.1344924221138954E8
19-9-2017 22:00,5.61661141895E9,6.058720229361992E8
19-9-2017 23:00,5.15641034527E9,-1.991117376425171E7
20-9-2017 0:00,5.05504217308E9,2.0238798304799938E8
20-9-2017 1:00,4.72129936502E9,1.9495980251312637E8
20-9-2017 2:00,4.95359390147E9,4.148926097334919E8
20-9-2017 3:00,4.72326398868E9,2.71348874680418E8
20-9-2017 4:00,4.7326298111E9,2.7210726623103905E8
20-9-2017 5:00,4.6110852893E9,-1.061866751211443E8
20-9-2017 6:00,4.507631616E9,-4.630338536458988E8
20-9-2017 7:00,4.58179943543E9,-6.183124629300632E8
20-9-2017 8:00,5.0927078969E9,8054563.068593025
20-9-2017 9:00,5.5855386169E9,5.501008665298595E8
20-9-2017 10:00,5.493751808E9,5.696507041712189E7
20-9-2017 11:00,5.5832055353E9,-1.9252404068492794E8
20-9-2017 12:00,4.83358292188E9,-3.156230499316931E8
20-9-2017 13:00,5.04840992997E9,-1.04850250821661E8
20-9-2017 14:00,5.16319696212E9,1.0709678149289703E8
20-9-2017 15:00,5.5893193159E9,3.8626856902407646E8
20-9-2017 16:00,5.82974031642E9,5.12842085362525E8
20-9-2017 17:00,5.57842868898E9,6.268864954708309E8
20-9-2017 18:00,4.65896880352E9,-3.1726814413056755E8
20-9-2017 19:00,4.49477927822E9,-6.669205335106211E8
20-9-2017 20:00,4.59475371805E9,-8.635055501427855E8
20-9-2017 21:00,4.55908611408E9,-1.2373097667105103E8
20-9-2017 22:00,4.46133989827E9,-1.4066782583871078E8
20-9-2017 23:00,4.454658139E9,-2.9136386618433857E8
21-9-2017 0:00,4.4900635989E9,8.422592525725365E7
21-9-2017 1:00,4.52580256423E9,4.584368245033512E8
21-9-2017 2:00,4.50231446193E9,4.236233006347246E8
21-9-2017 3:00,4.42955348198E9,4.4489740124061966E8
21-9-2017 4:00,4.50885641098E9,5.164004720096903E8
21-9-2017 5:00,4.17210914135E9,-1.2043575066035175E8
21-9-2017 6:00,4.52889149442E9,-5.851448398929405E7
21-9-2017 7:00,4.48540908658E9,-3.717212822040224E8
21-9-2017 8:00,4.56498581045E9,-2.1114652521248913E8
21-9-2017 9:00,4.3368724707E9,-4.73668315394001E8
21-9-2017 10:00,4.41425155412E9,-8.970720973358784E8
21-9-2017 11:00,4.42210567963E9,-1.3250555261841702E9
21-9-2017 12:00,4.62573476973E9,-5.356279590635786E8
21-9-2017 13:00,4.64697717195E9,-6.006341295054941E8
21-9-2017 14:00,5.26914478988E9,3.0663220819781303E7
21-9-2017 15:00,6.515903984E9,1.0367302968724918E9
21-9-2017 16:00,5.73483108125E9,4.766055216776657E7
21-9-2017 17:00,4.53200518263E9,-8.643436015998325E8
21-9-2017 18:00,4.93970900758E9,-5.763338141528826E8
21-9-2017 19:00,5.4960557625E9,-3.1453682203574085E8
21-9-2017 20:00,7.04170746768E9,8.271318654802084E8
21-9-2017 21:00,6.01522234253E9,5.0306071038427925E8
21-9-2017 22:00,5.88197396473E9,3.595874131346216E8
21-9-2017 23:00,5.87124062442E9,1.2418169011429214E8
22-9-2017 0:00,5.8610490482E9,3.684655043956976E8
22-9-2017 1:00,5.91441719757E9,7.146394152751637E8
22-9-2017 2:00,5.9507503559E9,6.828599808999424E8
22-9-2017 3:00,6.01387171845E9,7.894418480272017E8
22-9-2017 4:00,5.99771927897E9,7.084737005300903E8
22-9-2017 5:00,5.87029253687E9,2.622989701516304E8
22-9-2017 6:00,5.95320285867E9,3.356112262794495E7
22-9-2017 7:00,5.89478406825E9,-3.1017952820212173E8
22-9-2017 8:00,5.9069941532E9,-2.2675144991248608E8
22-9-2017 9:00,5.66356140948E9,-4.719343570210495E8
22-9-2017 10:00,5.73856080782E9,-8.808694063849926E8
22-9-2017 11:00,6.2462580053E9,-7.896221834124556E8
22-9-2017 12:00,6.51669595017E9,1.421714071325636E8
22-9-2017 13:00,6.2098563983E9,-1.6949264845194244E8
22-9-2017 14:00,5.99170307407E9,-3.0292807542659473E8
22-9-2017 15:00,7.44599176987E9,9.805453831170044E8
22-9-2017 16:00,6.14071446185E9,-4.6325969200153637E8
22-9-2017 17:00,6.00203882953E9,-2.4500584569366932E8
22-9-2017 18:00,6.40763967712E9,8.654370750300312E7
22-9-2017 19:00,7.00087591822E9,4.167853135487118E8
22-9-2017 20:00,9.18850691985E9,2.2336517627841444E9
22-9-2017 21:00,6.28362808887E9,-3010355.037382126
22-9-2017 22:00,5.55622363595E9,-7.928430630069723E8
22-9-2017 23:00,5.40333397337E9,-1.2122322594399414E9
23-9-2017 0:00,5.77066470963E9,-6.373041232266579E8
23-9-2017 1:00,5.37173251415E9,-7.58996630713501E8
23-9-2017 2:00,5.57283628372E9,-6.526925260949936E8
23-9-2017 3:00,5.2761533554E9,-9.263894269260454E8
23-9-2017 4:00,5.4395098454E9,-8.547643958390198E8
23-9-2017 5:00,5.61807214363E9,-9.653438769751492E8
23-9-2017 6:00,5.18869192248E9,-1.6748941062228365E9
23-9-2017 7:00,5.76838551333E9,-1.3478546016674976E9
23-9-2017 8:00,5.66373034667E9,-1.3428065706190147E9
23-9-2017 9:00,7.77231386397E9,7.913225552000494E8
23-9-2017 10:00,1.770869373155E10,1.0255253877598715E10
23-9-2017 11:00,1.771135827963E10,9.855493515886757E9
23-9-2017 12:00,8.37090643513E9,1.246591970580882E9
23-9-2017 13:00,5.51459808142E9,-1.5791366235858583E9
23-9-2017 14:00,4.8995048562E9,-2.0799435923800802E9
23-9-2017 15:00,5.92264123733E9,-1.2037653733852367E9
23-9-2017 16:00,4.69244167962E9,-2.549043429027239E9
23-9-2017 17:00,4.29114581898E9,-2.4489784202027903E9
23-9-2017 18:00,4.37692516125E9,-2.3132839721552806E9
23-9-2017 19:00,6.73329243018E9,-1.1003255346988583E8
23-9-2017 20:00,1.124510145645E10,4.142554042736146E9
23-9-2017 21:00,4.7802919595E9,-1.3953064006171722E9
23-9-2017 22:00,3.12163478187E9,-2.8756655715628896E9
23-9-2017 23:00,6.05770802067E9,4.501057957531071E7
24-9-2017 0:00,5.50130592425E9,-5.774251010572243E7
24-9-2017 1:00,5.41728440325E9,2.4903447559913254E8
24-9-2017 2:00,5.10047901015E9,-6.013276247062969E7
24-9-2017 3:00,4.90618661548E9,-1.2278871451198769E8
24-9-2017 4:00,4.50104451985E9,-5.174531277228155E8
24-9-2017 5:00,5.51466216112E9,1.536093336270504E8
24-9-2017 6:00,6.2735370012E9,5.807727173690319E8
24-9-2017 7:00,6.43084233385E9,4.350721283734474E8
24-9-2017 8:00,5.17403370383E9,-7.565677090355558E8
24-9-2017 9:00,4.60700312462E9,-1.3680596151059122E9
24-9-2017 10:00,5.88344488383E9,-6.498832058416853E8
24-9-2017 11:00,6.17588399218E9,-8.431466498551884E8
24-9-2017 12:00,6.27807937417E9,-3.650902243900585E7
24-9-2017 13:00,6.5481692501E9,2.3101296828634644E8
24-9-2017 14:00,6.8066324571E9,5.647788828768826E8
24-9-2017 15:00,6.89175556548E9,4.5824899623729706E8
24-9-2017 16:00,6.65933869517E9,6.5650989156163216E7
24-9-2017 17:00,6.39335719815E9,2.6722340600139236E8
24-9-2017 18:00,6.3026655687E9,1.721749360639391E8
24-9-2017 19:00,8.0193068146E9,1.667340770093217E9
24-9-2017 20:00,7.16391346628E9,4.8602876760404587E8
24-9-2017 21:00,8.3528806855E9,2.571546517796177E9
24-9-2017 22:00,8.35201007615E9,2.700569313801573E9
24-9-2017 23:00,6.00065383538E9,2.9578756849817944E8
25-9-2017 0:00,4.58766112087E9,-7.066353955499296E8
25-9-2017 1:00,4.46222973152E9,-3.578348116856394E8
25-9-2017 2:00,4.31795732483E9,-4.221565955659275E8
25-9-2017 3:00,4.4003156878E9,-1.2963672702985191E8
25-9-2017 4:00,4.41490691415E9,-3.2484029130797386E7
25-9-2017 5:00,4.14673068938E9,-4.9421313469475937E8
25-9-2017 6:00,3.95531110178E9,-8.66469927192934E8
25-9-2017 7:00,4.07563286755E9,-8.970902187392712E8
25-9-2017 8:00,3.64249175385E9,-1.107181245245584E9
25-9-2017 9:00,4.51591245372E9,-1.6576770674493694E8
25-9-2017 10:00,4.34403337103E9,-7.992678432747216E8
25-9-2017 11:00,4.62093316555E9,-9.088871428193421E8
25-9-2017 12:00,4.56422850555E9,-1.0579651029067898E8
25-9-2017 13:00,4.76143215507E9,1.2513237070561886E8
25-9-2017 14:00,4.37927426278E9,-1.5126560140023708E8
25-9-2017 15:00,4.28419900302E9,-4.132479276353979E8
25-9-2017 16:00,4.62553088E9,-2.0775891481696415E8
25-9-2017 17:00,4.47963026772E9,8.280647033973789E7
25-9-2017 18:00,4.79998771198E9,3.472541670180111E8
25-9-2017 19:00,5.57616580375E9,8.363170114700909E8
25-9-2017 20:00,5.23861520837E9,1.0887126399464035E8
25-9-2017 21:00,4.24250296092E9,-7.370044278703308E7
25-9-2017 22:00,4.05659684407E9,-2.3072822096226168E8
25-9-2017 23:00,3.99169435875E9,-4.396950930389862E8
26-9-2017 0:00,4.1960254123E9,7.951598934409142E7
26-9-2017 1:00,3.76295769887E9,9432132.925422668
26-9-2017 2:00,4.04602661545E9,2.500825573822117E8
26-9-2017 3:00,4.04753831248E9,3.455992402033262E8
26-9-2017 4:00,3.69401382685E9,-4.796223622387886E7
26-9-2017 5:00,3.91164140667E9,-1.5940001352187824E8
26-9-2017 6:00,4.12399697915E9,-2.6152216995041943E8
26-9-2017 7:00,4.26542221083E9,-4.034907679069276E8
26-9-2017 8:00,4.05732502188E9,-5.151722117299671E8
26-9-2017 9:00,4.19983086933E9,-4.395877354253588E8
26-9-2017 10:00,4.27046702643E9,-9.812978709577198E8
26-9-2017 11:00,8.63569211847E9,2.8492220504179754E9
26-9-2017 12:00,5.13679716803E9,1.1810590471055984E8
26-9-2017 13:00,4.60184762602E9,-4.607506420748806E8
26-9-2017 14:00,4.29303908123E9,-7.472674070198131E8
26-9-2017 15:00,4.28396744248E9,-1.0124255366332364E9
26-9-2017 16:00,4.7076352546E9,-8.141878438579359E8
26-9-2017 17:00,4.31619950368E9,-7.794100079221034E8
26-9-2017 18:00,5.45255529583E9,2.70318635399559E8
26-9-2017 19:00,6.0741925092E9,5.600357537452049E8
26-9-2017 20:00,5.63411535647E9,-3.130780612657633E8
26-9-2017 21:00,5.53438849707E9,4.2804479401060295E8
26-9-2017 22:00,6.46831115835E9,1.4001484655762882E9
26-9-2017 23:00,6.22795482002E9,1.0354065965577698E9
27-9-2017 0:00,5.40921619343E9,5.455351170196829E8
27-9-2017 1:00,5.23745507563E9,7.349632364475241E8
27-9-2017 2:00,5.17524539158E9,6.179285109738388E8
27-9-2017 3:00,5.16165759425E9,6.926973906280088E8
27-9-2017 4:00,5.02695635628E9,5.0549388788513374E8
27-9-2017 5:00,4.68411132587E9,-1.679508827562132E8
27-9-2017 6:00,4.43827705178E9,-7.276563436625929E8
27-9-2017 7:00,4.54830908307E9,-8.993761036175404E8
27-9-2017 8:00,4.35870615322E9,-9.86738397317833E8
27-9-2017 9:00,4.34444988872E9,-1.0068101435108118E9
27-9-2017 10:00,4.51943392145E9,-1.4000843733935533E9
27-9-2017 11:00,5.46832384003E9,-9.387336437964649E8
27-9-2017 12:00,5.5510928953E9,2.0206482078476906E7
27-9-2017 13:00,5.82695285188E9,3.5261899384014225E8
27-9-2017 14:00,5.74163080538E9,3.8386825243013954E8
27-9-2017 15:00,5.74548432213E9,2.1942100124699116E8
27-9-2017 16:00,9.05150260108E9,3.3881801779376E9
27-9-2017 17:00,7.3228062265E9,2.1651396026234818E9
27-9-2017 18:00,4.6879517355E9,-4.9718571867094135E8
27-9-2017 19:00,5.32129600855E9,-1.532028828938856E8
27-9-2017 20:00,5.26884245047E9,-5.932945924221573E8
27-9-2017 21:00,5.59206600253E9,6.279460257158909E8
27-9-2017 22:00,5.32689569552E9,4.382644780698118E8
27-9-2017 23:00,4.00963229015E9,-9.541290459963002E8
28-9-2017 0:00,4.30190828648E9,-2.907884334371624E8
28-9-2017 1:00,4.06491263427E9,-1.0988740473676777E8
28-9-2017 2:00,4.11442581048E9,-6.91037557848835E7
28-9-2017 3:00,3.54592285582E9,-4.9639627880161476E8
28-9-2017 4:00,3.7614707599E9,-2.87315014030777E8
28-9-2017 5:00,3.69067877263E9,-6.635961035493107E8
28-9-2017 6:00,3.83631287183E9,-8.045816279773636E8
28-9-2017 7:00,4.0536797639E9,-8.406804496867275E8
28-9-2017 8:00,4.26737372728E9,-4.9227692006025505E8
28-9-2017 9:00,4.37739876802E9,-4.219520649068928E8
28-9-2017 10:00,4.69756979887E9,-7.209430096949339E8
28-9-2017 11:00,5.26324567608E9,-6.906320828313723E8
28-9-2017 12:00,4.58997832813E9,-4.7432783734899426E8
28-9-2017 13:00,6.5354741987E9,1.490784589576992E9
28-9-2017 14:00,6.4810458226E9,1.5098114850291328E9
28-9-2017 15:00,6.59626830503E9,1.4071233636734705E9
28-9-2017 16:00,6.58329800243E9,1.2076695422962828E9
28-9-2017 17:00,6.59533041208E9,1.7162509002506056E9
28-9-2017 18:00,5.30336798043E9,3.6742489346849155E8
28-9-2017 19:00,4.27335789228E9,-9.979361816650896E8
28-9-2017 20:00,4.25161741648E9,-1.450464505542708E9
28-9-2017 21:00,4.24273073498E9,-5.399224817543736E8
28-9-2017 22:00,4.52068565902E9,-1.849261828288927E8
28-9-2017 23:00,4.92115503783E9,1.53913355720726E8
29-9-2017 0:00,4.52363259453E9,1.3389786427041626E8
29-9-2017 1:00,4.24123651417E9,3.141668229533653E8
29-9-2017 2:00,4.07748972087E9,1.7584693101081848E8
29-9-2017 3:00,3.909636005E9,1.9011831589318848E8
29-9-2017 4:00,4.201492571E9,5.096050301291952E8
29-9-2017 5:00,3.87942536528E9,-8.804472303113937E7
29-9-2017 6:00,3.879288468E9,-3.4275376392548466E8
29-9-2017 7:00,4.02672553528E9,-4.1570035572241735E8
29-9-2017 8:00,4.29955481598E9,2.9103398557671547E7
29-9-2017 9:00,4.3343762773E9,4.18616485373745E7
29-9-2017 10:00,4.33664382297E9,-5.744148212823043E8
29-9-2017 11:00,4.71528316022E9,-7.274445225686092E8
29-9-2017 12:00,5.05468536603E9,5.664514726748686E8
29-9-2017 13:00,4.5336319318E9,9.392376748524761E7
29-9-2017 14:00,4.48559113103E9,1.4206737623960352E8
29-9-2017 15:00,4.2680989924E9,-2.771000305184989E8
29-9-2017 16:00,4.24903238542E9,-4.660293293563709E8
29-9-2017 17:00,4.30481517222E9,1.073116391881938E8
29-9-2017 18:00,4.26353477407E9,9891005.470187187
29-9-2017 19:00,4.25193635837E9,-3.5293152711323786E8
29-9-2017 20:00,4.25146449922E9,-7.972245111594124E8
29-9-2017 21:00,4.25260773827E9,1.1317827075076532E8
29-9-2017 22:00,4.1107557945E9,1.8340006543315887E7
29-9-2017 23:00,4.07918637507E9,-9.293928555582428E7
30-9-2017 0:00,4.17407667768E9,3.543199936799264E8
30-9-2017 1:00,3.7502306077E9,3.51083780870111E8
30-9-2017 2:00,4.08064273063E9,6.542556937678194E8
30-9-2017 3:00,3.71499699763E9,4.2482619062397385E8
30-9-2017 4:00,3.8495627947E9,5.342949333316746E8
30-9-2017 5:00,3.78802449073E9,1.688013590566635E8
30-9-2017 6:00,3.80072391103E9,-9.930316191684484E7
30-9-2017 7:00,3.95527818813E9,-1.903303625316124E8
30-9-2017 8:00,4.24369192962E9,2.4904288653182745E8
30-9-2017 9:00,4.24954356622E9,2.3251223713745785E8
30-9-2017 10:00,4.25273444125E9,-4.00179696201344E8
30-9-2017 11:00,4.25289900938E9,-9.459450078249998E8
30-9-2017 12:00,4.25419225317E9,5.680746837209225E7
30-9-2017 13:00,4.3272809131E9,2.0700786110722446E8
30-9-2017 14:00,4.35876440748E9,3.5708173406415415E8
30-9-2017 15:00,4.35877897105E9,1.7133319624397087E8
30-9-2017 16:00,4.35806244405E9,1.705144000438738E7
30-9-2017 17:00,4.38313506135E9,6.126465868330326E8
30-9-2017 18:00,4.35803331697E9,5.640830607929726E8
30-9-2017 19:00,4.36111350893E9,2.320204431640029E8
30-9-2017 20:00,4.29368715947E9,-2.6030587081642962E8
30-9-2017 21:00,1.96605378562E9,-1.6290146153559148E9
30-9-2017 22:00,3.11112440952E9,-4.071247079709816E8
30-9-2017 23:00,4.33188154025E9,7.756758169264288E8
