Time,Actual,STL processed
1-8-2017 0:00,1.18956512853E9,2.1896306640088713E8
1-8-2017 1:00,1.04859438855E9,-9.669933237732017E7
1-8-2017 2:00,1.01057412222E9,-2.2177858835150313E8
1-8-2017 3:00,1.05751258932E9,-1.7804358877493477E8
1-8-2017 4:00,1.0106199343E9,-3.19359972646014E8
1-8-2017 5:00,1.0903710444E9,-1.4221840672066832E8
1-8-2017 6:00,1.31446550878E9,2.3795979334489822E7
1-8-2017 7:00,1.26998221942E9,3.5636454852086306E7
1-8-2017 8:00,1.2375008259E9,-3.738749097674537E7
1-8-2017 9:00,1.30379552848E9,3.99652916825304E7
1-8-2017 10:00,1.39174406622E9,4.8092117640838385E7
1-8-2017 11:00,1.12303657765E9,-2.5264165552776265E8
1-8-2017 12:00,1.47332227663E9,6.5206040631415606E7
1-8-2017 13:00,1.67478522462E9,1.4316295623430824E8
1-8-2017 14:00,1.99593324418E9,4.0241759141153216E8
1-8-2017 15:00,2.00106649703E9,3.9782696196231127E8
1-8-2017 16:00,1.97582541363E9,2.5320762065549827E8
1-8-2017 17:00,2.07260752433E9,3.7760047993148875E8
1-8-2017 18:00,2.00500845873E9,2.938170169083464E8
1-8-2017 19:00,1.93301854138E9,2.355954452817397E8
1-8-2017 20:00,1.92158450395E9,1.7674699753338647E8
1-8-2017 21:00,1.90320179978E9,2.326860816964593E8
1-8-2017 22:00,1.82200229778E9,5.501365203630543E7
1-8-2017 23:00,1.91947586308E9,1.579046577135558E8
2-8-2017 0:00,1.8179587813E9,-1.1880567662565589E8
2-8-2017 1:00,1.87070698465E9,-1.856590042450583E8
2-8-2017 2:00,1.7475491415E9,-3.4511391715919256E8
2-8-2017 3:00,1.92190353063E9,-1.2586952458594084E8
2-8-2017 4:00,2.12350424317E9,3.3718039225129604E7
2-8-2017 5:00,1.92266226922E9,-3.2153493926953793E7
2-8-2017 6:00,1.86727128905E9,-1.0274229636845589E8
2-8-2017 7:00,1.81284063935E9,-6.274824979046106E7
2-8-2017 8:00,1.85038537612E9,-2.138456887130165E7
2-8-2017 9:00,1.86384100502E9,3.828100949905658E7
2-8-2017 10:00,1.8670157683E9,-2785187.9214663506
2-8-2017 11:00,1.92745639957E9,6.1027128192507505E7
2-8-2017 12:00,1.87541894457E9,7501972.090262175
2-8-2017 13:00,1.83175850855E9,-1.2556917496317625E8
2-8-2017 14:00,1.84416549117E9,-1.3887999083718848E8
2-8-2017 15:00,1.86159828365E9,-9.865581012018085E7
2-8-2017 16:00,1.78898294428E9,-2.5610026448067904E8
2-8-2017 17:00,2.04709251405E9,5.5067291704205036E7
2-8-2017 18:00,2.13250500315E9,1.5265544598992395E8
2-8-2017 19:00,2.40144566893E9,4.62546896992198E8
2-8-2017 20:00,2.35434026228E9,3.961527934915786E8
2-8-2017 21:00,2.05758390223E9,1.8375828890717196E8
2-8-2017 22:00,1.95714353468E9,-1910517.4215722084
2-8-2017 23:00,1.93727746337E9,-1.5078324926045895E7
3-8-2017 0:00,2.2354603544E9,1.2585171311001039E8
3-8-2017 1:00,2.12018567678E9,-1.0482401419347596E8
3-8-2017 2:00,2.11794083647E9,-1.4349365093044925E8
3-8-2017 3:00,2.05502941815E9,-1.643112413834026E8
3-8-2017 4:00,2.06872082113E9,-1.9111169319289613E8
3-8-2017 5:00,2.00983019153E9,-1.1748589029177141E8
3-8-2017 6:00,1.98043422853E9,-1.5923141277929616E8
3-8-2017 7:00,2.07462364195E9,2.7449675135683537E7
3-8-2017 8:00,2.21226252173E9,1.732350423394208E8
3-8-2017 9:00,1.99771866348E9,2.0096225322523117E7
3-8-2017 10:00,1.92760675135E9,-7.863257766025567E7
3-8-2017 11:00,2.28294119053E9,2.9551483457286835E8
3-8-2017 12:00,2.07511437975E9,9.719394317577386E7
3-8-2017 13:00,1.91580717965E9,-1.3703525456104326E8
3-8-2017 14:00,2.09568087445E9,3.368961967665982E7
3-8-2017 15:00,2.00721779117E9,-1.9073412787151814E7
3-8-2017 16:00,2.21386105335E9,1.1768239841476464E8
3-8-2017 17:00,2.11753477213E9,8.414272143638086E7
3-8-2017 18:00,2.18572482893E9,1.7714988601879907E8
3-8-2017 19:00,2.03283098702E9,7.666955316681671E7
3-8-2017 20:00,1.8477441038E9,-1.1530002909920764E8
3-8-2017 21:00,2.00493583165E9,1.4181009479945397E8
3-8-2017 22:00,2.07283891728E9,1.4124485941060376E8
3-8-2017 23:00,1.86778198632E9,-5.031735543710971E7
4-8-2017 0:00,1.8109905599E9,-2.4090560640730238E8
4-8-2017 1:00,1.83729508513E9,-3.13973179702863E8
4-8-2017 2:00,2.07373012288E9,-1.0226219517066646E8
4-8-2017 3:00,2.11416644562E9,-1.0699750267816067E7
4-8-2017 4:00,2.0173609865E9,-1.3464744184382033E8
4-8-2017 5:00,2.07529924565E9,5.230588132701969E7
4-8-2017 6:00,2.19278603115E9,1.5924400993997788E8
4-8-2017 7:00,2.00871252775E9,6.468177318327141E7
4-8-2017 8:00,1.89372090658E9,-3.888320335708499E7
4-8-2017 9:00,1.72925217728E9,-1.5966258516342998E8
4-8-2017 10:00,2.10523147685E9,1.7041310298552418E8
4-8-2017 11:00,1.8917834588E9,-4.169144421821356E7
4-8-2017 12:00,1.82211107137E9,-1.2377508219616795E8
4-8-2017 13:00,1.91015347723E9,-1.7632916539350295E8
4-8-2017 14:00,2.0597907127E9,-9.943497737122226E7
4-8-2017 15:00,1.83782154877E9,-3.529586327229917E8
4-8-2017 16:00,2.20659527717E9,-1.192938961057992E8
4-8-2017 17:00,1.86139758173E9,-4.957252518520708E8
4-8-2017 18:00,1.9477763319E9,-4.756368336775725E8
4-8-2017 19:00,1.99925374048E9,-4.640320745784311E8
4-8-2017 20:00,1.7107643166E9,-8.507470820744793E8
4-8-2017 21:00,1.69235215392E9,-8.32052263042584E8
4-8-2017 22:00,1.86509092368E9,-7.893896514613748E8
4-8-2017 23:00,1.64974376313E9,-1.0628135985121617E9
5-8-2017 0:00,2.67497964702E9,-2.2628646564843702E8
5-8-2017 1:00,4.5162039058E9,1.505990808613976E9
5-8-2017 2:00,4.8981000878E9,1.849259843455391E9
5-8-2017 3:00,4.33197492282E9,1.3176892577840939E9
5-8-2017 4:00,5.01728871058E9,1.9636065982716274E9
5-8-2017 5:00,4.00511445853E9,1.099651959672132E9
5-8-2017 6:00,4.42345495447E9,1.5319506192355232E9
5-8-2017 7:00,4.18923057657E9,1.4069630180370784E9
5-8-2017 8:00,3.47146771157E9,7.26612872782578E8
5-8-2017 9:00,3.24476782967E9,6.324580808771911E8
5-8-2017 10:00,2.43372627748E9,-1.352023670617156E8
5-8-2017 11:00,2.30880484007E9,-1.6967839959190893E8
5-8-2017 12:00,1.85232521317E9,-5.539150107303174E8
5-8-2017 13:00,1.53198182298E9,-8.368429195970321E8
5-8-2017 14:00,1.51572468315E9,-7.457508719590354E8
5-8-2017 15:00,1.37041144478E9,-7.461866821876247E8
5-8-2017 16:00,1.62762548242E9,-4.456167153340175E8
5-8-2017 17:00,1.38824721917E9,-5.282190938336699E8
5-8-2017 18:00,1.15297336825E9,-6.38860906922585E8
5-8-2017 19:00,1.07358946102E9,-5.683738125678129E8
5-8-2017 20:00,1.59474577847E9,4.524384630062246E7
5-8-2017 21:00,7.7865332315E8,-6.252925292061273E8
5-8-2017 22:00,1.61883370223E9,1.9446436697326326E8
5-8-2017 23:00,1.54543163597E9,1.6267452403752375E8
6-8-2017 0:00,1.46775369048E9,1.2636413483286858E7
6-8-2017 1:00,1.44148847772E9,-1.0787213736749196E8
6-8-2017 2:00,1.42351957013E9,-1.5409275363802505E8
6-8-2017 3:00,1.39467505183E9,-1.4067570306463552E8
6-8-2017 4:00,1.43948736148E9,-1.2323552308472991E8
6-8-2017 5:00,1.37463424427E9,-9.30505977567811E7
6-8-2017 6:00,1.41142791047E9,-9.017806776517725E7
6-8-2017 7:00,1.35517936558E9,-8.985044623757792E7
6-8-2017 8:00,1.37259769252E9,-8.141944477844238E7
6-8-2017 9:00,1.23488431122E9,-1.7202957174900293E8
6-8-2017 10:00,1.0722428404E9,-3.763028008119035E8
6-8-2017 11:00,9.4674224265E8,-4.965536378146851E8
6-8-2017 12:00,1.56766952668E9,1.0697335012032008E8
6-8-2017 13:00,2.1636182801E9,6.210286929110837E8
6-8-2017 14:00,2.0664516017E9,5.1398257456165385E8
6-8-2017 15:00,1.89234619593E9,3.638656541631031E8
6-8-2017 16:00,1.77185959853E9,1.6787904463998222E8
6-8-2017 17:00,1.64606534262E9,9.456488011435485E7
6-8-2017 18:00,1.49610589828E9,-3.2145494990567684E7
6-8-2017 19:00,1.36883483665E9,-1.1210724239275956E8
6-8-2017 20:00,1.57211119437E9,8.201204335756421E7
6-8-2017 21:00,1.78822194555E9,4.056321186189289E8
6-8-2017 22:00,1.7296403025E9,2.8978381411326003E8
6-8-2017 23:00,1.58441912997E9,1.3936802089932728E8
7-8-2017 0:00,1.49213247602E9,-5.542606598611164E7
7-8-2017 1:00,1.42645447207E9,-1.96322129974576E8
7-8-2017 2:00,1.42585982553E9,-2.104714150915506E8
7-8-2017 3:00,1.3900790695E9,-1.9196198105796742E8
7-8-2017 4:00,1.38870067092E9,-2.0436656008018374E8
7-8-2017 5:00,1.3935862489E9,-8.564833679546118E7
7-8-2017 6:00,1.376444768E9,-1.1261408005631495E8
7-8-2017 7:00,1.38286662762E9,-3.0300490623342514E7
7-8-2017 8:00,1.3541076161E9,-4.247069917124176E7
7-8-2017 9:00,1.2379980281E9,-1.00951740143219E8
7-8-2017 10:00,1.22982019078E9,-1.398070698363557E8
7-8-2017 11:00,1.2167625634E9,-1.3684345223796797E8
7-8-2017 12:00,1.45018086132E9,8.549836609420753E7
7-8-2017 13:00,1.66704226207E9,2.072489916058948E8
7-8-2017 14:00,1.55953792102E9,7.87281105324831E7
7-8-2017 15:00,1.38417694152E9,-8.744179902258444E7
7-8-2017 16:00,1.53549821958E9,-2.438492495249462E7
7-8-2017 17:00,1.29342457303E9,-2.407026908473878E8
7-8-2017 18:00,1.19686064587E9,-3.378289347316084E8
7-8-2017 19:00,1.06045448442E9,-4.519157570615878E8
7-8-2017 20:00,1.28214140632E9,-2.6343260827019954E8
7-8-2017 21:00,1.4638922666E9,6121407.519787788
7-8-2017 22:00,1.43746711655E9,-9.6072417657722E7
7-8-2017 23:00,1.9472382884E9,3.8003845438337064E8
8-8-2017 0:00,2.1769421919E9,4.9542882195994854E8
8-8-2017 1:00,2.03965156753E9,2.711138241077504E8
8-8-2017 2:00,2.03043053405E9,2.3220363065828657E8
8-8-2017 3:00,1.9701997875E9,2.0746010386601448E8
8-8-2017 4:00,1.9408065535E9,1.5255709034923387E8
8-8-2017 5:00,1.96039124063E9,2.6771653716279173E8
8-8-2017 6:00,1.96669162857E9,2.512370482015412E8
8-8-2017 7:00,1.95590271372E9,2.986047310333581E8
8-8-2017 8:00,1.84366867072E9,1.914849239318962E8
8-8-2017 9:00,1.62946900277E9,4.866427195784354E7
8-8-2017 10:00,1.55211884107E9,-4.5183098762541294E7
8-8-2017 11:00,1.33857680775E9,-2.2870638538999534E8
8-8-2017 12:00,1.22735810238E9,-3.414517363576598E8
8-8-2017 13:00,1.47587158362E9,-1.4718226507506943E8
8-8-2017 14:00,1.38428214897E9,-2.1684120993248272E8
8-8-2017 15:00,1.33551991258E9,-2.1712566191408706E8
8-8-2017 16:00,1.2859642059E9,-3.1362765406942415E8
8-8-2017 17:00,1.4142337312E9,-1.1939048105735421E8
8-8-2017 18:00,1.72187564288E9,2.3081370572535586E8
8-8-2017 19:00,1.63757951292E9,2.1078068450351024E8
8-8-2017 20:00,1.40099153555E9,-1.6124022388115406E7
8-8-2017 21:00,1.42073129292E9,1.1554944636214209E8
8-8-2017 22:00,1.57833875138E9,2.2272028231021285E8
8-8-2017 23:00,1.55448410398E9,1.8057372226375246E8
9-8-2017 0:00,1.48246494058E9,2.6131888872070074E7
9-8-2017 1:00,1.45685509882E9,-7.594571230961752E7
9-8-2017 2:00,1.41237071085E9,-1.4372272527005577E8
9-8-2017 3:00,1.38649740847E9,-1.30413592660362E8
9-8-2017 4:00,1.42683877583E9,-1.0824280912517858E8
9-8-2017 5:00,1.40546431935E9,-4.1079493600147486E7
9-8-2017 6:00,1.39309131517E9,-7.828422162475634E7
9-8-2017 7:00,1.39152738363E9,-2.8262271474601507E7
9-8-2017 8:00,1.33623056447E9,-7.769641391662502E7
9-8-2017 9:00,1.19464774255E9,-1.5703643915838146E8
9-8-2017 10:00,1.22080195718E9,-1.5599910727799082E8
9-8-2017 11:00,1.41632925538E9,5.994913823380113E7
9-8-2017 12:00,1.40186843085E9,3.0709641171052456E7
9-8-2017 13:00,1.63890458267E9,1.9400195813782024E8
9-8-2017 14:00,1.59808601948E9,1.5775793115937567E8
9-8-2017 15:00,1.43426496775E9,2.1973830100999355E7
9-8-2017 16:00,1.42009900142E9,-5.850282387239671E7
9-8-2017 17:00,1.26968772647E9,-1.6022219776258516E8
9-8-2017 18:00,1.25204754795E9,-1.5092775834075665E8
9-8-2017 19:00,1.48703564955E9,1.3172022677890325E8
9-8-2017 20:00,1.57597685267E9,2.1466120261199164E8
9-8-2017 21:00,1.606772326E9,3.532233815519755E8
9-8-2017 22:00,1.53356979942E9,2.2662716652979398E8
9-8-2017 23:00,1.40018132522E9,6.2950332993331194E7
10-8-2017 0:00,1.3904371843E9,-2.5501321953832865E7
10-8-2017 1:00,1.34035976008E9,-1.478235206065786E8
10-8-2017 2:00,1.3284493132E9,-1.8296368656955862E8
10-8-2017 3:00,1.28079417702E9,-1.9407480159946728E8
10-8-2017 4:00,1.29253065372E9,-1.995010268158033E8
10-8-2017 5:00,1.29623546045E9,-1.2070650327167392E8
10-8-2017 6:00,1.27909400473E9,-1.711425972920165E8
10-8-2017 7:00,1.28699326558E9,-1.2463747686038733E8
10-8-2017 8:00,1.4763056274E9,6.487669638016534E7
10-8-2017 9:00,1.40396411082E9,4.986471419926691E7
10-8-2017 10:00,1.39741862447E9,1.3806466438951015E7
10-8-2017 11:00,1.38805614427E9,1.9490929238506317E7
10-8-2017 12:00,1.30600418355E9,-8.63679358808074E7
10-8-2017 13:00,1.405669186E9,-6.6635983803201914E7
10-8-2017 14:00,1.5985651504E9,1.2678917260398293E8
10-8-2017 15:00,1.49022862872E9,3.935937723549485E7
10-8-2017 16:00,1.53101639123E9,7781084.055069923
10-8-2017 17:00,1.5015239761E9,2.185519795766473E7
10-8-2017 18:00,1.63970928062E9,1.834978378836522E8
10-8-2017 19:00,1.56329747377E9,1.5029109012448454E8
10-8-2017 20:00,1.57746371213E9,1.5492200422195363E8
10-8-2017 21:00,1.64094701885E9,3.275705933945222E8
10-8-2017 22:00,1.47549538032E9,1.1133228039614248E8
10-8-2017 23:00,1.30753488605E9,-9.334893999626923E7
11-8-2017 0:00,1.39560854512E9,-7.470355908486128E7
11-8-2017 1:00,1.48206393413E9,-5.668685560155678E7
11-8-2017 2:00,1.44331372613E9,-1.1902077285997176E8
11-8-2017 3:00,1.3971533171E9,-1.3169247066237521E8
11-8-2017 4:00,1.42116107545E9,-1.2425656445036244E8
11-8-2017 5:00,1.46852707743E9,-1.0382345010989428E7
11-8-2017 6:00,1.41476051007E9,-1.0103990929091978E8
11-8-2017 7:00,1.36809271868E9,-1.1721529163872027E8
11-8-2017 8:00,1.25701593795E9,-2.288845546764977E8
11-8-2017 9:00,1.15607752632E9,-2.7375300004126E8
11-8-2017 10:00,1.51348284678E9,5.3397376084840775E7
11-8-2017 11:00,1.53867798705E9,9.191915077928352E7
11-8-2017 12:00,1.34066816448E9,-1.3527211231947184E8
11-8-2017 13:00,1.63456814435E9,7.687217707016993E7
11-8-2017 14:00,1.35950916502E9,-1.973363790458169E8
11-8-2017 15:00,1.65716461607E9,1.1846214936678267E8
11-8-2017 16:00,2.05632759522E9,4.435702801905279E8
11-8-2017 17:00,1.87735498638E9,3.048341662915752E8
11-8-2017 18:00,1.70367768907E9,1.529322597873912E8
11-8-2017 19:00,1.41436896975E9,-9.583088693493462E7
11-8-2017 20:00,1.38460129302E9,-1.3687364696741605E8
11-8-2017 21:00,1.5285843654E9,1.193865645498178E8
11-8-2017 22:00,1.77265221003E9,3.1698802852731967E8
11-8-2017 23:00,1.66919217597E9,1.7208818140103912E8
12-8-2017 0:00,1.5865455538E9,3.1005796783099174E7
12-8-2017 1:00,1.56740293815E9,-3.7982743358216286E7
12-8-2017 2:00,1.54077170903E9,-7.376499978273511E7
12-8-2017 3:00,1.53160088403E9,-3.7715751348302364E7
12-8-2017 4:00,1.49581252798E9,-7.469843762861037E7
12-8-2017 5:00,1.47349011387E9,-1.5681247442809343E7
12-8-2017 6:00,1.48906948527E9,-1.717634539114356E7
12-8-2017 7:00,1.45345334578E9,-7000640.187190533
12-8-2017 8:00,1.37139284333E9,-6.703503248211312E7
12-8-2017 9:00,1.24818120072E9,-1.0964523841626406E8
12-8-2017 10:00,1.40918663538E9,4.6154107530729055E7
12-8-2017 11:00,1.49117506398E9,1.655399005245347E8
12-8-2017 12:00,1.50902734697E9,1.7462724540081263E8
12-8-2017 13:00,1.49966908152E9,1.009152020158596E8
12-8-2017 14:00,1.39631723455E9,1.795956212006998E7
12-8-2017 15:00,1.1464680643E9,-1.9728562706287527E8
12-8-2017 16:00,1.31223639508E9,-8.803638459159136E7
12-8-2017 17:00,1.16959810108E9,-1.8709057744251633E8
12-8-2017 18:00,1.12059513785E9,-2.0932245416729617E8
12-8-2017 19:00,1.3083832831E9,2.3029417486795187E7
12-8-2017 20:00,1.31634135112E9,2.465028346393895E7
12-8-2017 21:00,5.9072852305E8,-5.923326126539199E8
12-8-2017 22:00,1.19259062965E9,-3.93756567602942E7
12-8-2017 23:00,1.41114059018E9,1.262563398897984E8
13-8-2017 0:00,1.44054896787E9,1.0146240697275305E8
13-8-2017 1:00,1.42252192532E9,2.1796538802215338E7
13-8-2017 2:00,1.4236749207E9,-2154473.3330099583
13-8-2017 3:00,1.36833317203E9,-3.0930448526343822E7
13-8-2017 4:00,1.34286034285E9,-7.260574819357538E7
13-8-2017 5:00,1.36571074595E9,-2772184.24847579
13-8-2017 6:00,1.47056735425E9,5.563865198765659E7
13-8-2017 7:00,1.60177356662E9,1.9874831441623378E8
13-8-2017 8:00,1.57362483938E9,1.6605645950703597E8
13-8-2017 9:00,1.46878238113E9,1.2531321755064678E8
13-8-2017 10:00,1.54480625778E9,1.8014617031568193E8
13-8-2017 11:00,1.4554159693E9,1.1119028540600061E8
13-8-2017 12:00,1.30939889828E9,-6.4208912105537415E7
13-8-2017 13:00,1.28128138062E9,-1.573922663555932E8
13-8-2017 14:00,1.26142323943E9,-1.5542238781169367E8
13-8-2017 15:00,1.30942924852E9,-7.44654651506908E7
13-8-2017 16:00,1.59731852402E9,1.5632651085762382E8
13-8-2017 17:00,1.47290121168E9,8.021705213735676E7
13-8-2017 18:00,1.41209774747E9,5.255651639461064E7
13-8-2017 19:00,1.397266133E9,8.768292839774919E7
13-8-2017 20:00,1.51745490723E9,2.0784852810714817E8
13-8-2017 21:00,1.35571638348E9,1.620522501076007E8
13-8-2017 22:00,1.22669995293E9,-7348580.219245672
13-8-2017 23:00,1.15652776552E9,-1.309573613393755E8
14-8-2017 0:00,1.09478926887E9,-2.3170519577212214E8
14-8-2017 1:00,1.10736163168E9,-2.6964694209274364E8
14-8-2017 2:00,1.04906191538E9,-3.46086028499537E8
14-8-2017 3:00,1.17956028983E9,-1.8475856291149879E8
14-8-2017 4:00,1.29035994688E9,-8.225189898651505E7
14-8-2017 5:00,1.26032237147E9,-6.82674519008882E7
14-8-2017 6:00,1.39643381495E9,2.342222190094042E7
14-8-2017 7:00,1.45244778975E9,8.884655722537136E7
14-8-2017 8:00,1.54500075703E9,1.816824641131277E8
14-8-2017 9:00,1.570530186E9,2.6307197493053007E8
14-8-2017 10:00,1.45763883868E9,1.2126795448963737E8
14-8-2017 11:00,1.40345572213E9,7.881936662249875E7
14-8-2017 12:00,1.20944979775E9,-1.569227866908257E8
14-8-2017 13:00,1.32035432333E9,-1.2836875109039187E8
14-8-2017 14:00,1.28774797298E9,-1.542878637812109E8
14-8-2017 15:00,1.39705189025E9,-3.025869517066765E7
14-8-2017 16:00,1.53958360712E9,3.802491648014784E7
14-8-2017 17:00,1.37389473108E9,-8.895060352644753E7
14-8-2017 18:00,1.4037073154E9,-3.394149883414531E7
14-8-2017 19:00,1.3325093436E9,-6.4105432915640116E7
14-8-2017 20:00,1.46047152773E9,5.582931539233446E7
14-8-2017 21:00,1.78521429095E9,4.953767876854861E8
14-8-2017 22:00,1.63458568435E9,3.04434763786072E8
14-8-2017 23:00,1.5175391745E9,1.249832619436245E8
15-8-2017 0:00,1.43391949013E9,9097444.16308117
15-8-2017 1:00,1.4041037584E9,-6.54471578221426E7
15-8-2017 2:00,1.4095383073E9,-7.65268192350223E7
15-8-2017 3:00,1.42403861337E9,-3.227358198013091E7
15-8-2017 4:00,1.35185544833E9,-1.101785743389337E8
15-8-2017 5:00,1.3680356747E9,-4.844735430486703E7
15-8-2017 6:00,1.33083111805E9,-1.2355956872943163E8
15-8-2017 7:00,1.35758251092E9,-8.539964859274554E7
15-8-2017 8:00,1.27686725733E9,-1.5651463902163315E8
15-8-2017 9:00,1.2381266895E9,-1.2520999553705645E8
15-8-2017 10:00,1.55777301398E9,1.8022677390851998E8
15-8-2017 11:00,1.68604216213E9,3.339554431763203E8
15-8-2017 12:00,1.48487176727E9,1.0111958426360583E8
15-8-2017 13:00,1.51808192243E9,5.361667302552748E7
15-8-2017 14:00,1.43431658632E9,-1.968013052901244E7
15-8-2017 15:00,1.28630792425E9,-1.522671265179305E8
15-8-2017 16:00,1.12494506535E9,-3.861076080433768E8
15-8-2017 17:00,1.3081713237E9,-1.7494009029139924E8
15-8-2017 18:00,1.37032521917E9,-9.671368158914804E7
15-8-2017 19:00,1.2902576141E9,-1.458499380767293E8
15-8-2017 20:00,1.27372792953E9,-1.795900201516335E8
15-8-2017 21:00,1.13112536008E9,-2.1432885332940888E8
15-8-2017 22:00,1.51391163553E9,1.2241045977733922E8
15-8-2017 23:00,1.7076736539E9,2.3899456035130334E8
16-8-2017 0:00,1.77354907867E9,2.733172820292978E8
16-8-2017 1:00,1.67541538448E9,1.241190456243558E8
16-8-2017 2:00,1.69477183945E9,1.1619298403582287E8
16-8-2017 3:00,1.67114943502E9,1.086411469789977E8
16-8-2017 4:00,1.70775581582E9,1.2921338315458846E8
16-8-2017 5:00,1.67292169745E9,1.1369049269448495E8
16-8-2017 6:00,1.61263639412E9,-5498962.258207798
16-8-2017 7:00,1.5764230827E9,-5.557355358249307E7
16-8-2017 8:00,1.46476792732E9,-1.7519656271526313E8
16-8-2017 9:00,1.32666173107E9,-2.46843529129179E8
16-8-2017 10:00,1.4507855789E9,-1.4001253813872766E8
16-8-2017 11:00,1.96242269663E9,3.925038198947327E8
16-8-2017 12:00,1.7483570761E9,1.3995348828103733E8
16-8-2017 13:00,1.43560320638E9,-2.4164379145540404E8
16-8-2017 14:00,1.45715380652E9,-1.9557728567164874E8
16-8-2017 15:00,1.93823936363E9,3.117853099749222E8
16-8-2017 16:00,1.78205360005E9,9.471810812953782E7
16-8-2017 17:00,1.44021777678E9,-2.2213310402583647E8
16-8-2017 18:00,1.71766263212E9,6.869830027636099E7
16-8-2017 19:00,1.80761899082E9,1.863577897298324E8
16-8-2017 20:00,1.56509240772E9,-7.581561701565099E7
16-8-2017 21:00,1.61675543428E9,5.532746464060044E7
16-8-2017 22:00,1.43412685867E9,-2.0042730574103808E8
16-8-2017 23:00,1.4552423368E9,-2.921425158976617E8
17-8-2017 0:00,1.63039386712E9,-1.6941724617489505E8
17-8-2017 1:00,1.60952723407E9,-2.6256781247242284E8
17-8-2017 2:00,1.52786342232E9,-3.971661660994761E8
17-8-2017 3:00,1.5301189814E9,-4.07406122530885E8
17-8-2017 4:00,1.53204155188E9,-4.467126016012814E8
17-8-2017 5:00,1.48962533593E9,-4.838069636922052E8
17-8-2017 6:00,1.48881301003E9,-5.522695433596766E8
17-8-2017 7:00,1.59956548587E9,-4.683966807233443E8
17-8-2017 8:00,3.10028748158E9,1.0190408181915932E9
17-8-2017 9:00,3.38955542442E9,1.3776325417404141E9
17-8-2017 10:00,3.04979413765E9,1.0239462340960991E9
17-8-2017 11:00,2.83933676357E9,8.36238957275578E8
17-8-2017 12:00,3.00960719953E9,9.676565728912611E8
17-8-2017 13:00,2.88134246055E9,7.802541282754107E8
17-8-2017 14:00,2.42043228058E9,3.557432750364156E8
17-8-2017 15:00,1.9826414659E9,-4.707908065257025E7
17-8-2017 16:00,2.00931818707E9,-7.185235365894389E7
17-8-2017 17:00,1.63669750188E9,-3.7205647577000856E8
17-8-2017 18:00,1.54547917885E9,-4.021856138562033E8
17-8-2017 19:00,1.49245390057E9,-3.80348557829761E8
17-8-2017 20:00,1.51739574478E9,-3.271025420239053E8
17-8-2017 21:00,1.52029398792E9,-1.5739273437072992E8
17-8-2017 22:00,1.3528096936E9,-3.093681926484699E8
17-8-2017 23:00,1.43334931905E9,-2.6159776273339534E8
18-8-2017 0:00,1.63776144598E9,-1.4771190663570642E7
18-8-2017 1:00,1.5708539675E9,-8.620863245631886E7
18-8-2017 2:00,1.51247168838E9,-1.3420411780452728E8
18-8-2017 3:00,1.53045290355E9,-6.831114006315517E7
18-8-2017 4:00,1.4363759986E9,-1.398386212191584E8
18-8-2017 5:00,1.50332263087E9,-5.98907825899837E7
18-8-2017 6:00,1.47195259563E9,-1.4598844719131494E8
18-8-2017 7:00,1.44208739602E9,-1.9408283445832086E8
18-8-2017 8:00,1.381254644E9,-2.518479674696324E8
18-8-2017 9:00,1.4271203821E9,-1.3797460824463463E8
18-8-2017 10:00,1.77835711942E9,1.985242327046659E8
18-8-2017 11:00,1.77683246882E9,2.1743982485854554E8
18-8-2017 12:00,1.74998576317E9,1.4719147814198875E8
18-8-2017 13:00,1.68161979788E9,8739427.533551216
18-8-2017 14:00,1.80909282257E9,1.6384111597862768E8
18-8-2017 15:00,1.7660867746E9,1.438408633909073E8
18-8-2017 16:00,1.68451564178E9,-402903.57963323593
18-8-2017 17:00,1.72664218965E9,8.228280423472404E7
18-8-2017 18:00,1.74436082055E9,1.2950390096124935E8
18-8-2017 19:00,1.59479703658E9,2.2672299751775026E7
18-8-2017 20:00,1.68726324775E9,1.1210432266008234E8
18-8-2017 21:00,1.59727817905E9,1.528664422100637E8
18-8-2017 22:00,1.61504962333E9,1.5138586766610527E8
18-8-2017 23:00,1.50234258332E9,-3.742476080723977E7
19-8-2017 0:00,1.44479790673E9,-8.111017220047498E7
19-8-2017 1:00,1.38008769302E9,-1.7763751428114653E8
19-8-2017 2:00,1.37472918532E9,-2.0432902755321336E8
19-8-2017 3:00,1.38324953363E9,-1.825307735817623E8
19-8-2017 4:00,1.35042041828E9,-2.240731267860756E8
19-8-2017 5:00,1.48734270867E9,-1.2028364198114395E8
19-8-2017 6:00,1.59876195413E9,-1.0448276592067719E8
19-8-2017 7:00,1.56033607542E9,-2.0630077118536282E8
19-8-2017 8:00,1.5039100515E9,-2.9712042473726535E8
19-8-2017 9:00,1.401750936E9,-3.758459282061963E8
19-8-2017 10:00,1.22666581987E9,-6.097396657133865E8
19-8-2017 11:00,1.2013653098E9,-6.601676370452118E8
19-8-2017 12:00,1.42467745633E9,-5.280638018141146E8
19-8-2017 13:00,1.63421691178E9,-4.4671487548689795E8
19-8-2017 14:00,1.4448847819E9,-6.643450687095082E8
19-8-2017 15:00,3.00188003338E9,8.565372504222777E8
19-8-2017 16:00,3.19116090253E9,9.247667813258109E8
19-8-2017 17:00,3.01596984212E9,7.229058587983942E8
19-8-2017 18:00,3.18134026395E9,8.508204084104447E8
19-8-2017 19:00,3.0387088352E9,6.834193919478579E8
19-8-2017 20:00,3.22833241682E9,8.032988065214219E8
19-8-2017 21:00,1.7741966573E9,-5.783131963430817E8
19-8-2017 22:00,9.7339701535E8,-1.4552847673145494E9
19-8-2017 23:00,2.85023307225E9,2.799542528623953E8
20-8-2017 0:00,2.81776981228E9,2.106360228148098E8
20-8-2017 1:00,2.62163266578E9,-2.7582483912185192E7
20-8-2017 2:00,2.9068754726E9,2.2163045119348955E8
20-8-2017 3:00,3.05010341527E9,3.605253758166189E8
20-8-2017 4:00,2.73534910908E9,2.2818103325596333E7
20-8-2017 5:00,2.80677524903E9,7.665956803817415E7
20-8-2017 6:00,2.92425743085E9,1.1931478271232748E8
20-8-2017 7:00,2.7963666322E9,-5.544893909814882E7
20-8-2017 8:00,2.66535065822E9,-1.9663764905875254E8
20-8-2017 9:00,3.01521633895E9,2.0659687158175611E8
20-8-2017 10:00,2.73645633543E9,-1.0053324134855509E8
20-8-2017 11:00,2.75850290393E9,-7.467260115271616E7
20-8-2017 12:00,2.96837803998E9,7.069679033940458E7
20-8-2017 13:00,2.87786212812E9,-1.0322572156033182E8
20-8-2017 14:00,2.75492017535E9,-2.0750409188323593E8
20-8-2017 15:00,2.74218837528E9,-2.1257917914454937E8
20-8-2017 16:00,2.88721581758E9,-1.4409340629954958E8
20-8-2017 17:00,3.14186342375E9,1.3684321842486048E8
20-8-2017 18:00,3.1077273721E9,1.184808592460351E8
20-8-2017 19:00,3.02302103132E9,6.169106301393604E7
20-8-2017 20:00,3.2071234661E9,2.2952725469635487E8
20-8-2017 21:00,3.1513507863E9,2.854209393710532E8
20-8-2017 22:00,3.07875798462E9,1.7710233788576126E8
20-8-2017 23:00,3.12582792988E9,1.1444783757668161E8
21-8-2017 0:00,3.12796628285E9,1.2638302460843134E8
21-8-2017 1:00,2.88767685135E9,-1.4824338315523577E8
21-8-2017 2:00,3.04708749492E9,-2.1550861622167587E7
21-8-2017 3:00,2.87868754243E9,-1.9388614004770947E8
21-8-2017 4:00,2.94957132275E9,-1.4218643865579033E8
21-8-2017 5:00,3.0033771953E9,-1.2607933819054031E8
21-8-2017 6:00,2.95561965512E9,-2.6353467045767212E8
21-8-2017 7:00,2.9541732033E9,-3.309970692389121E8
21-8-2017 8:00,2.92071717655E9,-3.8606716551319075E8
21-8-2017 9:00,2.98324210827E9,-2.6759191121818542E8
21-8-2017 10:00,3.39686450577E9,1.2074514362343884E8
21-8-2017 11:00,3.24998801942E9,-2.0729483288001537E7
21-8-2017 12:00,3.2966371125E9,-3.923731323980093E7
21-8-2017 13:00,3.3023662823E9,-1.176431985576477E8
21-8-2017 14:00,3.87854291057E9,4.786462737879958E8
21-8-2017 15:00,3.79463891898E9,4.006562560024228E8
21-8-2017 16:00,3.95972253765E9,4.881954858255677E8
21-8-2017 17:00,3.93721825548E9,4.935977684982457E8
21-8-2017 18:00,3.7763130001E9,3.503544358949871E8
21-8-2017 19:00,3.51928915587E9,1.2259187069413996E8
21-8-2017 20:00,3.4337552228E9,2.2928220696179867E7
21-8-2017 21:00,3.47008495907E9,1.9680307714833593E8
21-8-2017 22:00,3.31567151022E9,3.38460016802969E7
21-8-2017 23:00,3.33114457897E9,-4.1796740013731E7
22-8-2017 0:00,3.03138891957E9,-2.9836771724157E8
22-8-2017 1:00,3.38678633443E9,7.954384179812813E7
22-8-2017 2:00,3.45723810012E9,1.6969597160862637E8
22-8-2017 3:00,3.2089696462E9,-3.3003379655548573E7
22-8-2017 4:00,3.087974652E9,-1.2030672357943964E8
22-8-2017 5:00,3.21792435855E9,1.0773689772277355E7
22-8-2017 6:00,3.21796267277E9,-3.481303730234623E7
22-8-2017 7:00,3.08655169423E9,-1.9243929634364462E8
22-8-2017 8:00,3.09917602862E9,-1.539266747608924E8
22-8-2017 9:00,3.11094822697E9,-6.087438613935137E7
22-8-2017 10:00,3.30534059422E9,1.3406578037859964E8
22-8-2017 11:00,3.18363501208E9,4.2098220594270706E7
22-8-2017 12:00,3.0307228932E9,-1.5387362461705732E8
22-8-2017 13:00,3.0957642599E9,-1.5958037900472927E8
22-8-2017 14:00,2.79006542272E9,-4.296017213722534E8
22-8-2017 15:00,2.67095246165E9,-5.304280585337992E8
22-8-2017 16:00,2.97203505998E9,-2.937769332064209E8
22-8-2017 17:00,3.2110644608E9,-2.4698655305443764E7
22-8-2017 18:00,2.99812567907E9,-2.1756251800310516E8
22-8-2017 19:00,3.40249490937E9,2.1793773361339426E8
22-8-2017 20:00,3.64628507825E9,4.502597195411482E8
22-8-2017 21:00,3.5504858594E9,4.689439571683893E8
22-8-2017 22:00,3.4241047558E9,3.122613024997659E8
22-8-2017 23:00,3.46148400177E9,2.2819327551295185E8
23-8-2017 0:00,3.15291705907E9,-5.2987170842432976E7
23-8-2017 1:00,3.24757233922E9,1.6972205645699024E7
23-8-2017 2:00,3.12454394462E9,-1.386183307799282E8
23-8-2017 3:00,3.27187738493E9,-1159471.7131972313
23-8-2017 4:00,3.21273476392E9,-7.830498238535261E7
23-8-2017 5:00,3.0473039806E9,-2.959359793546448E8
23-8-2017 6:00,3.10666017443E9,-3.297164787221184E8
23-8-2017 7:00,2.9404824461E9,-5.733280068073211E8
23-8-2017 8:00,3.20894586292E9,-3.2300265618423414E8
23-8-2017 9:00,3.36876252372E9,-9.821404616537428E7
23-8-2017 10:00,3.40852826758E9,-7.381471525927114E7
23-8-2017 11:00,3.64333303682E9,1.737437384197874E8
23-8-2017 12:00,3.61604269408E9,8.47192476523261E7
23-8-2017 13:00,4.08941085053E9,4.80438662022552E8
23-8-2017 14:00,4.05536455042E9,4.7664624481932306E8
23-8-2017 15:00,3.73170133642E9,1.6274197405631733E8
23-8-2017 16:00,3.89268527827E9,2.520377940511489E8
23-8-2017 17:00,3.94343868852E9,3.3019305416353273E8
23-8-2017 18:00,3.78295855438E9,1.8741687071949768E8
23-8-2017 19:00,3.74304719385E9,1.7600205837719488E8
23-8-2017 20:00,3.56807490933E9,-1.2109836615502834E7
23-8-2017 21:00,3.51320363285E9,6.431348396202898E7
23-8-2017 22:00,3.43729432905E9,-2.3904418226495743E7
23-8-2017 23:00,3.55814419223E9,-1.5027469484571934E7
24-8-2017 0:00,3.47281145523E9,-5.008326944937086E7
24-8-2017 1:00,3.52517920978E9,2.0742119498366833E7
24-8-2017 2:00,3.26227119808E9,-2.3662695407221508E8
24-8-2017 3:00,3.20888307758E9,-2.649697538134079E8
24-8-2017 4:00,3.20145640245E9,-2.517301838313055E8
24-8-2017 5:00,3.17023079478E9,-3.121451719069104E8
24-8-2017 6:00,3.38938855452E9,-1.5729400357253742E8
24-8-2017 7:00,3.50212582725E9,-9.68669912764883E7
24-8-2017 8:00,3.33514276465E9,-2.4967241488791084E8
24-8-2017 9:00,3.37096621585E9,-1.3373652567076159E8
24-8-2017 10:00,4.10726998703E9,6.027354065825334E8
24-8-2017 11:00,4.05967523778E9,5.823587901040182E8
24-8-2017 12:00,3.965863038E9,4.3958680684946346E8
24-8-2017 13:00,3.84699773698E9,2.490940145803609E8
24-8-2017 14:00,3.77184299563E9,2.116914160542016E8
24-8-2017 15:00,3.30887268622E9,-2.3712575896749067E8
24-8-2017 16:00,2.02034932955E9,-1.5916717764389563E9
24-8-2017 17:00,3.90684792763E9,3.275963497098417E8
24-8-2017 18:00,3.67355289698E9,1.1764900684444141E8
24-8-2017 19:00,3.58156742355E9,5.954042896305275E7
24-8-2017 20:00,3.45426647652E9,-7.455673557038116E7
24-8-2017 21:00,3.69370976312E9,3.056040821559801E8
24-8-2017 22:00,3.54691444098E9,1.5710502173626757E8
24-8-2017 23:00,3.40817734287E9,-9.151872486435747E7
25-8-2017 0:00,3.49090697963E9,5.6990197050142765E7
25-8-2017 1:00,3.24373453792E9,-1.7364510779992437E8
25-8-2017 2:00,3.72728536915E9,3.0847170591713E8
25-8-2017 3:00,3.62424938163E9,2.203269055606041E8
25-8-2017 4:00,3.46727536177E9,7.761423825948477E7
25-8-2017 5:00,3.39893220282E9,-3.689502273868084E7
25-8-2017 6:00,3.27505854362E9,-2.3623272643870878E8
25-8-2017 7:00,3.3948931007E9,-1.8357254053442955E8
25-8-2017 8:00,3.39249880055E9,-1.7946114657338285E8
25-8-2017 9:00,3.32518642822E9,-1.600090218927951E8
25-8-2017 10:00,3.37420026497E9,-1.0378091297501802E8
25-8-2017 11:00,3.44744682415E9,2659764.376185894
25-8-2017 12:00,3.74636009892E9,2.5689915729182863E8
25-8-2017 13:00,3.69935113792E9,1.4541134492924404E8
25-8-2017 14:00,3.62027922622E9,1.1271722502600098E8
25-8-2017 15:00,3.60292259792E9,1.1503531132146978E8
25-8-2017 16:00,3.58851398967E9,4.1396892379552364E7
25-8-2017 17:00,3.49884808833E9,-1.6803713554438114E7
25-8-2017 18:00,3.45529972148E9,-3.8032566400405884E7
25-8-2017 19:00,3.28678489453E9,-1.7396206131008196E8
25-8-2017 20:00,3.04131365917E9,-4.265580320734539E8
25-8-2017 21:00,3.33355695968E9,1.4024346430747032E7
25-8-2017 22:00,3.5324320619E9,2.1999918327885723E8
25-8-2017 23:00,3.38444233967E9,-3.759230869530678E7
26-8-2017 0:00,3.4273594573E9,8.480505500750303E7
26-8-2017 1:00,3.35989495582E9,6.029117549314785E7
26-8-2017 2:00,3.5860580728E9,3.063813019613557E8
26-8-2017 3:00,3.71221679377E9,4.6561105914301395E8
26-8-2017 4:00,3.33696632205E9,1.2655103007219028E8
26-8-2017 5:00,3.53565867715E9,3.0323641648711395E8
26-8-2017 6:00,3.29309605722E9,1.5188153968335629E7
26-8-2017 7:00,3.3943395076E9,7.552897743649578E7
26-8-2017 8:00,3.43804151065E9,1.592005847256608E8
26-8-2017 9:00,3.17456369002E9,2.9101671600819588E7
26-8-2017 10:00,3.01189427042E9,-7.93450132357893E7
26-8-2017 11:00,2.63427125795E9,-3.7783557063373566E8
26-8-2017 12:00,2.90617707517E9,-1.0635538214676332E8
26-8-2017 13:00,3.47509186328E9,4.536859617443943E8
26-8-2017 14:00,3.09831978E9,1.803740864912901E8
26-8-2017 15:00,3.03203955347E9,1.8774692202114296E8
26-8-2017 16:00,3.21187221695E9,3.635993921759982E8
26-8-2017 17:00,2.91863860435E9,1.481178363613615E8
26-8-2017 18:00,2.72144034247E9,1.9801908746966362E7
26-8-2017 19:00,2.44769731527E9,-1.7505635587885714E8
26-8-2017 20:00,2.36248822683E9,-2.2012770358002567E8
26-8-2017 21:00,7.5074137112E8,-1.6502330460397506E9
26-8-2017 22:00,2.4627188662E9,1.0332854496441555E8
26-8-2017 23:00,2.33849287005E9,-1.0453345379505348E8
27-8-2017 0:00,2.27831746532E9,-4.5846763145700455E7
27-8-2017 1:00,2.28828280103E9,2.5688754776424408E7
27-8-2017 2:00,2.27436472265E9,4.526478802655172E7
27-8-2017 3:00,2.30848940312E9,1.2284642889716053E8
27-8-2017 4:00,2.4010239302E9,2.6570656385739994E8
27-8-2017 5:00,2.312743718E9,1.2939966729859257E8
27-8-2017 6:00,2.24728612152E9,-1744018.8957571983
27-8-2017 7:00,2.23470193433E9,-7.913793777053714E7
27-8-2017 8:00,2.14294895217E9,-1.476362546000743E8
27-8-2017 9:00,2.10761788747E9,-9.38562184864049E7
27-8-2017 10:00,2.05040779877E9,-1.4071732701345897E8
27-8-2017 11:00,1.92611592153E9,-2.3082062946661615E8
27-8-2017 12:00,1.99219858788E9,-2.117975559143746E8
27-8-2017 13:00,2.20318230232E9,-5.915695921418238E7
27-8-2017 14:00,2.28779398743E9,8.092226948814583E7
27-8-2017 15:00,2.29577784443E9,1.1146245534767628E8
27-8-2017 16:00,2.2504819416E9,1.2360895894596338E7
27-8-2017 17:00,2.20564046558E9,-2000726.4446372986
27-8-2017 18:00,2.13530084673E9,-5.045415525140953E7
27-8-2017 19:00,2.0719537449E9,-8.217602845732975E7
27-8-2017 20:00,2.01239411848E9,-1.478944024802451E8
27-8-2017 21:00,1.94481334685E9,-7.076249479931688E7
27-8-2017 22:00,2.0355514262E9,2.5812772575484753E7
27-8-2017 23:00,2.21706805402E9,7.942789572528982E7
28-8-2017 0:00,2.217314783E9,1.6768730019576573E8
28-8-2017 1:00,2.18768559673E9,1.7811183006250286E8
28-8-2017 2:00,2.16265035625E9,1.6000177703268337E8
28-8-2017 3:00,2.17321887345E9,1.842771525003767E8
28-8-2017 4:00,2.1162567309E9,1.5163975673981118E8
28-8-2017 5:00,2.15279070533E9,1.1885072450610566E8
28-8-2017 6:00,2.14041324103E9,2.53101167350173E7
28-8-2017 7:00,2.11428776602E9,-8.480880136386943E7
28-8-2017 8:00,2.0316243077E9,-1.5620913989327526E8
28-8-2017 9:00,1.94523814718E9,-1.5371953543240547E8
28-8-2017 10:00,2.01863282845E9,-6.981715772121572E7
28-8-2017 11:00,1.67431086955E9,-3.808619512608931E8
28-8-2017 12:00,1.9959480695E9,-1.0888583731469226E8
28-8-2017 13:00,1.94320410517E9,-2.214095293722763E8
28-8-2017 14:00,2.21435749163E9,1.0525179977867341E8
28-8-2017 15:00,2.20278388393E9,1.1317085127106977E8
28-8-2017 16:00,2.2755746463E9,1.303640309012568E8
28-8-2017 17:00,2.14185424617E9,2.2585228116349936E7
28-8-2017 18:00,2.0518801423E9,-4.9764883163874626E7
28-8-2017 19:00,1.89105066037E9,-1.8349215842241073E8
28-8-2017 20:00,1.90697853923E9,-1.772830035095923E8
28-8-2017 21:00,2.05897651988E9,1.1901706504404092E8
28-8-2017 22:00,2.1336192246E9,2.0027443950665188E8
28-8-2017 23:00,2.09996604265E9,3.097864044290495E7
29-8-2017 0:00,2.03704272633E9,6.174296934167695E7
29-8-2017 1:00,2.06861927845E9,1.3885817691191125E8
29-8-2017 2:00,2.04918782855E9,1.2678439567102957E8
29-8-2017 3:00,2.0149454701E9,1.035001987446909E8
29-8-2017 4:00,2.05228443727E9,1.6617169843928456E8
29-8-2017 5:00,2.18751584412E9,2.2022792251392913E8
29-8-2017 6:00,2.12915721525E9,7.467324260935044E7
29-8-2017 7:00,2.13773385502E9,-1.047909053121686E7
29-8-2017 8:00,2.10584124422E9,-3.3651945498064995E7
29-8-2017 9:00,1.4757151999E9,-5.804340651704149E8
29-8-2017 10:00,1.89130059287E9,-1.594805753042426E8
29-8-2017 11:00,1.81504408163E9,-2.08669646423702E8
29-8-2017 12:00,2.04825454985E9,-3.3020073226804018E7
29-8-2017 13:00,1.93939136563E9,-2.1070039129842806E8
29-8-2017 14:00,2.11463115877E9,1.2486947494879246E7
29-8-2017 15:00,2.02203455317E9,-7.128146471612215E7
29-8-2017 16:00,2.04319935432E9,-1.1511519200365853E8
29-8-2017 17:00,2.00584029278E9,-1.39818546326185E8
29-8-2017 18:00,2.101592033E9,-3.945264476180911E7
29-8-2017 19:00,2.15126463017E9,2.404115332562065E7
29-8-2017 20:00,2.14523253053E9,-4027630.407245159
29-8-2017 21:00,2.20871048207E9,1.8958848591963077E8
29-8-2017 22:00,2.14802903513E9,1.225309745741539E8
29-8-2017 23:00,2.09003557763E9,-9.261442834904194E7
30-8-2017 0:00,2.14760003072E9,4.8504269412240505E7
30-8-2017 1:00,2.28122935315E9,2.069762307759652E8
30-8-2017 2:00,2.26052307512E9,1.6948116778704214E8
30-8-2017 3:00,2.25974809235E9,1.525870176935463E8
30-8-2017 4:00,2.26143001108E9,1.5313680413665724E8
30-8-2017 5:00,2.24285774577E9,1.512856232950449E7
30-8-2017 6:00,2.23154409373E9,-1.1646432126462078E8
30-8-2017 7:00,2.22776553637E9,-2.4700642882789516E8
30-8-2017 8:00,2.31474068705E9,-1.79111079058918E8
30-8-2017 9:00,2.26209188193E9,-1.7299696428323793E8
30-8-2017 10:00,2.14129482688E9,-3.166195380860665E8
30-8-2017 11:00,2.0808707857E9,-3.783514968719528E8
30-8-2017 12:00,2.29988883415E9,-2.3665160093472767E8
30-8-2017 13:00,2.30293890727E9,-3.145890131939044E8
30-8-2017 14:00,2.33305290572E9,-2.512193032423172E8
30-8-2017 15:00,2.67527311545E9,8.325346658079767E7
30-8-2017 16:00,3.3007085297E9,6.275112689263439E8
30-8-2017 17:00,3.2283697649E9,5.624594684095483E8
30-8-2017 18:00,3.1435896935E9,4.6837427341088533E8
30-8-2017 19:00,2.93975773513E9,2.6251217232675362E8
30-8-2017 20:00,2.72036278762E9,8051026.275133133
30-8-2017 21:00,2.8566382769E9,2.76363609512506E8
30-8-2017 22:00,2.60618289995E9,2.02982681289258E7
30-8-2017 23:00,2.52131908332E9,-2.229131024930191E8
31-8-2017 0:00,2.58107523752E9,-8.060845230812454E7
31-8-2017 1:00,2.7712480479E9,1.5097783166449356E8
31-8-2017 2:00,2.59511824765E9,-2.8820355987066746E7
31-8-2017 3:00,2.81725277258E9,1.8738452394768238E8
31-8-2017 4:00,2.7388833312E9,1.1869009178989363E8
31-8-2017 5:00,2.49314632965E9,-2.164381934263525E8
31-8-2017 6:00,2.69796200325E9,-9.667944534732246E7
31-8-2017 7:00,2.72516066148E9,-1.609698129382882E8
31-8-2017 8:00,2.76729877835E9,-9.740195204847097E7
31-8-2017 9:00,2.69066580715E9,-6.601668008759642E7
31-8-2017 10:00,2.57192906878E9,-1.6193784240308285E8
31-8-2017 11:00,2.5232483888E9,-1.6646708725905228E8
31-8-2017 12:00,3.11793631898E9,4.049801433748431E8
31-8-2017 13:00,3.29786401792E9,5.611424545541062E8
31-8-2017 14:00,3.02164020443E9,3.728749675599656E8
31-8-2017 15:00,3.04668570178E9,4.429898408531904E8
31-8-2017 16:00,3.18489371128E9,5.532263279791098E8
31-8-2017 17:00,2.71958587697E9,1.5076478883853722E8
31-8-2017 18:00,2.79309551617E9,2.619780933173294E8
31-8-2017 19:00,2.40085345962E9,-8.722259531022882E7
31-8-2017 20:00,2.14081412245E9,-3.344347912024684E8
31-8-2017 21:00,2.06075102327E9,-2.3308821811794043E8
31-8-2017 22:00,1.92578208083E9,-3.2542996586915565E8
31-8-2017 23:00,1.96450935735E9,-3.987747927593832E8
1-9-2017 0:00,1.90347417775E9,-3.3079616591040707E8
1-9-2017 1:00,1.98653646722E9,-1.7610948719377136E8
1-9-2017 2:00,1.85513984457E9,-2.8441401869284415E8
1-9-2017 3:00,1.90280000887E9,-2.1885389606472468E8
1-9-2017 4:00,1.96698015947E9,-1.2055037059233761E8
1-9-2017 5:00,1.96185598443E9,-2.3391231020352507E8
1-9-2017 6:00,2.32406353015E9,2.9569442292813778E7
1-9-2017 7:00,2.26545241208E9,-1.3414714081825829E8
1-9-2017 8:00,2.178616849E9,-2.0793437855001402E8
1-9-2017 9:00,2.2257568851E9,-9.2961951146873E7
1-9-2017 10:00,2.186775141E9,-1.5292829638395452E8
1-9-2017 11:00,2.21309983613E9,-1.2643408539894438E8
1-9-2017 12:00,2.81319490125E9,4.150564611426835E8
1-9-2017 13:00,2.72683646725E9,2.6204228640207577E8
1-9-2017 14:00,2.64557580263E9,2.233261126738968E8
1-9-2017 15:00,2.61127401548E9,1.8679806671891832E8
1-9-2017 16:00,2.37158493282E9,-1.2776889938309956E8
1-9-2017 17:00,2.38601071575E9,-8.635962382769632E7
1-9-2017 18:00,2.5239015803E9,4.4821561448302746E7
1-9-2017 19:00,2.88977424243E9,4.073849687070713E8
1-9-2017 20:00,2.56691565033E9,5.3824724273964405E7
1-9-2017 21:00,2.62478908313E9,2.6734800003750467E8
1-9-2017 22:00,2.47161328092E9,1.2990414403051186E8
1-9-2017 23:00,2.36080437003E9,-1.2183382729614067E8
2-9-2017 0:00,2.24854242153E9,-1.3374906649122715E8
2-9-2017 1:00,2.25505473508E9,-7.219042136316729E7
2-9-2017 2:00,2.2952232425E9,-2.8958317562346935E7
2-9-2017 3:00,2.1816933823E9,-1.4754758943345213E8
2-9-2017 4:00,2.20564145542E9,-1.118167491134839E8
2-9-2017 5:00,2.28962227557E9,-1.3651717410505772E8
2-9-2017 6:00,2.47172806148E9,-4.840304878685522E7
2-9-2017 7:00,2.57233385495E9,-4.81161592434783E7
2-9-2017 8:00,2.53644762435E9,-6.093248283225298E7
2-9-2017 9:00,2.50450832677E9,9845031.691173077
2-9-2017 10:00,2.32647705233E9,-1.5790074841948652E8
2-9-2017 11:00,2.40613018138E9,-4.698975012547922E7
2-9-2017 12:00,2.85333771048E9,3.813197140218992E8
2-9-2017 13:00,2.77210618558E9,2.6813334784123898E8
2-9-2017 14:00,2.78774191055E9,3.584929805388408E8
2-9-2017 15:00,2.97201535117E9,5.708357800454798E8
2-9-2017 16:00,2.84735318887E9,4.019806256753421E8
2-9-2017 17:00,2.69570573987E9,3.023570705191922E8
2-9-2017 18:00,2.47556303547E9,9.19945460548687E7
2-9-2017 19:00,2.4375592693E9,6.523410598243523E7
2-9-2017 20:00,2.663551246E9,2.7789884050093174E8
2-9-2017 21:00,1.6096548393E9,-5.910964365117645E8
2-9-2017 22:00,0.0,-2.1569034620697837E9
2-9-2017 23:00,2.25088801628E9,-2.079034722810936E7
3-9-2017 0:00,2.01705933765E9,-1.2792829767250705E8
3-9-2017 1:00,2.26249933368E9,2.097596062350397E8
3-9-2017 2:00,2.28059737213E9,2.6467238026381636E8
3-9-2017 3:00,2.11279359668E9,1.2262945711155033E8
3-9-2017 4:00,2.00689723067E9,5.9954884597162485E7
3-9-2017 5:00,2.43000178745E9,3.8542778292643785E8
3-9-2017 6:00,2.30340532457E9,1.8106685934774065E8
3-9-2017 7:00,2.2285792258E9,2.2201485026803017E7
3-9-2017 8:00,2.36767210867E9,2.0587892383224535E8
3-9-2017 9:00,2.32803473562E9,2.6153227446612072E8
3-9-2017 10:00,2.16407168645E9,9.681430587204862E7
3-9-2017 11:00,2.0065379836E9,-4.0683683564781666E7
3-9-2017 12:00,2.0986111463E9,2.9887358588511705E7
3-9-2017 13:00,2.06738316472E9,-3.163056602682233E7
3-9-2017 14:00,1.89948812168E9,-1.256582857180624E8
3-9-2017 15:00,1.76841902968E9,-2.3139840235442924E8
3-9-2017 16:00,1.65465331223E9,-3.917082217173071E8
3-9-2017 17:00,1.5767719102E9,-4.0975666603889656E8
3-9-2017 18:00,1.85547412285E9,-1.2201575159742737E8
3-9-2017 19:00,2.00811406017E9,3.918875543505049E7
3-9-2017 20:00,1.83600827938E9,-1.4610119473873544E8
3-9-2017 21:00,1.78318666025E9,-2.115906981393504E7
3-9-2017 22:00,1.901920086E9,1.3314936486075258E8
3-9-2017 23:00,1.96205413202E9,6.827399608448648E7
4-9-2017 0:00,1.91625928052E9,1.3912521929451132E8
4-9-2017 1:00,1.86495817335E9,1.5015928461543322E8
4-9-2017 2:00,1.83686181577E9,1.2551449012605453E8
4-9-2017 3:00,1.80893036285E9,8.704984178651595E7
4-9-2017 4:00,1.83461717205E9,1.2028315909166026E8
4-9-2017 5:00,1.84636714283E9,-6190856.607141733
4-9-2017 6:00,1.77644296762E9,-1.8929420734166694E8
4-9-2017 7:00,1.690562694E9,-3.9457604285584617E8
4-9-2017 8:00,1.6647780641E9,-4.0590338261511374E8
4-9-2017 9:00,1.70312410927E9,-2.973219134957571E8
4-9-2017 10:00,1.99686192643E9,-3.300864082821083E7
4-9-2017 11:00,2.22258246757E9,1.838962465791521E8
4-9-2017 12:00,2.11665479545E9,3.623318700339174E7
4-9-2017 13:00,2.07853980713E9,-6.674129334607816E7
4-9-2017 14:00,2.04504351392E9,-6.346129482562137E7
4-9-2017 15:00,2.01006465623E9,-1.1208600791445494E8
4-9-2017 16:00,2.35545764927E9,1.4817758796189404E8
4-9-2017 17:00,2.25741826535E9,6.748848822026634E7
4-9-2017 18:00,2.11829943867E9,-1.136248522070713E8
4-9-2017 19:00,2.00681056878E9,-2.6951847814888954E8
4-9-2017 20:00,2.31798154855E9,-2.167916434416437E7
4-9-2017 21:00,2.39103482405E9,1.994069665824108E8
4-9-2017 22:00,2.28071950753E9,9.380227805207872E7
4-9-2017 23:00,2.22312656772E9,-1.2162616602985477E8
5-9-2017 0:00,2.26137431392E9,631425.286866188
5-9-2017 1:00,2.5191314787E9,3.0128995542350674E8
5-9-2017 2:00,2.4884212645E9,2.5114706007831573E8
5-9-2017 3:00,2.51435537125E9,2.4073285194384766E8
5-9-2017 4:00,2.37091397485E9,7.964145649163485E7
5-9-2017 5:00,2.4377449532E9,-2.1135573519714355E7
5-9-2017 6:00,2.34027597972E9,-2.5599013120453644E8
5-9-2017 7:00,2.57542367912E9,-1.6439916718473196E8
5-9-2017 8:00,2.73385006097E9,-1.0435648131483555E7
5-9-2017 9:00,2.35110673828E9,-3.5067735364153767E8
5-9-2017 10:00,2.23330714442E9,-5.2925201354303837E8
5-9-2017 11:00,2.51023030975E9,-2.926767655721483E8
5-9-2017 12:00,2.70029712685E9,-1.672594993176279E8
5-9-2017 13:00,3.1256138428E9,1.7044867501741457E8
5-9-2017 14:00,2.97334654157E9,2.9687133308215618E7
5-9-2017 15:00,3.12085911768E9,1.3639952266556215E8
5-9-2017 16:00,3.21906654623E9,1.2271090729393053E8
5-9-2017 17:00,3.22060113217E9,1.2572381517408514E8
5-9-2017 18:00,2.74771472533E9,-4.1357960966023874E8
5-9-2017 19:00,2.8574626491E9,-3.7459703169434595E8
5-9-2017 20:00,3.38993393145E9,7.100382412089539E7
5-9-2017 21:00,2.98342323225E9,-1.8383098415972948E8
5-9-2017 22:00,3.55399346537E9,3.939564737195792E8
5-9-2017 23:00,4.04001493543E9,7.226873277366409E8
6-9-2017 0:00,3.71604050292E9,4.8215368613558054E8
6-9-2017 1:00,3.65068890342E9,4.95670508439384E8
6-9-2017 2:00,3.65083228755E9,5.094375448391447E8
6-9-2017 3:00,3.4718314676E9,3.257216866657939E8
6-9-2017 4:00,3.40039823697E9,2.660524453789482E8
6-9-2017 5:00,3.66229752188E9,4.1380516228329563E8
6-9-2017 6:00,3.42507197728E9,9.553494528698444E7
6-9-2017 7:00,3.3834352586E9,-3.3150297670894623E7
6-9-2017 8:00,3.39233556422E9,3.196501000560236E7
6-9-2017 9:00,3.72900396498E9,4.8484781884535503E8
6-9-2017 10:00,3.38001224198E9,1.4567968503031254E8
6-9-2017 11:00,2.77738271147E9,-4.280134764309349E8
6-9-2017 12:00,2.81310006968E9,-3.7390393350756645E8
6-9-2017 13:00,3.00798163403E9,-1.7964636536147928E8
6-9-2017 14:00,3.04583168022E9,-4.585511472304487E7
6-9-2017 15:00,2.60962479695E9,-4.3965074401035786E8
6-9-2017 16:00,2.46712477477E9,-6.121092781022143E8
6-9-2017 17:00,2.49382666717E9,-5.097323456099639E8
6-9-2017 18:00,2.55994622342E9,-4.464058814075384E8
6-9-2017 19:00,3.07191887322E9,5.48029489405818E7
6-9-2017 20:00,3.24676652633E9,2.0746521819310522E8
6-9-2017 21:00,3.25894622123E9,4.005513540715213E8
6-9-2017 22:00,2.99129612145E9,1.6784216943102217E8
6-9-2017 23:00,2.78915305925E9,-1.6393825548184586E8
7-9-2017 0:00,2.89976681057E9,5.661055780354118E7
7-9-2017 1:00,2.85116647462E9,6.316052251049614E7
7-9-2017 2:00,2.63485412783E9,-1.6615701618880224E8
7-9-2017 3:00,2.91381347683E9,8.003539365495348E7
7-9-2017 4:00,2.80557502725E9,-4.671243737200308E7
7-9-2017 5:00,2.73431558668E9,-2.884992766561518E8
7-9-2017 6:00,2.9512817808E9,-2.060791141881442E8
7-9-2017 7:00,2.84577577177E9,-4.51969918130321E8
7-9-2017 8:00,2.93972958587E9,-3.5096771885719013E8
7-9-2017 9:00,3.03932582363E9,-2.047781997191782E8
7-9-2017 10:00,3.5144198715E9,2.074016150860567E8
7-9-2017 11:00,3.71894772877E9,3.6681365033649015E8
7-9-2017 12:00,3.4646771662E9,7.064053056252575E7
7-9-2017 13:00,3.29494472753E9,-1.781769446274457E8
7-9-2017 14:00,3.3816680296E9,-7.65225789084816E7
7-9-2017 15:00,3.61024396655E9,1.1223046703244162E8
7-9-2017 16:00,3.74290254272E9,1.3142115032025957E8
7-9-2017 17:00,3.8137320806E9,2.1743804128183556E8
7-9-2017 18:00,3.45478593268E9,-2.1536167790175962E8
7-9-2017 19:00,3.44143180733E9,-3.141621407632098E8
7-9-2017 20:00,3.61887640135E9,-2.2890193233520603E8
7-9-2017 21:00,3.68284572815E9,-6008929.257888317
7-9-2017 22:00,3.68976944372E9,1.2366984411294937E7
7-9-2017 23:00,4.10882433448E9,2.782253583679862E8
8-9-2017 0:00,4.09895777455E9,3.535757240393095E8
8-9-2017 1:00,4.06263867097E9,3.793014385121341E8
8-9-2017 2:00,4.11529075335E9,4.229321233464956E8
8-9-2017 3:00,3.82806461613E9,1.054997845800767E8
8-9-2017 4:00,4.27869486698E9,5.379609375218449E8
8-9-2017 5:00,4.03561710138E9,1.3469291858101463E8
8-9-2017 6:00,3.95177106188E9,-7.048253574484491E7
8-9-2017 7:00,4.04780541083E9,-1.0145076756744671E8
8-9-2017 8:00,3.92907196727E9,-1.9558395806380892E8
8-9-2017 9:00,3.90078167345E9,-1.1812165062300396E8
8-9-2017 10:00,3.76907038097E9,-2.5670446661852837E8
8-9-2017 11:00,3.85841664393E9,-1.5774568494745064E8
8-9-2017 12:00,3.95547588342E9,-3.4103212779783726E7
8-9-2017 13:00,4.16265490522E9,2.4324026621125126E8
8-9-2017 14:00,4.20942043947E9,4.5163725733781147E8
8-9-2017 15:00,3.91704212172E9,2.6491243761403608E8
8-9-2017 16:00,4.51711280565E9,8.957163817185946E8
8-9-2017 17:00,4.30013776928E9,8.263576900872021E8
8-9-2017 18:00,4.20512599953E9,7.793485485252929E8
8-9-2017 19:00,4.09589507172E9,7.029054438119755E8
8-9-2017 20:00,4.0709415607E9,7.086852241331663E8
8-9-2017 21:00,4.05310516505E9,9.29327715059205E8
8-9-2017 22:00,4.36712399353E9,1.332847999597887E9
8-9-2017 23:00,4.67934707038E9,1.569853380553955E9
9-9-2017 0:00,1.00929023118E9,-1.938166694408967E9
9-9-2017 1:00,0.0,-2.7948538211272817E9
9-9-2017 2:00,0.0,-2.7162276552962713E9
9-9-2017 3:00,0.0,-2.6602093502198753E9
9-9-2017 4:00,0.0,-2.5943743955763936E9
9-9-2017 5:00,0.0,-2.6524563487969193E9
9-9-2017 6:00,2.41080161822E9,-2.5799637382966042E8
9-9-2017 7:00,6.47230813112E9,3.781660927184299E9
9-9-2017 8:00,5.73195372603E9,3.175229797795429E9
9-9-2017 9:00,4.68687687208E9,2.264049402545084E9
9-9-2017 10:00,3.41597851412E9,1.0113067681748562E9
9-9-2017 11:00,3.0213818692E9,6.500355202526345E8
9-9-2017 12:00,2.8372316125E9,5.299388236679883E8
9-9-2017 13:00,2.44125230902E9,1.3092292133590508E8
9-9-2017 14:00,2.16101961383E9,-6.34284735040648E7
9-9-2017 15:00,1.97044947353E9,-2.253192764966631E8
9-9-2017 16:00,1.8560659568E9,-3.8721892974948955E8
9-9-2017 17:00,1.593458908E9,-5.1966166127890754E8
9-9-2017 18:00,1.55193951347E9,-5.412032472941895E8
9-9-2017 19:00,1.43073198153E9,-6.612698146544294E8
9-9-2017 20:00,1.16904078702E9,-9.191910600151093E8
9-9-2017 21:00,7.0621349397E8,-1.1085149874960413E9
9-9-2017 22:00,1.2714598518E9,-4.202486469535501E8
9-9-2017 23:00,1.49081466097E9,-2.426634440737958E8
10-9-2017 0:00,1.69145802453E9,1.5230579105334544E8
10-9-2017 1:00,1.66001576453E9,2.3851008251194906E8
10-9-2017 2:00,1.65086858697E9,2.7012179474766684E8
10-9-2017 3:00,1.65733032963E9,2.933115096949358E8
10-9-2017 4:00,1.6198659475E9,2.8017129534819055E8
10-9-2017 5:00,1.58228141718E9,9.156814877980518E7
10-9-2017 6:00,1.6331456787E9,3.603357547201848E7
10-9-2017 7:00,1.65272772328E9,-5.612518609562516E7
10-9-2017 8:00,1.61250755275E9,-4.814402143516588E7
10-9-2017 9:00,1.48959723712E9,-9.502425513574553E7
10-9-2017 10:00,1.46282115687E9,-1.6462759889975882E8
10-9-2017 11:00,1.45187480773E9,-2.0454590696436262E8
10-9-2017 12:00,1.35629275557E9,-2.846143057804055E8
10-9-2017 13:00,1.47852626555E9,-1.7765903038621807E8
10-9-2017 14:00,1.67392475502E9,8.883002321667194E7
10-9-2017 15:00,1.67134278367E9,9.891264876463866E7
10-9-2017 16:00,1.65808354707E9,2.0847299253816843E7
10-9-2017 17:00,1.70800732108E9,1.5234268047381973E8
10-9-2017 18:00,1.78379798933E9,1.8894565497261262E8
10-9-2017 19:00,1.74208329288E9,8.558438199289632E7
10-9-2017 20:00,1.51468007622E9,-1.96152910302207E8
10-9-2017 21:00,1.33485806615E9,-1.7072149101886725E8
10-9-2017 22:00,1.56722866205E9,1.149131990386746E8
10-9-2017 23:00,1.61308611295E9,4.917471804335737E7
11-9-2017 0:00,1.52953369383E9,8.896286261180425E7
11-9-2017 1:00,1.48420938072E9,1.4495917804754233E8
11-9-2017 2:00,1.49588970688E9,1.781617480581839E8
11-9-2017 3:00,1.44730170443E9,1.2564201519654274E8
11-9-2017 4:00,1.4614297992E9,1.4121412097978616E8
11-9-2017 5:00,1.43843938835E9,-2.9439867124155045E7
11-9-2017 6:00,1.44172151002E9,-1.2632206983468318E8
11-9-2017 7:00,1.41202517773E9,-2.6135910051162577E8
11-9-2017 8:00,1.37225163958E9,-2.423615419595337E8
11-9-2017 9:00,1.498874985E9,-3.814613989536047E7
11-9-2017 10:00,1.62802017053E9,4.6617146501826525E7
11-9-2017 11:00,1.5677153188E9,-4.552866859017348E7
11-9-2017 12:00,1.54855856913E9,-3.828332020262575E7
11-9-2017 13:00,1.57191665772E9,-3.2502076145261288E7
11-9-2017 14:00,1.38214763988E9,-1.560282402826054E8
11-9-2017 15:00,1.33159344728E9,-1.9998955060716677E8
11-9-2017 16:00,1.68146875747E9,7.773271533939457E7
11-9-2017 17:00,1.74894367485E9,2.2592920176726794E8
11-9-2017 18:00,1.54199713775E9,-3.1627859451414824E7
11-9-2017 19:00,1.34006152015E9,-3.1025489733495116E8
11-9-2017 20:00,1.40686522873E9,-3.081465918188219E8
11-9-2017 21:00,1.92864376092E9,4.135518126740198E8
11-9-2017 22:00,1.91248946507E9,4.4382219858184767E8
11-9-2017 23:00,1.63243558013E9,4.5262532296694756E7
12-9-2017 0:00,1.50732675608E9,3.542544021168232E7
12-9-2017 1:00,1.46016688252E9,7.607824478609347E7
12-9-2017 2:00,1.42441355203E9,4.542848470319724E7
12-9-2017 3:00,1.38938605112E9,-1.1372476815816402E7
12-9-2017 4:00,1.38900806345E9,-3.0367892329588175E7
12-9-2017 5:00,1.38971948507E9,-1.9100278510654187E8
12-9-2017 6:00,1.36703484885E9,-3.2465501139726853E8
12-9-2017 7:00,1.52976142155E9,-2.7790607502321076E8
12-9-2017 8:00,1.86417710497E9,1.0881342091081357E8
12-9-2017 9:00,1.58232069868E9,-9.221302960068202E7
12-9-2017 10:00,1.49783116648E9,-2.209627821865852E8
12-9-2017 11:00,1.6821449512E9,-6.968265090027165E7
12-9-2017 12:00,1.77148932275E9,5.8628577786575556E7
12-9-2017 13:00,2.52155587488E9,8.01306176895102E8
12-9-2017 14:00,2.18379055475E9,5.374225014955075E8
12-9-2017 15:00,1.82434865295E9,1.9098826880640316E8
12-9-2017 16:00,1.80094159662E9,1.0056714313129497E8
12-9-2017 17:00,1.87243783177E9,2.697635463022258E8
12-9-2017 18:00,1.76061199157E9,1.1373298875125384E8
12-9-2017 19:00,1.55193113502E9,-1.6885642020187306E8
12-9-2017 20:00,1.43436689532E9,-3.436496787602811E8
12-9-2017 21:00,1.27920474502E9,-2.7106758705440664E8
12-9-2017 22:00,1.07971014248E9,-3.9781994189112306E8
12-9-2017 23:00,1.50890503385E9,-6.088370297094321E7
13-9-2017 0:00,1.51941827757E9,8.961326095499253E7
13-9-2017 1:00,1.43302735463E9,1.2331738280495977E8
13-9-2017 2:00,1.37722700502E9,1.0143698470872307E8
13-9-2017 3:00,1.4099986129E9,1.3992379741949725E8
13-9-2017 4:00,1.42035421687E9,1.5667057677913594E8
13-9-2017 5:00,1.39132101112E9,-2.4463297955138683E7
13-9-2017 6:00,1.3679817506E9,-1.463270539985292E8
13-9-2017 7:00,1.31423173855E9,-3.032271776670773E8
13-9-2017 8:00,1.38110417372E9,-1.6716901349508262E8
13-9-2017 9:00,1.40633567403E9,-6.808646073148727E7
13-9-2017 10:00,1.27537299025E9,-2.531408511062796E8
13-9-2017 11:00,1.62820519223E9,5.5147824744249344E7
13-9-2017 12:00,1.60339798967E9,7.267118188355851E7
13-9-2017 13:00,1.61709190392E9,6.922889714636397E7
13-9-2017 14:00,1.67772490648E9,1.9177924020800424E8
13-9-2017 15:00,1.60453074702E9,1.1832886763291264E8
13-9-2017 16:00,1.5404554694E9,-2.7568510323654175E7
13-9-2017 17:00,1.53108796248E9,4.899740787630606E7
13-9-2017 18:00,1.33386050683E9,-2.1538654112117004E8
13-9-2017 19:00,1.35729562185E9,-2.9186220915131664E8
13-9-2017 20:00,1.30376636322E9,-4.238980928592231E8
13-9-2017 21:00,1.27687198757E9,-2.3622738956999826E8
13-9-2017 22:00,1.52644892752E9,7.139759363661289E7
13-9-2017 23:00,1.66232075032E9,1.0067280723561811E8
14-9-2017 0:00,1.6952987814E9,2.5747297642553425E8
14-9-2017 1:00,1.67509875478E9,3.4267629728040457E8
14-9-2017 2:00,1.66339879117E9,3.467386023201759E8
14-9-2017 3:00,1.64637875492E9,3.159483723700857E8
14-9-2017 4:00,1.6612306492E9,3.1522698253799176E8
14-9-2017 5:00,1.63819147108E9,1.0071031949371767E8
14-9-2017 6:00,1.60817160558E9,-6.4013408335015774E7
14-9-2017 7:00,1.57716943197E9,-2.3395985218943572E8
14-9-2017 8:00,1.52763272102E9,-2.460506009827373E8
14-9-2017 9:00,1.35424467687E9,-3.951737305569861E8
14-9-2017 10:00,1.31008231232E9,-5.458661280805123E8
14-9-2017 11:00,1.42426012567E9,-5.303485537256124E8
14-9-2017 12:00,1.43381735037E9,-5.177039069336853E8
14-9-2017 13:00,1.51027724453E9,-5.0118663075799584E8
14-9-2017 14:00,1.58602434342E9,-4.085456686265173E8
14-9-2017 15:00,1.51451110385E9,-5.2663817656899095E8
14-9-2017 16:00,2.07348672068E9,-9.735242078850412E7
14-9-2017 17:00,2.08081691752E9,-4.140117619651079E7
14-9-2017 18:00,2.17066093155E9,-6.721106597748661E7
14-9-2017 19:00,2.53824125372E9,1.489097334418087E8
14-9-2017 20:00,3.10571779147E9,5.910555308408642E8
14-9-2017 21:00,3.34841403452E9,1.0187320287778211E9
14-9-2017 22:00,3.11054311995E9,8.078085376037884E8
14-9-2017 23:00,2.81315357318E9,3.73078009467648E8
15-9-2017 0:00,2.8637044487E9,5.14883025587574E8
15-9-2017 1:00,2.73495414385E9,4.951111989683962E8
15-9-2017 2:00,2.56664480037E9,3.4267326934522295E8
15-9-2017 3:00,2.53154922512E9,2.9258892993531656E8
15-9-2017 4:00,2.57348246525E9,3.1525112661051273E8
15-9-2017 5:00,2.63387084193E9,2.3705786769803762E8
15-9-2017 6:00,2.77445611693E9,2.990325788357601E8
15-9-2017 7:00,2.6011294315E9,4.324010601643801E7
15-9-2017 8:00,2.51535870708E9,5.5448218388810635E7
15-9-2017 9:00,2.20751687478E9,-1.2101916005339813E8
15-9-2017 10:00,2.06486334367E9,-2.659453755742545E8
15-9-2017 11:00,1.74695830937E9,-5.799316867935798E8
15-9-2017 12:00,1.93120324538E9,-2.7514679135763097E8
15-9-2017 13:00,2.26046481977E9,1.0478064753285885E8
15-9-2017 14:00,1.93391969438E9,-9.647919039390707E7
15-9-2017 15:00,1.75103665333E9,-2.1884965359184623E8
15-9-2017 16:00,1.89178467792E9,-1.022443492823894E8
15-9-2017 17:00,2.14334622887E9,2.252069978300705E8
15-9-2017 18:00,2.30921612787E9,2.9150670833402824E8
15-9-2017 19:00,2.1118198299E9,-4.4316726308801174E7
15-9-2017 20:00,1.86610271057E9,-3.9760757548434997E8
15-9-2017 21:00,1.67774888455E9,-4.390477844233887E8
15-9-2017 22:00,1.53161599003E9,-5.978156891617906E8
15-9-2017 23:00,1.36019999892E9,-9.457988475568025E8
16-9-2017 0:00,1.61052438052E9,-6.452701366205933E8
16-9-2017 1:00,2.0511481027E8,-1.986893349572132E9
16-9-2017 2:00,0.0,-2.2247948524665627E9
16-9-2017 3:00,0.0,-2.2897694387745986E9
16-9-2017 4:00,0.0,-2.361505493260426E9
16-9-2017 5:00,5.00366819752E9,2.4432112228933163E9
16-9-2017 6:00,6.26652749992E9,3.570287564791911E9
16-9-2017 7:00,6.44363393772E9,3.608141002952105E9
16-9-2017 8:00,5.62949934058E9,2.8392524221345696E9
16-9-2017 9:00,4.62706048733E9,1.884448155432817E9
16-9-2017 10:00,3.61003192377E9,7.785548494330478E8
16-9-2017 11:00,3.14670693765E9,2.3087814187791395E8
16-9-2017 12:00,2.79129926978E9,-7.7386435823699E7
16-9-2017 13:00,2.55388715998E9,-3.115499915965061E8
16-9-2017 14:00,2.17780482722E9,-6.119814056296144E8
16-9-2017 15:00,2.09407867065E9,-6.86128931081115E8
16-9-2017 16:00,1.8894788027E9,-9.673501715007858E8
16-9-2017 17:00,2.29712571233E9,-3.938046713478255E8
16-9-2017 18:00,2.80368598758E9,9.200917667109823E7
16-9-2017 19:00,2.5052068362E9,-2.691246793538227E8
16-9-2017 20:00,2.19425037428E9,-6.071578146639414E8
16-9-2017 21:00,1.20417652808E9,-1.323093200871674E9
16-9-2017 22:00,9.7324282845E8,-1.4409528636171434E9
16-9-2017 23:00,2.20212209347E9,-2.625754710837264E8
17-9-2017 0:00,2.53780670658E9,2.4755514081606817E8
17-9-2017 1:00,2.58760922502E9,4.2185237880138636E8
17-9-2017 2:00,2.55625428092E9,4.149531187749176E8
17-9-2017 3:00,2.7414979154E9,5.911368279779706E8
17-9-2017 4:00,2.99732776477E9,8.286660950103383E8
17-9-2017 5:00,2.54363840955E9,1.9155381014294863E8
17-9-2017 6:00,2.83907720797E9,3.699356489150691E8
17-9-2017 7:00,2.64883298335E9,5.95496098974309E7
17-9-2017 8:00,2.52593137588E9,5059595.772640228
17-9-2017 9:00,2.53967998077E9,8.229825971630192E7
17-9-2017 10:00,2.56539913728E9,3.2155955572577953E7
17-9-2017 11:00,2.41029130155E9,-1.959787062934065E8
17-9-2017 12:00,2.15276188045E9,-3.801665666676235E8
17-9-2017 13:00,2.40546843678E9,-1.2436014806672859E8
17-9-2017 14:00,2.29861960237E9,-1.5792381376917934E8
17-9-2017 15:00,2.14901258532E9,-3.016175277172446E8
17-9-2017 16:00,2.30790080972E9,-2.2456070925904417E8
17-9-2017 17:00,2.7310580067E9,3.107097102559948E8
17-9-2017 18:00,2.5035171457E9,-2547979.0585360527
17-9-2017 19:00,2.38430492095E9,-2.524366387739706E8
17-9-2017 20:00,2.27965520065E9,-4.474601383570819E8
17-9-2017 21:00,2.28739584873E9,-2.1167129563405323E8
17-9-2017 22:00,2.1569763765E9,-2.76622792137136E8
17-9-2017 23:00,2.31284475358E9,-2.1850610100583363E8
18-9-2017 0:00,2.68064918787E9,2.746708932670002E8
18-9-2017 1:00,2.55037653622E9,2.80025562087656E8
18-9-2017 2:00,2.75841603423E9,5.201873595476284E8
18-9-2017 3:00,2.86176986915E9,6.208201689002519E8
18-9-2017 4:00,2.53836688843E9,2.829763166692953E8
18-9-2017 5:00,3.03705294263E9,6.207965712488084E8
18-9-2017 6:00,2.826204633E9,3.186458811324887E8
18-9-2017 7:00,2.82654904355E9,2.249882408350525E8
18-9-2017 8:00,2.65165235148E9,1.486972974410391E8
18-9-2017 9:00,2.69244654297E9,2.745068828652129E8
18-9-2017 10:00,2.2910258373E9,-1.8410213929736805E8
18-9-2017 11:00,2.17107701577E9,-3.600830292891047E8
18-9-2017 12:00,2.18877729323E9,-2.3717285817082667E8
18-9-2017 13:00,2.2693052234E9,-1.351402661547656E8
18-9-2017 14:00,2.1367789116E9,-1.7819366793509603E8
18-9-2017 15:00,2.25724249643E9,-3.692861668826103E7
18-9-2017 16:00,2.29494714408E9,-6.77118626370902E7
18-9-2017 17:00,4.435469547E7,-2.18827350042706E9
18-9-2017 18:00,2.16690216337E9,-1.44710305652133E8
18-9-2017 19:00,2.6545330229E9,2.159255983450551E8
18-9-2017 20:00,2.4067150153E9,-1.1386008467791319E8
18-9-2017 21:00,2.37647392965E9,8.966724666559982E7
18-9-2017 22:00,2.60062145495E9,3.834876574459567E8
18-9-2017 23:00,2.14915933372E9,-1.611649922838025E8
19-9-2017 0:00,2.18591134222E9,3697108.3031249046
19-9-2017 1:00,2.23668424278E9,1.7674797594148064E8
19-9-2017 2:00,2.4840947619E9,4.394654555702567E8
19-9-2017 3:00,2.60260550237E9,5.37112115864811E8
19-9-2017 4:00,2.54051476895E9,4.3995836495886993E8
19-9-2017 5:00,2.54556077473E9,2.600954237214265E8
19-9-2017 6:00,2.5764200075E9,1.7880657774280643E8
19-9-2017 7:00,2.54824857723E9,3.617242529643726E7
19-9-2017 8:00,2.33003866805E9,-9.983801475593281E7
19-9-2017 9:00,2.24352229318E9,-1.051477641050992E8
19-9-2017 10:00,2.43477296023E9,2.2253077581710815E7
19-9-2017 11:00,2.24234882873E9,-2.3454301773753E8
19-9-2017 12:00,2.1992518327E9,-1.6589644020851016E8
19-9-2017 13:00,2.07839693095E9,-2.4818294076307583E8
19-9-2017 14:00,2.300769249E9,7.850896839292192E7
19-9-2017 15:00,2.40616432785E9,2.182526167488637E8
19-9-2017 16:00,2.34665141595E9,1.0225394477760744E8
19-9-2017 17:00,2.27161615397E9,1.8948038489702535E8
19-9-2017 18:00,2.35602029107E9,2.1594610705580664E8
19-9-2017 19:00,1.96262304382E9,-2.864516766561465E8
19-9-2017 20:00,2.02869962527E9,-2.7962372713073564E8
19-9-2017 21:00,2.26077471458E9,2.1995456380171943E8
19-9-2017 22:00,2.13385035573E9,1.9492185489515185E8
19-9-2017 23:00,1.95495409032E9,-4.458992685603547E7
20-9-2017 0:00,2.03262937943E9,1.9156155769593072E8
20-9-2017 1:00,1.79611947775E9,1.1126836343266726E8
20-9-2017 2:00,1.6742368994E9,3.492133440681529E7
20-9-2017 3:00,1.6249154806E9,-6419118.974904776
20-9-2017 4:00,1.58253334165E9,-5.735966152428889E7
20-9-2017 5:00,1.5001716058E9,-3.041729186570065E8
20-9-2017 6:00,1.34469442648E9,-5.474148251433887E8
20-9-2017 7:00,1.52243137415E9,-4.588533942298758E8
20-9-2017 8:00,1.90787639607E9,3.685456237271595E7
20-9-2017 9:00,1.88041267533E9,9.631301612890649E7
20-9-2017 10:00,1.9302047031E9,8.436740335950017E7
20-9-2017 11:00,2.00627065418E9,9.719925890330863E7
20-9-2017 12:00,1.84007811753E9,6.0438162258435726E7
20-9-2017 13:00,1.94150543608E9,1.9134650356003642E8
20-9-2017 14:00,1.7939299527E9,1.363568693675089E8
20-9-2017 15:00,1.74694535075E9,1.1004667768326664E8
20-9-2017 16:00,2.1690852615E9,4.6120358269077873E8
20-9-2017 17:00,1.94125083585E9,3.807109464039774E8
20-9-2017 18:00,1.47615433283E9,-1.6949697036723566E8
20-9-2017 19:00,1.49577081283E9,-2.8899167538518167E8
20-9-2017 20:00,1.3818886039E9,-4.874710323498683E8
20-9-2017 21:00,1.41615073812E9,-1.859325602389214E8
20-9-2017 22:00,1.37229665505E9,-1.299607369635284E8
20-9-2017 23:00,1.28829918535E9,-2.759274688964062E8
21-9-2017 0:00,1.28542827568E9,-1.2522866220389485E8
21-9-2017 1:00,1.34050523547E9,8.772253533543396E7
21-9-2017 2:00,1.18721157153E9,-2.2088200470835447E7
21-9-2017 3:00,1.68600872722E9,4.812537562253809E8
21-9-2017 4:00,1.69386015448E9,4.747697947731323E8
21-9-2017 5:00,1.40272303272E9,-1.1628922934924603E7
21-9-2017 6:00,1.45470902157E9,-7.429181006913471E7
21-9-2017 7:00,1.43048163452E9,-2.1367519001705337E8
21-9-2017 8:00,1.7156462533E9,1.5854814743918562E8
21-9-2017 9:00,1.28733136463E9,-2.3340493649779296E8
21-9-2017 10:00,1.22009665192E9,-4.165415330367644E8
21-9-2017 11:00,1.24910592853E9,-5.0590491179325676E8
21-9-2017 12:00,1.24518774163E9,-4.189802203553717E8
21-9-2017 13:00,1.33424646837E9,-3.48431492168298E8
21-9-2017 14:00,1.36055304577E9,-2.801764503600447E8
21-9-2017 15:00,1.4751956629E9,-1.9743722506516457E8
21-9-2017 16:00,1.53617301765E9,-2.6084397421191287E8
21-9-2017 17:00,1.76682941248E9,7.119894238571787E7
21-9-2017 18:00,2.02298435398E9,1.840341164651618E8
21-9-2017 19:00,1.93514965867E9,-1.0405762367383957E8
21-9-2017 20:00,2.23824839428E9,5.806023653631282E7
21-9-2017 21:00,2.21523577638E9,2.4717649683892155E8
21-9-2017 22:00,2.05945657362E9,1.3423711972328162E8
21-9-2017 23:00,2.11493524602E9,7.147244689572096E7
22-9-2017 0:00,2.06034999212E9,1.1063009317578459E8
22-9-2017 1:00,2.28847123175E9,4.514932045307441E8
22-9-2017 2:00,2.1886557924E9,3.463181757670963E8
22-9-2017 3:00,2.40105515037E9,5.130362739742875E8
22-9-2017 4:00,2.43275249798E9,4.778315946570182E8
22-9-2017 5:00,2.38773817557E9,2.140092253466282E8
22-9-2017 6:00,2.35930804102E9,5.13096897075963E7
22-9-2017 7:00,2.18266971383E9,-2.5920147095576143E8
22-9-2017 8:00,2.15009438795E9,-2.2065865859988213E8
22-9-2017 9:00,1.85876253197E9,-4.6240231913967943E8
22-9-2017 10:00,2.03686033212E9,-3.905839058194046E8
22-9-2017 11:00,2.29429533468E9,-2.4287337816738558E8
22-9-2017 12:00,2.51538831505E9,9.42606591620698E7
22-9-2017 13:00,2.43835944815E9,4.159726767333126E7
22-9-2017 14:00,2.21143941118E9,-1.0314519439892006E8
22-9-2017 15:00,2.56996561985E9,2.6176631560379744E8
22-9-2017 16:00,2.27785824852E9,-1.1725976250849724E8
22-9-2017 17:00,2.27945414237E9,2.461107911658001E7
22-9-2017 18:00,2.53760853013E9,1.660810393896947E8
22-9-2017 19:00,2.76826604275E9,2.2017934097265053E8
22-9-2017 20:00,3.66247186592E9,1.0018642549806561E9
22-9-2017 21:00,2.60718737978E9,1.6438017877395105E8
22-9-2017 22:00,2.19170765682E9,-2.0442680782369566E8
22-9-2017 23:00,2.01093941648E9,-4.9889348496691513E8
23-9-2017 0:00,2.12528264042E9,-2.898151856102743E8
23-9-2017 1:00,1.91054208922E9,-3.764147414045892E8
23-9-2017 2:00,1.97223658797E9,-3.083908599105196E8
23-9-2017 3:00,1.85813162353E9,-4.5787165517725754E8
23-9-2017 4:00,2.03953913165E9,-3.354013224944525E8
23-9-2017 5:00,2.18000247423E9,-3.962274592326431E8
23-9-2017 6:00,1.98745259587E9,-7.016022452519643E8
23-9-2017 7:00,2.45483386295E9,-3.4574563368622875E8
23-9-2017 8:00,2.28983719633E9,-4.1449972397617626E8
23-9-2017 9:00,2.91833571308E9,2.689590601569171E8
23-9-2017 10:00,5.62510042147E9,2.871212559952149E9
23-9-2017 11:00,5.97297956722E9,3.110161092488389E9
23-9-2017 12:00,3.9364195949E9,1.206986036985124E9
23-9-2017 13:00,2.00315604453E9,-7.016921256959343E8
23-9-2017 14:00,1.76563948607E9,-8.594575604551985E8
23-9-2017 15:00,2.2869639765E9,-3.361146372111521E8
23-9-2017 16:00,1.63113330778E9,-1.0840541772855008E9
23-9-2017 17:00,1.47555343425E9,-1.0625937974683285E9
23-9-2017 18:00,1.56217380125E9,-1.0681456384568939E9
23-9-2017 19:00,2.92151874338E9,1.362148059926691E8
23-9-2017 20:00,5.40367494765E9,2.532186946903176E9
23-9-2017 21:00,2.12706072883E9,-4.546522340893607E8
23-9-2017 22:00,1.4266082337E9,-1.0382959859755325E9
23-9-2017 23:00,2.73043659005E9,2.2268193815907192E8
24-9-2017 0:00,2.08639591055E9,-2.5932839452422905E8
24-9-2017 1:00,2.15573946272E9,-5.135724144474554E7
24-9-2017 2:00,2.0135404702E9,-1.8045039723988724E8
24-9-2017 3:00,1.93223729095E9,-2.9173649655748177E8
24-9-2017 4:00,2.03033662213E9,-2.4952200750153017E8
24-9-2017 5:00,2.55084032827E9,1.6806605317639828E7
24-9-2017 6:00,2.78961434953E9,9.37960307631917E7
24-9-2017 7:00,2.73908514382E9,-1.1631383408681774E8
24-9-2017 8:00,2.23946676398E9,-5.649693810874324E8
24-9-2017 9:00,1.91645071802E9,-8.770664944064882E8
24-9-2017 10:00,2.39429356638E9,-5.513800830913391E8
24-9-2017 11:00,2.44875382513E9,-6.544699825459166E8
24-9-2017 12:00,3.1236287724E9,1.2172033471305847E8
24-9-2017 13:00,3.3879647971E9,4.032529378804803E8
24-9-2017 14:00,3.63360239882E9,7.186064906050057E8
24-9-2017 15:00,3.58272971175E9,6.57776646331183E8
24-9-2017 16:00,3.61290344597E9,5.830426231255808E8
24-9-2017 17:00,3.2617372039E9,4.2390639523270607E8
24-9-2017 18:00,3.0997497112E9,1.724833693003173E8
24-9-2017 19:00,4.155291234E9,1.0728395630343456E9
24-9-2017 20:00,3.77328826428E9,6.09213831015213E8
24-9-2017 21:00,4.69165795625E9,1.8576707067822294E9
24-9-2017 22:00,4.47312247917E9,1.7944174979029183E9
24-9-2017 23:00,3.0875994886E9,4.0522959778073215E8
25-9-2017 0:00,2.16064060255E9,-3.2406615197712326E8
25-9-2017 1:00,1.76925729878E9,-4.670100659041734E8
25-9-2017 2:00,1.54514642015E9,-5.719134703988578E8
25-9-2017 3:00,1.6423756234E9,-3.999490930276418E8
25-9-2017 4:00,1.6177199188E9,-3.7811212300887537E8
25-9-2017 5:00,1.47443968902E9,-6.358656288848217E8
25-9-2017 6:00,1.59570292632E9,-5.3275924432687426E8
25-9-2017 7:00,1.53754557943E9,-6.059658227551055E8
25-9-2017 8:00,1.23182953725E9,-7.134113443588622E8
25-9-2017 9:00,1.64394377685E9,-1.7972102912266612E8
25-9-2017 10:00,1.48786055687E9,-3.809074368601997E8
25-9-2017 11:00,1.6849253376E9,-2.3531388158819485E8
25-9-2017 12:00,1.62004735705E9,-7.624756123957872E7
25-9-2017 13:00,1.71968918688E9,8.443943642262197E7
25-9-2017 14:00,1.44638483992E9,-7.794673364276767E7
25-9-2017 15:00,1.39118543565E9,-1.0384148654816341E8
25-9-2017 16:00,1.55594602543E9,-5550086.448727369
25-9-2017 17:00,1.53785334715E9,1.5295117052306986E8
25-9-2017 18:00,1.6608060085E9,1.5877913364157867E8
25-9-2017 19:00,1.97609028453E9,2.882516685440738E8
25-9-2017 20:00,2.02386963532E9,2.2854397741930318E8
25-9-2017 21:00,1.38156136527E9,-1.383931004906063E8
25-9-2017 22:00,1.29230640262E9,-1.2892008967596579E8
25-9-2017 23:00,1.22128200225E9,-2.594516966278503E8
26-9-2017 0:00,1.35218195848E9,9716365.676831484
26-9-2017 1:00,1.07551255722E9,-1.021280338391149E8
26-9-2017 2:00,1.17264255795E9,2.6884901404295444E7
26-9-2017 3:00,1.2028841015E9,4.3153536231959105E7
26-9-2017 4:00,1.19074430467E9,-1.3543214975219011E7
26-9-2017 5:00,1.33287256477E9,-9.117530227925277E7
26-9-2017 6:00,1.37438007303E9,-1.6918579222188187E8
26-9-2017 7:00,1.33851869638E9,-3.2055506642849255E8
26-9-2017 8:00,1.31232444357E9,-2.4616120454555035E8
26-9-2017 9:00,1.2815249959E9,-2.5392670502691746E8
26-9-2017 10:00,1.35138301397E9,-3.313190949500997E8
26-9-2017 11:00,2.43901008785E9,6.017152166955216E8
26-9-2017 12:00,1.98561053293E9,2.8568842406081223E8
26-9-2017 13:00,1.41675313528E9,-2.848567902601669E8
26-9-2017 14:00,1.36818304598E9,-2.8788805064342785E8
26-9-2017 15:00,1.36003622398E9,-3.340499865783534E8
26-9-2017 16:00,1.62289034163E9,-2.0580779214473224E8
26-9-2017 17:00,1.4026332218E9,-2.794541278212447E8
26-9-2017 18:00,1.9640146984E9,1.2256641337517977E8
26-9-2017 19:00,2.21567587948E9,1.432429802669928E8
26-9-2017 20:00,2.15136183183E9,-6.896884991256547E7
26-9-2017 21:00,2.29979194855E9,3.4236397429966664E8
26-9-2017 22:00,2.1767573357E9,3.03751019421371E8
26-9-2017 23:00,2.30096963958E9,3.5486179893289924E8
27-9-2017 0:00,2.25572690812E9,4.304819441159024E8
27-9-2017 1:00,2.12270235392E9,4.523318804721594E8
27-9-2017 2:00,2.14776495253E9,4.9562465832159305E8
27-9-2017 3:00,2.10385213595E9,4.228806512666335E8
27-9-2017 4:00,2.03313729608E9,2.903411696613784E8
27-9-2017 5:00,1.91689827742E9,-4.211458550917697E7
27-9-2017 6:00,1.77901205782E9,-2.91990464415586E8
27-9-2017 7:00,1.73300657498E9,-4.4484879823685884E8
27-9-2017 8:00,1.38742398885E9,-6.796051756710813E8
27-9-2017 9:00,1.49262281448E9,-5.0818168685200214E8
27-9-2017 10:00,1.65655911475E9,-4.5246990965083647E8
27-9-2017 11:00,2.19326578728E9,-3.1674566302216053E7
27-9-2017 12:00,2.24393993108E9,2.1296628271414924E8
27-9-2017 13:00,2.18350631352E9,2.1596369033474374E8
27-9-2017 14:00,1.97941627562E9,1.1942997818545699E8
27-9-2017 15:00,2.08918909598E9,2.5085067094874024E8
27-9-2017 16:00,2.97275751552E9,1.059207375131228E9
27-9-2017 17:00,2.20205447778E9,4.843914261929152E8
27-9-2017 18:00,1.7517257534E9,-8.857431030185032E7
27-9-2017 19:00,1.97773694808E9,-6.0268620924101114E7
27-9-2017 20:00,1.88600681265E9,-2.615070167416377E8
27-9-2017 21:00,1.89562423873E9,4.748502422061205E7
27-9-2017 22:00,1.75923103275E9,2.983885203444791E7
27-9-2017 23:00,1.34944406515E9,-4.1777624018633556E8
28-9-2017 0:00,1.51276292E9,-1.0282113644845319E8
28-9-2017 1:00,1.42697257558E9,-2056621.7800087929
28-9-2017 2:00,1.42653946868E9,4.371857500543308E7
28-9-2017 3:00,1.21315240578E9,-1.7172708040216446E8
28-9-2017 4:00,1.39083565273E9,-3.1507136758863926E7
28-9-2017 5:00,1.42204945358E9,-2.1272785105321574E8
28-9-2017 6:00,1.49062083667E9,-2.4837917790067792E8
28-9-2017 7:00,1.54602932903E9,-2.909312838937845E8
28-9-2017 8:00,1.52308736078E9,-1.9257174339234424E8
28-9-2017 9:00,1.51283196262E9,-1.601630507569039E8
28-9-2017 10:00,1.69055109855E9,-1.1839504001368833E8
28-9-2017 11:00,1.798985825E9,-1.5394269673436785E8
28-9-2017 12:00,1.27697010052E9,-4.921502601092255E8
28-9-2017 13:00,2.26400274993E9,5.3643285808938336E8
28-9-2017 14:00,2.13508383772E9,4.9008837022051287E8
28-9-2017 15:00,2.12589406512E9,4.752100581184468E8
28-9-2017 16:00,1.99926330412E9,2.4576877442333508E8
28-9-2017 17:00,1.98248703395E9,4.152120276507392E8
28-9-2017 18:00,2.0435985861E9,3.314666209223013E8
28-9-2017 19:00,1.83129881157E9,-1.0420229074409771E8
28-9-2017 20:00,1.68019125142E9,-3.8537132985969806E8
28-9-2017 21:00,1.42308642992E9,-3.4491866893457603E8
28-9-2017 22:00,1.6243985321E9,-2.8822088884565353E7
28-9-2017 23:00,1.67832669818E9,-1.5736579423616648E7
29-9-2017 0:00,1.59170561602E9,4.1764027803188086E7
29-9-2017 1:00,1.53853782122E9,1.8337025285586405E8
29-9-2017 2:00,1.48879419535E9,1.8435184734935737E8
29-9-2017 3:00,1.39722010078E9,9.40305504711659E7
29-9-2017 4:00,1.5094793004E9,1.6972702005854297E8
29-9-2017 5:00,1.40103422875E9,-1.406469444675839E8
29-9-2017 6:00,1.33492051535E9,-2.9649301753407884E8
29-9-2017 7:00,1.37553004945E9,-3.382283285906422E8
29-9-2017 8:00,1.48493606682E9,-9.032200184516215E7
29-9-2017 9:00,1.81177305818E9,2.904619973825927E8
29-9-2017 10:00,1.68766608255E9,3.752078419784188E7
29-9-2017 11:00,1.66255557202E9,-1.2479967374215317E8
29-9-2017 12:00,1.79925325208E9,2.2039111306175017E8
29-9-2017 13:00,1.48874860802E9,-3.406630157104516E7
29-9-2017 14:00,1.54362277245E9,1.1477770282108068E8
29-9-2017 15:00,1.35258446998E9,-7.290823402575493E7
29-9-2017 16:00,1.38404141713E9,-1.354832687563064E8
29-9-2017 17:00,1.39028086838E9,6.844778098938942E7
29-9-2017 18:00,1.54308814187E9,7.531778933985496E7
29-9-2017 19:00,1.51111643557E9,-1.8454690288079E8
29-9-2017 20:00,1.23690002813E9,-5.882382248145518E8
29-9-2017 21:00,1.46159956905E9,-5.965528852418876E7
29-9-2017 22:00,1.20327657348E9,-1.9901314095373797E8
29-9-2017 23:00,1.58948776155E9,1.514840796932075E8
30-9-2017 0:00,1.56204679257E9,2.6879346179320025E8
30-9-2017 1:00,1.35718653872E9,2.5567136494543076E8
30-9-2017 2:00,1.4223105914E9,3.647825310522995E8
30-9-2017 3:00,1.28827939873E9,2.2406050265883613E8
30-9-2017 4:00,1.31675837865E9,2.0562183548966694E8
30-9-2017 5:00,1.28778341002E9,-2.979145408282852E7
30-9-2017 6:00,1.30030712367E9,-1.0752480016294932E8
30-9-2017 7:00,1.31268103548E9,-1.768956098232963E8
30-9-2017 8:00,1.39804364725E9,4.915048243589687E7
30-9-2017 9:00,1.3743818099E9,8.486269931821752E7
30-9-2017 10:00,1.4834263547E9,6.633341805438709E7
30-9-2017 11:00,1.315629453E9,-2.3775747143603635E8
30-9-2017 12:00,1.19171453653E9,-1.3435081166448545E8
30-9-2017 13:00,1.3265191137E9,7.481389771366334E7
30-9-2017 14:00,1.34198962445E9,1.9946580618913507E8
30-9-2017 15:00,1.2425712597E9,1.1625685432987928E8
30-9-2017 16:00,1.26407190563E9,5.6320106912350655E7
30-9-2017 17:00,1.21516868585E9,2.2800217491688108E8
30-9-2017 18:00,1.15024556435E9,2.7483096206792593E7
30-9-2017 19:00,1.35102341293E9,7265425.554639816
30-9-2017 20:00,1.1869157851E9,-2.743092368245454E8
30-9-2017 21:00,6.6321053107E8,-4.7576033098521626E8
30-9-2017 22:00,9.1345640288E8,-9.032413124788809E7
30-9-2017 23:00,1.36906519875E9,3.4674390591149235E8
