Time,Actual,STL processed
1-8-2017 0:00,86.4,-1.1866847788210606
1-8-2017 1:00,86.32,-1.8475096792863894
1-8-2017 2:00,86.22,-2.4278224002549678
1-8-2017 3:00,86.35,-1.920489251875921
1-8-2017 4:00,86.25,-2.314501225070316
1-8-2017 5:00,86.53,-0.6291441305838532
1-8-2017 6:00,87.47,0.8274101268459759
1-8-2017 7:00,87.3,1.858463318647594
1-8-2017 8:00,87.13,2.924377621388416
1-8-2017 9:00,87.38,3.8252335648370206
1-8-2017 10:00,87.52,3.499771953514596
1-8-2017 11:00,86.5,2.3146122669639055
1-8-2017 12:00,87.43,3.468047566614956
1-8-2017 13:00,84.27,1.0122736398927543
1-8-2017 14:00,81.18,-1.7300627349381443
1-8-2017 15:00,80.2,-1.469158925840233
1-8-2017 16:00,80.17,-2.6889655009304505
1-8-2017 17:00,80.82,-2.2895239228002424
1-8-2017 18:00,80.78,-0.9057922216942274
1-8-2017 19:00,80.8,-0.6763651072796506
1-8-2017 20:00,81.05,-0.31853235685298387
1-8-2017 21:00,81.18,5.494235522347012
1-8-2017 22:00,80.93,-0.660290895161225
1-8-2017 23:00,81.33,-0.12953700718183825
2-8-2017 0:00,80.87,-1.6026737103978803
2-8-2017 1:00,81.07,-2.0155975810936297
2-8-2017 2:00,80.63,-3.0042890237328663
2-8-2017 3:00,81.38,-1.9786861810635372
2-8-2017 4:00,82.15,-1.5680637130554373
2-8-2017 5:00,81.37,-1.244390944189277
2-8-2017 6:00,81.18,-1.1929129396863516
2-8-2017 7:00,80.9,-0.5672960139370673
2-8-2017 8:00,80.97,0.46765752508082414
2-8-2017 9:00,80.95,0.7957945508557742
2-8-2017 10:00,81.07,0.1244544360789348
2-8-2017 11:00,81.23,-0.18948532093159542
2-8-2017 12:00,81.07,-0.4880856250383516
2-8-2017 13:00,80.87,-0.347720662730751
2-8-2017 14:00,80.95,-0.29071757420410904
2-8-2017 15:00,80.83,0.4737138118764648
2-8-2017 16:00,80.73,-1.0978748445817388
2-8-2017 17:00,80.03,-2.468603012925584
2-8-2017 18:00,78.4,-3.1321432432533243
2-8-2017 19:00,83.57,1.842703065574156
2-8-2017 20:00,84.13,2.1148467859928957
2-8-2017 21:00,83.88,7.2179841672737695
2-8-2017 22:00,83.88,1.1561938145526085
2-8-2017 23:00,83.78,0.6496749631101579
3-8-2017 0:00,85.07,0.6722664905866793
3-8-2017 1:00,84.65,-0.5004904994243304
3-8-2017 2:00,84.53,-1.3452948128190627
3-8-2017 3:00,84.38,-1.429156424944324
3-8-2017 4:00,84.42,-1.9216407805216846
3-8-2017 5:00,84.2,-1.1183785093759724
3-8-2017 6:00,84.02,-1.1107029299001
3-8-2017 7:00,84.38,0.08074845678096665
3-8-2017 8:00,84.97,1.58601195906013
3-8-2017 9:00,84.12,1.2664656857407408
3-8-2017 10:00,83.78,0.2942817606471948
3-8-2017 11:00,85.15,1.366596626314518
3-8-2017 12:00,84.32,0.5209954115876627
3-8-2017 13:00,83.62,0.3761318532731508
3-8-2017 14:00,84.4,1.341106995505399
3-8-2017 15:00,82.72,0.7676985489166981
3-8-2017 16:00,83.88,0.7529679239128768
3-8-2017 17:00,83.72,0.19032377410590584
3-8-2017 18:00,84.47,2.1377653773553362
3-8-2017 19:00,82.92,0.6762924520041054
3-8-2017 20:00,77.08,-5.158991286176672
3-8-2017 21:00,81.45,4.981790873846322
3-8-2017 22:00,83.05,1.1100184718528112
3-8-2017 23:00,82.32,0.1835087669290516
4-8-2017 0:00,83.22,0.3091104110387448
4-8-2017 1:00,83.32,0.07617997264954113
4-8-2017 2:00,84.47,0.8849224594364102
4-8-2017 3:00,81.93,-1.2387439365463422
4-8-2017 4:00,84.22,0.905328357089104
4-8-2017 5:00,84.38,2.2274141824296265
4-8-2017 6:00,83.35,1.5505213887937401
4-8-2017 7:00,79.1,-1.72295685696092
4-8-2017 8:00,73.68,-6.058147484788066
4-8-2017 9:00,73.77,-5.3001698579288785
4-8-2017 10:00,82.9,3.31200991023735
4-8-2017 11:00,76.95,-2.804213097841
4-8-2017 12:00,75.67,-4.021607719611453
4-8-2017 13:00,75.93,-3.2030281837722896
4-8-2017 14:00,80.37,1.4185906269413948
4-8-2017 15:00,76.95,-0.8839860375407511
4-8-2017 16:00,84.88,5.956812983685609
4-8-2017 17:00,82.07,2.482066398673126
4-8-2017 18:00,78.68,-0.009696618242600152
4-8-2017 19:00,79.93,1.0823247684851225
4-8-2017 20:00,75.2,-3.8805728820375407
4-8-2017 21:00,76.33,2.6305324343200454
4-8-2017 22:00,78.27,-1.1185436393533763
4-8-2017 23:00,76.08,-4.102365820165957
5-8-2017 0:00,80.57,-0.7010756818306589
5-8-2017 1:00,78.02,-3.8512925143877794
5-8-2017 2:00,82.87,0.3538838267909483
5-8-2017 3:00,81.4,-1.0367002988390368
5-8-2017 4:00,87.0,4.116815698219469
5-8-2017 5:00,81.22,-0.7431444812815045
5-8-2017 6:00,85.07,3.2445247929344987
5-8-2017 7:00,86.02,4.935247355707759
5-8-2017 8:00,80.22,0.008733038737958054
5-8-2017 9:00,78.42,-1.2724187633218236
5-8-2017 10:00,76.33,-4.052528630993393
5-8-2017 11:00,84.63,3.9260571580850296
5-8-2017 12:00,85.45,4.6002158001733875
5-8-2017 13:00,79.13,-1.3530189595977618
5-8-2017 14:00,79.28,-1.2200138701666248
5-8-2017 15:00,78.95,-0.6170161423061984
5-8-2017 16:00,82.72,1.954055135386369
5-8-2017 17:00,80.65,-0.9342881083714047
5-8-2017 18:00,79.7,-1.1767499689921266
5-8-2017 19:00,78.12,-3.0527284937252546
5-8-2017 20:00,85.8,4.265265719870399
5-8-2017 21:00,41.45,-34.840174131935804
5-8-2017 22:00,85.92,3.976577798212489
5-8-2017 23:00,88.3,5.218574817012708
6-8-2017 0:00,88.02,3.788685125075233
6-8-2017 1:00,87.88,2.7946879480302016
6-8-2017 2:00,87.88,1.859804193280823
6-8-2017 3:00,87.75,1.4858083876836332
6-8-2017 4:00,87.92,0.9222741378452071
6-8-2017 5:00,87.68,1.063376621785082
6-8-2017 6:00,87.82,0.8287166321353396
6-8-2017 7:00,87.53,0.7467486717188763
6-8-2017 8:00,87.6,1.1820193338887748
6-8-2017 9:00,87.02,0.8316653535911058
6-8-2017 10:00,86.35,-0.8408068992371796
6-8-2017 11:00,85.78,-2.027485062320892
6-8-2017 12:00,88.28,-0.02184590569262923
6-8-2017 13:00,90.83,2.935123684325035
6-8-2017 14:00,90.4,2.521533697872755
6-8-2017 15:00,89.72,2.82212446347485
6-8-2017 16:00,89.23,1.2554866430327536
6-8-2017 17:00,88.73,0.14132090647197515
6-8-2017 18:00,88.13,0.415934368088557
6-8-2017 19:00,87.53,-0.26026990216310253
6-8-2017 20:00,88.45,0.5263903414931832
6-8-2017 21:00,89.32,7.046544186865248
6-8-2017 22:00,88.97,1.6212629861773706
6-8-2017 23:00,88.5,0.21121806993247105
7-8-2017 0:00,88.1,-0.8577125869357047
7-8-2017 1:00,87.87,-1.336731808427686
7-8-2017 2:00,87.93,-1.6429173590642563
7-8-2017 3:00,87.72,-1.561566544587734
7-8-2017 4:00,87.78,-1.6633927412821379
7-8-2017 5:00,87.73,-0.828585059236147
7-8-2017 6:00,87.73,-0.6729317780863653
7-8-2017 7:00,87.68,-0.004947727027285964
7-8-2017 8:00,87.58,0.794750448947596
7-8-2017 9:00,86.95,0.7765735292575329
7-8-2017 10:00,82.92,-3.896881869881966
7-8-2017 11:00,86.48,-0.5774447462823105
7-8-2017 12:00,86.33,-0.898945836268652
7-8-2017 13:00,87.42,0.6113738571071821
7-8-2017 14:00,84.25,-2.535665451659213
7-8-2017 15:00,86.25,0.46566410525393565
7-8-2017 16:00,88.25,1.4844618736820934
7-8-2017 17:00,84.52,-2.955186770439454
7-8-2017 18:00,86.6,-0.1331584013433229
7-8-2017 19:00,85.77,-1.1192556664131104
7-8-2017 20:00,86.4,-0.6935966419957822
7-8-2017 21:00,86.02,4.487276087330315
7-8-2017 22:00,87.47,0.9450712457607864
7-8-2017 23:00,89.73,1.9680938844253006
8-8-2017 0:00,90.77,2.32523175258099
8-8-2017 1:00,88.93,0.13731500953352338
8-8-2017 2:00,90.47,1.1759521859012523
8-8-2017 3:00,90.08,0.908774143342967
8-8-2017 4:00,90.05,0.5847617945770338
8-8-2017 5:00,88.77,-0.027538342900584212
8-8-2017 6:00,88.68,-0.15238480858099024
8-8-2017 7:00,88.72,0.3947253450759831
8-8-2017 8:00,85.42,-2.1919748740217955
8-8-2017 9:00,81.78,-5.2164886699829225
8-8-2017 10:00,85.55,-2.109443395929972
8-8-2017 11:00,87.45,-0.4524071661433169
8-8-2017 12:00,86.98,-1.1495646832406123
8-8-2017 13:00,87.98,0.35868907539959594
8-8-2017 14:00,87.63,0.11278440622533026
8-8-2017 15:00,87.37,0.9494367163557058
8-8-2017 16:00,87.13,-0.10172881881216256
8-8-2017 17:00,87.83,-0.0821179137265915
8-8-2017 18:00,89.08,1.902067819616974
8-8-2017 19:00,88.72,1.430849401427892
8-8-2017 20:00,87.75,0.31027904830511943
8-8-2017 21:00,87.77,5.908961977312643
8-8-2017 22:00,88.37,1.7069694643471394
8-8-2017 23:00,88.33,0.2401956274067345
9-8-2017 0:00,88.03,-0.6504248553333127
9-8-2017 1:00,87.97,-0.9432151750330036
9-8-2017 2:00,87.78,-1.572221043166195
9-8-2017 3:00,87.55,-1.647515918269164
9-8-2017 4:00,87.88,-1.5515227175952049
9-8-2017 5:00,87.77,-1.0251745069567875
9-8-2017 6:00,87.73,-1.102996369775184
9-8-2017 7:00,87.67,-0.6781361808395729
9-8-2017 8:00,87.53,-0.09225532958826932
9-8-2017 9:00,86.77,-0.21956969632221046
9-8-2017 10:00,86.95,-0.7021549040248516
9-8-2017 11:00,87.77,-0.1161884545170011
9-8-2017 12:00,87.77,-0.37594158060547045
9-8-2017 13:00,88.62,0.949090441544783
9-8-2017 14:00,88.45,0.8433168764129135
9-8-2017 15:00,87.77,1.2280843345306351
9-8-2017 16:00,86.38,-0.9339175270471003
9-8-2017 17:00,87.13,-0.8449974621842102
9-8-2017 18:00,87.08,-0.2165915276011816
9-8-2017 19:00,88.23,0.8288698431186532
9-8-2017 20:00,88.45,0.9174467750520847
9-8-2017 21:00,88.6,6.702985627624372
9-8-2017 22:00,88.32,1.8496920578810006
9-8-2017 23:00,87.72,-0.3073065279020426
10-8-2017 0:00,87.6,-0.8735840902536864
10-8-2017 1:00,87.5,-1.120677051490432
10-8-2017 2:00,87.38,-1.646755029009455
10-8-2017 3:00,87.22,-1.6495958015418921
10-8-2017 4:00,87.3,-1.7730589532572765
10-8-2017 5:00,87.35,-1.178273322278372
10-8-2017 6:00,87.22,-1.409281510010274
10-8-2017 7:00,87.32,-0.9069019042108266
10-8-2017 8:00,87.95,0.4013293989747808
10-8-2017 9:00,87.62,0.726861055596487
10-8-2017 10:00,87.65,0.10028859916738497
10-8-2017 11:00,86.93,-0.8391714985744301
10-8-2017 12:00,86.68,-1.3758770006249392
10-8-2017 13:00,87.4,-0.1883193232456648
10-8-2017 14:00,88.33,0.7917856073838578
10-8-2017 15:00,87.93,1.4504156052079367
10-8-2017 16:00,88.28,1.0933398214380077
10-8-2017 17:00,88.22,0.367000741475195
10-8-2017 18:00,87.87,0.6150585726947497
10-8-2017 19:00,87.08,-0.29735285643214127
10-8-2017 20:00,87.67,0.15581877180188997
10-8-2017 21:00,87.98,6.112879684426218
10-8-2017 22:00,87.25,0.9929644545081402
10-8-2017 23:00,87.1,-0.8895794835144244
11-8-2017 0:00,87.03,-1.3068347288744917
11-8-2017 1:00,87.63,-0.7568964495350627
11-8-2017 2:00,87.65,-1.0987126543266044
11-8-2017 3:00,87.58,-0.9977654421753357
11-8-2017 4:00,87.6,-1.139344009748143
11-8-2017 5:00,87.47,-0.781396697906402
11-8-2017 6:00,87.47,-0.9108669500294724
11-8-2017 7:00,87.5,-0.5262402671481823
11-8-2017 8:00,87.02,-0.3409308518102705
11-8-2017 9:00,86.65,-0.04274561031139967
11-8-2017 10:00,88.18,0.8265028047953962
11-8-2017 11:00,88.23,0.661424280066214
11-8-2017 12:00,87.18,-0.7124254776839933
11-8-2017 13:00,85.65,-1.7988358078443554
11-8-2017 14:00,85.78,-1.6493460442221135
11-8-2017 15:00,87.6,1.206652830539639
11-8-2017 16:00,88.62,1.5680094618088418
11-8-2017 17:00,88.1,0.3549641016989966
11-8-2017 18:00,86.72,-0.5287733057663218
11-8-2017 19:00,86.3,-1.1105046700612746
11-8-2017 20:00,86.38,-1.194185480848006
11-8-2017 21:00,87.22,5.264167424735234
11-8-2017 22:00,88.45,2.247400467549383
11-8-2017 23:00,88.4,0.24908111019421142
12-8-2017 0:00,88.25,-0.18938188526739452
12-8-2017 1:00,88.08,-0.34603778581474387
12-8-2017 2:00,88.17,-0.6072176383418082
12-8-2017 3:00,88.15,-0.47610786196977983
12-8-2017 4:00,88.05,-0.7294272658629524
12-8-2017 5:00,88.03,-0.19836505553429618
12-8-2017 6:00,88.18,-0.08634415442440968
12-8-2017 7:00,88.05,0.210482823162792
12-8-2017 8:00,87.6,0.5328235682770952
12-8-2017 9:00,87.07,0.9770150994346096
12-8-2017 10:00,87.78,1.3154370908587794
12-8-2017 11:00,88.12,1.7380928439237664
12-8-2017 12:00,88.2,1.750451535255337
12-8-2017 13:00,88.1,2.301279245717211
12-8-2017 14:00,87.63,2.0513598904940693
12-8-2017 15:00,81.2,-3.1340663096446093
12-8-2017 16:00,87.28,2.5669287848255777
12-8-2017 17:00,86.75,1.4165445534877392
12-8-2017 18:00,86.58,1.7403793162565648
12-8-2017 19:00,87.27,2.3286954257125387
12-8-2017 20:00,87.43,2.3975295848240847
12-8-2017 21:00,43.37,-36.04254394577731
12-8-2017 22:00,82.75,-0.7358810593745204
12-8-2017 23:00,87.75,2.130305734794149
13-8-2017 0:00,87.87,2.050916560087458
13-8-2017 1:00,87.85,1.9839500978051916
13-8-2017 2:00,87.83,1.4996902156944856
13-8-2017 3:00,87.6,1.277246174439128
13-8-2017 4:00,86.08,-0.5115304476225475
13-8-2017 5:00,87.6,1.0661636668128551
13-8-2017 6:00,88.03,0.9931927267754901
13-8-2017 7:00,88.6,1.5057370046884415
13-8-2017 8:00,88.43,1.6586260851989891
13-8-2017 9:00,87.97,1.6987803091997193
13-8-2017 10:00,88.28,1.1463322801258329
13-8-2017 11:00,87.93,0.396678714169596
13-8-2017 12:00,87.3,-0.8247977422324766
13-8-2017 13:00,87.18,-0.4967383941981751
13-8-2017 14:00,87.12,-0.5460732713165584
13-8-2017 15:00,87.28,0.6570690505944867
13-8-2017 16:00,88.45,1.3176962052158672
13-8-2017 17:00,88.0,0.23017648466975515
13-8-2017 18:00,87.67,0.30178679969249345
13-8-2017 19:00,87.68,0.18035376491917532
13-8-2017 20:00,88.23,0.6219062759487173
13-8-2017 21:00,87.5,5.560890891916216
13-8-2017 22:00,86.95,1.158468204661176
13-8-2017 23:00,86.68,-1.383354266892809
14-8-2017 0:00,86.42,-1.7061850380910641
14-8-2017 1:00,86.53,-1.434336330355606
14-8-2017 2:00,86.27,-2.0025505102973256
14-8-2017 3:00,86.85,-1.2894226374273927
14-8-2017 4:00,87.33,-0.9245307459049599
14-8-2017 5:00,87.17,-0.862924348593566
14-8-2017 6:00,87.72,-0.6236067510089356
14-8-2017 7:00,88.02,-0.20806479400098965
14-8-2017 8:00,88.32,0.6226530006750153
14-8-2017 9:00,88.43,1.4380585667768884
14-8-2017 10:00,87.97,0.30402916646283984
14-8-2017 11:00,87.73,-0.13864506925681042
14-8-2017 12:00,86.9,-1.404668024134594
14-8-2017 13:00,87.37,-0.5061460621773648
14-8-2017 14:00,87.3,-0.5916654848404477
14-8-2017 15:00,87.7,0.8332763354708845
14-8-2017 16:00,88.32,0.9967656175278563
14-8-2017 17:00,87.58,-0.4047905209501579
14-8-2017 18:00,86.8,-0.8823055823971657
14-8-2017 19:00,86.93,-0.920394873324426
14-8-2017 20:00,87.38,-0.6030311223015588
14-8-2017 21:00,89.27,6.9533170407236184
14-8-2017 22:00,88.68,2.6800997084533122
14-8-2017 23:00,88.23,-0.2314411001807457
15-8-2017 0:00,87.92,-0.5194225392280032
15-8-2017 1:00,87.75,-0.45487640692620346
15-8-2017 2:00,87.72,-0.7731626301503383
15-8-2017 3:00,87.78,-0.5905805886065423
15-8-2017 4:00,87.52,-0.9481543290328034
15-8-2017 5:00,87.55,-0.7551415476951604
15-8-2017 6:00,87.45,-1.1960413113382913
15-8-2017 7:00,87.57,-1.0100179550155843
15-8-2017 8:00,87.3,-0.7639877259543368
15-8-2017 9:00,87.07,-0.22489953368342697
15-8-2017 10:00,88.4,0.4779203312835989
15-8-2017 11:00,88.83,0.760656062321786
15-8-2017 12:00,88.13,-0.361482754510547
15-8-2017 13:00,88.17,0.1068740421221861
15-8-2017 14:00,87.88,-0.2054577053330462
15-8-2017 15:00,87.28,0.2206558341310796
15-8-2017 16:00,86.62,-0.8236052688384348
15-8-2017 17:00,87.3,-0.8329776048001634
15-8-2017 18:00,87.55,-0.3833978222687051
15-8-2017 19:00,87.37,-0.7718984847731178
15-8-2017 20:00,87.27,-1.0324786091800746
15-8-2017 21:00,86.58,3.980222865257545
15-8-2017 22:00,88.15,2.075238728547319
15-8-2017 23:00,88.92,0.23300742340855152
16-8-2017 0:00,89.25,0.7069662728065111
16-8-2017 1:00,88.83,0.6706582003220944
16-8-2017 2:00,88.88,0.5132178185832146
16-8-2017 3:00,88.82,0.6269377854193294
16-8-2017 4:00,88.95,0.7351753433922283
16-8-2017 5:00,88.88,0.7648789615511618
16-8-2017 6:00,88.6,0.11784199034730136
16-8-2017 7:00,88.45,-0.010752938346982432
16-8-2017 8:00,88.03,0.08120041918634513
16-8-2017 9:00,87.42,0.2967702198291988
16-8-2017 10:00,86.6,-1.0974963312391992
16-8-2017 11:00,84.02,-3.77243703980416
16-8-2017 12:00,85.08,-3.1131551684642176
16-8-2017 13:00,85.73,-1.9693524005723475
16-8-2017 14:00,87.38,-0.2817558513871177
16-8-2017 15:00,86.62,0.04646320486745026
16-8-2017 16:00,87.28,0.4527016929062313
16-8-2017 17:00,87.15,-0.3576211462845862
16-8-2017 18:00,86.87,-0.5431600119885331
16-8-2017 19:00,87.62,-0.03032140773471781
16-8-2017 20:00,87.7,-0.12617112397619223
16-8-2017 21:00,86.77,4.462806143589702
16-8-2017 22:00,87.0,1.2090683785428809
16-8-2017 23:00,87.93,-0.8266368631591234
17-8-2017 0:00,87.88,-0.8215946022038594
17-8-2017 1:00,88.07,-0.34212238903923264
17-8-2017 2:00,87.9,-0.8820824388576938
17-8-2017 3:00,88.1,-0.7005900562940468
17-8-2017 4:00,88.18,-0.8099320079621322
17-8-2017 5:00,88.13,-0.9311948513071684
17-8-2017 6:00,88.07,-1.4920263283970456
17-8-2017 7:00,88.28,-1.412911432690251
17-8-2017 8:00,89.98,0.687293162733269
17-8-2017 9:00,92.58,4.093962152715875
17-8-2017 10:00,93.25,4.167225486916678
17-8-2017 11:00,93.53,4.329224640053141
17-8-2017 12:00,88.97,-0.6854564991300833
17-8-2017 13:00,88.82,-0.3396008713708909
17-8-2017 14:00,89.18,0.05453086306296484
17-8-2017 15:00,89.28,1.2414623247161103
17-8-2017 16:00,87.13,-1.0951792589754774
17-8-2017 17:00,86.95,-1.7949014251221769
17-8-2017 18:00,87.3,-1.3040077627883733
17-8-2017 19:00,86.45,-2.268266417776502
17-8-2017 20:00,87.03,-1.7278222518527002
17-8-2017 21:00,87.6,4.618486746133115
17-8-2017 22:00,86.8,0.7670604225695001
17-8-2017 23:00,87.25,-1.6610536858759133
18-8-2017 0:00,88.32,-0.1838629435435024
18-8-2017 1:00,88.18,0.2522937962258567
18-8-2017 2:00,88.07,-0.009281680716497931
18-8-2017 3:00,88.07,0.16088735853040248
18-8-2017 4:00,87.82,-0.06512541262603122
18-8-2017 5:00,88.07,0.06597854997164632
18-8-2017 6:00,87.98,-0.5353141655575087
18-8-2017 7:00,87.85,-0.8251540723398847
18-8-2017 8:00,87.5,-0.7633628659164202
18-8-2017 9:00,87.72,0.2656080344719385
18-8-2017 10:00,89.08,1.0276042910661403
18-8-2017 11:00,88.98,0.8077463430282705
18-8-2017 12:00,88.98,0.3203052304461238
18-8-2017 13:00,87.3,-0.8930171266735556
18-8-2017 14:00,84.15,-4.043581051737277
18-8-2017 15:00,86.4,-0.7391680294317098
18-8-2017 16:00,87.3,0.010079470400114587
18-8-2017 17:00,87.92,0.06597284686378657
18-8-2017 18:00,87.85,-0.02168609319832626
18-8-2017 19:00,87.62,-0.4480271378621552
18-8-2017 20:00,88.12,-0.05627422020680228
18-8-2017 21:00,87.9,5.409007261770071
18-8-2017 22:00,88.17,2.7115331332607866
18-8-2017 23:00,87.83,-0.767349088356923
19-8-2017 0:00,87.63,-0.5563691110762363
19-8-2017 1:00,87.38,-0.10475770281927055
19-8-2017 2:00,87.4,-0.17917846500257895
19-8-2017 3:00,87.55,0.16843737281048732
19-8-2017 4:00,87.33,0.024523924048622803
19-8-2017 5:00,88.0,0.9169321236014696
19-8-2017 6:00,88.45,1.2341156006453957
19-8-2017 7:00,88.33,1.3142583223863085
19-8-2017 8:00,88.1,1.8965735708221558
19-8-2017 9:00,87.77,3.2528469026531326
19-8-2017 10:00,86.97,2.72857660267762
19-8-2017 11:00,86.88,3.3918620745022707
19-8-2017 12:00,87.82,4.68666150955805
19-8-2017 13:00,88.65,6.81530839760822
19-8-2017 14:00,87.8,6.791196043095624
19-8-2017 15:00,81.92,2.7942378561023276
19-8-2017 16:00,80.57,2.190521669506282
19-8-2017 17:00,80.15,1.891955438338215
19-8-2017 18:00,80.73,3.0256687456380007
19-8-2017 19:00,80.3,3.0471701610563144
19-8-2017 20:00,81.5,4.800156680201098
19-8-2017 21:00,45.88,-24.648260105990694
19-8-2017 22:00,25.57,-47.264452791605365
19-8-2017 23:00,75.22,-0.43677387855505856
20-8-2017 0:00,73.9,-0.7646754184858082
20-8-2017 1:00,74.27,0.46005555816670096
20-8-2017 2:00,75.45,1.6304544106503442
20-8-2017 3:00,79.45,5.8831819469374835
20-8-2017 4:00,72.45,-0.9609672795218671
20-8-2017 5:00,76.13,2.0669366479988156
20-8-2017 6:00,77.88,2.8467878086285623
20-8-2017 7:00,73.93,-1.7588953500945195
20-8-2017 8:00,74.57,-1.121864568633626
20-8-2017 9:00,77.07,1.6449689862401158
20-8-2017 10:00,71.37,-5.202310078704954
20-8-2017 11:00,74.77,-2.4726233954175996
20-8-2017 12:00,80.12,1.7776743788762985
20-8-2017 13:00,79.77,1.539596635392897
20-8-2017 14:00,79.28,0.6832419747280625
20-8-2017 15:00,79.2,1.296218701732485
20-8-2017 16:00,79.72,1.440844952005179
20-8-2017 17:00,80.87,1.8663226500984678
20-8-2017 18:00,80.62,1.2099117416532863
20-8-2017 19:00,80.22,0.3777591540469132
20-8-2017 20:00,80.98,0.8204828115742231
20-8-2017 21:00,80.8,6.1393064760129334
20-8-2017 22:00,80.38,2.915333952092112
20-8-2017 23:00,80.7,-0.4294872813903652
21-8-2017 0:00,80.68,-0.035331619733369735
21-8-2017 1:00,79.65,-0.32964477169507234
21-8-2017 2:00,80.35,0.1734099984457771
21-8-2017 3:00,78.55,-1.590914463802747
21-8-2017 4:00,80.02,-0.1574631649693572
21-8-2017 5:00,80.18,-0.40259459715038304
21-8-2017 6:00,80.05,-1.2186068406044086
21-8-2017 7:00,79.92,-1.7386469674611078
21-8-2017 8:00,80.02,-1.3354317406446938
21-8-2017 9:00,79.83,-0.7015854384600289
21-8-2017 10:00,83.88,2.7545792558935034
21-8-2017 11:00,84.17,2.927119674911708
21-8-2017 12:00,84.33,2.5093683127118567
21-8-2017 13:00,78.4,-3.0328416700933616
21-8-2017 14:00,80.38,-1.148846244698703
21-8-2017 15:00,77.45,-3.11334221148482
21-8-2017 16:00,79.85,-0.7477811992103085
21-8-2017 17:00,81.35,0.21977626102541592
21-8-2017 18:00,79.85,-1.608723030283656
21-8-2017 19:00,80.98,-0.7564953126245939
21-8-2017 20:00,80.93,-0.9560002084246406
21-8-2017 21:00,81.83,5.608731593715376
21-8-2017 22:00,81.53,2.8456432813668187
21-8-2017 23:00,81.72,-0.633014048770022
22-8-2017 0:00,80.65,-1.0281371356467872
22-8-2017 1:00,82.13,1.33660537032155
22-8-2017 2:00,82.58,1.6704158446638644
22-8-2017 3:00,81.5,0.6771391704238994
22-8-2017 4:00,81.1,0.3162894751463341
22-8-2017 5:00,81.73,0.4181428596087784
22-8-2017 6:00,81.88,-0.2037126115838248
22-8-2017 7:00,81.27,-1.3080885788135248
22-8-2017 8:00,81.22,-1.1186677788809902
22-8-2017 9:00,81.37,-0.16667213874090692
22-8-2017 10:00,82.02,-0.13592564351098702
22-8-2017 11:00,81.38,-0.9193934471841061
22-8-2017 12:00,81.7,-1.234055904299865
22-8-2017 13:00,81.28,-1.2864308945093939
22-8-2017 14:00,79.52,-3.168118151137733
22-8-2017 15:00,79.12,-2.626119579796878
22-8-2017 16:00,81.23,-0.5056574890133874
22-8-2017 17:00,81.52,-0.7515916876642166
22-8-2017 18:00,81.88,-0.8377507828661379
22-8-2017 19:00,82.55,-0.48671478737431073
22-8-2017 20:00,84.67,1.4559797360656717
22-8-2017 21:00,84.32,6.7203955926082415
22-8-2017 22:00,84.02,4.081970015849151
22-8-2017 23:00,84.12,0.29325511307517615
23-8-2017 0:00,82.97,-0.1417635312785137
23-8-2017 1:00,83.53,1.3782620615537837
23-8-2017 2:00,83.17,0.8990435437114996
23-8-2017 3:00,83.33,1.1123992231197661
23-8-2017 4:00,82.9,0.7141493757523278
23-8-2017 5:00,83.07,0.2832803081125661
23-8-2017 6:00,81.6,-1.9800819810014332
23-8-2017 7:00,82.8,-1.312213808838834
23-8-2017 8:00,83.48,-0.3926343363067559
23-8-2017 9:00,82.28,-0.7175408719007379
23-8-2017 10:00,83.93,0.39434077916824606
23-8-2017 11:00,83.2,-0.399297537978768
23-8-2017 12:00,82.33,-1.8602776344428946
23-8-2017 13:00,78.82,-4.943849310516839
23-8-2017 14:00,82.72,-1.1152764123206538
23-8-2017 15:00,82.12,-0.7196495966534826
23-8-2017 16:00,82.65,-0.0577101693476294
23-8-2017 17:00,84.58,1.4175277678189815
23-8-2017 18:00,84.22,0.5582535329754421
23-8-2017 19:00,83.47,-0.4751134795438503
23-8-2017 20:00,83.57,-0.4995560324134942
23-8-2017 21:00,83.48,5.09011884329162
23-8-2017 22:00,83.23,2.754384324436103
23-8-2017 23:00,83.78,-0.6717423305268255
24-8-2017 0:00,84.1,0.5250927757962387
24-8-2017 1:00,84.93,2.6665233777080175
24-8-2017 2:00,83.35,1.2403977898966758
24-8-2017 3:00,83.38,1.5665077451687068
24-8-2017 4:00,82.95,1.4369794249496834
24-8-2017 5:00,82.6,0.6580551096256215
24-8-2017 6:00,83.78,1.2678532070080735
24-8-2017 7:00,83.7,0.8626338166417185
24-8-2017 8:00,83.85,1.4970402598520138
24-8-2017 9:00,83.22,1.8832112815896664
24-8-2017 10:00,80.68,-1.0457905590057095
24-8-2017 11:00,81.33,-0.3116180371299748
24-8-2017 12:00,82.8,0.679065579554134
24-8-2017 13:00,83.93,2.2751417970865475
24-8-2017 14:00,82.93,1.2348194295779678
24-8-2017 15:00,70.93,-9.735080930957835
24-8-2017 16:00,44.62,-35.810820637226556
24-8-2017 17:00,83.92,3.061115989080122
24-8-2017 18:00,83.5,2.034253167917626
24-8-2017 19:00,83.35,1.582006045124288
24-8-2017 20:00,82.8,0.9059493136821288
24-8-2017 21:00,84.38,7.992399932060934
24-8-2017 22:00,83.77,5.310868527551506
24-8-2017 23:00,83.17,0.4088421768421995
25-8-2017 0:00,83.53,1.5690430902845236
25-8-2017 1:00,82.57,1.5610595462840848
25-8-2017 2:00,84.58,3.2872077335120196
25-8-2017 3:00,84.15,2.685252809656177
25-8-2017 4:00,83.62,2.0136263301085364
25-8-2017 5:00,83.2,0.636113380802783
25-8-2017 6:00,82.8,-0.8114615216156835
25-8-2017 7:00,83.12,-1.3103019319311215
25-8-2017 8:00,83.18,-1.2216019754626615
25-8-2017 9:00,82.87,-0.6245536036513357
25-8-2017 10:00,82.77,-1.2146392274178197
25-8-2017 11:00,82.97,-1.0328561580260924
25-8-2017 12:00,84.23,-0.3907091197004888
25-8-2017 13:00,84.08,-0.07116464665047317
25-8-2017 14:00,83.82,-0.3765619179525288
25-8-2017 15:00,83.62,0.45183090722001396
25-8-2017 16:00,83.62,0.7522324292880143
25-8-2017 17:00,83.28,0.06077995619263277
25-8-2017 18:00,83.05,-0.8337592398309539
25-8-2017 19:00,82.4,-1.754974261440438
25-8-2017 20:00,81.57,-2.662732959997257
25-8-2017 21:00,82.85,4.237272774390732
25-8-2017 22:00,83.6,3.2167238575628545
25-8-2017 23:00,82.97,-1.7544228155573904
26-8-2017 0:00,83.18,-0.5340767216603268
26-8-2017 1:00,82.87,0.3644446973988238
26-8-2017 2:00,83.73,1.1187857686378067
26-8-2017 3:00,84.17,1.5346850746258411
26-8-2017 4:00,82.75,0.1468795447213722
26-8-2017 5:00,83.52,-0.014158715871431582
26-8-2017 6:00,82.63,-1.8740432953961772
26-8-2017 7:00,83.08,-2.1814414029660583
26-8-2017 8:00,83.22,-1.9133846105448384
26-8-2017 9:00,83.42,-0.760636079412663
26-8-2017 10:00,84.37,-0.24698267710309096
26-8-2017 11:00,84.32,-0.262766250948232
26-8-2017 12:00,85.6,0.4156670182660207
26-8-2017 13:00,86.25,1.4427033428077465
26-8-2017 14:00,86.45,1.4962547636863093
26-8-2017 15:00,87.28,3.2569643705412403
26-8-2017 16:00,87.45,3.6975307169200278
26-8-2017 17:00,88.97,4.688547753083554
26-8-2017 18:00,89.3,4.042190790859834
26-8-2017 19:00,89.68,3.927866479095144
26-8-2017 20:00,89.7,3.664264422084628
26-8-2017 21:00,23.85,-56.74276616758252
26-8-2017 22:00,88.12,5.767075963206835
26-8-2017 23:00,89.75,2.726217527611311
27-8-2017 0:00,89.83,3.7361173618987493
27-8-2017 1:00,89.53,4.634377143628782
27-8-2017 2:00,89.75,4.660144498490112
27-8-2017 3:00,89.67,4.437131433933317
27-8-2017 4:00,89.1,3.8063802532832938
27-8-2017 5:00,89.05,2.42399287410511
27-8-2017 6:00,89.12,1.173974810175764
27-8-2017 7:00,89.35,0.28019519805312143
27-8-2017 8:00,89.35,0.07978501912880631
27-8-2017 9:00,89.12,0.43279867209811584
27-8-2017 10:00,88.63,-0.8552439369999689
27-8-2017 11:00,88.68,-1.134029191565645
27-8-2017 12:00,89.13,-1.6847447289464412
27-8-2017 13:00,90.13,-0.3114382146880814
27-8-2017 14:00,90.53,-0.07015976340395014
27-8-2017 15:00,90.52,0.8416449633583198
27-8-2017 16:00,90.4,1.0511544722728559
27-8-2017 17:00,90.23,0.592889036742676
27-8-2017 18:00,89.9,-0.6070376726337514
27-8-2017 19:00,89.62,-1.1862232555062349
27-8-2017 20:00,89.38,-1.4974206519230506
27-8-2017 21:00,89.07,3.9150999331907173
27-8-2017 22:00,89.55,3.1019206104333676
27-8-2017 23:00,90.28,-0.7120620888013605
28-8-2017 0:00,90.35,0.6639789847125428
28-8-2017 1:00,90.18,2.1511244197960906
28-8-2017 2:00,89.98,2.137465348962408
28-8-2017 3:00,90.12,2.484687204543434
28-8-2017 4:00,89.95,2.630137663830496
28-8-2017 5:00,89.85,1.519764193170161
28-8-2017 6:00,89.92,0.6429756719394248
28-8-2017 7:00,89.73,-0.31382241763273555
28-8-2017 8:00,89.53,-0.3193365407993696
28-8-2017 9:00,89.2,0.3036829849558842
28-8-2017 10:00,88.03,-1.286314884601012
28-8-2017 11:00,71.62,-17.648361068938428
28-8-2017 12:00,89.35,-0.5784846619654616
28-8-2017 13:00,89.13,-0.3311527962377028
28-8-2017 14:00,90.2,0.6656078472047255
28-8-2017 15:00,85.37,-3.153737144372897
28-8-2017 16:00,89.68,1.6424800339089103
28-8-2017 17:00,89.02,0.756951672877733
28-8-2017 18:00,88.87,-0.334525237458692
28-8-2017 19:00,88.42,-1.0665130685302557
28-8-2017 20:00,88.72,-0.803246781444642
28-8-2017 21:00,89.47,5.622118732200235
28-8-2017 22:00,89.78,4.779292625185022
28-8-2017 23:00,89.78,0.035560331599910455
29-8-2017 0:00,89.53,1.1411173136290955
29-8-2017 1:00,89.58,2.859579314146899
29-8-2017 2:00,89.53,2.9289247296989203
29-8-2017 3:00,89.37,2.8788124174985086
29-8-2017 4:00,89.55,3.302976981272508
29-8-2017 5:00,90.05,2.60337390365693
29-8-2017 6:00,89.93,1.3985714096517086
29-8-2017 7:00,89.95,0.4975544623802364
29-8-2017 8:00,89.78,0.4057360147215405
29-8-2017 9:00,64.2,-24.281081157479314
29-8-2017 10:00,84.87,-4.082881287487439
29-8-2017 11:00,85.85,-3.108035401589035
29-8-2017 12:00,89.62,-0.08741405025469362
29-8-2017 13:00,89.03,-0.29679453849907134
29-8-2017 14:00,89.67,0.1747105916601015
29-8-2017 15:00,89.32,0.743478176301025
29-8-2017 16:00,89.68,1.5655629419997723
29-8-2017 17:00,89.45,0.9507709959817134
29-8-2017 18:00,89.88,0.14574322519933958
29-8-2017 19:00,90.17,-0.05120149097727733
29-8-2017 20:00,90.15,-0.29562615729520303
29-8-2017 21:00,90.32,5.304755819796895
29-8-2017 22:00,90.05,3.8242342696728002
29-8-2017 23:00,89.88,-1.4872962771136429
30-8-2017 0:00,90.1,-0.13003711997627931
30-8-2017 1:00,90.55,2.1111794769859245
30-8-2017 2:00,90.5,2.160735069449089
30-8-2017 3:00,90.5,2.2892224746637737
30-8-2017 4:00,90.5,2.5108068665241774
30-8-2017 5:00,90.38,1.303957301252538
30-8-2017 6:00,90.5,0.5031184848092778
30-8-2017 7:00,90.4,-0.3776959639332489
30-8-2017 8:00,90.73,0.2523467304882274
30-8-2017 9:00,90.62,1.3285999855382187
30-8-2017 10:00,90.08,0.657749327320758
30-8-2017 11:00,89.47,0.3782001975183391
30-8-2017 12:00,89.4,-0.1998980650563169
30-8-2017 13:00,90.0,1.1578328666285813
30-8-2017 14:00,90.2,1.5622437301114331
30-8-2017 15:00,87.2,-0.15908071328193785
30-8-2017 16:00,83.7,-2.808297392616865
30-8-2017 17:00,82.48,-3.816550288379517
30-8-2017 18:00,84.12,-3.1066152045569595
30-8-2017 19:00,84.82,-2.4416393809675156
30-8-2017 20:00,85.02,-1.9581466192513517
30-8-2017 21:00,82.82,1.6434769472205772
30-8-2017 22:00,83.28,1.4131460389898223
30-8-2017 23:00,84.0,-2.643752186857995
31-8-2017 0:00,84.9,-0.24425044444976152
31-8-2017 1:00,84.83,1.7788234524463036
31-8-2017 2:00,83.38,0.587691925309997
31-8-2017 3:00,84.68,2.213881751429284
31-8-2017 4:00,84.67,2.582136230489354
31-8-2017 5:00,83.93,0.586700796643413
31-8-2017 6:00,85.0,0.6184862768438393
31-8-2017 7:00,85.05,-0.25339523197418146
31-8-2017 8:00,85.0,-0.06276095407694982
31-8-2017 9:00,85.15,1.053570737272679
31-8-2017 10:00,84.72,0.3206784343402376
31-8-2017 11:00,84.5,0.2537431723312835
31-8-2017 12:00,82.2,-2.826065820658073
31-8-2017 13:00,83.55,-0.9577289004203351
31-8-2017 14:00,81.53,-3.0169177349902867
31-8-2017 15:00,78.43,-5.094839637794408
31-8-2017 16:00,81.5,-1.4019468798906871
31-8-2017 17:00,81.93,-0.877658034996287
31-8-2017 18:00,82.83,-1.3167574061672127
31-8-2017 19:00,82.58,-1.8639333763981227
31-8-2017 20:00,83.0,-1.3665955202342701
31-8-2017 21:00,83.17,4.258918161891714
31-8-2017 22:00,82.9,3.1013680591387214
31-8-2017 23:00,83.18,-1.7483076821860237
1-9-2017 0:00,82.92,-0.8639731909225219
1-9-2017 1:00,83.38,1.5003369972244371
1-9-2017 2:00,82.78,0.8278973418057234
1-9-2017 3:00,83.03,1.1111685801465683
1-9-2017 4:00,83.43,1.5554391361460063
1-9-2017 5:00,84.07,0.6064320214350261
1-9-2017 6:00,86.08,1.295855985988453
1-9-2017 7:00,85.9,-0.11209173874100031
1-9-2017 8:00,85.3,-0.6958650332039724
1-9-2017 9:00,85.0,-0.21878834524474655
1-9-2017 10:00,83.98,-1.6830583844301685
1-9-2017 11:00,84.85,-0.8067158701836377
1-9-2017 12:00,85.15,-1.5275716851256504
1-9-2017 13:00,86.28,0.011145847702323408
1-9-2017 14:00,86.05,-0.37186806088301694
1-9-2017 15:00,86.07,0.5433872009394776
1-9-2017 16:00,84.7,-0.3018359798807211
1-9-2017 17:00,84.87,0.08749209273670999
1-9-2017 18:00,85.63,-0.6581442463616582
1-9-2017 19:00,85.88,-0.7249745233469298
1-9-2017 20:00,85.22,-1.2712940856693962
1-9-2017 21:00,85.68,4.661307315984388
1-9-2017 22:00,85.3,3.5597356225828776
1-9-2017 23:00,85.05,-1.809520030345098
2-9-2017 0:00,84.75,-0.9571551863525798
2-9-2017 1:00,84.73,1.181989805542372
2-9-2017 2:00,84.87,1.3618405343383415
2-9-2017 3:00,84.15,0.8257916973978894
2-9-2017 4:00,84.27,1.0996768428337589
2-9-2017 5:00,84.63,0.12850870310747098
2-9-2017 6:00,85.52,0.006981807863624567
2-9-2017 7:00,86.1,-0.35562147692755275
2-9-2017 8:00,85.92,-0.15239168790098745
2-9-2017 9:00,85.75,1.0800362798894128
2-9-2017 10:00,85.02,0.5789947876725847
2-9-2017 11:00,85.08,1.3132213613962023
2-9-2017 12:00,86.88,2.6659250077230894
2-9-2017 13:00,86.55,3.164768424038428
2-9-2017 14:00,86.52,3.397674712334805
2-9-2017 15:00,86.82,4.995852409681049
2-9-2017 16:00,86.52,5.652258561034017
2-9-2017 17:00,85.98,5.555776908772756
2-9-2017 18:00,85.62,3.6227546491451648
2-9-2017 19:00,85.95,3.7154211128037957
2-9-2017 20:00,86.0,4.014595179393254
2-9-2017 21:00,58.05,-18.569035072720226
2-9-2017 22:00,0.0,-77.29794773006527
2-9-2017 23:00,82.57,0.03989733210848101
3-9-2017 0:00,86.3,4.806973155534948
3-9-2017 1:00,86.45,7.048648217728328
3-9-2017 2:00,86.72,7.148484597289411
3-9-2017 3:00,87.02,7.460810951618086
3-9-2017 4:00,87.22,7.602005953040816
3-9-2017 5:00,86.6,4.8340575893116124
3-9-2017 6:00,86.02,2.476960635282822
3-9-2017 7:00,86.97,1.6950825914423007
3-9-2017 8:00,88.25,2.6506962649707475
3-9-2017 9:00,87.95,2.565225043654806
3-9-2017 10:00,87.9,1.604161629469047
3-9-2017 11:00,87.32,0.5530217937321993
3-9-2017 12:00,88.43,-0.023965567609508298
3-9-2017 13:00,88.72,0.5119712291761118
3-9-2017 14:00,88.25,-0.2822347886628478
3-9-2017 15:00,87.72,-0.11416715880994843
3-9-2017 16:00,87.18,-0.26916417830085493
3-9-2017 17:00,86.78,-0.1284494933463094
3-9-2017 18:00,87.23,-1.4458516114085853
3-9-2017 19:00,87.57,-1.3906823450115695
3-9-2017 20:00,87.12,-1.583008587415648
3-9-2017 21:00,87.08,3.809942638599992
3-9-2017 22:00,87.5,3.766502149207753
3-9-2017 23:00,87.72,-1.1857389416203432
4-9-2017 0:00,87.52,-0.29113900686354555
4-9-2017 1:00,87.3,1.988138838443291
4-9-2017 2:00,87.13,1.9130335815845427
4-9-2017 3:00,87.02,2.1188078399973733
4-9-2017 4:00,87.15,2.4523854102220355
4-9-2017 5:00,87.13,0.7744948105311238
4-9-2017 6:00,86.88,-0.711334214241333
4-9-2017 7:00,86.63,-2.1756490290900103
4-9-2017 8:00,86.42,-2.1108134830184184
4-9-2017 9:00,86.52,-1.152108324126047
4-9-2017 10:00,87.53,-0.36111809096604475
4-9-2017 11:00,88.25,0.5744512331513647
4-9-2017 12:00,87.67,-1.100151566544298
4-9-2017 13:00,87.25,-1.0503531510805288
4-9-2017 14:00,86.63,-1.7749032368469955
4-9-2017 15:00,86.28,-1.2201774362795277
4-9-2017 16:00,86.82,-0.05980698809273122
4-9-2017 17:00,86.28,0.1200180739882768
4-9-2017 18:00,85.65,-2.389849862598055
4-9-2017 19:00,85.42,-2.8702514364418192
4-9-2017 20:00,86.95,-0.9921516308186966
4-9-2017 21:00,87.37,4.946867464671087
4-9-2017 22:00,87.03,4.378407175461604
4-9-2017 23:00,86.85,-0.8944120361384336
5-9-2017 0:00,87.0,0.4272200421786465
5-9-2017 1:00,87.38,3.7389466829887255
5-9-2017 2:00,86.85,3.5937458020999316
5-9-2017 3:00,86.7,4.087813976986737
5-9-2017 4:00,86.33,4.208633148421555
5-9-2017 5:00,86.77,3.2183683984335545
5-9-2017 6:00,86.43,1.921375388582021
5-9-2017 7:00,87.47,2.002197829077346
5-9-2017 8:00,88.15,3.293829274044171
5-9-2017 9:00,78.67,-5.206457238466086
5-9-2017 10:00,76.83,-7.0965805951985885
5-9-2017 11:00,86.88,3.332530651534796
5-9-2017 12:00,85.72,1.1471451762469371
5-9-2017 13:00,77.47,-6.702965848415786
5-9-2017 14:00,75.38,-8.971631060914333
5-9-2017 15:00,73.98,-9.554018148436981
5-9-2017 16:00,74.93,-8.042051709671256
5-9-2017 17:00,75.63,-6.715237264049875
5-9-2017 18:00,75.87,-8.739692012746303
5-9-2017 19:00,84.15,-0.9478040183116576
5-9-2017 20:00,82.6,-2.3314177561420877
5-9-2017 21:00,84.62,4.727445614243578
5-9-2017 22:00,86.42,5.967702784738819
5-9-2017 23:00,88.78,2.748042711888786
6-9-2017 0:00,89.08,3.7228331624743305
6-9-2017 1:00,89.55,6.647982458003682
6-9-2017 2:00,89.77,6.6141912601381705
6-9-2017 3:00,88.98,5.933817727985129
6-9-2017 4:00,88.98,5.786631610512927
6-9-2017 5:00,90.23,5.077679191642915
6-9-2017 6:00,89.08,2.4447017500665567
6-9-2017 7:00,87.47,-0.6928950004332961
6-9-2017 8:00,87.63,-0.40344513906335067
6-9-2017 9:00,86.2,-1.023539878154736
6-9-2017 10:00,85.82,-1.548660594714434
6-9-2017 11:00,85.3,-1.785068968915212
6-9-2017 12:00,83.77,-4.530939143195212
6-9-2017 13:00,81.38,-6.355519434680687
6-9-2017 14:00,85.1,-2.649016416717018
6-9-2017 15:00,85.67,-1.12661454358026
6-9-2017 16:00,80.83,-5.244538075705947
6-9-2017 17:00,84.9,-0.1237918415446444
6-9-2017 18:00,84.9,-2.216366561453995
6-9-2017 19:00,86.72,-0.5984076553324371
6-9-2017 20:00,87.78,0.9784405021901534
6-9-2017 21:00,87.68,6.233331253501333
6-9-2017 22:00,86.85,5.199983723743443
6-9-2017 23:00,86.13,-0.8091880154308768
7-9-2017 0:00,86.9,0.8719675210879245
7-9-2017 1:00,86.57,3.4475879006793235
7-9-2017 2:00,85.67,2.582254815179894
7-9-2017 3:00,86.33,3.7444880053297993
7-9-2017 4:00,85.22,2.7763734625598175
7-9-2017 5:00,84.35,0.20072613581163523
7-9-2017 6:00,84.52,-0.8562429764856603
7-9-2017 7:00,83.82,-2.8702514060872772
7-9-2017 8:00,84.92,-1.3409756164207636
7-9-2017 9:00,86.42,1.0349059847050484
7-9-2017 10:00,84.0,-1.3894253206160414
7-9-2017 11:00,84.5,-0.46556654468520264
7-9-2017 12:00,83.35,-2.7861346468915684
7-9-2017 13:00,82.92,-2.693745664274047
7-9-2017 14:00,83.48,-2.190635874922421
7-9-2017 15:00,84.45,-0.34200650020056855
7-9-2017 16:00,83.6,-0.518377079958583
7-9-2017 17:00,81.03,-1.9668868772308343
7-9-2017 18:00,82.27,-3.000769388326546
7-9-2017 19:00,82.3,-3.2399213541659577
7-9-2017 20:00,83.03,-1.9957930849382706
7-9-2017 21:00,83.95,4.24121937406926
7-9-2017 22:00,83.6,3.69036560669916
7-9-2017 23:00,84.13,-1.1322193361585704
8-9-2017 0:00,84.57,0.10139974893436943
8-9-2017 1:00,84.87,3.354099712300041
8-9-2017 2:00,85.0,3.403833238878832
8-9-2017 3:00,82.73,1.6252816510439203
8-9-2017 4:00,84.78,3.702839475564346
8-9-2017 5:00,83.9,0.962813723497618
8-9-2017 6:00,83.83,-0.48583057696099274
8-9-2017 7:00,84.58,-1.2439386082057524
8-9-2017 8:00,84.13,-1.3725248127841212
8-9-2017 9:00,83.97,-0.08712430205221722
8-9-2017 10:00,83.58,0.16287567830681837
8-9-2017 11:00,84.07,1.720543478810825
8-9-2017 12:00,84.55,1.5788193231196175
8-9-2017 13:00,84.95,4.643513832418208
8-9-2017 14:00,85.2,6.978566645735839
8-9-2017 15:00,84.18,8.948759774620868
8-9-2017 16:00,82.65,10.229278399808592
8-9-2017 17:00,81.88,12.919776682140963
8-9-2017 18:00,83.55,14.402850490897094
8-9-2017 19:00,84.75,17.53485176413487
8-9-2017 20:00,82.87,18.434524256105846
8-9-2017 21:00,84.15,25.99879661269577
8-9-2017 22:00,85.02,27.675574797599495
8-9-2017 23:00,84.57,22.81471484094439
9-9-2017 0:00,18.23,-41.844064335502495
9-9-2017 1:00,0.0,-56.96223255356724
9-9-2017 2:00,0.0,-57.04538018011482
9-9-2017 3:00,0.0,-56.452664311139245
9-9-2017 4:00,0.0,-56.427381884533055
9-9-2017 5:00,0.0,-58.87995757326548
9-9-2017 6:00,39.25,-21.598448573232538
9-9-2017 7:00,79.65,16.661172282532384
9-9-2017 8:00,80.9,17.686552572362018
9-9-2017 9:00,85.15,20.970310913576398
9-9-2017 10:00,88.3,22.423481100491927
9-9-2017 11:00,88.77,21.623796846445458
9-9-2017 12:00,88.1,17.899755558145785
9-9-2017 13:00,87.55,15.292195386272795
9-9-2017 14:00,87.58,12.684631015703829
9-9-2017 15:00,87.07,10.411827690899386
9-9-2017 16:00,87.45,8.874675313180234
9-9-2017 17:00,87.38,8.599942584236345
9-9-2017 18:00,87.45,4.5657336219634175
9-9-2017 19:00,87.37,2.6146490433975345
9-9-2017 20:00,86.6,0.8856266672308948
9-9-2017 21:00,50.6,-30.069658714116855
9-9-2017 22:00,72.07,-8.992066212459363
9-9-2017 23:00,88.02,1.2819811815681135
10-9-2017 0:00,88.98,2.6039861080613633
10-9-2017 1:00,88.83,5.5678979752097035
10-9-2017 2:00,88.8,5.294817462179239
10-9-2017 3:00,88.83,5.861749054608808
10-9-2017 4:00,88.77,5.667704349944259
10-9-2017 5:00,88.6,3.310045502709258
10-9-2017 6:00,88.85,1.859174581396843
10-9-2017 7:00,88.93,0.023991102334562697
10-9-2017 8:00,88.67,-0.14919533526469309
10-9-2017 9:00,88.18,-0.2858223343323232
10-9-2017 10:00,88.0,-0.7682251116247869
10-9-2017 11:00,87.9,-0.7440045909861794
10-9-2017 12:00,87.2,-3.1991061826588236
10-9-2017 13:00,88.08,-1.9321356162698748
10-9-2017 14:00,88.97,-1.2355317512919157
10-9-2017 15:00,88.92,-0.6345461103522609
10-9-2017 16:00,88.93,-0.10258407154479698
10-9-2017 17:00,89.07,1.5594716130438258
10-9-2017 18:00,89.38,-0.7600006954493921
10-9-2017 19:00,89.22,-1.2021517010101945
10-9-2017 20:00,88.35,-1.377849520505663
10-9-2017 21:00,87.53,3.1558649614097902
10-9-2017 22:00,88.45,4.032829381021941
10-9-2017 23:00,88.72,-1.0896582730671724
11-9-2017 0:00,88.5,-0.718311642432937
11-9-2017 1:00,88.18,2.3578098681340265
11-9-2017 2:00,88.27,2.3249260268261622
11-9-2017 3:00,88.13,2.9462029009152673
11-9-2017 4:00,88.17,2.9729606231855
11-9-2017 5:00,88.05,0.9450992246336796
11-9-2017 6:00,88.1,-0.4232710108383344
11-9-2017 7:00,87.85,-2.348378217542063
11-9-2017 8:00,87.8,-1.9852507753844435
11-9-2017 9:00,88.18,-0.9818011741838433
11-9-2017 10:00,88.7,-0.41931497513408544
11-9-2017 11:00,88.43,-0.22072773926019806
11-9-2017 12:00,88.03,-2.1264276937555593
11-9-2017 13:00,88.15,-1.5271922980566188
11-9-2017 14:00,87.42,-2.358686106483745
11-9-2017 15:00,87.42,-1.6461774087520098
11-9-2017 16:00,88.88,0.42263226511427376
11-9-2017 17:00,89.15,2.3838515186442493
11-9-2017 18:00,88.37,-1.10850898066046
11-9-2017 19:00,87.6,-2.1293570818233007
11-9-2017 20:00,87.8,-1.1393610132546712
11-9-2017 21:00,86.87,3.3221764634668034
11-9-2017 22:00,87.28,3.7673216137450964
11-9-2017 23:00,87.0,-1.892892275749034
12-9-2017 0:00,86.92,-1.4233951282622712
12-9-2017 1:00,87.05,2.2486489232740468
12-9-2017 2:00,87.03,2.0896746512395907
12-9-2017 3:00,86.95,2.859009704538977
12-9-2017 4:00,87.08,2.9602655075298117
12-9-2017 5:00,87.17,1.1139091695905279
12-9-2017 6:00,87.25,-0.2502527681117357
12-9-2017 7:00,87.42,-1.8235866653637345
12-9-2017 8:00,86.9,-1.9124483063560973
12-9-2017 9:00,86.68,-1.5827888236037353
12-9-2017 10:00,87.42,-0.7992807625205103
12-9-2017 11:00,87.27,-0.48019392572014397
12-9-2017 12:00,87.67,-1.6803593573470152
12-9-2017 13:00,87.1,-1.8451584082178982
12-9-2017 14:00,88.13,-0.9910491659298373
12-9-2017 15:00,87.82,-0.6933166872857868
12-9-2017 16:00,85.72,-2.263941532442587
12-9-2017 17:00,87.95,1.7178143732368625
12-9-2017 18:00,86.6,-2.5360612336711768
12-9-2017 19:00,87.03,-2.434208339948583
12-9-2017 20:00,87.03,-1.657120292828452
12-9-2017 21:00,86.55,3.181744880655657
12-9-2017 22:00,85.92,2.554613234313109
12-9-2017 23:00,87.92,-0.923784417873037
13-9-2017 0:00,88.03,-0.41779446593071157
13-9-2017 1:00,88.05,3.206850130667874
13-9-2017 2:00,87.88,2.7818102246031913
13-9-2017 3:00,88.02,3.7656532269142673
13-9-2017 4:00,87.98,3.5805295260124694
13-9-2017 5:00,87.82,1.3774518049401223
13-9-2017 6:00,87.65,-0.3318827809894742
13-9-2017 7:00,87.47,-2.393617828670102
13-9-2017 8:00,87.75,-1.7372019606493012
13-9-2017 9:00,87.77,-1.2546630756548467
13-9-2017 10:00,87.3,-1.679636008847453
13-9-2017 11:00,88.75,0.23611319980574308
13-9-2017 12:00,88.58,-1.6230648519803736
13-9-2017 13:00,88.3,-1.5156280559782402
13-9-2017 14:00,88.77,-1.238539801787212
13-9-2017 15:00,88.25,-1.2020454598162331
13-9-2017 16:00,88.0,-0.9486645692736744
13-9-2017 17:00,88.12,1.0686325244104324
13-9-2017 18:00,87.4,-2.6812556197236574
13-9-2017 19:00,87.63,-2.782212628835296
13-9-2017 20:00,87.4,-2.17597728595247
13-9-2017 21:00,87.25,3.0363938531075263
13-9-2017 22:00,88.28,4.125969749404703
13-9-2017 23:00,88.85,-0.7688137616730302
14-9-2017 0:00,88.98,-0.2865919244035098
14-9-2017 1:00,88.97,3.528309917654127
14-9-2017 2:00,88.9,3.2448610779559743
14-9-2017 3:00,88.77,4.110868729675531
14-9-2017 4:00,88.85,4.08699795361531
14-9-2017 5:00,88.78,2.0304099420537796
14-9-2017 6:00,88.6,0.37911380054069355
14-9-2017 7:00,88.52,-1.5578251572636646
14-9-2017 8:00,88.33,-1.2629345399247995
14-9-2017 9:00,87.62,-1.5286056767261726
14-9-2017 10:00,87.33,-1.7031500856361248
14-9-2017 11:00,87.9,-0.6018289865716326
14-9-2017 12:00,87.98,-2.231110139958517
14-9-2017 13:00,88.22,-1.641963068904957
14-9-2017 14:00,87.85,-2.2424213746325137
14-9-2017 15:00,87.67,-1.9376907411561888
14-9-2017 16:00,86.18,-2.9708143099696116
14-9-2017 17:00,85.25,-1.9204047092599836
14-9-2017 18:00,83.87,-6.518734071599255
14-9-2017 19:00,84.22,-6.564916305276768
14-9-2017 20:00,87.35,-2.6019489883629205
14-9-2017 21:00,91.12,6.477394144524638
14-9-2017 22:00,90.9,6.277152744807012
14-9-2017 23:00,91.05,0.879458536183165
15-9-2017 0:00,90.6,0.6413874201252838
15-9-2017 1:00,90.97,4.928625573061552
15-9-2017 2:00,90.88,4.538846865149566
15-9-2017 3:00,90.95,5.629098231697213
15-9-2017 4:00,90.88,5.368562959846969
15-9-2017 5:00,90.87,3.345433972655016
15-9-2017 6:00,89.65,0.639145590417229
15-9-2017 7:00,90.02,-0.9060263239007185
15-9-2017 8:00,89.55,-0.8656900036336452
15-9-2017 9:00,89.58,0.20061606677803923
15-9-2017 10:00,89.17,0.5866877420652656
15-9-2017 11:00,88.13,0.7537682914555575
15-9-2017 12:00,87.45,-1.0454284036175778
15-9-2017 13:00,86.1,-0.1846694661439301
15-9-2017 14:00,86.43,1.777227259578595
15-9-2017 15:00,87.43,5.090095775928916
15-9-2017 16:00,85.13,5.100369339128136
15-9-2017 17:00,84.65,8.517334440814096
15-9-2017 18:00,87.28,9.574006854220414
15-9-2017 19:00,86.88,10.546042389927806
15-9-2017 20:00,87.1,13.42918467482346
15-9-2017 21:00,86.45,18.876308300270125
15-9-2017 22:00,85.75,18.99705810326921
15-9-2017 23:00,86.47,14.92726169583078
16-9-2017 0:00,86.72,16.08970612517706
16-9-2017 1:00,10.27,-56.20839337652979
16-9-2017 2:00,0.0,-66.72217591817737
16-9-2017 3:00,0.0,-65.5353548023234
16-9-2017 4:00,0.0,-65.67022853548542
16-9-2017 5:00,78.27,10.391158345161458
16-9-2017 6:00,79.47,9.920934565668219
16-9-2017 7:00,79.6,7.908586538305968
16-9-2017 8:00,80.8,9.475425404970522
16-9-2017 9:00,84.45,12.807607532688749
16-9-2017 10:00,88.1,15.988194142266579
16-9-2017 11:00,88.58,16.40493299207617
16-9-2017 12:00,88.63,13.979719605410267
16-9-2017 13:00,87.72,12.137844792741461
16-9-2017 14:00,87.68,10.58785093335149
16-9-2017 15:00,87.8,9.844611716013262
16-9-2017 16:00,86.48,7.684036794662617
16-9-2017 17:00,82.57,5.416986528110812
16-9-2017 18:00,82.82,1.5680898480486576
16-9-2017 19:00,83.23,0.9477722839269234
16-9-2017 20:00,82.77,0.8105186675903298
16-9-2017 21:00,46.82,-29.69566629892624
16-9-2017 22:00,37.5,-38.83501437773271
16-9-2017 23:00,83.53,1.721997931491984
17-9-2017 0:00,85.0,3.363868821720118
17-9-2017 1:00,84.72,7.2597328308171996
17-9-2017 2:00,84.25,6.39124762088106
17-9-2017 3:00,84.33,7.613939651488408
17-9-2017 4:00,84.67,7.664028622461686
17-9-2017 5:00,82.6,3.0863232999132464
17-9-2017 6:00,84.27,2.7985560521304222
17-9-2017 7:00,83.95,0.0054238406897155755
17-9-2017 8:00,84.17,0.34515718271759965
17-9-2017 9:00,85.05,1.0693115792045376
17-9-2017 10:00,85.22,1.0205093345352196
17-9-2017 11:00,84.37,0.3530026962263264
17-9-2017 12:00,83.3,-3.0321311705701675
17-9-2017 13:00,83.52,-2.5722043519250803
17-9-2017 14:00,83.62,-2.809653414971166
17-9-2017 15:00,83.28,-2.8745649845415784
17-9-2017 16:00,84.48,-1.3515530089857606
17-9-2017 17:00,86.18,2.829045957813463
17-9-2017 18:00,85.32,-1.563755214128392
17-9-2017 19:00,84.87,-2.354761276490507
17-9-2017 20:00,84.75,-1.4007461924705922
17-9-2017 21:00,84.93,4.187787282511195
17-9-2017 22:00,84.5,3.9163683553606887
17-9-2017 23:00,84.97,-1.1517835852899196
18-9-2017 0:00,86.27,0.19754079928162582
18-9-2017 1:00,85.47,4.000211695171544
18-9-2017 2:00,85.93,4.309867192935769
18-9-2017 3:00,85.82,5.70127351428539
18-9-2017 4:00,84.25,4.089168565382849
18-9-2017 5:00,85.7,3.819780846369781
18-9-2017 6:00,84.42,1.3818799370280175
18-9-2017 7:00,84.38,-0.3746266517604937
18-9-2017 8:00,84.4,0.6054109723613976
18-9-2017 9:00,85.63,2.397034658668943
18-9-2017 10:00,84.85,2.2043405808043275
18-9-2017 11:00,83.82,2.158085475428763
18-9-2017 12:00,84.32,1.058528149553581
18-9-2017 13:00,84.73,1.9582703598063773
18-9-2017 14:00,84.38,1.52137985339796
18-9-2017 15:00,85.23,2.862809691889211
18-9-2017 16:00,83.17,1.3674242581484748
18-9-2017 17:00,1.47,-77.69399931279825
18-9-2017 18:00,81.85,-0.9603767477168077
18-9-2017 19:00,86.42,3.27826552476418
18-9-2017 20:00,83.83,1.8338861422241166
18-9-2017 21:00,81.77,5.031542274774907
18-9-2017 22:00,87.15,10.43247466667168
18-9-2017 23:00,84.37,1.9335806435370273
19-9-2017 0:00,84.55,1.9247806898432458
19-9-2017 1:00,82.22,3.717749273022335
19-9-2017 2:00,87.05,7.739036278983207
19-9-2017 3:00,85.0,6.642647691571426
19-9-2017 4:00,84.65,5.591859455204215
19-9-2017 5:00,83.53,1.855047912857458
19-9-2017 6:00,86.15,2.43127191508772
19-9-2017 7:00,87.25,0.8856618613488507
19-9-2017 8:00,86.38,0.13027467996218434
19-9-2017 9:00,86.02,-0.11916713522310829
19-9-2017 10:00,84.27,-1.6442868538951387
19-9-2017 11:00,86.07,0.7721757660505517
19-9-2017 12:00,85.93,-1.4203388265154615
19-9-2017 13:00,81.53,-5.422325386907659
19-9-2017 14:00,82.2,-4.930201498931098
19-9-2017 15:00,85.8,-0.9639744146309539
19-9-2017 16:00,81.72,-4.57932469334736
19-9-2017 17:00,84.72,1.2722358295421117
19-9-2017 18:00,86.73,-0.42271123677090827
19-9-2017 19:00,84.88,-2.539450970982074
19-9-2017 20:00,85.0,-1.1472551616173519
19-9-2017 21:00,85.85,5.17380825968614
19-9-2017 22:00,85.37,4.941323771719681
19-9-2017 23:00,84.77,-1.194080532809508
20-9-2017 0:00,83.87,-2.1693105626736013
20-9-2017 1:00,85.9,4.495711670014799
20-9-2017 2:00,86.13,4.244677468771243
20-9-2017 3:00,83.48,2.993494755434398
20-9-2017 4:00,84.93,4.074319092904844
20-9-2017 5:00,85.17,2.067815937752769
20-9-2017 6:00,86.57,1.8153938605433808
20-9-2017 7:00,85.32,-1.7330389359747187
20-9-2017 8:00,79.85,-6.6603022919378105
20-9-2017 9:00,84.37,-1.9453358680357695
20-9-2017 10:00,83.27,-2.6374317905353877
20-9-2017 11:00,84.9,-0.2131263128513865
20-9-2017 12:00,87.28,0.19507801374848555
20-9-2017 13:00,86.9,0.2252571936619887
20-9-2017 14:00,85.77,-1.067637983674814
20-9-2017 15:00,82.2,-4.2901416352268456
20-9-2017 16:00,84.55,-1.4730385148587857
20-9-2017 17:00,84.65,1.5905224709866417
20-9-2017 18:00,86.52,-0.4236791622940501
20-9-2017 19:00,83.97,-3.2815536747799854
20-9-2017 20:00,86.37,0.41188802847921124
20-9-2017 21:00,81.7,1.2196273016591732
20-9-2017 22:00,81.95,1.727226215892486
20-9-2017 23:00,83.32,-2.4533544135188095
21-9-2017 0:00,83.1,-2.8565209076596574
21-9-2017 1:00,84.88,3.7692476666539676
21-9-2017 2:00,84.3,2.73458495032186
21-9-2017 3:00,86.65,6.627300803175842
21-9-2017 4:00,87.97,7.608468776390282
21-9-2017 5:00,81.57,-1.0487842941432746
21-9-2017 6:00,86.93,2.6690892466314864
21-9-2017 7:00,85.35,-1.2432042996466635
21-9-2017 8:00,87.88,1.8766181628329832
21-9-2017 9:00,82.12,-3.7643702678080473
21-9-2017 10:00,83.13,-2.323803085702693
21-9-2017 11:00,83.25,-1.3920154418478603
21-9-2017 12:00,85.73,-0.9634528876495523
21-9-2017 13:00,85.97,-0.30108993787052896
21-9-2017 14:00,83.68,-2.7389861509608693
21-9-2017 15:00,78.08,-8.010202508805293
21-9-2017 16:00,82.5,-3.120647366213049
21-9-2017 17:00,84.9,2.4607707816375353
21-9-2017 18:00,87.58,1.183171280438387
21-9-2017 19:00,84.93,-1.7100010760295703
21-9-2017 20:00,78.6,-6.619476544583179
21-9-2017 21:00,83.98,4.293164704990531
21-9-2017 22:00,83.87,4.49905621848788
21-9-2017 23:00,84.15,-0.7384915387412008
22-9-2017 0:00,83.95,-1.1813853000945045
22-9-2017 1:00,84.67,4.531623761842511
22-9-2017 2:00,84.07,3.43982667642004
22-9-2017 3:00,84.72,5.712935241463043
22-9-2017 4:00,84.88,5.500931727481813
22-9-2017 5:00,83.58,1.9653156674461485
22-9-2017 6:00,84.82,1.6058717520844112
22-9-2017 7:00,84.32,-1.2278995962388706
22-9-2017 8:00,84.2,-0.6786083676015267
22-9-2017 9:00,80.65,-4.048389962011484
22-9-2017 10:00,82.73,-1.3779986937078235
22-9-2017 11:00,83.32,0.1784320979112124
22-9-2017 12:00,81.53,-3.6054861386986943
22-9-2017 13:00,84.07,-0.5046844282883427
22-9-2017 14:00,84.07,-0.5113266863664165
22-9-2017 15:00,78.23,-5.91500075973741
22-9-2017 16:00,83.67,0.12326139584484963
22-9-2017 17:00,82.63,2.651800738910012
22-9-2017 18:00,83.7,-0.1399325969981362
22-9-2017 19:00,80.53,-3.3191387642387014
22-9-2017 20:00,73.7,-8.432267371395639
22-9-2017 21:00,84.42,8.242140746826394
22-9-2017 22:00,80.77,5.333189751842369
22-9-2017 23:00,78.98,-1.5744602409499038
23-9-2017 0:00,84.6,4.109783622738931
23-9-2017 1:00,78.72,3.5807378323949592
23-9-2017 2:00,81.45,5.992511037977749
23-9-2017 3:00,77.3,3.756716975305352
23-9-2017 4:00,79.0,5.2622466342241125
23-9-2017 5:00,82.12,6.270119544644672
23-9-2017 6:00,76.55,-0.7547898668952229
23-9-2017 7:00,82.6,3.061812942694715
23-9-2017 8:00,80.65,1.9624248974480594
23-9-2017 9:00,72.98,-5.185772467047926
23-9-2017 10:00,47.05,-30.08517971886306
23-9-2017 11:00,49.88,-25.853728385796934
23-9-2017 12:00,79.73,2.340249980467803
23-9-2017 13:00,83.43,6.9522870806919315
23-9-2017 14:00,86.7,10.56969540680852
23-9-2017 15:00,83.0,7.626360247093331
23-9-2017 16:00,87.02,12.586126044848001
23-9-2017 17:00,86.37,15.654596316934288
23-9-2017 18:00,86.35,11.631538880123628
23-9-2017 19:00,80.55,5.8191086359170185
23-9-2017 20:00,73.92,0.9651366239632466
23-9-2017 21:00,33.9,-33.33435199082791
23-9-2017 22:00,27.9,-38.823809095954786
23-9-2017 23:00,72.7,0.6027750740282016
24-9-2017 0:00,83.87,11.488492961097663
24-9-2017 1:00,74.47,7.6092621747830975
24-9-2017 2:00,70.32,3.126475527681535
24-9-2017 3:00,69.1,3.92364869360415
24-9-2017 4:00,62.78,-2.601418618266706
24-9-2017 5:00,67.53,-0.20820857661766468
24-9-2017 6:00,73.65,4.233264676436576
24-9-2017 7:00,81.05,9.132089804711995
24-9-2017 8:00,70.92,-0.334129353646361
24-9-2017 9:00,61.98,-9.68120108586097
24-9-2017 10:00,71.97,0.5091345445725324
24-9-2017 11:00,69.33,-1.5648521785468432
24-9-2017 12:00,69.97,-3.513435807040011
24-9-2017 13:00,68.33,-5.129501515457591
24-9-2017 14:00,70.02,-3.977380803601747
24-9-2017 15:00,77.68,3.52028475188348
24-9-2017 16:00,73.75,-0.3677840066448681
24-9-2017 17:00,68.53,-2.4024593506551497
24-9-2017 18:00,63.15,-12.609917433485961
24-9-2017 19:00,75.42,-1.0386482997763125
24-9-2017 20:00,67.4,-7.9065402616445795
24-9-2017 21:00,79.55,9.204972487167382
24-9-2017 22:00,75.3,4.709907368513967
24-9-2017 23:00,67.73,-9.014376202111436
25-9-2017 0:00,72.98,-4.922286195045032
25-9-2017 1:00,80.22,6.996055950610057
25-9-2017 2:00,79.88,5.296467378764362
25-9-2017 3:00,81.62,8.144365701222256
25-9-2017 4:00,83.13,8.426459346501986
25-9-2017 5:00,78.63,0.8267116218969761
25-9-2017 6:00,78.33,-1.873727357937213
25-9-2017 7:00,80.87,-2.600974808458872
25-9-2017 8:00,73.1,-10.392319977411518
25-9-2017 9:00,84.4,0.34726246466674127
25-9-2017 10:00,87.85,3.9428695193602863
25-9-2017 11:00,87.48,4.078973282066883
25-9-2017 12:00,87.47,1.3233562008272344
25-9-2017 13:00,87.07,1.11625224951608
25-9-2017 14:00,87.55,1.2301499128592894
25-9-2017 15:00,87.68,1.3358807492930396
25-9-2017 16:00,86.9,0.7570441428787831
25-9-2017 17:00,87.5,5.095485666560208
25-9-2017 18:00,86.7,-0.27011057850252485
25-9-2017 19:00,84.73,-2.5388685830266127
25-9-2017 20:00,84.75,-0.9044070109593747
25-9-2017 21:00,84.53,4.49631847803029
25-9-2017 22:00,83.23,3.613880140446014
25-9-2017 23:00,81.58,-3.553036376192125
26-9-2017 0:00,86.23,0.4836605454669325
26-9-2017 1:00,76.9,-3.261800283680145
26-9-2017 2:00,82.82,2.0204333129582466
26-9-2017 3:00,82.95,4.097680885179599
26-9-2017 4:00,76.05,-3.304415732183614
26-9-2017 5:00,80.67,-1.1954123608030471
26-9-2017 6:00,84.97,1.313945288713981
26-9-2017 7:00,87.5,1.142349103231382
26-9-2017 8:00,83.35,-2.382398232479403
26-9-2017 9:00,85.98,-0.03611851968705082
26-9-2017 10:00,87.5,2.004803976840975
26-9-2017 11:00,75.17,-9.4489577570521
26-9-2017 12:00,86.65,-0.441564273463797
26-9-2017 13:00,86.47,-0.41069874331711276
26-9-2017 14:00,87.58,0.35398359586488937
26-9-2017 15:00,87.6,0.33678743759858776
26-9-2017 16:00,86.92,-0.13383427733278097
26-9-2017 17:00,87.65,4.386501842816841
26-9-2017 18:00,85.23,-2.8384548357012847
26-9-2017 19:00,83.67,-4.798504207194057
26-9-2017 20:00,85.23,-1.6629533299262391
26-9-2017 21:00,86.25,4.869272037884556
26-9-2017 22:00,82.22,1.1516844613091308
26-9-2017 23:00,83.7,-3.015641021402004
27-9-2017 0:00,85.0,-2.5603790200394343
27-9-2017 1:00,83.5,1.651388101762464
27-9-2017 2:00,85.47,2.9298461550784367
27-9-2017 3:00,87.03,6.512124181396061
27-9-2017 4:00,87.23,6.165753440056207
27-9-2017 5:00,88.12,4.6401842150229555
27-9-2017 6:00,86.95,1.7913640374583508
27-9-2017 7:00,88.0,0.20372269354405148
27-9-2017 8:00,85.7,-1.3278764733092316
27-9-2017 9:00,87.88,0.7173189406572646
27-9-2017 10:00,87.83,1.440252426333302
27-9-2017 11:00,86.08,0.8189578689995898
27-9-2017 12:00,86.0,-1.5943079067621113
27-9-2017 13:00,84.58,-2.4401253637385025
27-9-2017 14:00,84.12,-2.8781647277058937
27-9-2017 15:00,84.6,-2.1007547095765347
27-9-2017 16:00,75.22,-10.917070498964023
27-9-2017 17:00,79.28,-2.543857966027929
27-9-2017 18:00,87.47,1.087773007371382
27-9-2017 19:00,85.77,-0.6306068718505884
27-9-2017 20:00,85.73,1.3505390788193807
27-9-2017 21:00,84.42,5.731543852950708
27-9-2017 22:00,83.2,4.992857124839716
27-9-2017 23:00,75.37,-8.325734604686048
28-9-2017 0:00,84.7,0.19503724371833187
28-9-2017 1:00,83.73,5.027235044947616
28-9-2017 2:00,85.22,5.735120283419633
28-9-2017 3:00,73.35,-4.074368507688021
28-9-2017 4:00,78.23,0.17823409691982306
28-9-2017 5:00,76.97,-3.6807044932823203
28-9-2017 6:00,80.02,-2.4764992666835894
28-9-2017 7:00,84.3,-1.0489582348651112
28-9-2017 8:00,88.3,3.583818301303566
28-9-2017 9:00,87.85,2.7146112769787436
28-9-2017 10:00,87.22,2.6762402073619427
28-9-2017 11:00,85.25,1.654097282146779
28-9-2017 12:00,85.97,-0.25314329740572816
28-9-2017 13:00,82.03,-3.9137688431343207
28-9-2017 14:00,80.1,-6.112655011880165
28-9-2017 15:00,81.2,-5.038763918984159
28-9-2017 16:00,80.72,-5.258919584141523
28-9-2017 17:00,80.57,-1.1428221960635199
28-9-2017 18:00,86.23,-0.36459512839124386
28-9-2017 19:00,89.57,2.7686829696251323
28-9-2017 20:00,88.97,4.065412478664783
28-9-2017 21:00,88.0,8.72045033526041
28-9-2017 22:00,84.4,5.5259018090961405
28-9-2017 23:00,82.92,-1.5287188137619694
29-9-2017 0:00,84.18,-1.287199764833474
29-9-2017 1:00,81.77,2.109412720000236
29-9-2017 2:00,80.63,0.010709147805314956
29-9-2017 3:00,77.6,-1.0065624565505544
29-9-2017 4:00,83.53,4.1289874709482035
29-9-2017 5:00,77.78,-4.311631167267379
29-9-2017 6:00,77.45,-6.5627112193498505
29-9-2017 7:00,80.38,-6.6083031553046965
29-9-2017 8:00,86.42,0.020533740379846677
29-9-2017 9:00,89.18,2.3011177661090727
29-9-2017 10:00,88.67,2.42563479260906
29-9-2017 11:00,86.93,1.6768361509220853
29-9-2017 12:00,86.22,-1.730186581011651
29-9-2017 13:00,87.05,-0.642727629168931
29-9-2017 14:00,87.4,-0.5795680163697199
29-9-2017 15:00,85.95,-2.106303262383605
29-9-2017 16:00,87.77,-0.05740535190707874
29-9-2017 17:00,87.58,4.160738700091329
29-9-2017 18:00,88.37,-0.06527632918499648
29-9-2017 19:00,88.3,-0.3411738482748632
29-9-2017 20:00,87.17,0.49030562478986894
29-9-2017 21:00,88.13,7.177415640440245
29-9-2017 22:00,84.32,3.8650540494275845
29-9-2017 23:00,86.07,0.12245326644202237
30-9-2017 0:00,87.25,0.24276824909952666
30-9-2017 1:00,78.08,-2.8216764894554984
30-9-2017 2:00,85.32,3.5775592206894373
30-9-2017 3:00,77.95,-1.5329671039078363
30-9-2017 4:00,80.82,0.6700682016069663
30-9-2017 5:00,79.33,-3.1406955334611126
30-9-2017 6:00,79.32,-4.685525913063898
30-9-2017 7:00,82.1,-4.542709695007787
30-9-2017 8:00,87.9,2.263728681976872
30-9-2017 9:00,87.83,2.1784331259731147
30-9-2017 10:00,88.25,3.8001668823705046
30-9-2017 11:00,87.5,4.609041157992252
30-9-2017 12:00,86.93,1.7965649074579204
30-9-2017 13:00,87.25,2.912439203334415
30-9-2017 14:00,87.23,3.1479754441411387
30-9-2017 15:00,86.78,3.130944705679852
30-9-2017 16:00,86.87,3.9792246148150383
30-9-2017 17:00,86.55,8.716569444241742
30-9-2017 18:00,86.38,3.903466431524649
30-9-2017 19:00,87.28,5.105537346709838
30-9-2017 20:00,85.18,5.538910835180985
30-9-2017 21:00,39.5,-33.902667281613105
30-9-2017 22:00,62.33,-10.073622305950025
30-9-2017 23:00,87.42,10.015016382461113
