Time,Actual,STL processed
1-8-2017 0:00,32.7,-0.4662550642911363
1-8-2017 1:00,32.15,-0.8494415830164321
1-8-2017 2:00,32.35,-0.5933039934429729
1-8-2017 3:00,32.48,-0.22758589324346445
1-8-2017 4:00,32.43,0.045979197178539266
1-8-2017 5:00,32.37,0.30133616243380246
1-8-2017 6:00,32.2,0.5595583868578089
1-8-2017 7:00,32.1,1.1111795030649176
1-8-2017 8:00,30.67,0.628931313220825
1-8-2017 9:00,28.48,-0.31080447354061036
1-8-2017 10:00,26.73,-0.8594044453785763
1-8-2017 11:00,28.75,2.0918500983562325
1-8-2017 12:00,24.88,-0.20946507295877126
1-8-2017 13:00,23.63,-1.0454269035579635
1-8-2017 14:00,23.67,-0.3999865367691591
1-8-2017 15:00,23.07,-0.55838379510908
1-8-2017 16:00,23.53,1.344679879799184
1-8-2017 17:00,24.03,2.4236165411448276
1-8-2017 18:00,24.05,3.1438649376226238
1-8-2017 19:00,23.67,-0.9575154083765973
1-8-2017 20:00,23.72,-4.303031845883314
1-8-2017 21:00,23.88,0.41146233494644235
1-8-2017 22:00,24.03,-3.4952018041002475
1-8-2017 23:00,24.77,-2.075910710360013
2-8-2017 0:00,24.9,0.08846863651078962
2-8-2017 1:00,25.23,0.9056572953767947
2-8-2017 2:00,25.3,1.346666196318406
2-8-2017 3:00,25.4,1.9989329349668985
2-8-2017 4:00,25.4,2.6426725539753306
2-8-2017 5:00,25.3,3.325720444681032
2-8-2017 6:00,25.2,4.120525521207078
2-8-2017 7:00,24.27,4.317318948254336
2-8-2017 8:00,23.58,5.045078340686899
2-8-2017 9:00,23.3,6.541587019169484
2-8-2017 10:00,23.7,8.677100547212174
2-8-2017 11:00,14.63,1.0721510933736642
2-8-2017 12:00,4.25,-7.256227369267202
2-8-2017 13:00,5.28,-5.264858375865037
2-8-2017 14:00,4.45,-4.9465383374578815
2-8-2017 15:00,4.27,-4.136983321622073
2-8-2017 16:00,4.42,-1.9999629228694022
2-8-2017 17:00,4.1,-1.3137782111152152
2-8-2017 18:00,4.02,-0.24880325757830946
2-8-2017 19:00,7.1,-0.33097820085443885
2-8-2017 20:00,3.58,-6.680343708200558
2-8-2017 21:00,3.53,-2.2256742548634962
2-8-2017 22:00,5.65,-3.974557120346032
2-8-2017 23:00,6.38,-2.5785850743266514
3-8-2017 0:00,5.05,-1.9195797100354488
3-8-2017 1:00,5.27,-1.7854480231951868
3-8-2017 2:00,5.88,-1.3829999605024668
3-8-2017 3:00,6.97,-0.3176167330220414
3-8-2017 4:00,6.82,-0.39715041797982753
3-8-2017 5:00,6.8,-0.5286765449326793
3-8-2017 6:00,6.58,-0.7495535594135729
3-8-2017 7:00,5.23,-1.859861895803486
3-8-2017 8:00,5.03,-1.5343689953715725
3-8-2017 9:00,4.02,-1.7668568963151339
3-8-2017 10:00,4.4,-0.6424733981023527
3-8-2017 11:00,5.02,0.45112962077523555
3-8-2017 12:00,5.1,1.5404443370979273
3-8-2017 13:00,5.58,1.9925869692782054
3-8-2017 14:00,6.3,2.86722949408047
3-8-2017 15:00,5.05,1.6181795988687622
3-8-2017 16:00,5.57,3.1325886167588113
3-8-2017 17:00,4.73,2.464199034822218
3-8-2017 18:00,4.3,2.362078201318905
3-8-2017 19:00,4.65,-1.1527201455116423
3-8-2017 20:00,5.43,-3.897763528974682
3-8-2017 21:00,7.08,1.7263421936133323
3-8-2017 22:00,9.45,-0.06549892396697654
3-8-2017 23:00,8.02,-1.3235854513303726
4-8-2017 0:00,7.75,-0.1306935952806887
4-8-2017 1:00,7.8,-0.3064129424026021
4-8-2017 2:00,7.88,-0.5793197798952008
4-8-2017 3:00,7.57,-1.057614125519267
4-8-2017 4:00,7.68,-1.0172078321901727
4-8-2017 5:00,7.57,-1.7055544608794522
4-8-2017 6:00,7.92,-1.8243600504451614
4-8-2017 7:00,6.68,-3.2840127425739514
4-8-2017 8:00,7.08,-2.823028926444401
4-8-2017 9:00,4.97,-4.905283140387473
4-8-2017 10:00,4.53,-5.342798692954784
4-8-2017 11:00,4.78,-5.361412222311272
4-8-2017 12:00,4.5,-5.425173347975199
4-8-2017 13:00,6.78,-3.670903203013811
4-8-2017 14:00,8.23,-2.5685843178134427
4-8-2017 15:00,7.65,-3.644885250069674
4-8-2017 16:00,7.15,-3.6517337390392495
4-8-2017 17:00,7.17,-3.6585343104120387
4-8-2017 18:00,5.78,-4.901587626700982
4-8-2017 19:00,35.3,20.687153927168637
4-8-2017 20:00,45.9,27.70259597184327
4-8-2017 21:00,41.28,26.96128437462331
4-8-2017 22:00,41.27,22.931631415886297
4-8-2017 23:00,32.67,14.44463272608119
5-8-2017 0:00,9.55,-7.303442515169577
5-8-2017 1:00,9.22,-7.524344719034964
5-8-2017 2:00,9.52,-7.247938279494186
5-8-2017 3:00,9.5,-7.105242021004045
5-8-2017 4:00,9.9,-6.440227572169368
5-8-2017 5:00,9.52,-6.690974950236848
5-8-2017 6:00,9.85,-6.123289362529148
5-8-2017 7:00,9.73,-5.747866658038587
5-8-2017 8:00,8.33,-6.376972173853174
5-8-2017 9:00,7.57,-7.083742336440001
5-8-2017 10:00,7.95,-6.6679065754316476
5-8-2017 11:00,6.7,-8.153486288666452
5-8-2017 12:00,8.1,-6.5550728919612435
5-8-2017 13:00,7.82,-8.870045042532311
5-8-2017 14:00,5.9,-12.651419605247405
5-8-2017 15:00,7.03,-13.526341382861727
5-8-2017 16:00,5.02,-16.555817187004493
5-8-2017 17:00,7.7,-16.23253831769717
5-8-2017 18:00,7.2,-18.898033686655438
5-8-2017 19:00,23.37,-8.857261801969333
5-8-2017 20:00,59.43,21.427156100959273
5-8-2017 21:00,28.73,-7.998339028470294
5-8-2017 22:00,60.12,17.005429959234377
5-8-2017 23:00,62.5,16.93075289458595
6-8-2017 0:00,62.77,15.972944343633117
6-8-2017 1:00,62.88,13.684098578986358
6-8-2017 2:00,62.88,11.147057591522632
6-8-2017 3:00,62.98,8.897983750089075
6-8-2017 4:00,62.9,6.574845650391438
6-8-2017 5:00,62.8,4.9966579187508415
6-8-2017 6:00,62.63,3.455795079537033
6-8-2017 7:00,62.68,2.4012535764520138
6-8-2017 8:00,62.47,1.3570191244983718
6-8-2017 9:00,62.28,1.6236411991907076
6-8-2017 10:00,62.0,1.7907364596976336
6-8-2017 11:00,61.68,1.646098748507427
6-8-2017 12:00,61.53,2.054594853504696
6-8-2017 13:00,61.75,2.3700195826546278
6-8-2017 14:00,61.6,2.4845907472775295
6-8-2017 15:00,61.68,2.6906872995585616
6-8-2017 16:00,61.62,3.738223355496075
6-8-2017 17:00,61.03,3.4376766819314994
6-8-2017 18:00,60.57,3.475834276751897
6-8-2017 19:00,60.67,0.22473150870246883
6-8-2017 20:00,60.45,-2.9857797136669646
6-8-2017 21:00,59.12,-0.3784229670976842
6-8-2017 22:00,59.47,-3.514196624742887
6-8-2017 23:00,59.77,-2.969516656026194
7-8-2017 0:00,60.15,-1.1500231084726593
7-8-2017 1:00,60.32,-0.888664817530767
7-8-2017 2:00,60.27,-0.9910056156289855
7-8-2017 3:00,60.3,-0.8237019406162034
7-8-2017 4:00,60.43,-0.44684497247614274
7-8-2017 5:00,60.4,-0.1682580578023405
7-8-2017 6:00,60.28,0.12654567594986332
7-8-2017 7:00,60.03,0.5662549651768032
7-8-2017 8:00,59.73,1.2211065769716214
7-8-2017 9:00,59.3,2.2713905394353944
7-8-2017 10:00,55.83,0.2800149499331894
7-8-2017 11:00,57.65,3.3065888912798584
7-8-2017 12:00,55.82,3.015437355061458
7-8-2017 13:00,55.78,3.8284626510227113
7-8-2017 14:00,54.38,3.4461832300739275
7-8-2017 15:00,56.22,6.170501799340663
7-8-2017 16:00,57.07,8.882254433343476
7-8-2017 17:00,55.58,8.389623675543703
7-8-2017 18:00,57.03,11.063175692779453
7-8-2017 19:00,49.43,0.9519435719887355
7-8-2017 20:00,37.23,-13.391751475684487
7-8-2017 21:00,39.05,-7.0823779061718
7-8-2017 22:00,40.98,-7.848521651728056
7-8-2017 23:00,42.07,-5.925312092207413
8-8-2017 0:00,42.47,-3.5293438887086666
8-8-2017 1:00,41.25,-4.173683330948009
8-8-2017 2:00,40.75,-4.247225728450616
8-8-2017 3:00,40.0,-4.379446325761386
8-8-2017 4:00,40.78,-2.8684832105825038
8-8-2017 5:00,42.42,-0.8619999446283941
8-8-2017 6:00,42.43,-0.3804079329442729
8-8-2017 7:00,42.15,0.09468181397664921
8-8-2017 8:00,40.55,-0.4902508450980321
8-8-2017 9:00,37.7,-2.395459024916036
8-8-2017 10:00,39.07,-0.07446461962039308
8-8-2017 11:00,41.48,3.0141618190701465
8-8-2017 12:00,40.35,2.844203486443071
8-8-2017 13:00,36.97,-0.5133306711455603
8-8-2017 14:00,36.82,-0.4806206980272165
8-8-2017 15:00,36.88,-0.3662401321359994
8-8-2017 16:00,36.58,0.3615470821450728
8-8-2017 17:00,38.82,2.7167396292523094
8-8-2017 18:00,36.53,0.7855934580456392
8-8-2017 19:00,37.67,-1.335884645086729
8-8-2017 20:00,38.52,-3.372880147664084
8-8-2017 21:00,38.52,0.2427081553272572
8-8-2017 22:00,38.8,-2.809631776279211
8-8-2017 23:00,41.57,-0.04371872409379307
9-8-2017 0:00,42.33,1.8346335891850458
9-8-2017 1:00,41.32,0.852959828183053
9-8-2017 2:00,40.77,0.17585905561057302
9-8-2017 3:00,40.92,0.3900587975425509
9-8-2017 4:00,40.98,0.630462142623422
9-8-2017 5:00,40.93,0.8713207057882144
9-8-2017 6:00,40.7,1.0363889873507475
9-8-2017 7:00,40.45,1.4743873415529123
9-8-2017 8:00,39.8,1.7677608929441817
9-8-2017 9:00,39.18,2.4874826455721504
9-8-2017 10:00,38.43,3.087745878097195
9-8-2017 11:00,35.6,1.337864502727733
9-8-2017 12:00,37.08,4.1323543152325115
9-8-2017 13:00,36.68,4.26886281140014
9-8-2017 14:00,35.78,4.061653115734387
9-8-2017 15:00,32.43,1.2827766200567154
9-8-2017 16:00,26.37,-3.2399980525262677
9-8-2017 17:00,27.33,-1.7115163996888434
9-8-2017 18:00,26.67,-1.5443845909954703
9-8-2017 19:00,28.48,-2.4297263275125225
9-8-2017 20:00,26.32,-6.9023980031758825
9-8-2017 21:00,26.45,-2.855722909569355
9-8-2017 22:00,27.57,-4.554237011765903
9-8-2017 23:00,28.73,-3.0818455844018686
10-8-2017 0:00,29.55,-0.8420821973874766
10-8-2017 1:00,29.8,-0.3710342254988426
10-8-2017 2:00,29.88,-0.23163732148790928
10-8-2017 3:00,29.9,0.039038811340113
10-8-2017 4:00,29.85,0.358936052205582
10-8-2017 5:00,29.85,0.6173977542981923
10-8-2017 6:00,29.73,0.859170147456279
10-8-2017 7:00,29.47,1.2633028936721793
10-8-2017 8:00,29.28,1.9882084402619071
10-8-2017 9:00,28.47,2.370473039770097
10-8-2017 10:00,27.28,2.387610822303426
10-8-2017 11:00,25.13,1.1768273556528293
10-8-2017 12:00,25.97,3.1433710360683627
10-8-2017 13:00,27.2,4.724761461798845
10-8-2017 14:00,24.87,2.8984713731556155
10-8-2017 15:00,19.65,-1.9328229082843258
10-8-2017 16:00,18.3,-1.9353401075611742
10-8-2017 17:00,18.87,-0.987833596035955
10-8-2017 18:00,18.77,-0.4366880544849465
10-8-2017 19:00,18.55,-3.4301740074565643
10-8-2017 20:00,18.15,-6.212802439275798
10-8-2017 21:00,17.88,-2.802211025197355
10-8-2017 22:00,17.62,-5.904078555813129
10-8-2017 23:00,21.25,-2.1823880110996328
11-8-2017 0:00,22.57,0.32160719182117603
11-8-2017 1:00,22.77,0.5320293245568202
11-8-2017 2:00,22.93,0.5345763331075624
11-8-2017 3:00,22.9,0.5383812847880165
11-8-2017 4:00,22.87,0.6644324762653007
11-8-2017 5:00,22.9,0.6865532272008075
11-8-2017 6:00,22.7,0.581085641869528
11-8-2017 7:00,22.1,0.38741369871463505
11-8-2017 8:00,20.83,-0.23008784088173329
11-8-2017 9:00,19.38,-0.6895698557117171
11-8-2017 10:00,19.63,0.5701540488692771
11-8-2017 11:00,19.98,1.664180062976932
11-8-2017 12:00,20.08,2.648489183342601
11-8-2017 13:00,18.52,1.356327411889449
11-8-2017 14:00,19.52,2.7725228035222393
11-8-2017 15:00,19.2,2.7603766095735267
11-8-2017 16:00,17.43,2.2496827568563305
11-8-2017 17:00,16.12,1.2868841446959784
11-8-2017 18:00,17.53,3.3327134367312645
11-8-2017 19:00,18.22,1.3317532849317146
11-8-2017 20:00,15.35,-3.8301618854167465
11-8-2017 21:00,14.67,-0.8392219556160647
11-8-2017 22:00,14.07,-4.078010719400741
11-8-2017 23:00,15.07,-2.9805888620874423
12-8-2017 0:00,15.3,-1.5759296480098932
12-8-2017 1:00,15.53,-1.2455640455326193
12-8-2017 2:00,15.65,-1.1992976235474604
12-8-2017 3:00,15.75,-0.981794544119964
12-8-2017 4:00,15.52,-0.9690200931362547
12-8-2017 5:00,15.42,-1.4021481564627756
12-8-2017 6:00,15.27,-1.7837635833883514
12-8-2017 7:00,15.07,-1.8941480790189775
12-8-2017 8:00,14.03,-2.602964567906362
12-8-2017 9:00,12.7,-4.149195012450761
12-8-2017 10:00,12.27,-4.771886801198331
12-8-2017 11:00,11.82,-5.678053121708647
12-8-2017 12:00,11.85,-6.010980376769073
12-8-2017 13:00,11.42,-8.067907649636627
12-8-2017 14:00,12.07,-8.900440081958578
12-8-2017 15:00,15.82,-6.734651492646822
12-8-2017 16:00,16.93,-6.264735303035138
12-8-2017 17:00,13.78,-11.226426168038305
12-8-2017 18:00,13.33,-13.184500254675992
12-8-2017 19:00,24.3,-6.951521734460712
12-8-2017 20:00,53.35,17.768689227504346
12-8-2017 21:00,26.4,-7.730534071808588
12-8-2017 22:00,50.7,11.923244186401988
12-8-2017 23:00,52.68,11.795885611479221
13-8-2017 0:00,53.0,11.070697091877662
13-8-2017 1:00,53.0,9.364271238903626
13-8-2017 2:00,53.12,7.597522149130249
13-8-2017 3:00,53.08,5.861988431111847
13-8-2017 4:00,52.2,3.4147512164090514
13-8-2017 5:00,53.08,3.1906871381447104
13-8-2017 6:00,53.03,2.1372366689490505
13-8-2017 7:00,52.93,1.3644524201669128
13-8-2017 8:00,52.73,0.7286337813127162
13-8-2017 9:00,52.45,0.9032058129952034
13-8-2017 10:00,52.23,1.1656492368603395
13-8-2017 11:00,52.4,1.5568414876733243
13-8-2017 12:00,52.23,1.6542287631280885
13-8-2017 13:00,52.3,1.6387683024475024
13-8-2017 14:00,52.4,1.7937403597721797
13-8-2017 15:00,52.25,1.6036960459457674
13-8-2017 16:00,52.5,2.75045459148771
13-8-2017 17:00,52.35,2.609625192979685
13-8-2017 18:00,52.1,2.687401447006991
13-8-2017 19:00,52.18,-0.035927641424947865
13-8-2017 20:00,51.52,-3.0838368278084047
13-8-2017 21:00,52.0,0.8515614044028794
13-8-2017 22:00,51.8,-1.7773085547534677
13-8-2017 23:00,52.63,-1.0346628012744432
14-8-2017 0:00,52.95,0.24508570608271896
14-8-2017 1:00,53.07,1.0029352704436434
14-8-2017 2:00,53.13,1.51423754169803
14-8-2017 3:00,53.17,2.1967338990200105
14-8-2017 4:00,53.18,2.9805518914169653
14-8-2017 5:00,53.15,4.202970049099008
14-8-2017 6:00,53.02,5.425102788517471
14-8-2017 7:00,52.92,7.01733703746801
14-8-2017 8:00,52.68,8.701934499531212
14-8-2017 9:00,52.28,10.848717683240572
14-8-2017 10:00,45.52,6.667704995518449
14-8-2017 11:00,43.0,6.4676644934547625
14-8-2017 12:00,40.57,6.356774975224717
14-8-2017 13:00,39.07,6.6723115543831355
14-8-2017 14:00,33.77,3.3243183290064664
14-8-2017 15:00,31.42,2.8379713396939152
14-8-2017 16:00,18.28,-7.508896509856822
14-8-2017 17:00,15.63,-8.447722070517266
14-8-2017 18:00,15.68,-6.352953104472533
14-8-2017 19:00,15.17,-7.851443465371833
14-8-2017 20:00,15.17,-8.416326463923966
14-8-2017 21:00,8.33,-10.739438339665917
14-8-2017 22:00,9.45,-10.774080110378323
14-8-2017 23:00,11.07,-8.164553622686668
15-8-2017 0:00,13.4,-3.8129916825599217
15-8-2017 1:00,13.58,-2.9647931448201135
15-8-2017 2:00,13.87,-2.1993659564940558
15-8-2017 3:00,13.97,-1.432765967787784
15-8-2017 4:00,13.93,-0.6718030663113037
15-8-2017 5:00,13.6,-0.9000425695619896
15-8-2017 6:00,13.27,-1.0294665184085332
15-8-2017 7:00,13.08,-0.6693384859899485
15-8-2017 8:00,12.57,-0.40144963727398775
15-8-2017 9:00,11.38,-0.8230023392278785
15-8-2017 10:00,10.98,-0.4180124758881565
15-8-2017 11:00,10.2,-0.6498270681794072
15-8-2017 12:00,11.32,0.9704652825548674
15-8-2017 13:00,11.2,0.744100983447268
15-8-2017 14:00,10.1,-0.32975544273575075
15-8-2017 15:00,11.47,0.9846969743605491
15-8-2017 16:00,10.9,1.2812877785792534
15-8-2017 17:00,10.57,0.8540088835994197
15-8-2017 18:00,8.9,-0.564686610505392
15-8-2017 19:00,14.9,2.75117894741609
15-8-2017 20:00,16.28,1.8788393279834352
15-8-2017 21:00,11.58,0.28571968301182693
15-8-2017 22:00,10.98,-2.6662231816634776
15-8-2017 23:00,11.17,-2.881345242166022
16-8-2017 0:00,12.2,-1.247236295446136
16-8-2017 1:00,14.1,0.6572933973212454
16-8-2017 2:00,15.08,1.441692209261765
16-8-2017 3:00,15.0,1.3568153664377114
16-8-2017 4:00,14.98,1.4696039875995748
16-8-2017 5:00,15.0,1.4652238619707951
16-8-2017 6:00,14.37,0.9092106263685249
16-8-2017 7:00,13.8,0.7709637852635591
16-8-2017 8:00,12.18,-0.1915440795195842
16-8-2017 9:00,11.33,-0.17002493614676695
16-8-2017 10:00,6.45,-4.138020600268351
16-8-2017 11:00,7.08,-2.8516403312160996
16-8-2017 12:00,7.27,-2.096542972162677
16-8-2017 13:00,9.5,0.23740607587010842
16-8-2017 14:00,9.68,0.6478722830704893
16-8-2017 15:00,10.37,1.4946143139403105
16-8-2017 16:00,10.38,2.5774258571416624
16-8-2017 17:00,10.02,2.3494063942765404
16-8-2017 18:00,8.72,1.537921541107119
16-8-2017 19:00,9.03,-0.5120409741473981
16-8-2017 20:00,14.7,3.233680762644264
16-8-2017 21:00,11.98,3.678474097923102
16-8-2017 22:00,11.37,0.9650732170289373
16-8-2017 23:00,9.55,-1.213499427021132
17-8-2017 0:00,8.58,-1.5321668977691782
17-8-2017 1:00,9.95,-0.17805876898164463
17-8-2017 2:00,9.93,-0.4214410524340817
17-8-2017 3:00,9.25,-1.1345474457958753
17-8-2017 4:00,6.28,-3.9966689929468773
17-8-2017 5:00,5.72,-4.6181129512375225
17-8-2017 6:00,6.42,-3.8816386838792916
17-8-2017 7:00,7.22,-2.67917157314238
17-8-2017 8:00,6.65,-2.622987326059203
17-8-2017 9:00,7.43,-1.012887794309541
17-8-2017 10:00,7.27,-0.2983557216981705
17-8-2017 11:00,6.38,-0.5682673271081518
17-8-2017 12:00,5.08,-1.3828516955413095
17-8-2017 13:00,5.52,-1.0277759302394625
17-8-2017 14:00,11.77,5.257826280472996
17-8-2017 15:00,15.97,9.427671295245027
17-8-2017 16:00,13.2,7.537501957174905
17-8-2017 17:00,9.15,3.349604819347677
17-8-2017 18:00,8.75,3.176193500036815
17-8-2017 19:00,8.2,0.09124809763941322
17-8-2017 20:00,5.67,-4.534123623311494
17-8-2017 21:00,5.7,-1.4842246810969693
17-8-2017 22:00,5.73,-3.511906482078528
17-8-2017 23:00,6.82,-2.9367526135446598
18-8-2017 0:00,6.48,-2.7810194056291726
18-8-2017 1:00,6.63,-2.552844835859685
18-8-2017 2:00,9.9,0.5804797902567262
18-8-2017 3:00,9.95,0.6836318513189923
18-8-2017 4:00,9.87,0.801087798280256
18-8-2017 5:00,9.78,0.6675202386151753
18-8-2017 6:00,9.72,0.661422240221337
18-8-2017 7:00,8.13,-0.5004548924298087
18-8-2017 8:00,7.08,-0.9006367287102464
18-8-2017 9:00,7.32,0.07858630845779313
18-8-2017 10:00,5.3,-1.1538102755587856
18-8-2017 11:00,5.6,-0.3194701487919085
18-8-2017 12:00,5.63,0.06680736192744163
18-8-2017 13:00,4.85,-0.7955994253445491
18-8-2017 14:00,5.6,-0.013470480962912923
18-8-2017 15:00,5.9,0.2608682478684212
18-8-2017 16:00,6.23,1.4691087586839329
18-8-2017 17:00,7.0,2.1161395599012085
18-8-2017 18:00,6.55,1.915607388455527
18-8-2017 19:00,7.18,0.12048471292185958
18-8-2017 20:00,7.33,-1.7111748517650014
18-8-2017 21:00,8.0,1.8098955520844733
18-8-2017 22:00,7.87,-0.35600131428521387
18-8-2017 23:00,8.12,-0.8010550784681438
19-8-2017 0:00,7.68,-0.9248553371898591
19-8-2017 1:00,7.83,-0.8507618695033585
19-8-2017 2:00,7.98,-0.998877876883042
19-8-2017 3:00,7.9,-1.187614904461654
19-8-2017 4:00,7.9,-1.148729006453066
19-8-2017 5:00,7.9,-1.2164841121683043
19-8-2017 6:00,8.2,-0.8872183209899376
19-8-2017 7:00,9.52,0.8444963582951379
19-8-2017 8:00,9.17,1.1258844939753656
19-8-2017 9:00,8.8,1.5896028531270208
19-8-2017 10:00,7.12,0.7956494290477254
19-8-2017 11:00,6.5,0.8096131045566981
19-8-2017 12:00,7.85,2.572124310993794
19-8-2017 13:00,7.12,1.8045334713602266
19-8-2017 14:00,6.2,0.9554876496232989
19-8-2017 15:00,5.5,0.27661859272619616
19-8-2017 16:00,6.17,1.8655674526395982
19-8-2017 17:00,5.07,0.6914634703842495
19-8-2017 18:00,3.98,-0.09225227571338834
19-8-2017 19:00,5.32,-1.0336149469004559
19-8-2017 20:00,5.78,-2.407625077840404
19-8-2017 21:00,3.28,-2.0075291931637196
19-8-2017 22:00,2.37,-4.713787105729282
19-8-2017 23:00,7.17,-0.5711944834367548
20-8-2017 0:00,7.35,-0.03667418960341706
20-8-2017 1:00,7.35,-0.1302024963282724
20-8-2017 2:00,7.98,0.176700190467578
20-8-2017 3:00,8.52,0.5825334019197133
20-8-2017 4:00,7.88,-0.04069142135274273
20-8-2017 5:00,7.78,-0.4035896900697846
20-8-2017 6:00,7.73,-0.6199157262708574
20-8-2017 7:00,6.97,-1.1555648520012092
20-8-2017 8:00,6.1,-1.583562361311964
20-8-2017 9:00,6.28,-0.7767768926297283
20-8-2017 10:00,4.48,-1.8937153692247692
20-8-2017 11:00,4.85,-1.091556357426735
20-8-2017 12:00,5.88,0.1057603322750742
20-8-2017 13:00,6.28,0.3355671949774903
20-8-2017 14:00,6.67,0.6579283618195628
20-8-2017 15:00,9.8,3.6784332738915877
20-8-2017 16:00,10.35,5.01067223760044
20-8-2017 17:00,8.95,3.4061488626415874
20-8-2017 18:00,9.17,3.8099649326611207
20-8-2017 19:00,8.65,0.9730776565897754
20-8-2017 20:00,6.1,-3.4425676498341344
20-8-2017 21:00,6.6,-0.1660934395934177
20-8-2017 22:00,7.92,-0.5753595536180311
20-8-2017 23:00,7.38,-1.9077677001132214
21-8-2017 0:00,8.57,-0.4975740089880061
21-8-2017 1:00,8.67,-0.3773446442654782
21-8-2017 2:00,8.77,-0.494043817435351
21-8-2017 3:00,8.77,-0.5222609210937232
21-8-2017 4:00,8.93,-0.23621701978848364
21-8-2017 5:00,8.82,-0.4246733279763255
21-8-2017 6:00,8.73,-0.4970060680258337
21-8-2017 7:00,8.25,-0.5604338752406086
21-8-2017 8:00,8.07,-0.10823190601134058
21-8-2017 9:00,6.93,-0.48337082874886494
21-8-2017 10:00,6.13,-0.45828585880999384
21-8-2017 11:00,5.38,-0.6329230116732356
21-8-2017 12:00,6.47,0.7242076603429455
21-8-2017 13:00,7.93,2.098217592395951
21-8-2017 14:00,6.07,0.24879111483163108
21-8-2017 15:00,4.83,-1.0145246371126113
21-8-2017 16:00,5.48,0.4978097461954274
21-8-2017 17:00,7.03,1.8817343590092523
21-8-2017 18:00,7.17,2.251949625622135
21-8-2017 19:00,8.5,1.3984046592727841
21-8-2017 20:00,8.53,-0.30000890802881575
21-8-2017 21:00,7.03,0.9278683153928586
21-8-2017 22:00,5.42,-2.269382551882294
21-8-2017 23:00,5.47,-3.07176801895669
22-8-2017 0:00,7.4,-0.9808774823310857
22-8-2017 1:00,7.98,-0.39747623337390614
22-8-2017 2:00,7.98,-0.6383630537222356
22-8-2017 3:00,7.98,-0.6912162597038485
22-8-2017 4:00,8.73,0.1635101718080474
22-8-2017 5:00,9.0,0.3543599221980571
22-8-2017 6:00,9.0,0.3708845763487698
22-8-2017 7:00,8.82,0.614541656261272
22-8-2017 8:00,8.35,0.7818066726422579
22-8-2017 9:00,6.53,-0.24382398215110257
22-8-2017 10:00,6.07,0.1547145236272245
22-8-2017 11:00,6.83,1.5247112954082462
22-8-2017 12:00,6.07,1.023086039044344
22-8-2017 13:00,4.75,-0.33055696800765677
22-8-2017 14:00,5.5,0.4763729015660294
22-8-2017 15:00,5.75,0.7573804771499217
22-8-2017 16:00,4.93,0.8479525377543977
22-8-2017 17:00,4.73,0.5646678050941283
22-8-2017 18:00,5.23,1.38562493505359
22-8-2017 19:00,5.07,-0.7802345093303709
22-8-2017 20:00,5.15,-2.2470731252662675
22-8-2017 21:00,5.48,0.8110439635043711
22-8-2017 22:00,5.57,-0.495350868550541
22-8-2017 23:00,6.33,-0.5988728677333643
23-8-2017 0:00,6.6,-0.17917188419051033
23-8-2017 1:00,6.05,-0.7827660840362816
23-8-2017 2:00,6.08,-1.0611831033905403
23-8-2017 3:00,6.05,-1.2118491601050083
23-8-2017 4:00,6.02,-1.200564779063928
23-8-2017 5:00,6.05,-1.444175081817689
23-8-2017 6:00,5.92,-1.752362498030922
23-8-2017 7:00,5.53,-1.9074281376828282
23-8-2017 8:00,4.97,-2.018051133488729
23-8-2017 9:00,6.13,-0.27951689555564485
23-8-2017 10:00,4.53,-1.2377909709356594
23-8-2017 11:00,5.35,-0.019427958284082614
23-8-2017 12:00,5.32,-0.03606854345013755
23-8-2017 13:00,5.93,0.36188913819463053
23-8-2017 14:00,8.37,2.6691158044271077
23-8-2017 15:00,7.32,1.472535398645368
23-8-2017 16:00,5.33,0.20580116489775868
23-8-2017 17:00,8.98,3.619670693458027
23-8-2017 18:00,9.63,4.440126863551411
23-8-2017 19:00,9.12,1.8550208000594903
23-8-2017 20:00,9.6,0.7237461696833156
23-8-2017 21:00,9.78,3.51792036593475
23-8-2017 22:00,10.27,2.6922436984440896
23-8-2017 23:00,7.6,-0.9761877565489634
24-8-2017 0:00,6.68,-1.8646377190695462
24-8-2017 1:00,6.37,-2.13046966000804
24-8-2017 2:00,6.73,-1.991659170658001
24-8-2017 3:00,6.67,-2.0853803703950966
24-8-2017 4:00,6.8,-1.8227903529677603
24-8-2017 5:00,6.93,-1.7736960028030397
24-8-2017 6:00,6.73,-1.9594307833179627
24-8-2017 7:00,6.73,-1.5260598338248421
24-8-2017 8:00,6.28,-1.3274115331081946
24-8-2017 9:00,6.17,-0.6737748045754506
24-8-2017 10:00,7.45,1.4320726696282229
24-8-2017 11:00,6.5,1.0697360538923837
24-8-2017 12:00,6.35,1.0890142706662065
24-8-2017 13:00,6.68,1.3269760556861003
24-8-2017 14:00,8.1,2.7229029332557264
24-8-2017 15:00,6.6,1.1971379607867085
24-8-2017 16:00,3.72,-0.8485009889035293
24-8-2017 17:00,7.13,2.4096975528068247
24-8-2017 18:00,4.72,0.2568275149636783
24-8-2017 19:00,8.83,2.459649198043701
24-8-2017 20:00,7.62,-0.18888708109285535
24-8-2017 21:00,8.17,2.9785655964590063
24-8-2017 22:00,6.9,0.5908299248381725
24-8-2017 23:00,5.58,-1.7452881546595327
25-8-2017 0:00,5.78,-1.5146662319379773
25-8-2017 1:00,4.63,-2.641507520354649
25-8-2017 2:00,4.9,-2.6242411286857648
25-8-2017 3:00,5.93,-1.6597890778309425
25-8-2017 4:00,6.0,-1.4846602235553794
25-8-2017 5:00,6.0,-1.6734382827923238
25-8-2017 6:00,5.97,-1.7972974899290852
25-8-2017 7:00,6.12,-1.3160645796531547
25-8-2017 8:00,6.28,-0.6087196107761752
25-8-2017 9:00,4.87,-1.370038526718652
25-8-2017 10:00,4.78,-0.7501271894697714
25-8-2017 11:00,6.25,1.1967788798684929
25-8-2017 12:00,7.35,2.321918212043716
25-8-2017 13:00,6.32,1.0974391732387287
25-8-2017 14:00,5.88,0.5196213349454952
25-8-2017 15:00,7.22,1.732226868589195
25-8-2017 16:00,7.62,2.8552382757563244
25-8-2017 17:00,6.82,1.814863743498595
25-8-2017 18:00,7.25,2.415765410600752
25-8-2017 19:00,7.32,0.573612753134551
25-8-2017 20:00,8.12,-0.0650872618805538
25-8-2017 21:00,7.43,1.762773817462305
25-8-2017 22:00,7.07,0.38010906220187035
25-8-2017 23:00,6.4,-1.4265657213099177
26-8-2017 0:00,6.63,-1.2697419928556553
26-8-2017 1:00,6.8,-1.0645660500153928
26-8-2017 2:00,6.87,-1.2458171772925546
26-8-2017 3:00,6.87,-1.3101652971107036
26-8-2017 4:00,6.95,-1.1194710272518034
26-8-2017 5:00,6.9,-1.325584072481238
26-8-2017 6:00,6.57,-1.7170302828306614
26-8-2017 7:00,6.13,-1.787397988362744
26-8-2017 8:00,5.95,-1.3808189279162573
26-8-2017 9:00,5.97,-0.6649954815345653
26-8-2017 10:00,6.45,0.5710777255589159
26-8-2017 11:00,5.92,0.5693244867706762
26-8-2017 12:00,6.72,1.4124229411466898
26-8-2017 13:00,7.12,1.6657225031966556
26-8-2017 14:00,7.68,2.124379373720398
26-8-2017 15:00,6.32,0.6855748381566498
26-8-2017 16:00,6.7,1.8274560268609754
26-8-2017 17:00,5.68,0.5787602738885598
26-8-2017 18:00,8.52,3.6036854991894147
26-8-2017 19:00,7.38,0.6468103544303796
26-8-2017 20:00,9.12,1.0481984567901215
26-8-2017 21:00,2.12,-3.465374421086869
26-8-2017 22:00,6.77,0.3251893810022439
26-8-2017 23:00,7.0,-0.6338844655344751
27-8-2017 0:00,6.98,-0.7627012903583514
27-8-2017 1:00,6.95,-0.7214467743130708
27-8-2017 2:00,7.0,-0.8971540785881933
27-8-2017 3:00,6.98,-0.9562410271312265
27-8-2017 4:00,6.98,-0.8159199997409035
27-8-2017 5:00,6.98,-0.9612753084881334
27-8-2017 6:00,6.95,-1.0422157995755263
27-8-2017 7:00,6.77,-0.8360913984409297
27-8-2017 8:00,6.43,-0.5721855239502416
27-8-2017 9:00,6.17,-0.1573911075773955
27-8-2017 10:00,5.75,0.15667257702767046
27-8-2017 11:00,5.52,0.4380886377799129
27-8-2017 12:00,5.53,0.4409748220237022
27-8-2017 13:00,4.6,-0.6909100997022639
27-8-2017 14:00,6.43,0.9712583950075713
27-8-2017 15:00,6.77,1.1780807056054918
27-8-2017 16:00,6.62,1.725868591216135
27-8-2017 17:00,6.3,1.0879534392141057
27-8-2017 18:00,7.07,1.9560040443987354
27-8-2017 19:00,5.92,-1.0164917659680555
27-8-2017 20:00,5.23,-3.0459137245483916
27-8-2017 21:00,5.07,-0.8560806713357021
27-8-2017 22:00,5.63,-1.097448423587509
27-8-2017 23:00,8.08,0.005918555160371319
28-8-2017 0:00,9.1,0.7763010653678855
28-8-2017 1:00,9.0,0.6659727840477743
28-8-2017 2:00,8.98,0.3281479322042813
28-8-2017 3:00,9.0,0.21666078436595093
28-8-2017 4:00,8.97,0.23894719871728576
28-8-2017 5:00,8.97,0.002154202677452588
28-8-2017 6:00,8.73,-0.3804759929227135
28-8-2017 7:00,8.62,-0.19005490889624355
28-8-2017 8:00,7.85,-0.44101764413616085
28-8-2017 9:00,6.35,-1.2657442986303122
28-8-2017 10:00,6.65,-0.23218217737181313
28-8-2017 11:00,4.43,-1.9360888579372428
28-8-2017 12:00,6.15,-0.25190698468382955
28-8-2017 13:00,7.58,1.1013059703842023
28-8-2017 14:00,7.65,1.1172684498500551
28-8-2017 15:00,7.23,0.6899999671795705
28-8-2017 16:00,8.62,2.8939921643108297
28-8-2017 17:00,9.1,3.2068446297886766
28-8-2017 18:00,8.42,2.778007631366563
28-8-2017 19:00,8.38,1.149932964970529
28-8-2017 20:00,8.42,0.0897427550286265
28-8-2017 21:00,7.8,1.8944829612938543
28-8-2017 22:00,5.98,-0.4572168941750112
28-8-2017 23:00,5.55,-2.1798096390186714
29-8-2017 0:00,6.6,-1.3086283426559087
29-8-2017 1:00,6.78,-1.0018927223189698
29-8-2017 2:00,6.93,-1.0431884227083916
29-8-2017 3:00,6.92,-1.0584290708195736
29-8-2017 4:00,6.92,-0.8753794761973017
29-8-2017 5:00,6.32,-1.613255507561088
29-8-2017 6:00,5.95,-2.0272207557053825
29-8-2017 7:00,5.8,-1.772001660784098
29-8-2017 8:00,5.0,-1.9473316777516807
29-8-2017 9:00,3.65,-2.6325175061998736
29-8-2017 10:00,7.35,1.7896584247545722
29-8-2017 11:00,6.92,1.8695443759139865
29-8-2017 12:00,4.58,-0.5458626887804625
29-8-2017 13:00,5.48,0.15273274906634438
29-8-2017 14:00,4.73,-0.7872261807270036
29-8-2017 15:00,7.6,1.9516991493188849
29-8-2017 16:00,7.75,2.782003852504488
29-8-2017 17:00,7.35,2.0556423721332484
29-8-2017 18:00,7.73,2.529936206775437
29-8-2017 19:00,8.07,1.2060177901548883
29-8-2017 20:00,5.43,-2.605205565343849
29-8-2017 21:00,5.97,0.20734533780015596
29-8-2017 22:00,5.88,-0.37214786475204154
29-8-2017 23:00,7.47,-0.24816157705351571
30-8-2017 0:00,7.67,-0.5136547654166348
30-8-2017 1:00,7.83,-0.18140387080820997
30-8-2017 2:00,7.93,-0.300868555484608
30-8-2017 3:00,7.95,-0.2995873359347252
30-8-2017 4:00,7.98,-0.10503049934094744
30-8-2017 5:00,7.97,-0.2650381632987564
30-8-2017 6:00,7.85,-0.42945412478671763
30-8-2017 7:00,7.33,-0.5657420887583795
30-8-2017 8:00,7.0,-0.2376675931261758
30-8-2017 9:00,6.85,0.31989361589557497
30-8-2017 10:00,6.52,0.6199647465249694
30-8-2017 11:00,6.2,0.8119774114662901
30-8-2017 12:00,4.62,-0.8748699725394218
30-8-2017 13:00,4.43,-1.2160800627113924
30-8-2017 14:00,4.28,-1.5334948928460372
30-8-2017 15:00,5.47,-0.40090449692688424
30-8-2017 16:00,5.3,0.14790246345961933
30-8-2017 17:00,7.35,1.886391251022097
30-8-2017 18:00,6.17,0.7786524041002156
30-8-2017 19:00,7.27,0.10006756961105268
30-8-2017 20:00,7.3,-1.1814793961938
30-8-2017 21:00,5.32,-0.7200909620928337
30-8-2017 22:00,5.83,-0.6668933503290466
30-8-2017 23:00,7.68,-0.6655683505490524
31-8-2017 0:00,8.03,-0.8537588575047756
31-8-2017 1:00,8.2,-0.49832179827757006
31-8-2017 2:00,10.38,1.401715423106351
31-8-2017 3:00,10.85,1.8071894006645914
31-8-2017 4:00,10.87,1.9411097023490456
31-8-2017 5:00,10.67,1.4464109701612458
31-8-2017 6:00,10.52,1.1189848596936445
31-8-2017 7:00,9.35,0.17875489133051836
31-8-2017 8:00,8.02,-0.5922010459360081
31-8-2017 9:00,7.57,-0.4480644139272627
31-8-2017 10:00,6.68,-0.956226570995045
31-8-2017 11:00,4.88,-2.3982156796439416
31-8-2017 12:00,5.43,-2.142631870333039
31-8-2017 13:00,5.23,-2.442996313236903
31-8-2017 14:00,4.93,-2.8872158684259643
31-8-2017 15:00,5.93,-1.8703092313466652
31-8-2017 16:00,7.17,0.12750525816531777
31-8-2017 17:00,5.67,-1.5557853253558012
31-8-2017 18:00,5.33,-1.732186492859066
31-8-2017 19:00,13.97,5.127758871037585
31-8-2017 20:00,17.03,6.849084911181047
31-8-2017 21:00,17.42,9.9295913910688
31-8-2017 22:00,13.03,5.195592002607896
31-8-2017 23:00,9.5,-0.4856321000713191
1-9-2017 0:00,8.87,-1.6464077401603276
1-9-2017 1:00,7.98,-2.256805737778996
1-9-2017 2:00,8.25,-2.2462878317994157
1-9-2017 3:00,8.0,-2.5256423176974714
1-9-2017 4:00,8.0,-2.3813968916291905
1-9-2017 5:00,9.97,-0.6344699635324762
1-9-2017 6:00,10.23,-0.46858949446520626
1-9-2017 7:00,8.1,-2.3064336457568704
1-9-2017 8:00,8.72,-1.010092194459201
1-9-2017 9:00,7.68,-1.4158797571631867
1-9-2017 10:00,8.2,-0.6087696451184996
1-9-2017 11:00,7.15,-1.301254970547971
1-9-2017 12:00,5.67,-3.1097344111108116
1-9-2017 13:00,7.6,-1.4663657223083018
1-9-2017 14:00,6.33,-3.094502518113509
1-9-2017 15:00,7.07,-2.5003921554357937
1-9-2017 16:00,5.77,-3.2406826523600643
1-9-2017 17:00,16.77,7.35882642895521
1-9-2017 18:00,12.68,3.178341976790554
1-9-2017 19:00,10.9,-0.7286034250069928
1-9-2017 20:00,14.87,1.5301746570047694
1-9-2017 21:00,12.95,2.386476315982973
1-9-2017 22:00,13.67,2.7119570606010335
1-9-2017 23:00,14.7,1.1248609887662635
2-9-2017 0:00,15.63,1.3681773488476328
2-9-2017 1:00,15.75,1.87899869441776
2-9-2017 2:00,15.9,1.8070516850276732
2-9-2017 3:00,15.92,1.8499231357079964
2-9-2017 4:00,15.73,1.851548086194775
2-9-2017 5:00,15.67,1.8330813863936122
2-9-2017 6:00,15.3,1.6452491468133577
2-9-2017 7:00,13.55,0.44277152441076595
2-9-2017 8:00,11.18,-0.9406089239097621
2-9-2017 9:00,10.35,-0.5722986646884536
2-9-2017 10:00,10.95,0.7441057331067267
2-9-2017 11:00,9.22,-0.1048537924652937
2-9-2017 12:00,10.28,1.116625533736146
2-9-2017 13:00,10.97,2.265848582226278
2-9-2017 14:00,8.9,0.55591577378617
2-9-2017 15:00,5.65,-2.0706489099564562
2-9-2017 16:00,6.33,-0.09692316533573475
2-9-2017 17:00,6.23,0.03456406083181207
2-9-2017 18:00,7.88,2.189174804021638
2-9-2017 19:00,6.18,-1.1354828834542268
2-9-2017 20:00,5.78,-2.7700742795582816
2-9-2017 21:00,3.32,-1.8831986496601463
2-9-2017 22:00,0.0,-5.163458980133635
2-9-2017 23:00,5.98,-1.781648229294471
3-9-2017 0:00,6.55,-1.569461077213246
3-9-2017 1:00,6.85,-0.7853922101581832
3-9-2017 2:00,6.98,-0.8577759566217944
3-9-2017 3:00,7.0,-0.7806503910669571
3-9-2017 4:00,7.0,-0.559617737865544
3-9-2017 5:00,6.98,-0.893984448933268
3-9-2017 6:00,6.72,-1.3160357805297318
3-9-2017 7:00,6.75,-1.1036532574119384
3-9-2017 8:00,8.0,0.8227380112806548
3-9-2017 9:00,6.85,0.3346317991445158
3-9-2017 10:00,6.05,-0.4201838105925537
3-9-2017 11:00,4.65,-1.5161318295898658
3-9-2017 12:00,5.85,-0.7652080299068853
3-9-2017 13:00,6.72,-0.01469223492047611
3-9-2017 14:00,7.58,0.5990173308131741
3-9-2017 15:00,9.22,2.3072159874588714
3-9-2017 16:00,7.15,0.9403963604332439
3-9-2017 17:00,10.62,4.14350017807881
3-9-2017 18:00,11.1,4.592844563248873
3-9-2017 19:00,7.43,-1.3298869632795611
3-9-2017 20:00,4.03,-6.618209390873686
3-9-2017 21:00,3.65,-3.7406067746152223
3-9-2017 22:00,7.4,-0.17645516473986866
3-9-2017 23:00,8.7,-2.1155845757863814
4-9-2017 0:00,12.03,0.5256263837350978
4-9-2017 1:00,12.95,1.9734231669691376
4-9-2017 2:00,12.97,1.7610830781260383
4-9-2017 3:00,14.07,2.9029431532494314
4-9-2017 4:00,13.98,3.013863903859521
4-9-2017 5:00,13.97,2.824595551997465
4-9-2017 6:00,13.67,2.509323498857025
4-9-2017 7:00,12.75,1.897564537967435
4-9-2017 8:00,10.98,0.9847258941453791
4-9-2017 9:00,8.7,-0.37425796072214723
4-9-2017 10:00,9.2,0.2952452506345953
4-9-2017 11:00,6.23,-2.1521524331619464
4-9-2017 12:00,5.7,-2.9462453313713652
4-9-2017 13:00,6.28,-2.1122120569545766
4-9-2017 14:00,7.98,-0.3126353841130687
4-9-2017 15:00,10.0,2.1725513458550463
4-9-2017 16:00,5.33,-1.4325728890209444
4-9-2017 17:00,6.07,-0.628710110898302
4-9-2017 18:00,7.78,1.3445102852510473
4-9-2017 19:00,6.03,-2.4570866337524206
4-9-2017 20:00,6.93,-3.2699316462590833
4-9-2017 21:00,6.47,-0.12349891427247073
4-9-2017 22:00,7.5,0.9333051700155437
4-9-2017 23:00,9.18,-0.828523868852824
5-9-2017 0:00,9.95,-0.6400485678272769
5-9-2017 1:00,10.5,0.5110058981628853
5-9-2017 2:00,10.73,0.5082392335174415
5-9-2017 3:00,10.92,0.7543635847865318
5-9-2017 4:00,10.98,1.0249521921480564
5-9-2017 5:00,11.97,1.6563125869038302
5-9-2017 6:00,12.87,2.373350199631574
5-9-2017 7:00,11.2,0.8232398538171761
5-9-2017 8:00,9.45,-0.20303860343695668
5-9-2017 9:00,8.0,-0.9825390448845699
5-9-2017 10:00,6.25,-2.94816242916385
5-9-2017 11:00,6.2,-2.7664551944894544
5-9-2017 12:00,5.08,-4.475010207321104
5-9-2017 13:00,8.32,-1.238802762127655
5-9-2017 14:00,7.05,-2.694702290832007
5-9-2017 15:00,7.4,-2.113870796195185
5-9-2017 16:00,7.98,-0.7387693548347638
5-9-2017 17:00,6.67,-2.1654586490129795
5-9-2017 18:00,5.15,-3.6396732746622735
5-9-2017 19:00,19.5,8.348225904556548
5-9-2017 20:00,20.68,7.479219797834677
5-9-2017 21:00,13.48,4.009797276369508
5-9-2017 22:00,11.02,1.5640604818211425
5-9-2017 23:00,13.22,-0.10566153811812029
6-9-2017 0:00,14.37,0.22973031191681237
6-9-2017 1:00,14.82,1.4450412806507327
6-9-2017 2:00,14.97,1.412035241875854
6-9-2017 3:00,15.0,1.5971779579241385
6-9-2017 4:00,14.97,1.8431858257422284
6-9-2017 5:00,14.93,1.7083890915166666
6-9-2017 6:00,14.62,1.4902186155220125
6-9-2017 7:00,14.0,1.2297209436742804
6-9-2017 8:00,12.52,0.7803487927933048
6-9-2017 9:00,11.38,0.7700343977391899
6-9-2017 10:00,5.03,-5.475444532788647
6-9-2017 11:00,6.13,-3.7327865570399466
6-9-2017 12:00,5.88,-4.246490406835395
6-9-2017 13:00,6.35,-3.309880055961931
6-9-2017 14:00,7.25,-2.125815520270115
6-9-2017 15:00,7.48,-1.1496711085968432
6-9-2017 16:00,8.95,1.5910519498568654
6-9-2017 17:00,12.15,5.0777155464213894
6-9-2017 18:00,12.13,5.4531323910910405
6-9-2017 19:00,9.57,0.7485548862405569
6-9-2017 20:00,8.62,-2.00963263431823
6-9-2017 21:00,8.43,2.0029085270869924
6-9-2017 22:00,8.47,2.2587125053746657
6-9-2017 23:00,8.92,-1.4564163503605005
7-9-2017 0:00,9.33,-1.8695112777228786
7-9-2017 1:00,8.83,-1.46451305852199
7-9-2017 2:00,8.85,-1.602327723703091
7-9-2017 3:00,8.97,-1.2527358951524006
7-9-2017 4:00,8.93,-0.9753676327675729
7-9-2017 5:00,9.98,-0.07676637983487566
7-9-2017 6:00,9.95,-0.06058982841233451
7-9-2017 7:00,9.85,0.11843209859938852
7-9-2017 8:00,9.17,0.45587317898435487
7-9-2017 9:00,7.87,0.1166127242065329
7-9-2017 10:00,6.22,-1.736649228588731
7-9-2017 11:00,5.6,-1.9309679877845873
7-9-2017 12:00,7.27,-0.8277481505627033
7-9-2017 13:00,8.13,0.2531878149360054
7-9-2017 14:00,8.27,0.43113912396920995
7-9-2017 15:00,8.1,0.8065191616241574
7-9-2017 16:00,7.33,1.066692200580647
7-9-2017 17:00,6.52,0.3530247396990571
7-9-2017 18:00,5.62,-0.39561089350119794
7-9-2017 19:00,7.25,-1.2865443519776187
7-9-2017 20:00,8.47,-2.227792555929952
7-9-2017 21:00,6.15,-0.15590710721059153
7-9-2017 22:00,7.73,1.5585850736797422
7-9-2017 23:00,10.67,-0.24480318808469725
8-9-2017 0:00,10.55,-1.4792374630777587
8-9-2017 1:00,11.4,0.34178407174375103
8-9-2017 2:00,12.98,1.7154968453100778
8-9-2017 3:00,13.0,1.96587385151682
8-9-2017 4:00,12.95,2.2008083768113647
8-9-2017 5:00,12.98,2.0195885484657623
8-9-2017 6:00,12.9,1.9368930588689448
8-9-2017 7:00,11.65,0.8821694677621732
8-9-2017 8:00,11.23,1.463158662435136
8-9-2017 9:00,9.87,1.2345820668946477
8-9-2017 10:00,7.72,-1.086838540696732
8-9-2017 11:00,5.8,-2.4585096673658366
8-9-2017 12:00,6.7,-2.0887417756553095
8-9-2017 13:00,6.7,-1.3649184659523073
8-9-2017 14:00,7.75,0.22548134600133984
8-9-2017 15:00,5.95,-0.4813412607829841
8-9-2017 16:00,5.25,0.3568434882553362
8-9-2017 17:00,5.32,1.0691858180846694
8-9-2017 18:00,4.95,1.3428385551715412
8-9-2017 19:00,11.38,5.6118899912262155
8-9-2017 20:00,12.08,4.5339219520373675
8-9-2017 21:00,7.57,4.933989892964229
8-9-2017 22:00,7.72,5.46600848135059
8-9-2017 23:00,8.05,0.8031990184502424
9-9-2017 0:00,1.53,-6.793736399280143
9-9-2017 1:00,0.0,-7.271265825228904
9-9-2017 2:00,0.0,-7.510599889306041
9-9-2017 3:00,0.0,-7.264011981834136
9-9-2017 4:00,0.0,-6.996085470020767
9-9-2017 5:00,0.0,-7.326296387450162
9-9-2017 6:00,6.15,-1.2870339258718344
9-9-2017 7:00,7.42,0.035326957097406186
9-9-2017 8:00,7.35,0.8906942582528696
9-9-2017 9:00,7.6,1.9544412792891155
9-9-2017 10:00,7.58,1.3065017742410179
9-9-2017 11:00,7.23,1.1391180374380614
9-9-2017 12:00,7.9,0.8270737409766289
9-9-2017 13:00,8.2,1.2360164562254816
9-9-2017 14:00,9.45,2.4110968324411273
9-9-2017 15:00,9.47,2.954303642559088
9-9-2017 16:00,8.4,2.8127321630207955
9-9-2017 17:00,7.93,2.539868259147788
9-9-2017 18:00,8.63,3.3845933421085306
9-9-2017 19:00,9.22,1.1824136482810363
9-9-2017 20:00,9.0,-1.4234902505575864
9-9-2017 21:00,5.42,0.0753015123899008
9-9-2017 22:00,8.03,2.965387838085414
9-9-2017 23:00,10.77,0.11369850386228464
10-9-2017 0:00,10.92,-1.1251967267922964
10-9-2017 1:00,10.42,-0.43377253682528405
10-9-2017 2:00,9.82,-1.2486488618598388
10-9-2017 3:00,9.9,-0.8483454764367231
10-9-2017 4:00,9.92,-0.5199224014184871
10-9-2017 5:00,9.95,-0.7368449091103724
10-9-2017 6:00,9.35,-1.3533449975355927
10-9-2017 7:00,8.2,-2.3916201416690352
10-9-2017 8:00,8.98,-0.5595952352097662
10-9-2017 9:00,9.15,0.7079011250583083
10-9-2017 10:00,7.35,-1.5751315547914126
10-9-2017 11:00,6.47,-2.036802179073126
10-9-2017 12:00,9.0,-0.33923294105142254
10-9-2017 13:00,9.78,1.0010406879798133
10-9-2017 14:00,9.57,1.1670131366939884
10-9-2017 15:00,9.62,2.236460871950765
10-9-2017 16:00,9.82,3.8213446720723905
10-9-2017 17:00,9.37,3.9280473589626403
10-9-2017 18:00,9.17,4.178617612262846
10-9-2017 19:00,7.77,0.15997961301878405
10-9-2017 20:00,7.68,-2.1190873210040166
10-9-2017 21:00,7.78,3.5024845735352184
10-9-2017 22:00,7.87,4.044694946111004
10-9-2017 23:00,7.28,-2.461817949863791
11-9-2017 0:00,7.3,-3.8686166838714495
11-9-2017 1:00,7.42,-2.3381042428695187
11-9-2017 2:00,7.32,-2.548388193742351
11-9-2017 3:00,7.55,-1.844234695248887
11-9-2017 4:00,7.65,-1.3151804219066348
11-9-2017 5:00,7.53,-1.6073468234450763
11-9-2017 6:00,7.43,-1.6381417654579193
11-9-2017 7:00,7.05,-1.8555852402781117
11-9-2017 8:00,7.0,-0.7354350320991063
11-9-2017 9:00,6.63,-0.01609093220557334
11-9-2017 10:00,5.92,-1.3561183864632884
11-9-2017 11:00,7.68,0.7660225021698697
11-9-2017 12:00,8.45,0.5613036750683369
11-9-2017 13:00,8.13,0.6890660507991386
11-9-2017 14:00,8.1,0.9220884049290259
11-9-2017 15:00,6.4,0.17393489824180186
11-9-2017 16:00,6.45,1.5014343673707575
11-9-2017 17:00,6.25,1.7462207591857366
11-9-2017 18:00,5.5,1.2811532969868757
11-9-2017 19:00,7.65,0.5145849683211638
11-9-2017 20:00,6.98,-2.619117024890894
11-9-2017 21:00,4.97,1.0656736426678748
11-9-2017 22:00,4.63,1.0804700904764761
11-9-2017 23:00,11.18,1.1195956611025615
12-9-2017 0:00,10.68,-1.1146445479056295
12-9-2017 1:00,10.0,-0.35315344903924206
12-9-2017 2:00,9.98,-0.5669546189208106
12-9-2017 3:00,10.0,-0.10706060052745414
12-9-2017 4:00,10.0,0.25456176646707895
12-9-2017 5:00,9.8,-0.1689496776112165
12-9-2017 6:00,10.07,0.12985937809502346
12-9-2017 7:00,9.62,-0.23280533794958203
12-9-2017 8:00,9.02,0.3294172614115016
12-9-2017 9:00,9.02,1.3579886459874508
12-9-2017 10:00,9.03,0.5383828182737016
12-9-2017 11:00,7.57,-0.6682483792263101
12-9-2017 12:00,6.85,-2.5578388704991193
12-9-2017 13:00,6.92,-2.2931761967447306
12-9-2017 14:00,6.67,-2.5336923858751064
12-9-2017 15:00,5.4,-3.060035583182307
12-9-2017 16:00,4.82,-2.610526925706946
12-9-2017 17:00,4.57,-2.816214659234058
12-9-2017 18:00,4.43,-3.1254776671988083
12-9-2017 19:00,8.87,-2.1885869740045205
12-9-2017 20:00,8.68,-5.405534675124186
12-9-2017 21:00,9.13,0.6662774904529218
12-9-2017 22:00,7.7,-0.7526210991482483
12-9-2017 23:00,5.55,-10.25413817456387
13-9-2017 0:00,21.5,3.3905456849102293
13-9-2017 1:00,26.15,9.409714685835269
13-9-2017 2:00,25.55,8.424915424455175
13-9-2017 3:00,25.12,8.29838930698631
13-9-2017 4:00,23.0,6.3655860179988135
13-9-2017 5:00,23.0,6.1292989877860435
13-9-2017 6:00,23.0,6.155657868703386
13-9-2017 7:00,23.0,6.202893211074224
13-9-2017 8:00,22.82,7.211804701463581
13-9-2017 9:00,22.27,8.09614900582626
13-9-2017 10:00,13.7,-1.026541741519333
13-9-2017 11:00,7.93,-6.1838507161252565
13-9-2017 12:00,8.52,-6.492653872410698
13-9-2017 13:00,6.57,-7.249086249910369
13-9-2017 14:00,5.75,-7.058285538944055
13-9-2017 15:00,5.38,-5.640969043712693
13-9-2017 16:00,6.83,-2.1565747269827806
13-9-2017 17:00,6.63,-1.119884032123256
13-9-2017 18:00,6.85,0.06245644549362339
13-9-2017 19:00,11.72,2.4297260840843222
13-9-2017 20:00,12.07,0.7842932360395718
13-9-2017 21:00,17.05,12.405500847793206
13-9-2017 22:00,12.05,8.156684447134056
13-9-2017 23:00,7.92,-3.0839224129093328
14-9-2017 0:00,7.5,-5.300565262464438
14-9-2017 1:00,8.45,-2.608882900754357
14-9-2017 2:00,8.85,-2.3398447949065986
14-9-2017 3:00,8.9,-1.6779555895112876
14-9-2017 4:00,8.72,-1.4002609334144802
14-9-2017 5:00,7.43,-2.836420561967631
14-9-2017 6:00,7.72,-2.4196088680451053
14-9-2017 7:00,7.07,-2.9595071824877133
14-9-2017 8:00,7.18,-1.530940516298978
14-9-2017 9:00,8.75,1.3051748667711625
14-9-2017 10:00,8.18,-0.11456377568943221
14-9-2017 11:00,7.95,0.05348649711556419
14-9-2017 12:00,7.92,-1.1784922996656686
14-9-2017 13:00,6.4,-2.0771014330514967
14-9-2017 14:00,6.55,-1.486065526620587
14-9-2017 15:00,6.98,0.20382895651724553
14-9-2017 16:00,6.62,1.3120143087451286
14-9-2017 17:00,6.57,1.9341340893790075
14-9-2017 18:00,9.18,4.881128709965235
14-9-2017 19:00,7.03,-0.5282031434445678
14-9-2017 20:00,8.07,-2.2091015758113155
14-9-2017 21:00,7.08,3.425911494930645
14-9-2017 22:00,7.78,4.58155023223344
14-9-2017 23:00,10.28,-0.8237734634177922
15-9-2017 0:00,10.97,-2.4573700729821786
15-9-2017 1:00,10.98,-0.7049991953827597
15-9-2017 2:00,11.0,-0.9339485672028474
15-9-2017 3:00,11.0,-0.38546888383906897
15-9-2017 4:00,11.02,-0.009121954474270666
15-9-2017 5:00,11.02,-0.2537166186046669
15-9-2017 6:00,10.98,-0.2550145489138167
15-9-2017 7:00,10.93,-0.3206164868174284
15-9-2017 8:00,10.77,0.7790353885231305
15-9-2017 9:00,10.12,1.4643256300622323
15-9-2017 10:00,9.67,0.10494186739757794
15-9-2017 11:00,9.53,0.3857541625244387
15-9-2017 12:00,6.63,-3.7819974998416415
15-9-2017 13:00,5.43,-3.966952204525489
15-9-2017 14:00,9.18,0.6201500819581511
15-9-2017 15:00,8.43,1.5684537375905911
15-9-2017 16:00,8.68,3.6862613099045802
15-9-2017 17:00,10.15,6.301756663881662
15-9-2017 18:00,6.58,3.4813519150060808
15-9-2017 19:00,6.6,0.5233650571646224
15-9-2017 20:00,8.57,0.08494752804472672
15-9-2017 21:00,8.47,7.0908224798642365
15-9-2017 22:00,9.35,8.62797277721819
15-9-2017 23:00,9.1,0.17498866804833746
16-9-2017 0:00,9.27,-2.008505279436111
16-9-2017 1:00,1.03,-8.461604745297821
16-9-2017 2:00,0.0,-9.814700454136226
16-9-2017 3:00,0.0,-9.285789152154452
16-9-2017 4:00,0.0,-8.986948808872128
16-9-2017 5:00,4.9,-4.488823057934029
16-9-2017 6:00,5.22,-4.2770751618291145
16-9-2017 7:00,6.35,-3.347225272547986
16-9-2017 8:00,7.73,-0.8253327374098571
16-9-2017 9:00,9.65,2.2068451646281364
16-9-2017 10:00,7.45,-1.2544709162106447
16-9-2017 11:00,10.7,2.146816203268017
16-9-2017 12:00,12.82,2.641004477347023
16-9-2017 13:00,16.03,6.485661736407549
16-9-2017 14:00,13.68,4.594787937986315
16-9-2017 15:00,11.95,4.227458301155751
16-9-2017 16:00,11.6,5.370845628598239
16-9-2017 17:00,11.62,6.31181528077542
16-9-2017 18:00,11.22,6.3761098872949304
16-9-2017 19:00,10.88,2.6415667498787148
16-9-2017 20:00,11.07,0.03772884886256378
16-9-2017 21:00,5.2,1.6530766195977957
16-9-2017 22:00,4.45,1.6603494148410896
16-9-2017 23:00,9.65,-1.7416841700092114
17-9-2017 0:00,9.92,-3.9564645175755464
17-9-2017 1:00,7.82,-3.8703735287783694
17-9-2017 2:00,7.0,-4.73295477651507
17-9-2017 3:00,6.37,-4.498951057795274
17-9-2017 4:00,7.98,-2.2929565024754073
17-9-2017 5:00,9.0,-1.4601303938651302
17-9-2017 6:00,8.98,-1.363356728742465
17-9-2017 7:00,7.95,-2.406075069672913
17-9-2017 8:00,6.22,-2.739961932133535
17-9-2017 9:00,6.37,-1.3291508560977796
17-9-2017 10:00,10.93,1.989346258388185
17-9-2017 11:00,10.43,1.7428537157175175
17-9-2017 12:00,8.03,-2.2692725602595267
17-9-2017 13:00,7.72,-1.7945388236433626
17-9-2017 14:00,7.82,-1.0829241931582034
17-9-2017 15:00,9.72,2.374577391359498
17-9-2017 16:00,9.87,4.17400898774175
17-9-2017 17:00,8.1,3.432715071262111
17-9-2017 18:00,7.18,3.023971166319793
17-9-2017 19:00,8.87,1.2351338824719011
17-9-2017 20:00,9.83,-0.6518622572974184
17-9-2017 21:00,9.93,7.215386376530027
17-9-2017 22:00,10.05,8.095209713839154
17-9-2017 23:00,9.7,-1.3534453025151025
18-9-2017 0:00,9.62,-4.147084005986832
18-9-2017 1:00,9.52,-1.9317222517797017
18-9-2017 2:00,9.7,-1.7837087276636323
18-9-2017 3:00,9.58,-0.9745322814547546
18-9-2017 4:00,9.67,-0.2613032033462792
18-9-2017 5:00,9.65,-0.36932110650583017
18-9-2017 6:00,9.58,-0.2130660418074255
18-9-2017 7:00,8.97,-0.7638969823914579
18-9-2017 8:00,7.58,-0.6191076118928365
18-9-2017 9:00,5.07,-1.7981184655218474
18-9-2017 10:00,5.35,-2.818263259373671
18-9-2017 11:00,6.03,-1.8609905678561978
18-9-2017 12:00,5.38,-4.1878864975518155
18-9-2017 13:00,4.58,-4.313223389720522
18-9-2017 14:00,4.35,-4.039267436669485
18-9-2017 15:00,6.58,-0.3170817371440293
18-9-2017 16:00,6.9,1.5482489398378192
18-9-2017 17:00,0.1,-4.456394905432486
18-9-2017 18:00,6.07,1.7307363180295248
18-9-2017 19:00,6.2,-2.043474509978039
18-9-2017 20:00,5.37,-6.1147082862285265
18-9-2017 21:00,11.97,8.220535157298574
18-9-2017 22:00,14.45,11.14901536515445
18-9-2017 23:00,14.27,1.0598452457771579
19-9-2017 0:00,15.18,-1.2865454851190457
19-9-2017 1:00,15.73,1.419339799488549
19-9-2017 2:00,16.82,2.1992008604478954
19-9-2017 3:00,18.38,4.464802799136363
19-9-2017 4:00,18.17,4.616539976406598
19-9-2017 5:00,16.42,2.694518316878211
19-9-2017 6:00,14.62,1.047095036553344
19-9-2017 7:00,14.68,1.0550166803033054
19-9-2017 8:00,14.12,1.9853474677487473
19-9-2017 9:00,12.83,2.213851953267717
19-9-2017 10:00,8.13,-3.727578730479638
19-9-2017 11:00,6.22,-5.219184786331774
19-9-2017 12:00,7.82,-5.243494351303713
19-9-2017 13:00,7.68,-4.412051349590163
19-9-2017 14:00,6.73,-4.558903551306115
19-9-2017 15:00,6.93,-2.525183214105775
19-9-2017 16:00,6.17,-1.437116280505693
19-9-2017 17:00,6.73,0.18390767063502445
19-9-2017 18:00,6.48,0.35593174770304614
19-9-2017 19:00,6.87,-3.0846685775773413
19-9-2017 20:00,7.18,-5.911155943422147
19-9-2017 21:00,7.52,2.5813726453280417
19-9-2017 22:00,7.6,3.247749466081393
19-9-2017 23:00,19.63,5.00730398603179
20-9-2017 0:00,17.65,-0.3386777973006687
20-9-2017 1:00,18.33,2.606637066583792
20-9-2017 2:00,19.23,3.1783962251122215
20-9-2017 3:00,19.47,4.164091997798538
20-9-2017 4:00,19.55,4.607102698911671
20-9-2017 5:00,19.22,3.974074242473833
20-9-2017 6:00,17.8,2.5881686938098607
20-9-2017 7:00,17.15,1.7236994401460244
20-9-2017 8:00,15.97,1.9471189674346654
20-9-2017 9:00,11.0,-1.4183089013524803
20-9-2017 10:00,7.73,-5.987327887568825
20-9-2017 11:00,7.85,-5.416194139745974
20-9-2017 12:00,8.32,-6.626195151608088
20-9-2017 13:00,8.1,-5.379656971900921
20-9-2017 14:00,10.47,-1.7137039079412801
20-9-2017 15:00,10.75,0.9389997053883903
20-9-2017 16:00,7.62,0.15944425785162153
20-9-2017 17:00,9.4,3.674885857104984
20-9-2017 18:00,9.63,4.931786344399937
20-9-2017 19:00,26.05,17.982644585832105
20-9-2017 20:00,11.87,1.1478219157994598
20-9-2017 21:00,8.18,6.414297275507044
20-9-2017 22:00,7.48,6.788853909722638
20-9-2017 23:00,10.85,-0.15738300829440632
21-9-2017 0:00,7.52,-6.597688780587622
21-9-2017 1:00,6.5,-4.913912244931338
21-9-2017 2:00,5.63,-5.801222896338881
21-9-2017 3:00,5.9,-4.416401197159761
21-9-2017 4:00,5.43,-4.193041964746362
21-9-2017 5:00,7.08,-2.6749923724020963
21-9-2017 6:00,6.48,-3.0572953437136334
21-9-2017 7:00,5.62,-3.9920403456465476
21-9-2017 8:00,4.55,-3.44341692937
21-9-2017 9:00,3.43,-3.128261658317191
21-9-2017 10:00,4.62,-3.5503346763148684
21-9-2017 11:00,4.87,-3.071926854129371
21-9-2017 12:00,5.7,-4.233085042194006
21-9-2017 13:00,6.4,-2.5125995648527084
21-9-2017 14:00,8.55,0.48501088442303697
21-9-2017 15:00,14.03,7.935549893522549
21-9-2017 16:00,7.82,3.6372146738416298
21-9-2017 17:00,6.37,3.578274301683102
21-9-2017 18:00,6.8,4.62125157968045
21-9-2017 19:00,11.52,5.414749014797506
21-9-2017 20:00,14.88,5.582771667549352
21-9-2017 21:00,8.02,7.758577355573209
21-9-2017 22:00,9.47,10.046671531184183
21-9-2017 23:00,16.6,6.090000903132831
22-9-2017 0:00,6.73,-7.3592711301880085
22-9-2017 1:00,6.27,-5.176324594082007
22-9-2017 2:00,6.78,-4.87199672674762
22-9-2017 3:00,5.5,-5.1673407723978
22-9-2017 4:00,5.55,-4.592935731796123
22-9-2017 5:00,5.42,-5.0387344789238675
22-9-2017 6:00,5.33,-5.082361261137079
22-9-2017 7:00,5.17,-5.532311087026474
22-9-2017 8:00,5.02,-4.203412857449418
22-9-2017 9:00,6.28,-1.649711627486349
22-9-2017 10:00,7.28,-2.5468758716510944
22-9-2017 11:00,8.52,-1.2732311694886898
22-9-2017 12:00,7.35,-4.7175837281415784
22-9-2017 13:00,12.75,1.4985543775359425
22-9-2017 14:00,9.8,-0.8104724571701141
22-9-2017 15:00,12.85,4.049607278401332
22-9-2017 16:00,8.43,1.3441976172783576
22-9-2017 17:00,9.87,3.884282648509009
22-9-2017 18:00,9.62,3.886744092009815
22-9-2017 19:00,12.4,2.2362880956128244
22-9-2017 20:00,25.68,11.840563445950227
22-9-2017 21:00,11.07,6.074686302898213
22-9-2017 22:00,9.67,5.0053048605124175
22-9-2017 23:00,11.72,-5.07281263696539
23-9-2017 0:00,18.62,-2.4920640907059983
23-9-2017 1:00,14.47,-4.23044928764417
23-9-2017 2:00,15.85,-3.414984635061751
23-9-2017 3:00,15.38,-3.2009961590351264
23-9-2017 4:00,14.62,-3.776047043739064
23-9-2017 5:00,13.2,-6.213565483825127
23-9-2017 6:00,10.6,-9.45638743042632
23-9-2017 7:00,11.27,-9.809413433758504
23-9-2017 8:00,11.53,-8.728111744367245
23-9-2017 9:00,9.43,-11.539581990041642
23-9-2017 10:00,49.98,24.964445105078813
23-9-2017 11:00,51.02,23.979609252670407
23-9-2017 12:00,26.25,-5.211655111118461
23-9-2017 13:00,7.47,-26.40623860454804
23-9-2017 14:00,8.42,-28.048276950679213
23-9-2017 15:00,8.43,-29.41503071607914
23-9-2017 16:00,6.72,-32.63388904608749
23-9-2017 17:00,8.53,-33.305271932101675
23-9-2017 18:00,8.5,-36.7338196437314
23-9-2017 19:00,22.12,-31.338722392276438
23-9-2017 20:00,127.45,66.54131233501252
23-9-2017 21:00,56.83,1.811719103040005
23-9-2017 22:00,41.52,-16.437171215187192
23-9-2017 23:00,103.87,29.981231160063928
24-9-2017 0:00,122.12,40.40996702805893
24-9-2017 1:00,111.75,30.1619890536397
24-9-2017 2:00,106.5,21.930329447033273
24-9-2017 3:00,103.58,17.335389400299803
24-9-2017 4:00,93.1,4.642621545853359
24-9-2017 5:00,102.03,13.152182823358686
24-9-2017 6:00,113.15,24.238965122919225
24-9-2017 7:00,123.05,33.68166235269396
24-9-2017 8:00,104.8,16.894166912449123
24-9-2017 9:00,90.47,6.714134653094703
24-9-2017 10:00,104.77,21.685962549457827
24-9-2017 11:00,101.55,21.24925560443606
24-9-2017 12:00,99.73,19.727688897468653
24-9-2017 13:00,97.9,23.159567242467745
24-9-2017 14:00,91.17,21.51170082244721
24-9-2017 15:00,54.97,-8.34470300638835
24-9-2017 16:00,53.55,-3.5898265677463215
24-9-2017 17:00,49.22,-1.932461916349034
24-9-2017 18:00,41.57,-4.58180332845302
24-9-2017 19:00,24.2,-21.920937374489824
24-9-2017 20:00,14.1,-31.19492781559303
24-9-2017 21:00,12.1,-19.314334934036882
24-9-2017 22:00,10.13,-16.548831925656323
24-9-2017 23:00,72.47,36.99999252477287
25-9-2017 0:00,26.82,-9.029382083047377
25-9-2017 1:00,10.17,-20.28004948965497
25-9-2017 2:00,10.63,-17.651930010157553
25-9-2017 3:00,10.58,-14.168895234358395
25-9-2017 4:00,12.73,-9.062476713254636
25-9-2017 5:00,11.38,-10.095656166890594
25-9-2017 6:00,9.82,-10.939090069901006
25-9-2017 7:00,9.03,-11.480490055752021
25-9-2017 8:00,6.73,-11.53660307436562
25-9-2017 9:00,9.78,-7.052772769231925
25-9-2017 10:00,13.03,-5.990719493458023
25-9-2017 11:00,15.87,-3.1368729529250423
25-9-2017 12:00,14.32,-7.246317424902845
25-9-2017 13:00,12.3,-8.068604620934208
25-9-2017 14:00,17.45,-1.9029264943032231
25-9-2017 15:00,11.45,-5.579607766033513
25-9-2017 16:00,11.87,-3.0416215842942513
25-9-2017 17:00,13.72,0.5693550923971209
25-9-2017 18:00,17.3,4.854084467701508
25-9-2017 19:00,71.37,54.51559253973313
25-9-2017 20:00,76.2,55.752450345797946
25-9-2017 21:00,16.03,5.650759804627047
25-9-2017 22:00,16.9,7.128203291133772
25-9-2017 23:00,15.78,-7.445003031740567
26-9-2017 0:00,11.65,-16.31494096385765
26-9-2017 1:00,14.13,-11.729790645387599
26-9-2017 2:00,17.48,-9.633384922520326
26-9-2017 3:00,14.25,-12.693868166922538
26-9-2017 4:00,9.2,-18.189728029800882
26-9-2017 5:00,9.73,-19.077483757330818
26-9-2017 6:00,7.62,-22.192969405664876
26-9-2017 7:00,7.38,-23.950268450721133
26-9-2017 8:00,7.95,-22.82680089128298
26-9-2017 9:00,8.87,-21.651600592244634
26-9-2017 10:00,9.67,-24.361785941553638
26-9-2017 11:00,19.08,-16.169849919959592
26-9-2017 12:00,76.33,37.20036383855851
26-9-2017 13:00,66.1,26.49569168651079
26-9-2017 14:00,67.42,27.156694944807406
26-9-2017 15:00,68.95,29.38151681519647
26-9-2017 16:00,58.58,19.464380010316837
26-9-2017 17:00,49.27,10.44048400277385
26-9-2017 18:00,47.87,8.200799455958155
26-9-2017 19:00,46.15,0.3844224903368101
26-9-2017 20:00,46.58,-4.446398612151732
26-9-2017 21:00,46.78,5.99969799200376
26-9-2017 22:00,50.83,10.519084432085961
26-9-2017 23:00,52.45,-1.9861501886425685
27-9-2017 0:00,56.48,-3.0855526466133654
27-9-2017 1:00,55.07,-0.5983384416483588
27-9-2017 2:00,54.27,-0.998014764483159
27-9-2017 3:00,56.03,2.6495728818007436
27-9-2017 4:00,55.97,3.8203599233674908
27-9-2017 5:00,55.18,4.107358899335914
27-9-2017 6:00,51.55,1.9804726657741227
27-9-2017 7:00,51.03,2.4022080589509045
27-9-2017 8:00,48.13,2.598486122900418
27-9-2017 9:00,48.9,6.87589808620573
27-9-2017 10:00,48.13,5.690543856331196
27-9-2017 11:00,46.97,6.505309428147996
27-9-2017 12:00,47.32,6.071366366268656
27-9-2017 13:00,47.43,9.599904422991358
27-9-2017 14:00,43.52,8.920453736136153
27-9-2017 15:00,41.53,11.564904120837049
27-9-2017 16:00,30.88,5.270738677230842
27-9-2017 17:00,14.68,-7.151610818790353
27-9-2017 18:00,8.4,-10.855002963042534
27-9-2017 19:00,9.42,-12.669811310221936
27-9-2017 20:00,8.12,-15.951817083931338
27-9-2017 21:00,8.35,-2.9227295718433943
27-9-2017 22:00,7.48,-1.1210108481295649
27-9-2017 23:00,8.7,-12.394244601096592
28-9-2017 0:00,16.13,-8.137429604293093
28-9-2017 1:00,15.55,-4.180692088721452
28-9-2017 2:00,14.03,-4.798991033146654
28-9-2017 3:00,14.33,-2.045873072064939
28-9-2017 4:00,17.67,3.049089695607581
28-9-2017 5:00,16.98,2.586177759118705
28-9-2017 6:00,16.6,2.873225324373559
28-9-2017 7:00,15.48,1.8093773060552305
28-9-2017 8:00,10.17,-1.206151975212066
28-9-2017 9:00,8.17,-1.2194171326315182
28-9-2017 10:00,7.05,-4.432799028036524
28-9-2017 11:00,6.03,-5.058062690961931
28-9-2017 12:00,5.95,-7.59902135820365
28-9-2017 13:00,8.07,-3.6466566157681273
28-9-2017 14:00,6.95,-3.1259447708327466
28-9-2017 15:00,7.57,0.5887506051223763
28-9-2017 16:00,5.37,1.1681643928137095
28-9-2017 17:00,6.45,4.552411536062731
28-9-2017 18:00,6.65,5.780361922122481
28-9-2017 19:00,9.78,4.37214773029563
28-9-2017 20:00,6.48,-2.596017177724028
28-9-2017 21:00,6.08,8.688324850226635
28-9-2017 22:00,7.18,10.99460474844646
28-9-2017 23:00,7.52,-3.19439924588469
29-9-2017 0:00,8.62,-6.979137903432536
29-9-2017 1:00,9.07,-2.927683351514614
29-9-2017 2:00,9.33,-2.839411191790566
29-9-2017 3:00,9.28,-1.4455691901714038
29-9-2017 4:00,9.83,-0.19125762782711941
29-9-2017 5:00,8.98,-1.3364762015488214
29-9-2017 6:00,8.78,-1.3778905622528717
29-9-2017 7:00,7.95,-2.709724750368988
29-9-2017 8:00,7.37,-1.4694641351557598
29-9-2017 9:00,5.03,-3.126645778387789
29-9-2017 10:00,4.43,-7.281295421379589
29-9-2017 11:00,4.57,-8.109828401103519
29-9-2017 12:00,8.23,-8.371042755763941
29-9-2017 13:00,9.55,-8.221240425180234
29-9-2017 14:00,5.85,-13.286755146018905
29-9-2017 15:00,5.9,-13.098203876374182
29-9-2017 16:00,6.75,-12.461598516835096
29-9-2017 17:00,8.03,-12.744190522588596
29-9-2017 18:00,7.73,-15.95833339448965
29-9-2017 19:00,8.35,-23.973383389454384
29-9-2017 20:00,10.0,-30.07113739027472
29-9-2017 21:00,7.5,-24.205816823821884
29-9-2017 22:00,6.48,-27.689239936001197
29-9-2017 23:00,62.62,9.68172164339839
30-9-2017 0:00,102.73,40.99116514659407
30-9-2017 1:00,93.38,32.5110153476282
30-9-2017 2:00,101.05,37.13953722427143
30-9-2017 3:00,91.78,26.507781879197964
30-9-2017 4:00,94.72,27.30514184695781
30-9-2017 5:00,91.6,24.05811376742888
30-9-2017 6:00,89.57,22.368734612191503
30-9-2017 7:00,90.8,23.229434806586767
30-9-2017 8:00,94.73,29.1960058705897
30-9-2017 9:00,89.48,27.20209540560726
30-9-2017 10:00,78.67,15.253387687752124
30-9-2017 11:00,69.48,7.608795063953153
30-9-2017 12:00,68.22,4.844534694597492
30-9-2017 13:00,68.93,9.000118779299171
30-9-2017 14:00,60.15,3.466721658656205
30-9-2017 15:00,54.98,3.0974729879602876
30-9-2017 16:00,55.22,7.749611835884977
30-9-2017 17:00,55.05,11.920757663784215
30-9-2017 18:00,54.17,13.955098516577621
30-9-2017 19:00,48.0,4.82377948208682
30-9-2017 20:00,19.92,-25.312996847922403
30-9-2017 21:00,3.75,-26.78466685499344
30-9-2017 22:00,3.38,-23.63578498376131
30-9-2017 23:00,5.85,-34.52284983682038
