Time,Actual,STL processed
1-8-2017 0:00,0.31,-0.01551133909866148
1-8-2017 1:00,0.39,-0.0108716433202809
1-8-2017 2:00,0.34,-0.04934849331456276
1-8-2017 3:00,0.35,-0.0486017555592384
1-8-2017 4:00,0.3,-0.07820101977122645
1-8-2017 5:00,0.31,-0.05327706060917092
1-8-2017 6:00,0.33,-0.046796390711853986
1-8-2017 7:00,0.3,-0.07769642490048423
1-8-2017 8:00,0.32,-0.040288925015643684
1-8-2017 9:00,0.37,-0.008296088641866872
1-8-2017 10:00,0.61,0.05912626497615858
1-8-2017 11:00,0.66,0.11583482680705798
1-8-2017 12:00,0.69,0.1585650701807949
1-8-2017 13:00,0.67,0.149451293208811
1-8-2017 14:00,0.58,0.08911827617352858
1-8-2017 15:00,0.6,0.14572700046848763
1-8-2017 16:00,0.56,0.13007003621284008
1-8-2017 17:00,0.47,0.035600134000710826
1-8-2017 18:00,0.4,-0.030477334422741198
1-8-2017 19:00,0.38,-0.04185236228846445
1-8-2017 20:00,0.41,0.012955691425864502
1-8-2017 21:00,0.37,8.80808023502766E-4
1-8-2017 22:00,0.44,-0.01239134440193801
1-8-2017 23:00,0.65,-0.13850003034209746
2-8-2017 0:00,0.3,-0.04170035245302384
2-8-2017 1:00,0.38,-0.02757353107686894
2-8-2017 2:00,0.39,0.00200266111869829
2-8-2017 3:00,0.33,-0.05865271082859158
2-8-2017 4:00,0.35,-0.009526534442520385
2-8-2017 5:00,0.31,-0.031775681572020154
2-8-2017 6:00,0.3,-0.052760469418349
2-8-2017 7:00,0.29,-0.060726284831424726
2-8-2017 8:00,0.35,0.01976395045312307
2-8-2017 9:00,0.35,0.001722769790453993
2-8-2017 10:00,0.56,0.038854183266634756
2-8-2017 11:00,0.5,-0.015323937415028244
2-8-2017 12:00,0.52,0.016637077296211555
2-8-2017 13:00,0.42,-0.07341909409476682
2-8-2017 14:00,0.46,-0.0017847999934778591
2-8-2017 15:00,0.49,0.06408746153944084
2-8-2017 16:00,0.4,-1.4202090396214784E-4
2-8-2017 17:00,0.44,0.035750156113160625
2-8-2017 18:00,0.42,0.018450862748421004
2-8-2017 19:00,0.4,0.00638313795217621
2-8-2017 20:00,0.41,0.04014302631547195
2-8-2017 21:00,0.4,0.054176217107090696
2-8-2017 22:00,0.55,0.11707856743626088
2-8-2017 23:00,0.76,-0.015732576721226632
3-8-2017 0:00,0.35,0.01681842984072296
3-8-2017 1:00,0.35,-0.05234263701530223
3-8-2017 2:00,0.37,-0.017488416459840506
3-8-2017 3:00,0.34,-0.052320911939699066
3-8-2017 4:00,0.28,-0.08724445528932828
3-8-2017 5:00,0.3,-0.049084689962781314
3-8-2017 6:00,0.33,-0.02995291680515383
3-8-2017 7:00,0.29,-0.06740249876667798
3-8-2017 8:00,0.33,-0.006247513406425653
3-8-2017 9:00,0.47,0.11964687301725868
3-8-2017 10:00,0.63,0.11045692114542738
3-8-2017 11:00,0.54,0.02936169274503475
3-8-2017 12:00,0.47,-0.025476946412389845
3-8-2017 13:00,0.42,-0.0646613097361492
3-8-2017 14:00,0.47,0.02075449798792467
3-8-2017 15:00,0.41,-0.0022955007549834705
3-8-2017 16:00,0.43,0.046716910404408785
3-8-2017 17:00,0.41,0.02536630183608196
3-8-2017 18:00,0.42,0.039240318715353384
3-8-2017 19:00,0.33,-0.04112475811127675
3-8-2017 20:00,0.31,-0.03601769019887824
3-8-2017 21:00,0.34,0.021279019383324438
3-8-2017 22:00,0.5,0.0975115131001521
3-8-2017 23:00,0.64,-0.10484644864161663
4-8-2017 0:00,0.3,6.115272262554594E-4
4-8-2017 1:00,0.37,0.002263919378195478
4-8-2017 2:00,0.31,-0.04350248446630278
4-8-2017 3:00,0.31,-0.04841075623858476
4-8-2017 4:00,0.32,-0.01328259891780037
4-8-2017 5:00,0.32,0.001466909004142758
4-8-2017 6:00,0.32,-0.013103926694924162
4-8-2017 7:00,0.33,-0.003856440683209117
4-8-2017 8:00,0.29,-0.025855870725564944
4-8-2017 9:00,0.31,-0.02252581197107434
4-8-2017 10:00,0.55,0.04546297181852321
4-8-2017 11:00,0.4,-0.09904926329115804
4-8-2017 12:00,0.46,-0.02718745530780614
4-8-2017 13:00,0.58,0.10038182176185423
4-8-2017 14:00,0.44,-0.004539024565086314
4-8-2017 15:00,0.38,-0.030629451257620677
4-8-2017 16:00,0.36,-0.022493314169232503
4-8-2017 17:00,0.42,0.03582164428394069
4-8-2017 18:00,0.51,0.12777732401417258
4-8-2017 19:00,0.54,0.16602324776410649
4-8-2017 20:00,0.35,-6.141521674427053E-4
4-8-2017 21:00,0.34,0.01775932137548708
4-8-2017 22:00,0.41,0.005135203650115383
4-8-2017 23:00,0.59,-0.15895633050579167
5-8-2017 0:00,0.29,-0.012778140161853857
5-8-2017 1:00,0.38,0.012973470842879975
5-8-2017 2:00,0.38,0.02987220244325034
5-8-2017 3:00,0.36,0.008173914223373546
5-8-2017 4:00,0.37,0.04663953205940019
5-8-2017 5:00,0.28,-0.024323227510890166
5-8-2017 6:00,0.3,-0.014898682154280973
5-8-2017 7:00,0.3,-0.011256138256956427
5-8-2017 8:00,0.3,0.011288006210450174
5-8-2017 9:00,0.3,-0.0013149563559049504
5-8-2017 10:00,0.5,0.030483869443469425
5-8-2017 11:00,0.42,-0.04081406602715254
5-8-2017 12:00,0.4,-0.04562050455467609
5-8-2017 13:00,0.33,-0.10683958334302573
5-8-2017 14:00,0.42,0.022360920027589493
5-8-2017 15:00,0.35,-0.012311930866000853
5-8-2017 16:00,0.31,-0.020594064100046494
5-8-2017 17:00,0.32,-0.010643770337014913
5-8-2017 18:00,0.36,0.03136334053253581
5-8-2017 19:00,0.48,0.16019003314739222
5-8-2017 20:00,0.33,0.033777933660254
5-8-2017 21:00,0.17,-0.0989247765605864
5-8-2017 22:00,0.34,-0.012558453452654494
5-8-2017 23:00,0.64,-0.060536507747196766
6-8-2017 0:00,0.3,0.044208949348309434
6-8-2017 1:00,0.33,0.006989214654978648
6-8-2017 2:00,0.3,-0.010517482850641025
6-8-2017 3:00,0.27,-0.04607635206897098
6-8-2017 4:00,0.26,-0.03134383826856063
6-8-2017 5:00,0.28,0.004065273184731932
6-8-2017 6:00,0.32,0.029569338112833576
6-8-2017 7:00,0.3,0.009691078411584064
6-8-2017 8:00,0.3,0.028862935904569398
6-8-2017 9:00,0.31,0.02423393785724942
6-8-2017 10:00,0.51,0.05374979150628156
6-8-2017 11:00,0.38,-0.0704268584854002
6-8-2017 12:00,0.41,-0.027994557683918453
6-8-2017 13:00,0.42,-0.01306691786887143
6-8-2017 14:00,0.44,0.045190009660706354
6-8-2017 15:00,0.35,-0.013130190972533318
6-8-2017 16:00,0.32,-0.012895520067606081
6-8-2017 17:00,0.3,-0.033782531183960685
6-8-2017 18:00,0.36,0.025803370635664458
6-8-2017 19:00,0.31,-0.01726180807380112
6-8-2017 20:00,0.33,0.024078752694226768
6-8-2017 21:00,0.3,0.022111567346445427
6-8-2017 22:00,0.33,-0.030719960075489994
6-8-2017 23:00,0.62,-0.09077282587183849
7-8-2017 0:00,0.28,0.014351606612065415
7-8-2017 1:00,0.33,-0.0022758203022049117
7-8-2017 2:00,0.34,0.019375706563310724
7-8-2017 3:00,0.35,0.02351990982365254
7-8-2017 4:00,0.31,0.008082973065571875
7-8-2017 5:00,0.35,0.06191747441120049
7-8-2017 6:00,0.31,0.005554577779547931
7-8-2017 7:00,0.33,0.024209033348477682
7-8-2017 8:00,0.29,0.0020621227357949246
7-8-2017 9:00,0.32,0.01681961614618277
7-8-2017 10:00,0.54,0.0654650245835453
7-8-2017 11:00,0.42,-0.05017781299052371
7-8-2017 12:00,0.41,-0.049094245921363966
7-8-2017 13:00,0.38,-0.07548422290520501
7-8-2017 14:00,0.34,-0.07563520661894946
7-8-2017 15:00,0.36,-0.02506709239412308
7-8-2017 16:00,0.4,0.04622003253105922
7-8-2017 17:00,0.41,0.056775322246288285
7-8-2017 18:00,0.36,0.0062196207269575865
7-8-2017 19:00,0.32,-0.026457913446296222
7-8-2017 20:00,0.31,-0.015085176562568303
7-8-2017 21:00,0.31,0.013819783594886004
7-8-2017 22:00,0.4,0.02192678913941426
7-8-2017 23:00,0.77,0.039935495337590665
8-8-2017 0:00,0.31,0.02557528670622322
8-8-2017 1:00,0.31,-0.0401474182288456
8-8-2017 2:00,0.33,-0.00902525279205374
8-8-2017 3:00,0.37,0.025134437147101063
8-8-2017 4:00,0.34,0.019840212949950142
8-8-2017 5:00,0.31,0.004408023781125425
8-8-2017 6:00,0.32,-0.0015139148170709715
8-8-2017 7:00,0.35,0.027980957571909104
8-8-2017 8:00,0.31,0.006822980403429713
8-8-2017 9:00,0.29,-0.026873238082196882
8-8-2017 10:00,0.55,0.06306135845030231
8-8-2017 11:00,0.47,-0.011888033399347742
8-8-2017 12:00,0.48,0.010006433244296231
8-8-2017 13:00,0.35,-0.11732203323957524
8-8-2017 14:00,0.39,-0.03550180089778421
8-8-2017 15:00,0.42,0.02433375548396577
8-8-2017 16:00,0.36,-0.0029472191846915408
8-8-2017 17:00,0.35,-0.010578010094701495
8-8-2017 18:00,0.34,-0.0209036964098106
8-8-2017 19:00,0.33,-0.022821487179249866
8-8-2017 20:00,0.34,0.00895552468778088
8-8-2017 21:00,0.34,0.041401095641723784
8-8-2017 22:00,0.37,-0.006884097982354009
8-8-2017 23:00,0.79,0.061855448075277486
9-8-2017 0:00,0.27,-0.009287325792673717
9-8-2017 1:00,0.38,0.03811604228811666
9-8-2017 2:00,0.38,0.0507302425565318
9-8-2017 3:00,0.35,0.0171367626278916
9-8-2017 4:00,0.32,0.01409093692787039
9-8-2017 5:00,0.32,0.028576923955813183
9-8-2017 6:00,0.33,0.022605161310137067
9-8-2017 7:00,0.31,0.0024126891031542863
9-8-2017 8:00,0.29,0.0013452592342054204
9-8-2017 9:00,0.32,0.018061372602523773
9-8-2017 10:00,0.37,-0.10256394478166325
9-8-2017 11:00,0.41,-0.0566632998290596
9-8-2017 12:00,0.37,-0.08501606142323603
9-8-2017 13:00,0.36,-0.09302753565792965
9-8-2017 14:00,0.36,-0.05026912175326953
9-8-2017 15:00,0.38,-0.001847451679503731
9-8-2017 16:00,0.36,0.011538027247768867
9-8-2017 17:00,0.36,0.013593802155613732
9-8-2017 18:00,0.4,0.05117700795918123
9-8-2017 19:00,0.35,0.007883738514572636
9-8-2017 20:00,0.33,0.007884304450637702
9-8-2017 21:00,0.32,0.028823373013982634
9-8-2017 22:00,0.36,-0.011355352453361889
9-8-2017 23:00,0.81,0.0830326877101672
10-8-2017 0:00,0.27,-0.010277813883865616
10-8-2017 1:00,0.42,0.07631872463823214
10-8-2017 2:00,0.35,0.016492057163718765
10-8-2017 3:00,0.35,0.011212504792731837
10-8-2017 4:00,0.35,0.03648150144121698
10-8-2017 5:00,0.3,2.7424703764200586E-4
10-8-2017 6:00,0.25,-0.06635875728379909
10-8-2017 7:00,0.29,-0.02685032018672795
10-8-2017 8:00,0.32,0.021561051143870524
10-8-2017 9:00,0.31,-0.001141746887943218
10-8-2017 10:00,0.51,0.027841607245392364
10-8-2017 11:00,0.54,0.06476087443445833
10-8-2017 12:00,0.4,-0.06367052996332995
10-8-2017 13:00,0.34,-0.12181824212183257
10-8-2017 14:00,0.35,-0.06757487682729024
10-8-2017 15:00,0.39,-2.032323449552287E-5
10-8-2017 16:00,0.38,0.024578668769901724
10-8-2017 17:00,0.31,-0.042354507660645635
10-8-2017 18:00,0.36,0.004462073105351294
10-8-2017 19:00,0.33,-0.018881891547120166
10-8-2017 20:00,0.34,0.01066701192528563
10-8-2017 21:00,0.33,0.03267441402829713
10-8-2017 22:00,0.46,0.08317732094993657
10-8-2017 23:00,0.8,0.0657890194516138
11-8-2017 0:00,0.27,-0.017114045636249853
11-8-2017 1:00,0.27,-0.08130208553125001
11-8-2017 2:00,0.32,-0.023547369607097135
11-8-2017 3:00,0.36,0.009509256721163761
11-8-2017 4:00,0.32,-0.0068844618935743895
11-8-2017 5:00,0.34,0.023364062620872483
11-8-2017 6:00,0.34,0.003218836973205963
11-8-2017 7:00,0.37,0.02957725893804991
11-8-2017 8:00,0.33,0.0046165070319146295
11-8-2017 9:00,0.32,-0.020574446212772657
11-8-2017 10:00,0.53,0.014948339611465522
11-8-2017 11:00,0.56,0.04981698921037364
11-8-2017 12:00,0.47,-0.031762297817646556
11-8-2017 13:00,0.39,-0.11224590307423238
11-8-2017 14:00,0.45,-0.008717241564081879
11-8-2017 15:00,0.45,0.01577054037346748
11-8-2017 16:00,0.35,-0.050616609719285055
11-8-2017 17:00,0.44,0.04447067360204049
11-8-2017 18:00,0.36,-0.03846995957926819
11-8-2017 19:00,0.41,0.019144791650662407
11-8-2017 20:00,0.47,0.09925144374967387
11-8-2017 21:00,0.34,0.005786424647164279
11-8-2017 22:00,0.43,0.020430209212599915
11-8-2017 23:00,0.92,0.1547248113072377
12-8-2017 0:00,0.29,-0.024311572019644623
12-8-2017 1:00,0.33,-0.042680844265288675
12-8-2017 2:00,0.39,0.029258601123984318
12-8-2017 3:00,0.41,0.047254752217947005
12-8-2017 4:00,0.31,-0.02419833559356044
12-8-2017 5:00,0.35,0.031258424952179065
12-8-2017 6:00,0.32,-0.01364656490844185
12-8-2017 7:00,0.3,-0.03168570096255413
12-8-2017 8:00,0.32,0.008733881007847832
12-8-2017 9:00,0.31,-0.010069008108720134
12-8-2017 10:00,0.52,0.03086942874741333
12-8-2017 11:00,0.49,0.012563680097156416
12-8-2017 12:00,0.51,0.04671272977989732
12-8-2017 13:00,0.34,-0.12109196578893722
12-8-2017 14:00,0.33,-0.08326320527734415
12-8-2017 15:00,0.31,-0.07682739220920559
12-8-2017 16:00,0.33,-0.019185881613273115
12-8-2017 17:00,0.33,-0.013612680199233562
12-8-2017 18:00,0.38,0.03215493101299355
12-8-2017 19:00,0.43,0.08919385646616756
12-8-2017 20:00,0.33,0.008323715532626064
12-8-2017 21:00,0.15,-0.13601081850261143
12-8-2017 22:00,0.29,-0.07262325002058606
12-8-2017 23:00,0.69,-0.03204283806019437
13-8-2017 0:00,0.27,-0.002609633353301666
13-8-2017 1:00,0.38,0.04713608113816198
13-8-2017 2:00,0.37,0.04555647508030686
13-8-2017 3:00,0.38,0.050788370027723184
13-8-2017 4:00,0.36,0.056572132107198136
13-8-2017 5:00,0.36,0.06798769191163778
13-8-2017 6:00,0.38,0.06907350106546967
13-8-2017 7:00,0.3,-0.012612629780191564
13-8-2017 8:00,0.32,0.023937849294155045
13-8-2017 9:00,0.34,0.03241783728560266
13-8-2017 10:00,0.51,0.029666738153527772
13-8-2017 11:00,0.48,0.009081404234002166
13-8-2017 12:00,0.5,0.03985360360740031
13-8-2017 13:00,0.35,-0.10854139847170252
13-8-2017 14:00,0.34,-0.06968175515668634
13-8-2017 15:00,0.31,-0.07456712715597813
13-8-2017 16:00,0.29,-0.056166172069380405
13-8-2017 17:00,0.31,-0.0282722158293488
13-8-2017 18:00,0.34,-0.0019615234903079815
13-8-2017 19:00,0.32,-0.013663587080612716
13-8-2017 20:00,0.35,0.036324315686570685
13-8-2017 21:00,0.3,0.024138650620106894
13-8-2017 22:00,0.31,-0.040711613079776554
13-8-2017 23:00,0.64,-0.07082700735212943
14-8-2017 0:00,0.28,0.020094169290039487
14-8-2017 1:00,0.35,0.03004151069122435
14-8-2017 2:00,0.35,0.037029493358854804
14-8-2017 3:00,0.33,0.011583772332338427
14-8-2017 4:00,0.34,0.04669102447540935
14-8-2017 5:00,0.31,0.025898220931406646
14-8-2017 6:00,0.31,0.00480766649254899
14-8-2017 7:00,0.34,0.03130737824819646
14-8-2017 8:00,0.34,0.04582159181934514
14-8-2017 9:00,0.36,0.05323775230081934
14-8-2017 10:00,0.52,0.03845041256254733
14-8-2017 11:00,0.38,-0.09276121124423586
14-8-2017 12:00,0.42,-0.04371256679816932
14-8-2017 13:00,0.39,-0.07333676260839483
14-8-2017 14:00,0.37,-0.04408512371081019
14-8-2017 15:00,0.34,-0.050930567998386744
14-8-2017 16:00,0.39,0.0375909179548688
14-8-2017 17:00,0.38,0.037014716957997296
14-8-2017 18:00,0.38,0.033077578360956816
14-8-2017 19:00,0.33,-0.008156533452001069
14-8-2017 20:00,0.29,-0.028101646163267213
14-8-2017 21:00,0.32,0.040908011303166125
14-8-2017 22:00,0.39,0.036866010012607475
14-8-2017 23:00,0.66,-0.054899095901256356
15-8-2017 0:00,0.29,0.026556147267422392
15-8-2017 1:00,0.33,0.0069421873123088895
15-8-2017 2:00,0.34,0.022734830439404885
15-8-2017 3:00,0.33,0.0068485651729358055
15-8-2017 4:00,0.26,-0.038483913195947295
15-8-2017 5:00,0.25,-0.03965034053315142
15-8-2017 6:00,0.28,-0.031082519009457743
15-8-2017 7:00,0.28,-0.03456235743108216
15-8-2017 8:00,0.3,-2.4980214171194115E-4
15-8-2017 9:00,0.29,-0.023038722970356418
15-8-2017 10:00,0.48,-0.009003599614542779
15-8-2017 11:00,0.55,0.07001719039169951
15-8-2017 12:00,0.57,0.09820098361071733
15-8-2017 13:00,0.5,0.02616141387115295
15-8-2017 14:00,0.47,0.04461886815308991
15-8-2017 15:00,0.38,-0.02537282862098772
15-8-2017 16:00,0.31,-0.05791657866398697
15-8-2017 17:00,0.33,-0.028787173310077463
15-8-2017 18:00,0.32,-0.04479637925551527
15-8-2017 19:00,0.35,-0.00738617872167352
15-8-2017 20:00,0.35,0.010912053658063636
15-8-2017 21:00,0.32,0.023667240724144223
15-8-2017 22:00,0.43,0.0629847038393131
15-8-2017 23:00,0.65,-0.07787891171965888
16-8-2017 0:00,0.28,0.006748871155909109
16-8-2017 1:00,0.39,0.0615878174532376
16-8-2017 2:00,0.34,0.02002204351308645
16-8-2017 3:00,0.37,0.0476019655665017
16-8-2017 4:00,0.33,0.035771407858134485
16-8-2017 5:00,0.27,-0.016360382061670842
16-8-2017 6:00,0.26,-0.048437679780109766
16-8-2017 7:00,0.28,-0.0321671653605799
16-8-2017 8:00,0.28,-0.01856587723670783
16-8-2017 9:00,0.4,0.08659092280936875
16-8-2017 10:00,0.44,-0.05370185190518684
16-8-2017 11:00,0.45,-0.034639516727506425
16-8-2017 12:00,0.44,-0.039095395927139676
16-8-2017 13:00,0.37,-0.11287815270107482
16-8-2017 14:00,0.36,-0.07560159121607951
16-8-2017 15:00,0.37,-0.048875523937319865
16-8-2017 16:00,0.37,-0.012915572732535519
16-8-2017 17:00,0.36,-0.015328891070286177
16-8-2017 18:00,0.38,-0.00485821068971154
16-8-2017 19:00,0.38,-1.2021003513312811E-4
16-8-2017 20:00,0.43,0.06492013437529887
16-8-2017 21:00,0.35,0.026110665307450598
16-8-2017 22:00,0.41,0.012871286953672623
16-8-2017 23:00,1.11,0.3467275240463189
17-8-2017 0:00,0.33,0.019126477094047967
17-8-2017 1:00,0.38,0.013607956536900945
17-8-2017 2:00,0.31,-0.05012660757741488
17-8-2017 3:00,0.31,-0.053890871311032706
17-8-2017 4:00,0.35,0.012969252169857504
17-8-2017 5:00,0.34,0.013111961325189492
17-8-2017 6:00,0.39,0.043629406022356654
17-8-2017 7:00,0.36,0.012889765838078826
17-8-2017 8:00,0.36,0.02901927935149068
17-8-2017 9:00,0.29,-0.05071726231808499
17-8-2017 10:00,0.46,-0.058177083913782845
17-8-2017 11:00,0.52,0.018087647624562775
17-8-2017 12:00,0.52,0.028152947195505484
17-8-2017 13:00,0.49,-0.0018901817125360765
17-8-2017 14:00,0.34,-0.10031169812421825
17-8-2017 15:00,0.34,-0.08138505189235712
17-8-2017 16:00,0.32,-0.06143822401052751
17-8-2017 17:00,0.33,-0.04041356660552925
17-8-2017 18:00,0.33,-0.048482300464533
17-8-2017 19:00,0.33,-0.04143549750559916
17-8-2017 20:00,0.37,0.015327961119146638
17-8-2017 21:00,0.34,0.029233076132115843
17-8-2017 22:00,0.42,0.037716373508010326
17-8-2017 23:00,0.95,0.20057198045089408
18-8-2017 0:00,0.29,-0.004978379130596289
18-8-2017 1:00,0.32,-0.03164079925521779
18-8-2017 2:00,0.36,0.011669413743302604
18-8-2017 3:00,0.4,0.04577453150965266
18-8-2017 4:00,0.32,-0.009460809505793366
18-8-2017 5:00,0.35,0.026238805730615655
18-8-2017 6:00,0.33,-0.017366600150671208
18-8-2017 7:00,0.31,-0.0418338695483772
18-8-2017 8:00,0.3,-0.039893605255046205
18-8-2017 9:00,0.3,-0.051106785512447406
18-8-2017 10:00,0.55,0.017683070998953332
18-8-2017 11:00,0.57,0.05456692388620488
18-8-2017 12:00,0.53,0.022570127215964297
18-8-2017 13:00,0.52,0.01316398265215979
18-8-2017 14:00,0.44,-0.014058255177856527
18-8-2017 15:00,0.4,-0.03603367351455061
18-8-2017 16:00,0.49,0.09479738752266764
18-8-2017 17:00,0.38,-0.0025401218174473383
18-8-2017 18:00,0.33,-0.06094841240389165
18-8-2017 19:00,0.34,-0.04339294962846435
18-8-2017 20:00,0.33,-0.03670651927726687
18-8-2017 21:00,0.31,-0.009894488233997911
18-8-2017 22:00,0.38,-0.009496183178948514
18-8-2017 23:00,0.94,0.18255112556365516
19-8-2017 0:00,0.29,-0.01075621469757243
19-8-2017 1:00,0.3,-0.054712662945162804
19-8-2017 2:00,0.28,-0.0705078013893004
19-8-2017 3:00,0.34,-0.014683430678476883
19-8-2017 4:00,0.32,-0.008164364745753494
19-8-2017 5:00,0.32,-0.0022718804134573833
19-8-2017 6:00,0.36,0.014635826141611519
19-8-2017 7:00,0.36,0.011076890545287044
19-8-2017 8:00,0.3,-0.03653613136665279
19-8-2017 9:00,0.32,-0.026188894450820177
19-8-2017 10:00,0.53,0.0018876959287383865
19-8-2017 11:00,0.62,0.11242772592595551
19-8-2017 12:00,0.6,0.10140588877559076
19-8-2017 13:00,0.51,0.01316793219684903
19-8-2017 14:00,0.5,0.057676176589324446
19-8-2017 15:00,0.46,0.03532989732490105
19-8-2017 16:00,0.34,-0.04242360484166635
19-8-2017 17:00,0.33,-0.03839326483282801
19-8-2017 18:00,0.42,0.04258890394735354
19-8-2017 19:00,0.36,-0.009616957366659185
19-8-2017 20:00,0.4,0.04672246080505654
19-8-2017 21:00,0.21,-0.09306236865375128
19-8-2017 22:00,0.03,-0.3402528324519237
19-8-2017 23:00,0.77,0.031482401558023176
20-8-2017 0:00,0.27,-0.00908569591531827
20-8-2017 1:00,0.34,0.009492575119003255
20-8-2017 2:00,0.31,-0.015579167362911706
20-8-2017 3:00,0.39,0.0617932036972661
20-8-2017 4:00,0.28,-0.020104576016960307
20-8-2017 5:00,0.31,0.013271074805492111
20-8-2017 6:00,0.52,0.1979821911911861
20-8-2017 7:00,0.33,0.002621886790512562
20-8-2017 8:00,0.34,0.022745876067571058
20-8-2017 9:00,0.31,-0.02157917224920136
20-8-2017 10:00,0.48,-0.04044855040732376
20-8-2017 11:00,0.47,-0.03248504570598015
20-8-2017 12:00,0.52,0.02123537425769234
20-8-2017 13:00,0.54,0.039181211854266484
20-8-2017 14:00,0.52,0.07043554465948676
20-8-2017 15:00,0.33,-0.10726598934241294
20-8-2017 16:00,0.33,-0.06858844852251278
20-8-2017 17:00,0.35,-0.03943513836424467
20-8-2017 18:00,0.37,-0.03530738941696071
20-8-2017 19:00,0.36,-0.04351945401993712
20-8-2017 20:00,0.36,-0.03377192722722672
20-8-2017 21:00,0.31,-0.04032363947492196
20-8-2017 22:00,0.32,-0.10527289441312676
20-8-2017 23:00,0.96,0.15598024257735288
21-8-2017 0:00,0.32,-0.03201863439491298
21-8-2017 1:00,0.32,-0.08985763942227687
21-8-2017 2:00,0.35,-0.06315798128556643
21-8-2017 3:00,0.38,-0.04318960521963172
21-8-2017 4:00,0.31,-0.09245622592440522
21-8-2017 5:00,0.35,-0.0519119286682842
21-8-2017 6:00,0.67,0.2402880774915473
21-8-2017 7:00,1.04,0.6028118842300368
21-8-2017 8:00,0.39,-0.03964163536039389
21-8-2017 9:00,0.33,-0.11059889259318367
21-8-2017 10:00,0.54,-0.0883741629723993
21-8-2017 11:00,0.52,-0.08494710725034149
21-8-2017 12:00,0.59,-0.008444353856044251
21-8-2017 13:00,1.25,0.6572113404772857
21-8-2017 14:00,0.56,0.02673782425669069
21-8-2017 15:00,0.37,-0.14479290192124522
21-8-2017 16:00,0.38,-0.08815830664003049
21-8-2017 17:00,0.39,-0.05498189570278672
21-8-2017 18:00,0.34,-0.10880843595885442
21-8-2017 19:00,0.37,-0.06412685461337919
21-8-2017 20:00,0.35,-0.06207136996225893
21-8-2017 21:00,0.33,-0.023512373809840226
21-8-2017 22:00,0.34,-0.07434352096665409
21-8-2017 23:00,0.97,0.18830441792578145
22-8-2017 0:00,0.28,-0.03524833962398555
22-8-2017 1:00,0.27,-0.0929690930626002
22-8-2017 2:00,0.27,-0.08796250665682975
22-8-2017 3:00,0.26,-0.09886259793470353
22-8-2017 4:00,0.34,0.011036791142527258
22-8-2017 5:00,0.33,0.003348017303038464
22-8-2017 6:00,0.3,-0.052364804292271416
22-8-2017 7:00,0.34,-0.01735871813772555
22-8-2017 8:00,0.33,-0.017791578318752665
22-8-2017 9:00,0.37,0.008923942628760062
22-8-2017 10:00,0.62,0.06654816014265541
22-8-2017 11:00,0.69,0.1597441469996318
22-8-2017 12:00,0.54,0.013334613938758288
22-8-2017 13:00,0.56,0.032329224350693575
22-8-2017 14:00,0.54,0.06575691844613274
22-8-2017 15:00,0.45,-0.01397394056598994
22-8-2017 16:00,0.38,-0.04375212519735533
22-8-2017 17:00,0.37,-0.03764688292377405
22-8-2017 18:00,0.36,-0.06052198182583163
22-8-2017 19:00,0.33,-0.08403977310336397
22-8-2017 20:00,0.36,-0.04076934916529307
22-8-2017 21:00,0.33,-0.017709534093339252
22-8-2017 22:00,0.39,-0.025030805798564815
22-8-2017 23:00,0.95,0.15840370266602427
23-8-2017 0:00,0.36,0.028898408579148216
23-8-2017 1:00,0.38,-0.004675832730894114
23-8-2017 2:00,0.36,-0.027354131120628122
23-8-2017 3:00,0.39,-0.005274088419345624
23-8-2017 4:00,0.31,-0.06224446298742309
23-8-2017 5:00,0.3,-0.07380842224725997
23-8-2017 6:00,0.33,-0.0730549833712873
23-8-2017 7:00,0.37,-0.04098728123952455
23-8-2017 8:00,0.35,-0.0548369851630755
23-8-2017 9:00,0.33,-0.08586394684112653
23-8-2017 10:00,0.64,0.029695823236787766
23-8-2017 11:00,0.57,-0.01065433934981136
23-8-2017 12:00,0.58,0.004711979252099374
23-8-2017 13:00,1.49,0.9182990078422412
23-8-2017 14:00,0.52,0.00709956802848144
23-8-2017 15:00,0.51,0.010439843457726694
23-8-2017 16:00,0.42,-0.03471110747331113
23-8-2017 17:00,0.34,-0.09380098384028973
23-8-2017 18:00,0.36,-0.08403733227988763
23-8-2017 19:00,0.35,-0.08412162913488719
23-8-2017 20:00,0.32,-0.09825408828652543
23-8-2017 21:00,0.32,-0.033576645577533926
23-8-2017 22:00,0.44,0.028988600971796286
23-8-2017 23:00,0.74,-0.0406763334112874
24-8-2017 0:00,0.27,-0.03932599375991047
24-8-2017 1:00,0.35,0.0017094484095548923
24-8-2017 2:00,0.28,-0.058190563424748154
24-8-2017 3:00,0.31,-0.02266721539337413
24-8-2017 4:00,0.29,-0.006045119936176846
24-8-2017 5:00,0.34,0.04755182105247824
24-8-2017 6:00,0.34,0.02380760606857346
24-8-2017 7:00,0.33,0.011972770817802791
24-8-2017 8:00,0.35,0.04374206979197748
24-8-2017 9:00,0.35,0.03257249840469695
24-8-2017 10:00,0.56,0.043668060165551525
24-8-2017 11:00,0.51,0.027371987254298236
24-8-2017 12:00,0.45,-0.027885603362085454
24-8-2017 13:00,0.4,-0.0759743425998603
24-8-2017 14:00,0.41,-0.008069102328941757
24-8-2017 15:00,0.35,-0.05792587846445135
24-8-2017 16:00,0.17,-0.19471677759021438
24-8-2017 17:00,0.34,-0.005755200957420714
24-8-2017 18:00,0.36,-1.062272942264908E-4
24-8-2017 19:00,0.37,0.016490230000556716
24-8-2017 20:00,0.35,0.008202147486459033
24-8-2017 21:00,0.35,0.06764235450234163
24-8-2017 22:00,0.35,0.003239528591701124
24-8-2017 23:00,0.63,-0.0963794393535819
25-8-2017 0:00,0.27,0.00897194332152168
25-8-2017 1:00,0.4,0.09056855722827578
25-8-2017 2:00,0.35,0.03939832020718459
25-8-2017 3:00,0.4,0.08431646182643121
25-8-2017 4:00,0.31,0.020482645967918878
25-8-2017 5:00,0.26,-0.03194646323341932
25-8-2017 6:00,0.26,-0.0613752825156868
25-8-2017 7:00,0.29,-0.03829954317009521
25-8-2017 8:00,0.31,-0.012098129319298878
25-8-2017 9:00,0.34,0.00552593401295165
25-8-2017 10:00,0.5,-0.038906454706844285
25-8-2017 11:00,0.56,0.057787819893657666
25-8-2017 12:00,0.51,0.010842577895388839
25-8-2017 13:00,0.48,-0.017139113478353507
25-8-2017 14:00,0.49,0.051653622569192315
25-8-2017 15:00,0.48,0.05038261056087667
25-8-2017 16:00,0.46,0.07373457893233742
25-8-2017 17:00,0.34,-0.026526667425568695
25-8-2017 18:00,0.33,-0.052266647650054565
25-8-2017 19:00,0.33,-0.046263712195960704
25-8-2017 20:00,0.32,-0.0459816940629898
25-8-2017 21:00,0.29,-0.012749512496087634
25-8-2017 22:00,0.37,0.004908799377429607
25-8-2017 23:00,0.67,-0.07563499188592415
26-8-2017 0:00,0.28,0.0027466440570345085
26-8-2017 1:00,0.43,0.10793366518817055
26-8-2017 2:00,0.36,0.03852243846738457
26-8-2017 3:00,0.34,0.0158646091615971
26-8-2017 4:00,0.33,0.03460411747446829
26-8-2017 5:00,0.25,-0.047277583029304016
26-8-2017 6:00,0.3,-0.0258175477223751
26-8-2017 7:00,0.28,-0.051257774892862096
26-8-2017 8:00,0.32,-0.004050787277885215
26-8-2017 9:00,0.32,-0.014868326124697295
26-8-2017 10:00,0.51,-0.03206390222373745
26-8-2017 11:00,0.51,0.010385482989925865
26-8-2017 12:00,0.54,0.04451735271117824
26-8-2017 13:00,0.54,0.04838572393588003
26-8-2017 14:00,0.55,0.11980897049446482
26-8-2017 15:00,0.53,0.10886673734775487
26-8-2017 16:00,0.4,0.02410458795085102
26-8-2017 17:00,0.33,-0.024235294192839874
26-8-2017 18:00,0.34,-0.0302200411000908
26-8-2017 19:00,0.33,-0.03366644028177135
26-8-2017 20:00,0.32,-0.03367013429681692
26-8-2017 21:00,0.09,-0.1964116797590835
26-8-2017 22:00,0.31,-0.03645793168159661
26-8-2017 23:00,0.53,-0.19769224784320938
27-8-2017 0:00,0.27,0.013953939787416048
27-8-2017 1:00,0.47,0.1722031594064244
27-8-2017 2:00,0.38,0.08402273424943413
27-8-2017 3:00,0.34,0.043260725282102896
27-8-2017 4:00,0.36,0.09404534902984807
27-8-2017 5:00,0.24,-0.029799130672667484
27-8-2017 6:00,0.26,-0.03996042867285132
27-8-2017 7:00,0.27,-0.03642681025572614
27-8-2017 8:00,0.28,-0.020724436772877664
27-8-2017 9:00,0.31,-0.004029824838037543
27-8-2017 10:00,0.49,-0.038034835355607144
27-8-2017 11:00,0.5,0.01612341343193252
27-8-2017 12:00,0.51,0.027286147833420926
27-8-2017 13:00,0.47,-0.0093595234691069
27-8-2017 14:00,0.49,0.07233012847484299
27-8-2017 15:00,0.45,0.039352569064065035
27-8-2017 16:00,0.34,-0.02588780322687717
27-8-2017 17:00,0.32,-0.023807937295350856
27-8-2017 18:00,0.36,-0.0015390670243649596
27-8-2017 19:00,0.33,-0.02593641698081789
27-8-2017 20:00,0.31,-0.03772743928287792
27-8-2017 21:00,0.28,0.002723486516519824
27-8-2017 22:00,0.31,-0.025861130911190855
27-8-2017 23:00,0.67,-0.04861977368022963
28-8-2017 0:00,0.26,0.015457163928895568
28-8-2017 1:00,0.3,0.016505123859889115
28-8-2017 2:00,0.31,0.029292042090807158
28-8-2017 3:00,0.37,0.0901623952860448
28-8-2017 4:00,0.32,0.07272867629277674
28-8-2017 5:00,0.31,0.058374343655173466
28-8-2017 6:00,0.34,0.05804463861153247
28-8-2017 7:00,0.26,-0.027994971120074486
28-8-2017 8:00,0.28,-0.0023442855056990397
28-8-2017 9:00,0.33,0.033559395584765284
28-8-2017 10:00,0.35,-0.1655581309773617
28-8-2017 11:00,0.32,-0.1479941002419738
28-8-2017 12:00,0.37,-0.0981035827862774
28-8-2017 13:00,0.41,-0.05552688454289023
28-8-2017 14:00,0.4,-0.0038344151404305915
28-8-2017 15:00,0.34,-0.059110888742131995
28-8-2017 16:00,0.42,0.06490613184332089
28-8-2017 17:00,0.41,0.0757006627135346
28-8-2017 18:00,0.35,-0.005481932973772474
28-8-2017 19:00,0.36,0.007460386597792912
28-8-2017 20:00,0.38,0.03217265631150912
28-8-2017 21:00,0.32,0.0383099628818917
28-8-2017 22:00,0.4,0.053669888037849445
28-8-2017 23:00,0.68,-0.05813017324974945
29-8-2017 0:00,0.3,0.030860422426741474
29-8-2017 1:00,0.32,0.006462835723071714
29-8-2017 2:00,0.29,-0.02802718960475037
29-8-2017 3:00,0.31,-0.013768761193592105
29-8-2017 4:00,0.31,0.012320128073910586
29-8-2017 5:00,0.32,0.015277577607014425
29-8-2017 6:00,0.34,0.002601100625711006
29-8-2017 7:00,0.33,-0.015199020959961618
29-8-2017 8:00,0.33,-0.011787306919392504
29-8-2017 9:00,0.26,-0.09601160881891807
29-8-2017 10:00,0.56,-0.019580560091652544
29-8-2017 11:00,0.62,0.0920503439255333
29-8-2017 12:00,0.6,0.07132973576938756
29-8-2017 13:00,0.56,0.032314193522616164
29-8-2017 14:00,0.54,0.07319487034751188
29-8-2017 15:00,0.54,0.07480487251881346
29-8-2017 16:00,0.4,-0.022719316863796468
29-8-2017 17:00,0.38,-0.022835444514264114
29-8-2017 18:00,0.33,-0.09709482961923288
29-8-2017 19:00,0.33,-0.09641575103720484
29-8-2017 20:00,0.33,-0.09480309982526791
29-8-2017 21:00,0.31,-0.04624288782046765
29-8-2017 22:00,0.51,0.08983036266872402
29-8-2017 23:00,0.67,-0.1442423343878696
30-8-2017 0:00,0.31,-0.030094623330596093
30-8-2017 1:00,0.3,-0.08283043033964377
30-8-2017 2:00,0.44,0.05085710772386115
30-8-2017 3:00,0.48,0.0838229765257067
30-8-2017 4:00,0.42,0.048292335464395375
30-8-2017 5:00,0.43,0.044633642944403806
30-8-2017 6:00,0.43,0.005973882699409017
30-8-2017 7:00,0.46,0.022350428169448433
30-8-2017 8:00,0.43,-0.011849517501619444
30-8-2017 9:00,0.48,0.019378105785854527
30-8-2017 10:00,0.64,-0.08441401586665209
30-8-2017 11:00,0.68,0.03873151531795849
30-8-2017 12:00,0.71,0.0675281162986523
30-8-2017 13:00,0.68,0.05287389365843598
30-8-2017 14:00,0.72,0.15895621714750663
30-8-2017 15:00,0.71,0.1550903630160233
30-8-2017 16:00,0.62,0.1128326695337778
30-8-2017 17:00,0.52,0.04455753753315611
30-8-2017 18:00,0.5,0.007119535191096649
30-8-2017 19:00,0.49,0.003580510309258711
30-8-2017 20:00,0.41,-0.06790498642163656
30-8-2017 21:00,0.38,-0.007955826584133519
30-8-2017 22:00,0.37,-0.07318164987889819
30-8-2017 23:00,0.69,-0.14631768795195482
31-8-2017 0:00,0.29,-0.04745605623856258
31-8-2017 1:00,0.29,-0.07811715927322893
31-8-2017 2:00,0.36,-0.005839133538637686
31-8-2017 3:00,0.33,-0.03375290006634524
31-8-2017 4:00,0.34,0.009483626887594299
31-8-2017 5:00,0.31,-0.031972042721400806
31-8-2017 6:00,0.31,-0.0677959212659951
31-8-2017 7:00,0.31,-0.07843725849871092
31-8-2017 8:00,0.31,-0.08144341363988278
31-8-2017 9:00,0.35,-0.06583774525765773
31-8-2017 10:00,0.63,-0.09092969995838301
31-8-2017 11:00,0.62,0.012653795725205697
31-8-2017 12:00,0.63,0.01989094317429274
31-8-2017 13:00,0.58,-0.010749794660077305
31-8-2017 14:00,0.62,0.0901863406924594
31-8-2017 15:00,1.06,0.5304967954574827
31-8-2017 16:00,0.61,0.12317217766108612
31-8-2017 17:00,0.46,0.0018308413002567359
31-8-2017 18:00,0.44,-0.04369297828894708
31-8-2017 19:00,0.53,0.04365651317574959
31-8-2017 20:00,0.43,-0.055820511687577234
31-8-2017 21:00,0.41,0.022007210974107683
31-8-2017 22:00,0.48,0.03198218413208931
31-8-2017 23:00,0.69,-0.16371732472072753
1-9-2017 0:00,0.33,-0.013641902114514048
1-9-2017 1:00,0.32,-0.049678263305405757
1-9-2017 2:00,0.32,-0.04625971203033502
1-9-2017 3:00,0.31,-0.05250307601820253
1-9-2017 4:00,0.3,-0.027943611237555455
1-9-2017 5:00,0.27,-0.06864671138455342
1-9-2017 6:00,0.3,-0.0730851616777467
1-9-2017 7:00,0.35,-0.03219243710650177
1-9-2017 8:00,0.36,-0.025452857211061664
1-9-2017 9:00,0.4,-0.01208700912050914
1-9-2017 10:00,0.69,-0.06509619922799592
1-9-2017 11:00,0.67,0.062307858596028276
1-9-2017 12:00,0.62,0.011368150154965728
1-9-2017 13:00,0.58,-1.1431303399245252E-4
1-9-2017 14:00,0.6,0.08082042402157569
1-9-2017 15:00,0.76,0.2404519775226709
1-9-2017 16:00,0.63,0.1532052252516889
1-9-2017 17:00,0.56,0.1152884838858908
1-9-2017 18:00,0.42,-0.05183035359521859
1-9-2017 19:00,0.43,-0.04710154642874831
1-9-2017 20:00,0.39,-0.08807930006926779
1-9-2017 21:00,0.39,0.026453111630106274
1-9-2017 22:00,0.51,0.09045500745434143
1-9-2017 23:00,0.76,-0.0689818459647285
2-9-2017 0:00,0.29,-0.008866506252186601
2-9-2017 1:00,0.28,-0.03229085428757805
2-9-2017 2:00,0.31,0.010255493839698038
2-9-2017 3:00,0.25,-0.036330196296603834
2-9-2017 4:00,0.29,0.04753947762247651
2-9-2017 5:00,0.3,0.05363291291816652
2-9-2017 6:00,0.32,0.04662385685706527
2-9-2017 7:00,0.34,0.06509460921296195
2-9-2017 8:00,0.36,0.08762389012570487
2-9-2017 9:00,0.34,0.04403935729925407
2-9-2017 10:00,0.38,-0.2915976288403247
2-9-2017 11:00,0.4,-0.08508356950119583
2-9-2017 12:00,0.35,-0.12891069445773856
2-9-2017 13:00,0.36,-0.07960858149872663
2-9-2017 14:00,0.37,-0.007048941237568551
2-9-2017 15:00,0.35,-0.026469987497843073
2-9-2017 16:00,0.36,0.027987427259147823
2-9-2017 17:00,0.33,0.028700442117048863
2-9-2017 18:00,0.45,0.11519174797270215
2-9-2017 19:00,0.37,0.022505032069613906
2-9-2017 20:00,0.33,-0.024768289119430187
2-9-2017 21:00,0.22,-0.01725725808680212
2-9-2017 22:00,0.0,-0.3029545093007487
2-9-2017 23:00,0.55,-0.17985477699050673
3-9-2017 0:00,0.28,0.08657441012392852
3-9-2017 1:00,0.37,0.15838990530369335
3-9-2017 2:00,0.28,0.0726918803428308
3-9-2017 3:00,0.25,0.04839169411775063
3-9-2017 4:00,0.32,0.15419940723492026
3-9-2017 5:00,0.29,0.1111426045356475
3-9-2017 6:00,0.37,0.15561616926898758
3-9-2017 7:00,0.32,0.09571817597188531
3-9-2017 8:00,0.32,0.08809038446428036
3-9-2017 9:00,0.31,0.043295140518099406
3-9-2017 10:00,0.36,-0.3292299718562984
3-9-2017 11:00,0.35,-0.12786624120479165
3-9-2017 12:00,0.32,-0.1588411128795414
3-9-2017 13:00,0.31,-0.12476725348350118
3-9-2017 14:00,0.32,-0.0565955397276951
3-9-2017 15:00,0.32,-0.06108201546028125
3-9-2017 16:00,0.32,-0.020933263386259338
3-9-2017 17:00,0.31,4.1778194545510905E-4
3-9-2017 18:00,0.4,0.052527505387985174
3-9-2017 19:00,0.36,-0.005566459334547302
3-9-2017 20:00,0.36,-0.017127073822001793
3-9-2017 21:00,0.31,0.05787167199312476
3-9-2017 22:00,0.36,0.036984369190240896
3-9-2017 23:00,0.73,-0.032870217320961126
4-9-2017 0:00,0.29,0.07438191264461186
4-9-2017 1:00,0.28,0.04586134372248546
4-9-2017 2:00,0.32,0.08634303835643647
4-9-2017 3:00,0.32,0.08875244872553051
4-9-2017 4:00,0.27,0.0709222937237417
4-9-2017 5:00,0.28,0.06458982549370013
4-9-2017 6:00,0.25,-0.003579416514324696
4-9-2017 7:00,0.28,0.014028416999768034
4-9-2017 8:00,0.33,0.052118125536009086
4-9-2017 9:00,0.36,0.043841677307537574
4-9-2017 10:00,0.46,-0.31784205446423935
4-9-2017 11:00,0.5,-0.03389914566291513
4-9-2017 12:00,0.48,-0.05429225721843245
4-9-2017 13:00,0.4,-0.08294491273880455
4-9-2017 14:00,0.42,-0.006659386841791237
4-9-2017 15:00,0.38,-0.05370955340012967
4-9-2017 16:00,0.4,0.004631989317709195
4-9-2017 17:00,0.41,0.04881946130996567
4-9-2017 18:00,0.4,-0.0012540014738988137
4-9-2017 19:00,0.44,0.017441666391101562
4-9-2017 20:00,0.38,-0.0562093599877862
4-9-2017 21:00,0.38,0.08489062998542252
4-9-2017 22:00,0.4,0.03742292916206763
4-9-2017 23:00,0.73,-0.07677632260211198
5-9-2017 0:00,0.3,0.05990840378306489
5-9-2017 1:00,0.38,0.12902377881766824
5-9-2017 2:00,0.42,0.1736572011050539
5-9-2017 3:00,0.34,0.10074821612694318
5-9-2017 4:00,0.33,0.12724519386905114
5-9-2017 5:00,0.25,0.030764377866782433
5-9-2017 6:00,0.26,0.0030796468759345386
5-9-2017 7:00,0.31,0.041314279326067294
5-9-2017 8:00,0.34,0.05824246003099959
5-9-2017 9:00,0.18,-0.14241207031612357
5-9-2017 10:00,0.03,-0.7921554502114758
5-9-2017 11:00,0.46,-0.08453439198653034
5-9-2017 12:00,0.47,-0.07324677214901121
5-9-2017 13:00,0.64,0.1571675728753682
5-9-2017 14:00,0.54,0.11336042637475297
5-9-2017 15:00,0.57,0.1355400844518262
5-9-2017 16:00,0.39,-0.006127674523788873
5-9-2017 17:00,0.41,0.04751703079175046
5-9-2017 18:00,0.38,-0.028118811555767897
5-9-2017 19:00,0.47,0.03399654033302435
5-9-2017 20:00,0.35,-0.10511484650103775
5-9-2017 21:00,0.34,0.03498145244587231
5-9-2017 22:00,0.46,0.08384279414378043
5-9-2017 23:00,0.74,-0.09179168233164281
6-9-2017 0:00,0.28,0.028547449960691362
6-9-2017 1:00,0.37,0.11621194398057882
6-9-2017 2:00,0.36,0.11520097662228856
6-9-2017 3:00,0.37,0.13756528329254558
6-9-2017 4:00,0.32,0.1283564591567234
6-9-2017 5:00,0.29,0.08359666849688507
6-9-2017 6:00,0.28,0.03816746947016436
6-9-2017 7:00,0.29,0.038069728100131206
6-9-2017 8:00,0.3,0.03468913192418627
6-9-2017 9:00,0.34,0.029449656335894192
6-9-2017 10:00,0.44,-0.4118656147310053
6-9-2017 11:00,0.39,-0.15080737019987814
6-9-2017 12:00,0.39,-0.14795362523964425
6-9-2017 13:00,0.39,-0.07776980066210015
6-9-2017 14:00,0.35,-0.06214352657004424
6-9-2017 15:00,0.37,-0.0509528637755437
6-9-2017 16:00,0.34,-0.04451752244612711
6-9-2017 17:00,0.38,0.03194482845400337
6-9-2017 18:00,0.42,0.02302151815434883
6-9-2017 19:00,0.4,-0.02865298528788418
6-9-2017 20:00,0.41,-0.038514271191950666
6-9-2017 21:00,0.37,0.08130250831122865
6-9-2017 22:00,0.53,0.1663257281291448
6-9-2017 23:00,0.72,-0.11779008279394221
7-9-2017 0:00,0.29,0.05587006854879062
7-9-2017 1:00,0.37,0.13388206335581243
7-9-2017 2:00,0.39,0.1590250881536967
7-9-2017 3:00,0.37,0.1484610682741716
7-9-2017 4:00,0.31,0.12532914433050668
7-9-2017 5:00,0.23,0.0269877240460763
7-9-2017 6:00,0.24,-0.001488597983539841
7-9-2017 7:00,0.3,0.04476804865177075
7-9-2017 8:00,0.32,0.04576543742045813
7-9-2017 9:00,0.37,0.04644844273307086
7-9-2017 10:00,0.47,-0.4359363621396365
7-9-2017 11:00,0.42,-0.1409385739365883
7-9-2017 12:00,0.43,-0.12601634648790028
7-9-2017 13:00,0.43,-0.045289312328087916
7-9-2017 14:00,0.35,-0.06945588761425686
7-9-2017 15:00,0.4,-0.028480490073225284
7-9-2017 16:00,0.47,0.076835503152345
7-9-2017 17:00,0.42,0.06594321954736004
7-9-2017 18:00,0.51,0.10356016120586292
7-9-2017 19:00,0.37,-0.07207026244308695
7-9-2017 20:00,0.37,-0.09284751229284915
7-9-2017 21:00,0.35,0.05988936806947187
7-9-2017 22:00,0.4,0.034280710422148364
7-9-2017 23:00,0.72,-0.13511019053385026
8-9-2017 0:00,0.29,0.0650772242740334
8-9-2017 1:00,0.32,0.10023046886596043
8-9-2017 2:00,0.35,0.1383212348177898
8-9-2017 3:00,0.31,0.11162263738625355
8-9-2017 4:00,0.28,0.1213656989005153
8-9-2017 5:00,0.28,0.10214338060347433
8-9-2017 6:00,0.31,0.0933206671829444
8-9-2017 7:00,0.32,0.08863455222246608
8-9-2017 8:00,0.32,0.066712776334653
8-9-2017 9:00,0.34,0.030209575707276837
8-9-2017 10:00,0.37,-0.5663529908688825
8-9-2017 11:00,0.41,-0.15052388689155732
8-9-2017 12:00,0.4,-0.15664140485205924
8-9-2017 13:00,0.43,-0.040003159399138344
8-9-2017 14:00,0.41,-0.00859458235269217
8-9-2017 15:00,0.38,-0.05246644835428943
8-9-2017 16:00,0.4,-0.0029018015217251447
8-9-2017 17:00,0.38,0.014078387924917501
8-9-2017 18:00,0.44,0.013462689098320713
8-9-2017 19:00,0.4,-0.07089654720060279
8-9-2017 20:00,0.39,-0.10736265343931772
8-9-2017 21:00,0.43,0.11372608687322178
8-9-2017 22:00,0.46,0.06291731085173535
8-9-2017 23:00,0.78,-0.12631692104609799
9-9-2017 0:00,0.29,0.03582951631801329
9-9-2017 1:00,0.35,0.10576409833695344
9-9-2017 2:00,0.42,0.1844426930848359
9-9-2017 3:00,0.41,0.18924960574339644
9-9-2017 4:00,0.36,0.17950774035769262
9-9-2017 5:00,0.38,0.1817176113566139
9-9-2017 6:00,0.49,0.25486159385374296
9-9-2017 7:00,0.4,0.15154580460604827
9-9-2017 8:00,0.41,0.13901795137030754
9-9-2017 9:00,0.36,0.03353147506171866
9-9-2017 10:00,0.39,-0.5990059229591163
9-9-2017 11:00,0.37,-0.20414257294873783
9-9-2017 12:00,0.37,-0.19309690605965352
9-9-2017 13:00,0.39,-0.07062147406091968
9-9-2017 14:00,0.34,-0.06371176942915391
9-9-2017 15:00,0.35,-0.06250492372067568
9-9-2017 16:00,0.36,-0.018765648028413073
9-9-2017 17:00,0.4,0.06525155824492795
9-9-2017 18:00,0.38,-0.014432237291697791
9-9-2017 19:00,0.38,-0.058355742465524385
9-9-2017 20:00,0.37,-0.09134616131812134
9-9-2017 21:00,0.2,-0.06765266501424017
9-9-2017 22:00,0.28,-0.06940866336876661
9-9-2017 23:00,0.58,-0.2942333301673119
10-9-2017 0:00,0.32,0.1241250257941503
10-9-2017 1:00,0.36,0.17739419516338384
10-9-2017 2:00,0.4,0.2252138686305999
10-9-2017 3:00,0.36,0.2000795413025373
10-9-2017 4:00,0.35,0.2294059989401484
10-9-2017 5:00,0.37,0.22637232886056607
10-9-2017 6:00,0.36,0.17480727690088838
10-9-2017 7:00,0.32,0.11618608299151184
10-9-2017 8:00,0.33,0.0963764220333777
10-9-2017 9:00,0.34,0.04022476197457703
10-9-2017 10:00,0.39,-0.6199693755599325
10-9-2017 11:00,0.38,-0.1877536875854999
10-9-2017 12:00,0.39,-0.17122674391582834
10-9-2017 13:00,0.36,-0.0935764987037288
10-9-2017 14:00,0.38,-0.021828039819090594
10-9-2017 15:00,0.35,-0.06620485573298401
10-9-2017 16:00,0.36,-0.02895332451347027
10-9-2017 17:00,0.37,0.024613805133390232
10-9-2017 18:00,0.37,-0.041625180566443265
10-9-2017 19:00,0.37,-0.09260004806835181
10-9-2017 20:00,0.38,-0.1096018729880095
10-9-2017 21:00,0.36,0.07372281313464768
10-9-2017 22:00,0.39,0.01804602627451596
10-9-2017 23:00,0.74,-0.1753426415973064
11-9-2017 0:00,0.34,0.1262540667889409
11-9-2017 1:00,0.36,0.16349113287548817
11-9-2017 2:00,0.38,0.19108519442905791
11-9-2017 3:00,0.41,0.23664293648139273
11-9-2017 4:00,0.36,0.2256710265093389
11-9-2017 5:00,0.39,0.23192629201037673
11-9-2017 6:00,0.31,0.11018468225301581
11-9-2017 7:00,0.3,0.08079056034108095
11-9-2017 8:00,0.32,0.06823156831967708
11-9-2017 9:00,0.32,-7.82790912984832E-5
11-9-2017 10:00,0.4,-0.669422159741446
11-9-2017 11:00,0.46,-0.1313471374049224
11-9-2017 12:00,0.43,-0.15083192055662678
11-9-2017 13:00,0.43,-0.03030389829627933
11-9-2017 14:00,0.4,-0.006013721323886556
11-9-2017 15:00,0.46,0.041728764974730714
11-9-2017 16:00,0.39,1.95500926405745E-4
11-9-2017 17:00,0.34,-0.0019865433835870583
11-9-2017 18:00,0.38,-0.030079816577001095
11-9-2017 19:00,0.36,-0.10340522185060025
11-9-2017 20:00,0.36,-0.1297176282809275
11-9-2017 21:00,0.33,0.05546397600657388
11-9-2017 22:00,0.38,0.01809196968298976
11-9-2017 23:00,0.81,-0.11163513021995686
12-9-2017 0:00,0.28,0.08542549963322865
12-9-2017 1:00,0.27,0.09817966987529486
12-9-2017 2:00,0.26,0.09709732695342366
12-9-2017 3:00,0.26,0.11489634582436115
12-9-2017 4:00,0.25,0.14517506345416953
12-9-2017 5:00,0.31,0.17982633936341896
12-9-2017 6:00,0.33,0.15701524663596633
12-9-2017 7:00,0.32,0.12595497378421083
12-9-2017 8:00,0.33,0.09975342776227492
12-9-2017 9:00,0.33,0.024789571982462122
12-9-2017 10:00,0.4,-0.6982002200040194
12-9-2017 11:00,0.61,0.02123796847389897
12-9-2017 12:00,0.57,-0.008754709719877574
12-9-2017 13:00,0.46,0.008368179599826442
12-9-2017 14:00,0.35,-0.051082835328917664
12-9-2017 15:00,0.35,-0.0675039568066812
12-9-2017 16:00,0.36,-0.03410499492674807
12-9-2017 17:00,0.35,0.005413659786670966
12-9-2017 18:00,0.38,-0.03708402792005833
12-9-2017 19:00,0.37,-0.10530977556029181
12-9-2017 20:00,0.37,-0.1334825680962324
12-9-2017 21:00,0.33,0.055630567602853676
12-9-2017 22:00,0.36,-0.0013613311014158413
12-9-2017 23:00,0.71,-0.22535153595271962
13-9-2017 0:00,0.31,0.12929818161266415
13-9-2017 1:00,0.29,0.13878355751763172
13-9-2017 2:00,0.33,0.19014923467490236
13-9-2017 3:00,0.36,0.2413409072681455
13-9-2017 4:00,0.29,0.2140668325701277
13-9-2017 5:00,0.27,0.1665610560564616
13-9-2017 6:00,0.24,0.09233669915114362
13-9-2017 7:00,0.27,0.09929428005573859
13-9-2017 8:00,0.3,0.08908711407694198
13-9-2017 9:00,0.35,0.05842235048123168
13-9-2017 10:00,0.36,-0.7663088841044821
13-9-2017 11:00,0.4,-0.18507462562949464
13-9-2017 12:00,0.56,-0.014640803013193815
13-9-2017 13:00,0.39,-0.04923111900634042
13-9-2017 14:00,0.34,-0.05062170517428621
13-9-2017 15:00,0.33,-0.07939371933568146
13-9-2017 16:00,0.35,-0.03979808222495579
13-9-2017 17:00,0.38,0.038527731082159566
13-9-2017 18:00,0.48,0.05856176376959954
13-9-2017 19:00,0.45,-0.03724753984702339
13-9-2017 20:00,0.35,-0.17010681422606458
13-9-2017 21:00,0.34,0.05662355230721905
13-9-2017 22:00,0.34,-0.036209826942805834
13-9-2017 23:00,0.72,-0.25187385120742284
14-9-2017 0:00,0.27,0.07537327742489314
14-9-2017 1:00,0.34,0.17717830882757835
14-9-2017 2:00,0.45,0.29658045589880744
14-9-2017 3:00,0.4,0.26675323204917256
14-9-2017 4:00,0.29,0.1975136951156487
14-9-2017 5:00,0.26,0.1365358485562823
14-9-2017 6:00,0.29,0.11958320985031401
14-9-2017 7:00,0.3,0.10324282282391961
14-9-2017 8:00,0.37,0.1277142152009229
14-9-2017 9:00,0.43,0.10069549942764122
14-9-2017 10:00,0.41,-0.7964306875739972
14-9-2017 11:00,0.43,-0.20405386891863292
14-9-2017 12:00,0.44,-0.18384705530894702
14-9-2017 13:00,0.36,-0.1185681238962597
14-9-2017 14:00,0.4,-0.030315828584722926
14-9-2017 15:00,0.51,0.06014371728893436
14-9-2017 16:00,0.55,0.11751838427418121
14-9-2017 17:00,0.39,0.008945953214304525
14-9-2017 18:00,0.52,0.05580630333522579
14-9-2017 19:00,0.45,-0.08329179302015566
14-9-2017 20:00,0.43,-0.13654278600466652
14-9-2017 21:00,0.33,0.01010366542135449
14-9-2017 22:00,0.5,0.08372805491231039
14-9-2017 23:00,0.79,-0.24131053947888365
15-9-2017 0:00,0.3,0.07083324950710063
15-9-2017 1:00,0.35,0.15351462238845537
15-9-2017 2:00,0.33,0.1395099253545946
15-9-2017 3:00,0.35,0.17722049104303372
15-9-2017 4:00,0.29,0.15457263161286455
15-9-2017 5:00,0.38,0.20802456582330286
15-9-2017 6:00,0.38,0.15624549613218963
15-9-2017 7:00,0.28,0.02450924514016173
15-9-2017 8:00,0.31,0.0015612998383204846
15-9-2017 9:00,0.33,-0.07490866558448128
15-9-2017 10:00,0.41,-0.9175270433485008
15-9-2017 11:00,0.45,-0.2771049028592162
15-9-2017 12:00,0.74,0.019777663397398282
15-9-2017 13:00,0.76,0.18482211458710662
15-9-2017 14:00,0.88,0.3426135637493132
15-9-2017 15:00,0.59,0.022200942029210524
15-9-2017 16:00,0.54,-0.022749088739834278
15-9-2017 17:00,0.53,-0.00877505347718277
15-9-2017 18:00,0.58,-0.0756436752332601
15-9-2017 19:00,0.5,-0.25858585363787967
15-9-2017 20:00,0.49,-0.3327838545383398
15-9-2017 21:00,0.49,-0.11307020072728158
15-9-2017 22:00,0.6,-0.139836925003045
15-9-2017 23:00,1.1,-0.31109897202851633
16-9-2017 0:00,0.47,-0.15090740519656354
16-9-2017 1:00,0.38,-0.222432053822456
16-9-2017 2:00,0.32,-0.2949259579473231
16-9-2017 3:00,0.31,-0.3047599657067267
16-9-2017 4:00,0.31,-0.2858985106194578
16-9-2017 5:00,1.32,0.686676383004384
16-9-2017 6:00,1.65,0.9647640609717238
16-9-2017 7:00,1.62,0.9023251246576611
16-9-2017 8:00,1.66,0.8866510203205737
16-9-2017 9:00,1.66,0.8023234576514466
16-9-2017 10:00,1.65,-0.15419345847175892
16-9-2017 11:00,1.68,0.5258676562546408
16-9-2017 12:00,1.62,0.49101962756137885
16-9-2017 13:00,1.28,0.34451463141287064
16-9-2017 14:00,0.38,-0.4794697326894906
16-9-2017 15:00,0.38,-0.47206948911859115
16-9-2017 16:00,0.55,-0.2606591847571653
16-9-2017 17:00,0.64,-0.06864415344298302
16-9-2017 18:00,0.76,0.006252782652943267
16-9-2017 19:00,0.49,-0.2950389480719122
16-9-2017 20:00,0.32,-0.45468942715931937
16-9-2017 21:00,0.19,-0.26999360582019327
16-9-2017 22:00,0.01,-0.5052364787196454
16-9-2017 23:00,0.61,-0.5108070132363633
17-9-2017 0:00,0.27,0.04934729658458836
17-9-2017 1:00,0.29,0.1390924600597498
17-9-2017 2:00,0.3,0.1835851824521773
17-9-2017 3:00,0.25,0.18168243485323193
17-9-2017 4:00,0.24,0.2375290380662402
17-9-2017 5:00,0.24,0.20903295157295343
17-9-2017 6:00,0.27,0.196793437668215
17-9-2017 7:00,0.27,0.17345787650158512
17-9-2017 8:00,0.35,0.20486367359872004
17-9-2017 9:00,0.35,0.1042359798815134
17-9-2017 10:00,0.44,-0.8046220084026325
17-9-2017 11:00,0.33,-0.2433644532408722
17-9-2017 12:00,0.34,-0.21838561068576526
17-9-2017 13:00,0.37,-0.013995115659272195
17-9-2017 14:00,0.34,0.0026896454870166675
17-9-2017 15:00,0.29,-0.06965230713786366
17-9-2017 16:00,0.29,-0.05943672913274928
17-9-2017 17:00,0.28,-0.012090976232255524
17-9-2017 18:00,0.41,0.021861243250455353
17-9-2017 19:00,0.37,-0.10049031425985527
17-9-2017 20:00,0.35,-0.15830354599942864
17-9-2017 21:00,0.28,0.05194804525012403
17-9-2017 22:00,0.28,-0.05119737389065804
17-9-2017 23:00,0.7,-0.30050279351626374
18-9-2017 0:00,0.26,0.14018786167604558
18-9-2017 1:00,0.24,0.17077503063572297
18-9-2017 2:00,0.26,0.20182657292890716
18-9-2017 3:00,0.29,0.257427278873882
18-9-2017 4:00,0.26,0.2698312235960916
18-9-2017 5:00,0.24,0.2119331304740587
18-9-2017 6:00,0.26,0.1810353981856243
18-9-2017 7:00,0.26,0.14847218565480985
18-9-2017 8:00,0.29,0.11862685767454934
18-9-2017 9:00,0.36,0.07955978050722262
18-9-2017 10:00,0.5,-0.8237785323399043
18-9-2017 11:00,0.46,-0.16346378914482335
18-9-2017 12:00,0.38,-0.23079732774338774
18-9-2017 13:00,0.41,-0.020798706313285453
18-9-2017 14:00,0.43,0.0412678153102613
18-9-2017 15:00,0.52,0.10389630171820896
18-9-2017 16:00,0.49,0.07762967622151135
18-9-2017 17:00,0.0,-0.3562796840061223
18-9-2017 18:00,0.42,-0.03985801585106563
18-9-2017 19:00,0.41,-0.13985583456083878
18-9-2017 20:00,0.38,-0.21241825336658568
18-9-2017 21:00,0.44,0.13762849816652095
18-9-2017 22:00,0.51,0.10081841814599457
18-9-2017 23:00,0.83,-0.26798400122691324
19-9-2017 0:00,0.37,0.1774808846983394
19-9-2017 1:00,0.32,0.18158605020824875
19-9-2017 2:00,0.38,0.2518724034679053
19-9-2017 3:00,0.35,0.2476525540225165
19-9-2017 4:00,0.3,0.23928797397885626
19-9-2017 5:00,0.3,0.19664100186476585
19-9-2017 6:00,0.35,0.19173817882932398
19-9-2017 7:00,0.37,0.1745994876305796
19-9-2017 8:00,0.4,0.13815520726917802
19-9-2017 9:00,0.41,0.03064198375451438
19-9-2017 10:00,0.41,-1.0571834376139997
19-9-2017 11:00,0.53,-0.2078182903440043
19-9-2017 12:00,0.56,-0.1674709940546461
19-9-2017 13:00,0.56,0.020301789640072343
19-9-2017 14:00,0.49,-0.010083892398116079
19-9-2017 15:00,0.53,-3.18931096333408E-4
19-9-2017 16:00,0.51,-0.020899616764963047
19-9-2017 17:00,0.52,0.04681770889851561
19-9-2017 18:00,0.47,-0.11140937525484229
19-9-2017 19:00,0.54,-0.13616876297212738
19-9-2017 20:00,0.55,-0.1705956766520974
19-9-2017 21:00,0.49,0.0688127322075105
19-9-2017 22:00,0.65,0.11790865558886765
19-9-2017 23:00,1.32,0.07917990075028536
20-9-2017 0:00,0.55,0.2394856512928617
20-9-2017 1:00,0.48,0.22306203411190273
20-9-2017 2:00,0.39,0.13839618899041117
20-9-2017 3:00,0.39,0.15993925530104947
20-9-2017 4:00,0.29,0.09653181632736096
20-9-2017 5:00,0.28,0.03325650486030618
20-9-2017 6:00,0.34,0.02840298755204418
20-9-2017 7:00,0.38,0.02076218625587578
20-9-2017 8:00,0.44,0.0018835270919977942
20-9-2017 9:00,0.59,0.02243364878469012
20-9-2017 10:00,0.71,-0.9980965593772618
20-9-2017 11:00,0.74,-0.20868280920435767
20-9-2017 12:00,0.63,-0.31360325331300914
20-9-2017 13:00,0.69,-0.05715955412794971
20-9-2017 14:00,0.94,0.23014792372276682
20-9-2017 15:00,0.88,0.1372253702134859
20-9-2017 16:00,0.91,0.16225521812379762
20-9-2017 17:00,1.01,0.3242078841086352
20-9-2017 18:00,0.92,0.12359349264233077
20-9-2017 19:00,0.98,0.08599229446827805
20-9-2017 20:00,0.93,-0.008330419505402142
20-9-2017 21:00,0.75,0.13013411273776554
20-9-2017 22:00,0.97,0.2432415669492911
20-9-2017 23:00,1.54,0.09125851089962822
21-9-2017 0:00,0.5,0.016396094092320457
21-9-2017 1:00,0.43,0.014290338475266617
21-9-2017 2:00,0.45,0.04951893922740036
21-9-2017 3:00,0.38,0.011671565548839524
21-9-2017 4:00,0.32,-0.0019354671373158494
21-9-2017 5:00,0.27,-0.09893838481720119
21-9-2017 6:00,0.38,-0.04684186325814943
21-9-2017 7:00,0.45,-0.01808571362394651
21-9-2017 8:00,0.54,-0.002499690562506096
21-9-2017 9:00,0.54,-0.1369368990414881
21-9-2017 10:00,0.73,-1.1332227436787354
21-9-2017 11:00,0.86,-0.20681124028477926
21-9-2017 12:00,0.84,-0.22005027447329706
21-9-2017 13:00,0.89,0.0322546854527157
21-9-2017 14:00,1.05,0.22444566844294922
21-9-2017 15:00,1.49,0.6260259453732172
21-9-2017 16:00,1.06,0.18385855483373847
21-9-2017 17:00,0.85,0.034775752156812834
21-9-2017 18:00,0.87,-0.06349675560556012
21-9-2017 19:00,1.06,0.020791120554071396
21-9-2017 20:00,1.37,0.28130349107713226
21-9-2017 21:00,0.81,0.049057094165558146
21-9-2017 22:00,1.15,0.2764101838845474
21-9-2017 23:00,1.77,0.1514069313010984
22-9-2017 0:00,0.77,0.14161045182120213
22-9-2017 1:00,0.53,-0.028841620241834676
22-9-2017 2:00,0.45,-0.09638275162596366
22-9-2017 3:00,0.5,-0.01628474330361196
22-9-2017 4:00,0.5,0.027245213136090407
22-9-2017 5:00,0.42,-0.10589901892292763
22-9-2017 6:00,0.39,-0.1992661666628638
22-9-2017 7:00,0.47,-0.16652641567863924
22-9-2017 8:00,0.59,-0.12888905997222988
22-9-2017 9:00,0.71,-0.15015017414321497
22-9-2017 10:00,0.98,-1.114028154155267
22-9-2017 11:00,1.26,-0.0024553964397684425
22-9-2017 12:00,1.27,0.01415048039233735
22-9-2017 13:00,1.13,0.0899573607993367
22-9-2017 14:00,1.33,0.32467250866912123
22-9-2017 15:00,1.61,0.5683962757789716
22-9-2017 16:00,1.23,0.17667230652973598
22-9-2017 17:00,1.21,0.18087315753672617
22-9-2017 18:00,1.17,-0.020738344176036705
22-9-2017 19:00,0.94,-0.4002422713370425
22-9-2017 20:00,1.88,0.44942430602843864
22-9-2017 21:00,1.06,-0.1601127173319674
22-9-2017 22:00,1.39,-0.07509368939960415
22-9-2017 23:00,1.85,-0.5096968358109286
23-9-2017 0:00,0.77,-0.7010070752575039
23-9-2017 1:00,0.56,-0.9368583283654226
23-9-2017 2:00,0.44,-1.1442220564847134
23-9-2017 3:00,0.34,-1.3132315307603484
23-9-2017 4:00,0.35,-1.3596174497936875
23-9-2017 5:00,0.44,-1.3647077505683984
23-9-2017 6:00,0.49,-1.419343321943883
23-9-2017 7:00,0.55,-1.4484247239461967
23-9-2017 8:00,0.65,-1.4745407899313792
23-9-2017 9:00,1.62,-0.656762527486197
23-9-2017 10:00,23.11,19.547630639435116
23-9-2017 11:00,3.76,1.0602279337803262
23-9-2017 12:00,4.86,2.162542003941226
23-9-2017 13:00,0.94,-1.5013784972626651
23-9-2017 14:00,1.05,-1.3273684866052078
23-9-2017 15:00,0.97,-1.414730531407653
23-9-2017 16:00,0.84,-1.5292403814585231
23-9-2017 17:00,0.81,-1.3788220876114354
23-9-2017 18:00,1.05,-1.1508387941184068
23-9-2017 19:00,2.57,0.36879926455613177
23-9-2017 20:00,5.39,3.250553837920215
23-9-2017 21:00,0.52,-1.1041369819681526
23-9-2017 22:00,0.27,-1.3093151859015453
23-9-2017 23:00,1.12,-1.081381396219875
24-9-2017 0:00,0.6,-0.39206856571225834
24-9-2017 1:00,0.65,-0.1691947772633431
24-9-2017 2:00,0.6,-0.11225687951607988
24-9-2017 3:00,0.66,0.07375038621201524
24-9-2017 4:00,0.32,-0.12842718569264944
24-9-2017 5:00,0.27,-0.19521266549456484
24-9-2017 6:00,0.46,-0.03086577081710984
24-9-2017 7:00,0.45,-0.05151743611747428
24-9-2017 8:00,0.47,-0.08113603410575976
24-9-2017 9:00,0.57,-0.1122379175147008
24-9-2017 10:00,0.98,-1.0074931261303128
24-9-2017 11:00,0.84,-0.22179081762568054
24-9-2017 12:00,0.83,-0.20168807660627752
24-9-2017 13:00,0.73,-0.06607201475793656
24-9-2017 14:00,0.77,0.006496803350316771
24-9-2017 15:00,0.7,-0.10268710870130071
24-9-2017 16:00,0.72,-0.1007188948906822
24-9-2017 17:00,0.7,-0.05455350916778601
24-9-2017 18:00,0.78,-0.10744577143325373
24-9-2017 19:00,1.22,0.2108639221125408
24-9-2017 20:00,0.93,-0.1357638594890631
24-9-2017 21:00,0.99,0.28134832055054226
24-9-2017 22:00,1.02,0.18292968120732878
24-9-2017 23:00,2.63,0.980357203437928
25-9-2017 0:00,0.59,0.0072499003556714126
25-9-2017 1:00,0.54,0.02984236993516043
25-9-2017 2:00,0.42,-0.0879244668772825
25-9-2017 3:00,0.39,-0.09590682157171837
25-9-2017 4:00,0.34,-0.11288240677396855
25-9-2017 5:00,0.35,-0.1761472874250608
25-9-2017 6:00,0.44,-0.16760214851663802
25-9-2017 7:00,0.56,-0.11460829893702495
25-9-2017 8:00,0.67,-0.11251365075038566
25-9-2017 9:00,0.94,-0.008883890356116142
25-9-2017 10:00,1.24,-1.090175684851319
25-9-2017 11:00,1.34,-0.05775657252993094
25-9-2017 12:00,1.3,-0.09625337099469067
25-9-2017 13:00,1.21,0.05659336449400931
25-9-2017 14:00,1.3,0.1754151006411857
25-9-2017 15:00,1.26,0.09210343192852277
25-9-2017 16:00,1.46,0.26824370498269423
25-9-2017 17:00,1.4,0.2781176877210225
25-9-2017 18:00,1.46,0.20231137483668138
25-9-2017 19:00,2.72,1.337253599923017
25-9-2017 20:00,1.39,-0.04979563997498926
25-9-2017 21:00,1.42,0.3505285074583173
25-9-2017 22:00,1.7,0.5002768557049813
25-9-2017 23:00,1.52,-0.5113944665157915
26-9-2017 0:00,0.98,0.04448551981177706
26-9-2017 1:00,0.51,-0.34171809513538265
26-9-2017 2:00,0.44,-0.40270443216475393
26-9-2017 3:00,0.4,-0.4131911729389426
26-9-2017 4:00,0.37,-0.40348177941024543
26-9-2017 5:00,0.54,-0.28968435931772696
26-9-2017 6:00,0.61,-0.2833992745855495
26-9-2017 7:00,0.68,-0.26321966667042385
26-9-2017 8:00,0.81,-0.22587152885332484
26-9-2017 9:00,1.07,-0.11970424592833684
26-9-2017 10:00,1.66,-0.9392271865878441
26-9-2017 11:00,3.39,1.777714169265587
26-9-2017 12:00,1.79,0.19842327103195134
26-9-2017 13:00,1.7,0.374776242409093
26-9-2017 14:00,1.88,0.5961264588432751
26-9-2017 15:00,1.58,0.26496259571765
26-9-2017 16:00,1.6,0.2715526129721919
26-9-2017 17:00,1.37,0.1404021061231524
26-9-2017 18:00,2.42,1.0769486560171377
26-9-2017 19:00,1.51,0.06379353632009832
26-9-2017 20:00,0.71,-0.7684070381982249
26-9-2017 21:00,0.77,-0.2735041385976633
26-9-2017 22:00,1.2,0.07578262735814434
26-9-2017 23:00,2.26,0.33638389080526565
27-9-2017 0:00,0.47,-0.27684249959818363
27-9-2017 1:00,0.37,-0.2378755104805943
27-9-2017 2:00,0.44,-0.10822862556694657
27-9-2017 3:00,0.38,-0.08754766059148877
27-9-2017 4:00,0.35,-0.02744323185898223
27-9-2017 5:00,0.34,-0.07078349933932526
27-9-2017 6:00,0.37,-0.08117775806261895
27-9-2017 7:00,0.44,-0.03831473201306812
27-9-2017 8:00,0.48,-0.07006114472130509
27-9-2017 9:00,0.6,-0.10254642358238975
27-9-2017 10:00,0.89,-1.2651724194235894
27-9-2017 11:00,0.99,-0.13163752568182152
27-9-2017 12:00,0.87,-0.22219891584735452
27-9-2017 13:00,1.25,0.4322971273577557
27-9-2017 14:00,0.66,-0.11950525679691815
27-9-2017 15:00,0.92,0.10574078030901135
27-9-2017 16:00,1.61,0.7767703917603218
27-9-2017 17:00,1.29,0.5362532371078684
27-9-2017 18:00,0.79,-0.10349191291458171
27-9-2017 19:00,0.81,-0.21372976473186978
27-9-2017 20:00,0.77,-0.30961769869487005
27-9-2017 21:00,0.75,0.08310190090352465
27-9-2017 22:00,0.77,-0.015959444797902234
27-9-2017 23:00,1.6,-0.04264527681757113
28-9-2017 0:00,0.67,0.19940778354463873
28-9-2017 1:00,0.48,0.12789600038959448
28-9-2017 2:00,0.4,0.08252673090887874
28-9-2017 3:00,0.29,0.028726025296600732
28-9-2017 4:00,0.31,0.11357200074455498
28-9-2017 5:00,0.33,0.09019499913493256
28-9-2017 6:00,0.37,0.08022235039975056
28-9-2017 7:00,0.43,0.10286739212923823
28-9-2017 8:00,0.53,0.11912502644117717
28-9-2017 9:00,0.61,0.03919260727846896
28-9-2017 10:00,0.74,-1.3353316560386923
28-9-2017 11:00,0.82,-0.18399843670285754
28-9-2017 12:00,1.17,0.19537446890544186
28-9-2017 13:00,0.97,0.2804989531633786
28-9-2017 14:00,0.66,0.008029337644707146
28-9-2017 15:00,0.81,0.1221706442070496
28-9-2017 16:00,0.69,-0.019872888623403973
28-9-2017 17:00,0.67,0.03895075711229434
28-9-2017 18:00,0.66,-0.11837864463502668
28-9-2017 19:00,0.61,-0.30698978704279073
28-9-2017 20:00,0.56,-0.4178556389206952
28-9-2017 21:00,0.58,0.02176020769268594
28-9-2017 22:00,0.76,0.07343185376483186
28-9-2017 23:00,1.76,0.18854002970917938
29-9-2017 0:00,0.47,0.09495364426785591
29-9-2017 1:00,0.46,0.1974449534100986
29-9-2017 2:00,0.41,0.17154139410493952
29-9-2017 3:00,0.38,0.18774088247484622
29-9-2017 4:00,0.33,0.19181120412653585
29-9-2017 5:00,0.32,0.11673744101034345
29-9-2017 6:00,0.36,0.08552637488598203
29-9-2017 7:00,0.48,0.14629385379852555
29-9-2017 8:00,0.63,0.1888959566337589
29-9-2017 9:00,0.81,0.17864331924093846
29-9-2017 10:00,0.75,-1.4606521920974243
29-9-2017 11:00,0.86,-0.2643936277127617
29-9-2017 12:00,0.86,-0.25795940687586927
29-9-2017 13:00,0.94,0.10253912370604956
29-9-2017 14:00,0.73,-0.08585211790546388
29-9-2017 15:00,0.75,-0.11806993661555265
29-9-2017 16:00,0.71,-0.1984410515951821
29-9-2017 17:00,0.68,-0.15064158124507265
29-9-2017 18:00,1.02,0.03407978950899515
29-9-2017 19:00,1.07,-0.06326984648378786
29-9-2017 20:00,1.11,-0.08947881927113965
29-9-2017 21:00,1.03,0.26888314316171713
29-9-2017 22:00,1.11,0.22313707262416194
29-9-2017 23:00,4.14,2.351888548149252
30-9-2017 0:00,0.51,-0.04548799147887839
30-9-2017 1:00,0.45,0.027573273498185835
30-9-2017 2:00,0.46,0.07770228790611855
30-9-2017 3:00,0.31,-0.009531166204255204
30-9-2017 4:00,0.28,0.030329411980293264
30-9-2017 5:00,0.3,0.02092312149434017
30-9-2017 6:00,0.38,0.06583787211760883
30-9-2017 7:00,0.48,0.142091288000331
30-9-2017 8:00,0.58,0.16840135914598175
30-9-2017 9:00,0.67,0.11458938466337065
30-9-2017 10:00,0.79,-1.342716787534
30-9-2017 11:00,0.57,-0.3847722909383161
30-9-2017 12:00,0.6,-0.29451616771063727
30-9-2017 13:00,0.59,0.037669921067738255
30-9-2017 14:00,0.64,0.15967056523585732
30-9-2017 15:00,0.53,0.047407133125811574
30-9-2017 16:00,0.59,0.11502206912113161
30-9-2017 17:00,0.53,0.17878082037969112
30-9-2017 18:00,0.67,0.20253641992918703
30-9-2017 19:00,0.65,0.07343225667772862
30-9-2017 20:00,0.51,-0.09113587069272688
30-9-2017 21:00,0.26,0.14139516398039886
30-9-2017 22:00,0.27,0.05365555083560963
30-9-2017 23:00,1.11,0.0014744999439098572
