Time,Actual,STL processed
1-8-2017 0:00,992.62,66.04370048324563
1-8-2017 1:00,482.32,-187.30128903138166
1-8-2017 2:00,267.67,-346.03178006518965
1-8-2017 3:00,170.6,-466.9930659138363
1-8-2017 4:00,200.08,-486.80342945595953
1-8-2017 5:00,298.47,-494.2049102227438
1-8-2017 6:00,680.47,-396.9813311991902
1-8-2017 7:00,1263.65,-248.92204276372786
1-8-2017 8:00,1930.07,-67.6661409510989
1-8-2017 9:00,2860.78,367.41854969325004
1-8-2017 10:00,3466.95,474.4989704285085
1-8-2017 11:00,3824.03,515.3745161602833
1-8-2017 12:00,3906.58,476.5353399391124
1-8-2017 13:00,3898.13,678.7078116626135
1-8-2017 14:00,3684.55,654.6871497287907
1-8-2017 15:00,3468.67,425.1493876021482
1-8-2017 16:00,3422.33,368.51038198271135
1-8-2017 17:00,3352.08,262.78328488148327
1-8-2017 18:00,3389.25,358.55476480096604
1-8-2017 19:00,3600.02,573.2479563480565
1-8-2017 20:00,3411.2,633.7156683298763
1-8-2017 21:00,3344.8,683.8331552011755
1-8-2017 22:00,2852.0,276.0873177347944
1-8-2017 23:00,1875.1,-11.701802412000688
2-8-2017 0:00,1006.97,-411.7829872378393
2-8-2017 1:00,445.52,-645.7479412737764
2-8-2017 2:00,306.32,-660.1286431043395
2-8-2017 3:00,215.73,-707.031485367424
2-8-2017 4:00,185.85,-719.9373749232404
2-8-2017 5:00,287.98,-680.6601193046267
2-8-2017 6:00,641.18,-571.6160586455412
2-8-2017 7:00,1295.7,-315.6383222741142
2-8-2017 8:00,2007.42,-52.3699583286766
2-8-2017 9:00,2600.1,62.11361519373759
2-8-2017 10:00,3264.02,239.4746206703294
2-8-2017 11:00,3641.73,316.4794460554076
2-8-2017 12:00,3685.57,260.36813603515293
2-8-2017 13:00,3428.35,233.26702484486077
2-8-2017 14:00,3192.68,203.69845334837873
2-8-2017 15:00,3351.55,371.65631656336427
2-8-2017 16:00,3177.2,209.38097554219894
2-8-2017 17:00,3075.57,86.83236229485601
2-8-2017 18:00,2965.45,44.61035579297186
2-8-2017 19:00,3559.58,655.5117294874485
2-8-2017 20:00,3309.32,663.9120489408215
2-8-2017 21:00,3087.18,563.5612190082252
2-8-2017 22:00,2661.67,228.50068783597908
2-8-2017 23:00,1636.12,-115.5624357006991
3-8-2017 0:00,1218.45,-59.52104122773426
3-8-2017 1:00,430.25,-525.0707278140314
3-8-2017 2:00,254.67,-582.2964084704008
3-8-2017 3:00,202.93,-598.1355751769745
3-8-2017 4:00,165.1,-628.0959390227813
3-8-2017 5:00,253.63,-606.0440201959423
3-8-2017 6:00,600.57,-509.20355107849673
3-8-2017 7:00,1208.8,-309.50227889971075
3-8-2017 8:00,1835.13,-141.47636495006918
3-8-2017 9:00,2631.68,176.05196979886887
3-8-2017 10:00,3257.77,309.85901408577956
3-8-2017 11:00,3470.72,219.34857319314779
3-8-2017 12:00,3520.65,172.5105834427959
3-8-2017 13:00,3299.0,183.9746815049698
3-8-2017 14:00,3283.5,374.61699261208923
3-8-2017 15:00,3195.75,302.1992733349639
3-8-2017 16:00,3395.83,520.2337171339423
3-8-2017 17:00,3088.42,196.07527355175398
3-8-2017 18:00,3024.55,199.01146643977336
3-8-2017 19:00,3065.47,259.17063372932535
3-8-2017 20:00,2833.97,285.3231721019433
3-8-2017 21:00,2785.95,381.09757079425617
3-8-2017 22:00,2453.18,160.9122598921058
3-8-2017 23:00,1631.45,29.785046941505243
4-8-2017 0:00,832.23,-273.3210653107667
4-8-2017 1:00,430.5,-337.41532923286604
4-8-2017 2:00,229.12,-407.085833500483
4-8-2017 3:00,166.87,-421.4011694359865
4-8-2017 4:00,187.18,-382.50373782994757
4-8-2017 5:00,259.3,-376.1106966113823
4-8-2017 6:00,599.98,-287.0973598520766
4-8-2017 7:00,1089.43,-211.78548808013693
4-8-2017 8:00,1531.03,-233.96496034049824
4-8-2017 9:00,2044.23,-209.31058781355318
4-8-2017 10:00,2902.4,142.1538277017189
4-8-2017 11:00,3033.78,-41.38054705058016
4-8-2017 12:00,3073.68,-103.76388411298967
4-8-2017 13:00,2840.73,-110.87469964435672
4-8-2017 14:00,2907.3,151.60837122035628
4-8-2017 15:00,2822.37,77.98494660511187
4-8-2017 16:00,3274.35,543.5290523782257
4-8-2017 17:00,3229.33,467.8875527182629
4-8-2017 18:00,2976.67,262.8987192532568
4-8-2017 19:00,3079.18,369.0724543949568
4-8-2017 20:00,2798.6,327.09398594389086
4-8-2017 21:00,2701.63,361.1301177863961
4-8-2017 22:00,2391.1,150.52653167962353
4-8-2017 23:00,1410.27,-165.37826615961603
5-8-2017 0:00,899.57,-192.3553806118407
5-8-2017 1:00,496.13,-271.7594386816809
5-8-2017 2:00,316.05,-335.35998337248384
5-8-2017 3:00,258.77,-361.25670534885626
5-8-2017 4:00,247.23,-372.07669510291043
5-8-2017 5:00,317.87,-367.0846540457321
5-8-2017 6:00,676.32,-262.5405721976799
5-8-2017 7:00,1214.72,-144.5602233857005
5-8-2017 8:00,1699.08,-130.1272044091777
5-8-2017 9:00,2235.82,-77.006183302017
5-8-2017 10:00,2899.28,79.77621424382414
5-8-2017 11:00,3542.37,410.9485164340649
5-8-2017 12:00,3691.45,466.68044286180793
5-8-2017 13:00,3343.85,353.32637727797965
5-8-2017 14:00,3020.58,231.42187144136597
5-8-2017 15:00,2898.05,131.8544050290825
5-8-2017 16:00,3052.38,311.0398363174122
5-8-2017 17:00,2792.78,33.86158269866269
5-8-2017 18:00,2923.08,219.61402499961855
5-8-2017 19:00,2799.65,111.18863011245503
5-8-2017 20:00,2989.72,547.7254569566926
5-8-2017 21:00,1268.92,-1006.9484950974036
5-8-2017 22:00,2096.27,-44.42217345559038
5-8-2017 23:00,1537.5,83.96362676973695
6-8-2017 0:00,922.27,-12.026306929234352
6-8-2017 1:00,481.15,-99.53571001409682
6-8-2017 2:00,374.52,-61.74184599536693
6-8-2017 3:00,234.05,-144.20550487988953
6-8-2017 4:00,161.38,-190.848466861318
6-8-2017 5:00,331.05,-78.37025528826257
6-8-2017 6:00,668.22,11.031742325801133
6-8-2017 7:00,1054.2,-21.312261144915965
6-8-2017 8:00,1552.62,9.410419745755235
6-8-2017 9:00,2109.37,76.26357374195072
6-8-2017 10:00,2518.88,-32.080562372818804
6-8-2017 11:00,2864.67,-6.416098931217675
6-8-2017 12:00,2975.52,8.816575295496932
6-8-2017 13:00,2613.65,-121.08177896829989
6-8-2017 14:00,2429.88,-108.71490013374773
6-8-2017 15:00,2278.35,-236.30744697057844
6-8-2017 16:00,2256.57,-232.6217287945401
6-8-2017 17:00,2349.23,-166.8948543586148
6-8-2017 18:00,2597.3,122.01074572176526
6-8-2017 19:00,2683.17,211.8281028191991
6-8-2017 20:00,2582.03,342.62210697220326
6-8-2017 21:00,2302.08,212.82953801913095
6-8-2017 22:00,2065.97,96.05723440715542
6-8-2017 23:00,1435.6,123.98509969467682
7-8-2017 0:00,758.92,-49.026186253414835
7-8-2017 1:00,400.77,-83.18547750631637
7-8-2017 2:00,207.7,-163.08174793107128
7-8-2017 3:00,152.88,-192.46688687676146
7-8-2017 4:00,143.08,-210.12736423858178
7-8-2017 5:00,204.25,-216.71363971897927
7-8-2017 6:00,511.92,-169.6943839082353
7-8-2017 7:00,1036.33,-80.53339723097929
7-8-2017 8:00,1699.18,97.82828800450966
7-8-2017 9:00,2293.22,203.16266710408127
7-8-2017 10:00,2863.03,251.41108954304173
7-8-2017 11:00,3144.93,212.44680645034327
7-8-2017 12:00,3290.2,267.29932069037136
7-8-2017 13:00,3032.2,243.0146116765161
7-8-2017 14:00,2761.53,167.27080911214557
7-8-2017 15:00,2797.65,232.32111578067952
7-8-2017 16:00,2861.42,326.18439540145664
7-8-2017 17:00,2485.38,-73.43326412365013
7-8-2017 18:00,2694.03,174.14583172044672
7-8-2017 19:00,1906.57,-607.7173632030465
7-8-2017 20:00,727.4,-1556.7794857468016
7-8-2017 21:00,2059.42,-57.81791315776104
7-8-2017 22:00,2632.45,651.4546243101836
7-8-2017 23:00,1499.4,180.58802099360764
8-8-2017 0:00,618.33,-179.641150869895
8-8-2017 1:00,304.63,-172.15065305515373
8-8-2017 2:00,228.92,-139.11738068771137
8-8-2017 3:00,157.53,-190.82432245888685
8-8-2017 4:00,189.0,-174.29815926628112
8-8-2017 5:00,264.65,-201.16796470100235
8-8-2017 6:00,566.95,-196.60049359444747
8-8-2017 7:00,1163.3,-76.63512172424953
8-8-2017 8:00,1793.38,27.954962901025738
8-8-2017 9:00,2200.4,-92.78209018598045
8-8-2017 10:00,3011.6,152.90298454121148
8-8-2017 11:00,3454.13,233.58404864871636
8-8-2017 12:00,3662.12,316.11049663655876
8-8-2017 13:00,3370.98,246.17088177013648
8-8-2017 14:00,3106.75,161.397846704333
8-8-2017 15:00,2993.92,68.23245577572152
8-8-2017 16:00,3056.53,151.32151395474602
8-8-2017 17:00,3196.87,271.9150981605917
8-8-2017 18:00,3114.65,227.1934674603899
8-8-2017 19:00,3158.23,278.51981168308885
8-8-2017 20:00,3052.18,401.2516536096937
8-8-2017 21:00,2760.03,302.01327749033453
8-8-2017 22:00,2460.93,165.2789792391618
8-8-2017 23:00,1561.97,-58.393769480548826
9-8-2017 0:00,850.85,-219.61114515655981
9-8-2017 1:00,416.67,-299.0923721380393
9-8-2017 2:00,235.07,-341.4420956907916
9-8-2017 3:00,180.6,-347.4891819300726
9-8-2017 4:00,157.83,-358.30420014092283
9-8-2017 5:00,240.98,-346.6153439169491
9-8-2017 6:00,558.57,-298.947930010464
9-8-2017 7:00,1093.32,-217.66434167051284
9-8-2017 8:00,1695.6,-117.86149903003093
9-8-2017 9:00,2305.02,-23.16224677715445
9-8-2017 10:00,2997.97,112.47265294323188
9-8-2017 11:00,3367.77,132.80786212454518
9-8-2017 12:00,3530.15,189.32020688899502
9-8-2017 13:00,3285.15,167.56548619233217
9-8-2017 14:00,2995.18,56.00891814254874
9-8-2017 15:00,3201.92,288.0779214723307
9-8-2017 16:00,3040.07,151.38216966944083
9-8-2017 17:00,2958.32,50.84260678957162
9-8-2017 18:00,2970.95,93.34229691365636
9-8-2017 19:00,3159.07,285.46103945659706
9-8-2017 20:00,3056.85,405.6240814147668
9-8-2017 21:00,2896.33,448.3499901297746
9-8-2017 22:00,2514.28,239.17400751648938
9-8-2017 23:00,1322.83,-276.62401504676836
10-8-2017 0:00,814.63,-222.01196016553308
10-8-2017 1:00,393.7,-282.5613834863525
10-8-2017 2:00,218.08,-316.2505745024189
10-8-2017 3:00,186.82,-298.1742767529254
10-8-2017 4:00,180.47,-293.52174881949804
10-8-2017 5:00,249.08,-295.9740035185275
10-8-2017 6:00,533.18,-284.6464193938082
10-8-2017 7:00,1146.03,-133.0186408200193
10-8-2017 8:00,1789.63,0.4429335997549515
10-8-2017 9:00,2337.13,26.949233010790522
10-8-2017 10:00,3021.98,143.37119119970748
10-8-2017 11:00,3401.48,166.4777789301645
10-8-2017 12:00,3365.92,25.333253946555487
10-8-2017 13:00,3265.08,146.5430018484792
10-8-2017 14:00,2963.25,18.842475243543504
10-8-2017 15:00,3217.53,300.8754472605442
10-8-2017 16:00,3089.75,199.69990937482544
10-8-2017 17:00,3021.57,116.20847285025411
10-8-2017 18:00,2862.97,-17.629242760361194
10-8-2017 19:00,2848.82,-28.989798960665212
10-8-2017 20:00,2963.75,304.4627459655826
10-8-2017 21:00,2796.62,355.51633855814043
10-8-2017 22:00,2426.73,173.62589986264152
10-8-2017 23:00,1579.17,6.699831735738599
11-8-2017 0:00,844.8,-147.33145454587975
11-8-2017 1:00,406.43,-217.59491640803844
11-8-2017 2:00,237.73,-239.63941708941775
11-8-2017 3:00,175.25,-249.82557755314815
11-8-2017 4:00,168.97,-244.0067058733016
11-8-2017 5:00,243.43,-241.6336191366081
11-8-2017 6:00,555.47,-206.6394124349306
11-8-2017 7:00,1159.88,-72.62964546855073
11-8-2017 8:00,1691.8,-59.93154111073136
11-8-2017 9:00,2285.92,7.854149116297094
11-8-2017 10:00,2886.65,29.975639115275953
11-8-2017 11:00,3332.37,113.30607873640793
11-8-2017 12:00,3229.12,-94.31284265372733
11-8-2017 13:00,3064.57,-35.92039950434446
11-8-2017 14:00,3172.45,243.8933419844384
11-8-2017 15:00,3114.25,217.95850933753036
11-8-2017 16:00,3036.2,170.05141201785455
11-8-2017 17:00,3049.72,171.3650021319727
11-8-2017 18:00,2990.8,131.72678107004913
11-8-2017 19:00,2998.45,140.58382640989066
11-8-2017 20:00,2888.33,244.7527745876082
11-8-2017 21:00,2611.4,203.7753311236454
11-8-2017 22:00,2113.47,-88.19828358813788
11-8-2017 23:00,1445.28,-67.94111721275726
12-8-2017 0:00,842.88,-69.64446459129954
12-8-2017 1:00,464.27,-57.12044696979524
12-8-2017 2:00,255.57,-99.13873929148531
12-8-2017 3:00,196.38,-87.7758399434374
12-8-2017 4:00,180.58,-75.07910649216933
12-8-2017 5:00,233.73,-70.65904635603238
12-8-2017 6:00,542.8,-18.52658511367531
12-8-2017 7:00,969.0,-47.52319779098366
12-8-2017 8:00,1622.05,101.60306846860203
12-8-2017 9:00,2221.4,188.52376107648888
12-8-2017 10:00,2742.97,140.55039445039552
12-8-2017 11:00,2955.75,4.190297527069106
12-8-2017 12:00,2984.37,-51.09740870472615
12-8-2017 13:00,2812.25,8.557627466322856
12-8-2017 14:00,2544.98,-81.03446517696739
12-8-2017 15:00,2461.58,-119.7172047135773
12-8-2017 16:00,2400.6,-139.07596369300222
12-8-2017 17:00,2423.88,-123.31615555905842
12-8-2017 18:00,2566.35,34.5363093088456
12-8-2017 19:00,2629.12,98.51214756997047
12-8-2017 20:00,2433.27,114.29869038029415
12-8-2017 21:00,1108.42,-961.3636002339738
12-8-2017 22:00,1624.42,-225.9842020558242
12-8-2017 23:00,1228.17,69.49238772805552
13-8-2017 0:00,678.37,136.21316815880505
13-8-2017 1:00,403.68,257.15021412669694
13-8-2017 2:00,274.82,296.4636790274201
13-8-2017 3:00,247.03,338.95118704997026
13-8-2017 4:00,202.38,320.6613311353842
13-8-2017 5:00,215.0,273.5508571233686
13-8-2017 6:00,430.5,217.86406535880906
13-8-2017 7:00,784.88,97.89356549021659
13-8-2017 8:00,1248.02,38.05048610397239
13-8-2017 9:00,1801.38,59.246839687656575
13-8-2017 10:00,2271.88,-64.370724968569
13-8-2017 11:00,2455.3,-250.48069984141512
13-8-2017 12:00,2369.12,-433.7465323199315
13-8-2017 13:00,2362.92,-216.5405081690958
13-8-2017 14:00,2065.13,-348.11003998633964
13-8-2017 15:00,1975.1,-398.1722914545303
13-8-2017 16:00,1906.73,-430.6443171355845
13-8-2017 17:00,2035.15,-322.6317693179517
13-8-2017 18:00,2275.7,-88.17209685635612
13-8-2017 19:00,2328.2,-52.04094401008524
13-8-2017 20:00,2337.43,148.59971509670777
13-8-2017 21:00,2035.08,70.8287081277922
13-8-2017 22:00,1683.4,-85.89275000846851
13-8-2017 23:00,1156.35,44.21939397956794
14-8-2017 0:00,663.62,145.99043301526694
14-8-2017 1:00,328.0,165.20456687925025
14-8-2017 2:00,183.33,144.91384855209094
14-8-2017 3:00,160.43,146.73002479884758
14-8-2017 4:00,138.42,103.65763906811208
14-8-2017 5:00,201.08,73.9183032319122
14-8-2017 6:00,427.3,-6.966069215594871
14-8-2017 7:00,910.08,-39.35878395150257
14-8-2017 8:00,1466.45,-46.699536659607475
14-8-2017 9:00,2049.25,-17.273433303776983
14-8-2017 10:00,2779.25,92.5588928062125
14-8-2017 11:00,3135.05,56.96312878019603
14-8-2017 12:00,3440.2,250.3732588513069
14-8-2017 13:00,3257.17,284.2788589964025
14-8-2017 14:00,2922.27,106.04047601968068
14-8-2017 15:00,2876.2,97.08730063438315
14-8-2017 16:00,2766.92,19.879815542665938
14-8-2017 17:00,2798.13,43.570883123675685
14-8-2017 18:00,2734.68,-21.666456741349066
14-8-2017 19:00,2701.18,-63.33857338757298
14-8-2017 20:00,1226.47,-1341.0923820619519
14-8-2017 21:00,2697.57,403.3937589689542
14-8-2017 22:00,2184.88,134.64601321221085
14-8-2017 23:00,1482.12,127.88828009833173
15-8-2017 0:00,843.68,135.33414643290735
15-8-2017 1:00,489.7,190.82726203330822
15-8-2017 2:00,244.55,121.69425431859236
15-8-2017 3:00,172.53,124.26099262988168
15-8-2017 4:00,163.53,142.1881992037529
15-8-2017 5:00,243.33,155.28477840871074
15-8-2017 6:00,486.33,113.62760214359741
15-8-2017 7:00,908.75,38.40225612109634
15-8-2017 8:00,1489.68,73.24341367185275
15-8-2017 9:00,2052.18,83.38235281843845
15-8-2017 10:00,2417.82,-174.97727815145777
15-8-2017 11:00,2901.97,-81.87067917674767
15-8-2017 12:00,2847.0,-241.01643440211024
15-8-2017 13:00,2596.58,-272.70399011330187
15-8-2017 14:00,2276.2,-437.71395610005084
15-8-2017 15:00,2221.83,-449.5507872530027
15-8-2017 16:00,2250.72,-384.12581339974054
15-8-2017 17:00,2541.95,-105.1256033988202
15-8-2017 18:00,2861.93,199.77066706606752
15-8-2017 19:00,2825.3,145.59628647803856
15-8-2017 20:00,2679.75,184.97901557317755
15-8-2017 21:00,2344.28,108.16698294557796
15-8-2017 22:00,2055.75,49.068098181181995
15-8-2017 23:00,1431.03,95.69563657821823
16-8-2017 0:00,743.65,45.197350702786935
16-8-2017 1:00,421.72,99.69766219884855
16-8-2017 2:00,202.42,18.94631346276742
16-8-2017 3:00,146.85,-1.99596320201681
16-8-2017 4:00,162.72,-1.6703276699176968
16-8-2017 5:00,204.0,-64.19228449958632
16-8-2017 6:00,446.1,-148.08639489224697
16-8-2017 7:00,1037.33,-101.72508711565183
16-8-2017 8:00,1525.75,-206.70198773239667
16-8-2017 9:00,2165.75,-153.5729743273148
16-8-2017 10:00,2938.42,-44.21185983179885
16-8-2017 11:00,3440.0,32.35338399315788
16-8-2017 12:00,3363.37,-173.51071197601686
16-8-2017 13:00,3258.65,-70.29147379111555
16-8-2017 14:00,3193.03,5.3626067763511855
16-8-2017 15:00,3584.05,432.42150993602854
16-8-2017 16:00,3349.17,226.50817337884655
16-8-2017 17:00,3475.28,370.5372410884156
16-8-2017 18:00,3363.62,261.7364835046169
16-8-2017 19:00,3235.57,138.2763845519239
16-8-2017 20:00,3340.7,448.77061688754293
16-8-2017 21:00,3069.75,505.75574367956006
16-8-2017 22:00,2828.67,564.0311853271091
16-8-2017 23:00,1773.03,242.23046952079108
17-8-2017 0:00,887.38,68.02822815944205
17-8-2017 1:00,474.2,96.9132573867737
17-8-2017 2:00,202.07,24.541089464935112
17-8-2017 3:00,82.95,-1.2326803403143458
17-8-2017 4:00,88.72,45.166988710394435
17-8-2017 5:00,102.63,-6.781633731145348
17-8-2017 6:00,192.42,-209.28080782859843
17-8-2017 7:00,290.12,-628.6497156470457
17-8-2017 8:00,343.07,-1141.381543825431
17-8-2017 9:00,666.9,-1396.3720262919246
17-8-2017 10:00,843.47,-1879.8650212053058
17-8-2017 11:00,2607.27,-532.495987404413
17-8-2017 12:00,3942.85,691.3467210082906
17-8-2017 13:00,3108.33,53.183089235122
17-8-2017 14:00,3648.57,719.8115525026415
17-8-2017 15:00,3531.38,631.376526120787
17-8-2017 16:00,3255.73,376.3543040581726
17-8-2017 17:00,3178.12,270.93265059355645
17-8-2017 18:00,3219.15,256.885286078239
17-8-2017 19:00,3186.55,175.15154445754706
17-8-2017 20:00,3138.25,276.7893557303114
17-8-2017 21:00,3001.52,418.79824248601653
17-8-2017 22:00,2608.1,276.20249003965637
17-8-2017 23:00,1686.33,32.307999524131446
18-8-2017 0:00,916.47,-69.99371782898743
18-8-2017 1:00,424.88,-137.3036709396597
18-8-2017 2:00,244.13,-140.50635811652955
18-8-2017 3:00,199.45,-116.54132113151672
18-8-2017 4:00,174.47,-128.1312458536429
18-8-2017 5:00,245.88,-126.99735403448267
18-8-2017 6:00,558.32,-115.50241196415618
18-8-2017 7:00,1158.9,-46.550582238937295
18-8-2017 8:00,1858.98,73.20361515974582
18-8-2017 9:00,2287.58,-79.32582830114961
18-8-2017 10:00,3149.45,115.36777769350874
18-8-2017 11:00,3528.73,76.44131178727548
18-8-2017 12:00,3525.3,-31.588465101204747
18-8-2017 13:00,3391.75,50.460495598919806
18-8-2017 14:00,3405.82,206.8588039978572
18-8-2017 15:00,3221.38,74.71531050583371
18-8-2017 16:00,3199.17,95.61966536915133
18-8-2017 17:00,3150.35,60.86101410055062
18-8-2017 18:00,3097.02,-17.879233976086653
18-8-2017 19:00,3124.78,-5.372894894577712
18-8-2017 20:00,2901.73,-46.30778131446755
18-8-2017 21:00,2662.7,41.83534789108489
18-8-2017 22:00,2223.67,-97.27111616302432
18-8-2017 23:00,1441.95,-159.4488989015972
19-8-2017 0:00,849.7,-30.399609760327394
19-8-2017 1:00,403.6,-31.20407944548174
19-8-2017 2:00,244.63,3.963179886139642
19-8-2017 3:00,170.65,12.727489424935357
19-8-2017 4:00,183.2,50.22843669349595
19-8-2017 5:00,247.33,51.493936395443825
19-8-2017 6:00,553.58,59.9720882556353
19-8-2017 7:00,1039.07,11.103749146606788
19-8-2017 8:00,1573.2,-37.90693425555423
19-8-2017 9:00,2091.52,-96.29750893129813
19-8-2017 10:00,2895.38,40.00052775095355
19-8-2017 11:00,3508.82,240.18639191714692
19-8-2017 12:00,3640.28,280.91195950703536
19-8-2017 13:00,3304.68,169.4011024135939
19-8-2017 14:00,3085.72,97.95684567708713
19-8-2017 15:00,2964.92,42.24247480803524
19-8-2017 16:00,2918.27,50.44099633042424
19-8-2017 17:00,2802.78,-41.65112310036761
19-8-2017 18:00,2909.33,36.61927490346943
19-8-2017 19:00,2921.85,35.22922432897303
19-8-2017 20:00,2750.17,45.305169858221916
19-8-2017 21:00,1475.98,-875.6361809973642
19-8-2017 22:00,530.55,-1494.4020791702094
19-8-2017 23:00,1262.33,-23.771876642816324
20-8-2017 0:00,714.4,180.97969648185676
20-8-2017 1:00,411.07,351.7273128019997
20-8-2017 2:00,225.4,384.5511212218912
20-8-2017 3:00,197.95,461.71130589425024
20-8-2017 4:00,128.12,436.15972773327667
20-8-2017 5:00,203.48,450.8413905568841
20-8-2017 6:00,456.25,403.78730744581526
20-8-2017 7:00,808.38,213.6033547414129
20-8-2017 8:00,1351.2,165.24234577728043
20-8-2017 9:00,1846.45,58.17313556672639
20-8-2017 10:00,2218.6,-267.6519013833904
20-8-2017 11:00,2510.37,-414.2112114647316
20-8-2017 12:00,2776.72,-254.757803716436
20-8-2017 13:00,2537.25,-285.209135369209
20-8-2017 14:00,2260.67,-432.6466140069233
20-8-2017 15:00,2114.17,-524.8325190187695
20-8-2017 16:00,2150.0,-445.98048760307415
20-8-2017 17:00,2204.83,-383.98771762016327
20-8-2017 18:00,2455.98,-189.55831595995755
20-8-2017 19:00,2483.07,-200.60639861456502
20-8-2017 20:00,2574.93,47.078736439716295
20-8-2017 21:00,2213.55,7.491295144552623
20-8-2017 22:00,1864.87,-45.31564752546751
20-8-2017 23:00,1219.58,10.020929889452646
21-8-2017 0:00,654.83,171.8031766190893
21-8-2017 1:00,330.65,274.66581948223575
21-8-2017 2:00,187.58,298.6291175281044
21-8-2017 3:00,158.32,320.02811787173187
21-8-2017 4:00,133.6,283.09695481893095
21-8-2017 5:00,205.15,256.04945976584395
21-8-2017 6:00,461.1,170.017820685159
21-8-2017 7:00,992.47,111.01293338702817
21-8-2017 8:00,1413.23,-107.55372213743067
21-8-2017 9:00,2003.13,-141.66184490650312
21-8-2017 10:00,2794.3,-74.9602325126964
21-8-2017 11:00,3315.12,-13.624993865280658
21-8-2017 12:00,3419.43,-28.454022982286233
21-8-2017 13:00,3338.25,95.85774829604952
21-8-2017 14:00,3238.07,117.99062524756664
21-8-2017 15:00,3032.55,-32.443236416634136
21-8-2017 16:00,3089.87,67.6150547425666
21-8-2017 17:00,3009.25,8.626669707103702
21-8-2017 18:00,2909.1,-145.98096940839923
21-8-2017 19:00,2880.9,-205.8478692315639
21-8-2017 20:00,2762.25,-163.90432974069563
21-8-2017 21:00,2495.17,-59.44351935754685
21-8-2017 22:00,2188.93,-19.409628175536
21-8-2017 23:00,1399.38,-65.36479752388323
22-8-2017 0:00,722.17,39.00000115992293
22-8-2017 1:00,330.8,140.40056636997883
22-8-2017 2:00,221.38,259.31624984573045
22-8-2017 3:00,165.73,313.1369616645329
22-8-2017 4:00,152.27,343.71687159992416
22-8-2017 5:00,223.8,365.4978234332955
22-8-2017 6:00,493.63,337.95623314614795
22-8-2017 7:00,1026.85,319.49088275398594
22-8-2017 8:00,1558.65,250.56905216889982
22-8-2017 9:00,2084.73,174.17878529309723
22-8-2017 10:00,2829.98,211.6882628142987
22-8-2017 11:00,2710.95,-344.76073402605675
22-8-2017 12:00,2499.38,-644.4909842248912
22-8-2017 13:00,2474.25,-449.90736870544674
22-8-2017 14:00,2224.6,-566.3253948546974
22-8-2017 15:00,2663.7,-53.61847186125124
22-8-2017 16:00,2455.88,-201.21153419634538
22-8-2017 17:00,2684.18,52.052041623010155
22-8-2017 18:00,2128.95,-566.5095223950088
22-8-2017 19:00,2122.53,-609.2275758938754
22-8-2017 20:00,2386.47,-191.02796847356512
22-8-2017 21:00,2004.23,-212.2188429055534
22-8-2017 22:00,1821.4,-58.568373644143776
22-8-2017 23:00,1100.75,-52.8495455283919
23-8-2017 0:00,75.27,-298.86618837156857
23-8-2017 1:00,118.23,211.0175528484608
23-8-2017 2:00,97.97,387.04994955206803
23-8-2017 3:00,74.62,437.8042329135719
23-8-2017 4:00,80.67,449.17319938120704
23-8-2017 5:00,160.7,443.86530625362775
23-8-2017 6:00,454.62,399.541366929235
23-8-2017 7:00,971.47,316.9231136183546
23-8-2017 8:00,1570.38,266.92615785718203
23-8-2017 9:00,2128.92,184.6174059508494
23-8-2017 10:00,2931.28,236.07501713533884
23-8-2017 11:00,3100.75,-67.70483367406769
23-8-2017 12:00,2850.47,-431.60917795519026
23-8-2017 13:00,2824.62,-253.43072577608245
23-8-2017 14:00,2807.73,-156.28783291356012
23-8-2017 15:00,2771.7,-128.37927650144388
23-8-2017 16:00,2738.28,-112.36794728102495
23-8-2017 17:00,2608.27,-210.5466264822146
23-8-2017 18:00,2547.98,-342.4698863598735
23-8-2017 19:00,2594.35,-337.58999883772276
23-8-2017 20:00,2479.73,-303.5150933012387
23-8-2017 21:00,1996.17,-401.25121535655535
23-8-2017 22:00,1678.92,-356.1931685778111
23-8-2017 23:00,1170.53,-117.92484414522914
24-8-2017 0:00,647.45,170.4716149033759
24-8-2017 1:00,344.68,361.09510535244885
24-8-2017 2:00,189.37,422.35078850298237
24-8-2017 3:00,140.68,464.7152166262574
24-8-2017 4:00,147.3,490.2134624442863
24-8-2017 5:00,200.33,464.91677974649883
24-8-2017 6:00,441.48,369.55054677560315
24-8-2017 7:00,860.52,183.91822951645122
24-8-2017 8:00,1379.82,48.70498754964069
24-8-2017 9:00,2048.25,63.10610633091733
24-8-2017 10:00,2653.88,-100.13574265683633
24-8-2017 11:00,3095.6,-142.30404127082397
24-8-2017 12:00,3239.92,-111.88007346976428
24-8-2017 13:00,3159.0,5.608869780122177
24-8-2017 14:00,3093.67,45.1783360655329
24-8-2017 15:00,2809.37,-174.78581969256538
24-8-2017 16:00,1529.58,-1405.8524543338017
24-8-2017 17:00,2840.98,-58.63144502325213
24-8-2017 18:00,2802.92,-179.5044572282677
24-8-2017 19:00,2663.4,-368.55961884589124
24-8-2017 20:00,2557.82,-333.8624053540259
24-8-2017 21:00,2407.83,-73.13859919274205
24-8-2017 22:00,2019.12,-73.57704587328749
24-8-2017 23:00,1409.48,83.86670389950132
25-8-2017 0:00,833.85,351.8621938632641
25-8-2017 1:00,441.58,486.47786503581256
25-8-2017 2:00,261.37,550.1292661277041
25-8-2017 3:00,197.72,601.5062705071823
25-8-2017 4:00,185.87,629.1232834085536
25-8-2017 5:00,249.15,636.8856945387008
25-8-2017 6:00,484.73,553.4750513194458
25-8-2017 7:00,943.48,418.1485950885851
25-8-2017 8:00,1409.55,239.89899189269863
25-8-2017 9:00,1841.52,27.526098281262875
25-8-2017 10:00,2215.58,-362.3888955163793
25-8-2017 11:00,2611.68,-437.9493265725937
25-8-2017 12:00,2660.07,-480.860731326997
25-8-2017 13:00,2450.6,-482.5280078933986
25-8-2017 14:00,2395.9,-426.4486790721662
25-8-2017 15:00,2260.75,-481.85225788754565
25-8-2017 16:00,2170.42,-509.1535672775028
25-8-2017 17:00,2190.03,-450.1476642647517
25-8-2017 18:00,2240.08,-494.50522360666105
25-8-2017 19:00,2332.83,-459.7502291735966
25-8-2017 20:00,2177.2,-483.9355025358875
25-8-2017 21:00,1952.52,-297.67363625672056
25-8-2017 22:00,1637.08,-223.54044449527305
25-8-2017 23:00,1148.68,50.90686251900365
26-8-2017 0:00,650.9,404.23951529920623
26-8-2017 1:00,337.27,614.1617446175542
26-8-2017 2:00,221.95,733.1732410731281
26-8-2017 3:00,166.6,779.9971991311345
26-8-2017 4:00,156.07,792.6973565381722
26-8-2017 5:00,196.63,769.2556552861915
26-8-2017 6:00,415.67,655.537395608515
26-8-2017 7:00,783.35,408.44359419588363
26-8-2017 8:00,1282.27,241.94442356085983
26-8-2017 9:00,1892.47,193.25996415850136
26-8-2017 10:00,2433.4,-49.11572784723876
26-8-2017 11:00,2617.93,-348.24584474388985
26-8-2017 12:00,2597.98,-461.13017545196703
26-8-2017 13:00,2454.35,-397.94052357986675
26-8-2017 14:00,2208.47,-537.5381839680231
26-8-2017 15:00,2107.68,-553.548037585894
26-8-2017 16:00,2107.2,-487.07087346978324
26-8-2017 17:00,2068.28,-476.9669337657924
26-8-2017 18:00,2185.72,-459.4758972555587
26-8-2017 19:00,2289.45,-416.1476037827688
26-8-2017 20:00,2109.27,-467.6622210101782
26-8-2017 21:00,515.03,-1625.1513107908372
26-8-2017 22:00,1496.82,-226.9054967651059
26-8-2017 23:00,1123.72,184.18635131295036
27-8-2017 0:00,648.08,592.727150731884
27-8-2017 1:00,341.28,834.5507302440344
27-8-2017 2:00,206.77,953.2471141112937
27-8-2017 3:00,166.43,1030.6328178958297
27-8-2017 4:00,154.47,1054.0709118565364
27-8-2017 5:00,168.07,1003.770436364046
27-8-2017 6:00,378.97,876.7298983695646
27-8-2017 7:00,658.68,529.5540899167793
27-8-2017 8:00,1112.05,304.9906899842349
27-8-2017 9:00,1473.35,-13.506796224879054
27-8-2017 10:00,1999.58,-296.2846474545506
27-8-2017 11:00,2068.13,-729.7659112074712
27-8-2017 12:00,2145.17,-753.664628885055
27-8-2017 13:00,2059.78,-640.38924463032
27-8-2017 14:00,1800.13,-805.425090283733
27-8-2017 15:00,1680.67,-842.2424147599627
27-8-2017 16:00,1730.58,-728.6179731936511
27-8-2017 17:00,1906.33,-510.6022098579447
27-8-2017 18:00,2039.72,-499.08879055508964
27-8-2017 19:00,2078.77,-539.2334111020971
27-8-2017 20:00,1923.67,-584.8335852541481
27-8-2017 21:00,1696.08,-390.2763179072389
27-8-2017 22:00,1448.32,-235.11056842982975
27-8-2017 23:00,1035.43,117.1231338994005
28-8-2017 0:00,545.93,504.45939314445945
28-8-2017 1:00,292.45,773.0201681043602
28-8-2017 2:00,192.07,893.0672846372524
28-8-2017 3:00,129.07,911.6905794022666
28-8-2017 4:00,127.78,906.3124551705907
28-8-2017 5:00,187.08,867.189271446513
28-8-2017 6:00,386.1,688.4625211441503
28-8-2017 7:00,770.45,399.1907716601347
28-8-2017 8:00,1186.22,89.88920843899359
28-8-2017 9:00,1703.57,-105.74464113904651
28-8-2017 10:00,2431.35,-224.94798815481977
28-8-2017 11:00,2348.75,-840.2237353261805
28-8-2017 12:00,3007.7,-302.4901765354416
28-8-2017 13:00,2759.33,-362.26042271913934
28-8-2017 14:00,2686.65,-353.90581645887437
28-8-2017 15:00,2431.12,-530.8419746145296
28-8-2017 16:00,2664.58,-238.83994988007248
28-8-2017 17:00,2760.68,-87.74363673683183
28-8-2017 18:00,2622.42,-350.3191084655373
28-8-2017 19:00,2596.8,-454.5385492347041
28-8-2017 20:00,2466.67,-474.9461865137589
28-8-2017 21:00,2255.25,-229.36450932644357
28-8-2017 22:00,1843.35,-202.66678072913305
28-8-2017 23:00,1201.98,-48.77918048050606
29-8-2017 0:00,663.63,331.5645822589015
29-8-2017 1:00,336.9,563.757305583244
29-8-2017 2:00,205.55,683.5199076984604
29-8-2017 3:00,152.7,739.6555463606437
29-8-2017 4:00,147.2,753.6130711450103
29-8-2017 5:00,201.25,725.4590808872404
29-8-2017 6:00,444.95,602.348019974891
29-8-2017 7:00,937.23,424.68521792253387
29-8-2017 8:00,1414.03,179.69037987568367
29-8-2017 9:00,1344.48,-611.3049482734355
29-8-2017 10:00,2309.37,-506.75587386689176
29-8-2017 11:00,2844.17,-510.6581872482743
29-8-2017 12:00,3137.98,-333.72443478079344
29-8-2017 13:00,3035.42,-254.9137451434558
29-8-2017 14:00,2981.05,-238.99212071004604
29-8-2017 15:00,2997.35,-145.31054628565903
29-8-2017 16:00,2946.22,-139.81216977799818
29-8-2017 17:00,2808.1,-225.98810275897313
29-8-2017 18:00,2698.32,-478.3052614509902
29-8-2017 19:00,2690.67,-579.1134073610822
29-8-2017 20:00,2612.85,-562.1423926859063
29-8-2017 21:00,2268.83,-439.74742749756047
29-8-2017 22:00,1967.58,-291.31371554453904
29-8-2017 23:00,1304.18,-153.90821314070558
30-8-2017 0:00,748.13,299.4516063547537
30-8-2017 1:00,382.48,583.4729845665365
30-8-2017 2:00,224.55,716.997357311114
30-8-2017 3:00,199.63,823.801820222478
30-8-2017 4:00,181.92,831.2720002719341
30-8-2017 5:00,262.43,829.2539465618502
30-8-2017 6:00,514.58,688.6755872314916
30-8-2017 7:00,1050.73,498.0719271119758
30-8-2017 8:00,1589.12,251.89641493530098
30-8-2017 9:00,2190.03,46.46020796533776
30-8-2017 10:00,2784.2,-313.59993129667737
30-8-2017 11:00,3178.93,-506.6007182219098
30-8-2017 12:00,3208.37,-596.3721389473101
30-8-2017 13:00,3171.07,-455.1785220144857
30-8-2017 14:00,3156.4,-415.30167367230433
30-8-2017 15:00,2984.23,-482.60507933540066
30-8-2017 16:00,3032.07,-368.31033845678076
30-8-2017 17:00,3038.52,-292.80859980448463
30-8-2017 18:00,3109.12,-380.92636285155436
30-8-2017 19:00,2897.1,-732.4703798164023
30-8-2017 20:00,2750.65,-791.4183958828519
30-8-2017 21:00,2899.05,-157.8574817053052
30-8-2017 22:00,2225.17,-352.18982292687406
30-8-2017 23:00,1588.2,-113.95563318335985
31-8-2017 0:00,884.63,287.038409820123
31-8-2017 1:00,422.9,531.8410671174183
31-8-2017 2:00,253.88,660.7298346894277
31-8-2017 3:00,184.5,711.925746048043
31-8-2017 4:00,175.28,699.0585029306098
31-8-2017 5:00,275.82,675.655632626178
31-8-2017 6:00,612.98,553.0792217357739
31-8-2017 7:00,1175.9,290.94945182200354
31-8-2017 8:00,1949.85,176.07801378840713
31-8-2017 9:00,2660.78,-36.66015167229125
31-8-2017 10:00,3446.88,-331.2143247608901
31-8-2017 11:00,3833.45,-613.9384053879974
31-8-2017 12:00,4168.97,-432.499819464304
31-8-2017 13:00,4097.2,-347.3510892041454
31-8-2017 14:00,4134.35,-290.0968309213431
31-8-2017 15:00,4234.47,-76.3230306400742
31-8-2017 16:00,4182.2,-70.62419993503454
31-8-2017 17:00,4097.28,-73.4274696861612
31-8-2017 18:00,4108.43,-241.2185171249771
31-8-2017 19:00,4375.12,-164.03343892465182
31-8-2017 20:00,4262.12,-200.4355195127987
31-8-2017 21:00,3793.82,-141.68987481550266
31-8-2017 22:00,3363.3,-39.3163796951585
31-8-2017 23:00,2452.78,23.24838690454135
1-9-2017 0:00,1378.27,171.93854293255117
1-9-2017 1:00,652.62,271.05190965266456
1-9-2017 2:00,374.93,359.0945023894137
1-9-2017 3:00,250.43,405.39129253258625
1-9-2017 4:00,246.55,430.5209650464635
1-9-2017 5:00,382.78,482.7353088358941
1-9-2017 6:00,885.48,540.0328770736578
1-9-2017 7:00,1774.92,587.5027707288705
1-9-2017 8:00,2604.35,505.23118020159245
1-9-2017 9:00,3268.25,198.05138213860846
1-9-2017 10:00,4071.02,-136.34311243877028
1-9-2017 11:00,4591.93,-296.3767744299498
1-9-2017 12:00,4694.88,-312.4644695193606
1-9-2017 13:00,4326.62,-505.3949609661154
1-9-2017 14:00,4298.7,-507.66762777694066
1-9-2017 15:00,4341.22,-302.7209565855542
1-9-2017 16:00,4472.83,-81.6423710883414
1-9-2017 17:00,4227.38,-205.5734607035647
1-9-2017 18:00,4331.88,-273.90060399480217
1-9-2017 19:00,4417.27,-401.65924208997694
1-9-2017 20:00,4162.93,-563.9681986604937
1-9-2017 21:00,3819.33,-318.9832938390691
1-9-2017 22:00,3175.48,-356.93943277243034
1-9-2017 23:00,2177.9,-263.8995597121657
2-9-2017 0:00,1313.98,233.67123894475253
2-9-2017 1:00,648.75,521.5577559548387
2-9-2017 2:00,398.15,714.6366147234803
2-9-2017 3:00,286.33,833.9567245183657
2-9-2017 4:00,247.85,867.2657535307058
2-9-2017 5:00,333.25,921.2471378164969
2-9-2017 6:00,720.0,889.5985115849248
2-9-2017 7:00,1452.03,775.4078952116197
2-9-2017 8:00,2283.73,685.1959785931563
2-9-2017 9:00,3137.62,539.5923471849783
2-9-2017 10:00,3921.9,149.195330375911
2-9-2017 11:00,4361.43,-84.87011372224879
2-9-2017 12:00,4097.35,-413.9462905676719
2-9-2017 13:00,3784.42,-526.068698822628
2-9-2017 14:00,3349.63,-922.6009858283701
2-9-2017 15:00,3251.08,-802.8841388281546
2-9-2017 16:00,3121.63,-804.2984936400576
2-9-2017 17:00,3076.8,-704.3890959728062
2-9-2017 18:00,3238.22,-725.8640279698925
2-9-2017 19:00,3464.7,-752.3580752139969
2-9-2017 20:00,3094.93,-1030.8456006203132
2-9-2017 21:00,1872.8,-1633.9740651996565
2-9-2017 22:00,0.0,-2859.0024677116207
2-9-2017 23:00,1680.93,-1.0401177156882113
3-9-2017 0:00,1046.05,832.7386940452398
3-9-2017 1:00,554.82,1370.0843377631522
3-9-2017 2:00,319.7,1603.695438981541
3-9-2017 3:00,203.57,1726.1548448459923
3-9-2017 4:00,192.35,1776.6092067746488
3-9-2017 5:00,237.15,1754.3946900568556
3-9-2017 6:00,550.43,1588.0869278560021
3-9-2017 7:00,1048.08,1147.072859954233
3-9-2017 8:00,1697.35,776.02767574464
3-9-2017 9:00,2318.73,273.49612870667966
3-9-2017 10:00,2942.98,-410.4474926186658
3-9-2017 11:00,3276.05,-839.6288011083946
3-9-2017 12:00,3244.12,-978.5175419944185
3-9-2017 13:00,2836.38,-1214.500255087968
3-9-2017 14:00,2692.12,-1362.4205503190176
3-9-2017 15:00,2431.3,-1403.661915540366
3-9-2017 16:00,2491.73,-1231.157598691777
3-9-2017 17:00,2584.9,-1011.6724384705378
3-9-2017 18:00,2777.28,-1053.8998839019598
3-9-2017 19:00,3025.7,-1139.9240650234806
3-9-2017 20:00,2880.0,-1236.7348839940826
3-9-2017 21:00,2610.88,-921.6299010757764
3-9-2017 22:00,2222.12,-685.9337502679277
3-9-2017 23:00,1694.42,-15.382106437908988
4-9-2017 0:00,953.57,754.4015353254467
4-9-2017 1:00,448.72,1288.9094735824178
4-9-2017 2:00,263.27,1532.5659850817865
4-9-2017 3:00,178.78,1629.4378548470363
4-9-2017 4:00,174.95,1612.490717523243
4-9-2017 5:00,263.72,1574.0937048015567
4-9-2017 6:00,603.62,1348.6602116311142
4-9-2017 7:00,1266.82,956.1960972005731
4-9-2017 8:00,2140.77,686.8710503995417
4-9-2017 9:00,2869.75,180.48766746189813
4-9-2017 10:00,3704.28,-413.7264786496262
4-9-2017 11:00,4386.33,-569.6175718008258
4-9-2017 12:00,4366.87,-725.0327969973519
4-9-2017 13:00,4152.03,-780.4015866518321
4-9-2017 14:00,4122.65,-838.5956618305254
4-9-2017 15:00,3765.12,-958.4710109957728
4-9-2017 16:00,3929.37,-681.3519374694902
4-9-2017 17:00,3916.48,-532.8632668282255
4-9-2017 18:00,3944.45,-737.7254778279466
4-9-2017 19:00,4048.72,-995.9238818458384
4-9-2017 20:00,3989.5,-995.2020833996826
4-9-2017 21:00,3690.7,-619.6182705478723
4-9-2017 22:00,3117.88,-466.46362202231603
4-9-2017 23:00,2153.65,-86.38873996031998
5-9-2017 0:00,1155.38,592.7836762033571
5-9-2017 1:00,515.5,1166.9747239788599
5-9-2017 2:00,310.82,1515.7074607386803
5-9-2017 3:00,214.02,1706.972609384201
5-9-2017 4:00,212.08,1780.8961803387615
5-9-2017 5:00,284.53,1812.3491486931562
5-9-2017 6:00,700.27,1723.332401633099
5-9-2017 7:00,1476.8,1473.4078180838196
5-9-2017 8:00,2363.92,1240.502486101384
5-9-2017 9:00,1788.02,-594.3585287696453
5-9-2017 10:00,2283.57,-1560.2777002810476
5-9-2017 11:00,4137.62,-532.0330787074167
5-9-2017 12:00,3960.07,-786.709288828144
5-9-2017 13:00,3107.63,-1464.7052809694758
5-9-2017 14:00,3352.98,-1246.0642620217363
5-9-2017 15:00,3280.45,-1035.6047210568058
5-9-2017 16:00,3093.77,-1081.2069245034834
5-9-2017 17:00,3056.75,-954.9350471647333
5-9-2017 18:00,3003.42,-1272.472327455292
5-9-2017 19:00,2781.08,-1918.2265591475739
5-9-2017 20:00,3033.97,-1627.2637480626781
5-9-2017 21:00,2546.47,-1450.6666761172298
5-9-2017 22:00,2556.0,-713.7764722778702
5-9-2017 23:00,1805.15,-74.40129438779877
6-9-2017 0:00,1006.12,908.514037720342
6-9-2017 1:00,536.87,1712.1263899992473
6-9-2017 2:00,292.92,2011.30827313783
6-9-2017 3:00,211.58,2186.9734692347397
6-9-2017 4:00,210.48,2209.731855338574
6-9-2017 5:00,289.1,2184.4810374562016
6-9-2017 6:00,671.68,1967.0237679268976
6-9-2017 7:00,1257.58,1389.4933108384657
6-9-2017 8:00,1615.68,481.65326193829924
6-9-2017 9:00,2842.32,299.02255806446146
6-9-2017 10:00,3706.6,-456.38228330271727
6-9-2017 11:00,3814.73,-1278.1924854586991
6-9-2017 12:00,3895.78,-1315.7856231705255
6-9-2017 13:00,3543.18,-1504.3398472064146
6-9-2017 14:00,3638.33,-1462.3445321116874
6-9-2017 15:00,3536.43,-1255.5476305494913
6-9-2017 16:00,3568.5,-1081.8044427698896
6-9-2017 17:00,3567.18,-912.1787371261835
6-9-2017 18:00,3796.12,-964.6531796910472
6-9-2017 19:00,4182.35,-1063.3519320366267
6-9-2017 20:00,3771.0,-1442.2989821627061
6-9-2017 21:00,3455.32,-1052.8698277176904
6-9-2017 22:00,2938.42,-795.9247405954022
6-9-2017 23:00,1938.98,-292.43173979050835
7-9-2017 0:00,1039.47,744.8473650454675
7-9-2017 1:00,513.23,1625.6379932564796
7-9-2017 2:00,275.0,1995.6359942025283
7-9-2017 3:00,214.23,2236.18820917953
7-9-2017 4:00,206.03,2274.9916382380643
7-9-2017 5:00,334.28,2332.729074263121
7-9-2017 6:00,717.02,2116.383322408765
7-9-2017 7:00,1533.43,1728.486019672785
7-9-2017 8:00,2274.75,1154.0502817464921
7-9-2017 9:00,3042.9,428.2540721605401
7-9-2017 10:00,3731.73,-595.2131495765761
7-9-2017 11:00,4055.68,-1239.7348859763333
7-9-2017 12:00,4060.08,-1329.89166179342
7-9-2017 13:00,3730.75,-1485.89909638559
7-9-2017 14:00,3071.32,-2205.2544638056006
7-9-2017 15:00,3131.6,-1790.8951803078635
7-9-2017 16:00,3321.68,-1438.732774209364
7-9-2017 17:00,3918.18,-659.1128131272985
7-9-2017 18:00,3804.33,-1067.0639908330645
7-9-2017 19:00,3096.25,-2316.921811524004
7-9-2017 20:00,3061.05,-2320.7232705531214
7-9-2017 21:00,3326.97,-1329.9002865701614
7-9-2017 22:00,3408.87,-448.7788167665285
7-9-2017 23:00,2245.57,-17.54649364839497
8-9-2017 0:00,1251.5,1058.907883313832
8-9-2017 1:00,533.33,1825.7762852095484
8-9-2017 2:00,286.07,2195.679901715659
8-9-2017 3:00,221.85,2420.938633325353
8-9-2017 4:00,208.43,2421.5406711784885
8-9-2017 5:00,331.32,2446.977275509765
8-9-2017 6:00,764.12,2221.3439557291495
8-9-2017 7:00,1602.95,1754.7007780357371
8-9-2017 8:00,2283.48,1009.3703217734346
8-9-2017 9:00,2945.73,75.81764643622182
8-9-2017 10:00,4021.73,-670.2718210975481
8-9-2017 11:00,4914.68,-801.5049571677964
8-9-2017 12:00,5298.0,-505.83523651686073
8-9-2017 13:00,4641.22,-964.1607486451476
8-9-2017 14:00,4196.33,-1459.8916655597322
8-9-2017 15:00,3879.0,-1361.9048671062897
8-9-2017 16:00,3761.88,-1280.6781096687268
8-9-2017 17:00,3712.77,-1110.0642461045813
8-9-2017 18:00,3820.75,-1284.4425119075272
8-9-2017 19:00,3699.62,-1979.769753900106
8-9-2017 20:00,3391.83,-2232.7359747885394
8-9-2017 21:00,3004.97,-1809.8570067202704
8-9-2017 22:00,2630.0,-1295.1869996879295
8-9-2017 23:00,1787.02,-386.99319970919396
9-9-2017 0:00,222.0,317.28860392664774
9-9-2017 1:00,1.2,1758.328466425517
9-9-2017 2:00,0.27,2482.2913854101425
9-9-2017 3:00,0.0,2858.450320570975
9-9-2017 4:00,0.0,2938.284654137162
9-9-2017 5:00,0.0,2882.3515259616806
9-9-2017 6:00,443.72,2676.7517374418253
9-9-2017 7:00,1464.97,2359.823783978003
9-9-2017 8:00,2160.27,1587.6197085667118
9-9-2017 9:00,2890.02,624.8117643488704
9-9-2017 10:00,3399.98,-792.0087521109226
9-9-2017 11:00,3728.67,-1538.1120909810302
9-9-2017 12:00,3593.32,-1749.1046769914399
9-9-2017 13:00,3421.8,-1734.3792790473435
9-9-2017 14:00,3008.0,-2227.276757848001
9-9-2017 15:00,2844.65,-1951.413456830353
9-9-2017 16:00,2845.03,-1753.7633604452265
9-9-2017 17:00,2840.12,-1551.1719382398446
9-9-2017 18:00,3067.6,-1643.1336359808138
9-9-2017 19:00,3260.22,-2105.9566431158746
9-9-2017 20:00,3022.72,-2314.0339697044683
9-9-2017 21:00,1589.4,-2925.820887860527
9-9-2017 22:00,1765.68,-1842.5242139091145
9-9-2017 23:00,1491.43,-282.0008073794136
10-9-2017 0:00,896.8,1518.4065526204067
10-9-2017 1:00,491.18,2866.216353521644
10-9-2017 2:00,361.62,3484.067052783994
10-9-2017 3:00,272.08,3772.6946692951815
10-9-2017 4:00,262.02,3823.0697763736352
10-9-2017 5:00,274.12,3765.1309688716465
10-9-2017 6:00,614.27,3409.4487647928054
10-9-2017 7:00,987.55,2356.2200887388262
10-9-2017 8:00,1626.63,1430.5264473587995
10-9-2017 9:00,2212.47,212.81430164070343
10-9-2017 10:00,2712.02,-1333.3461963647371
10-9-2017 11:00,2981.98,-2203.02867065433
10-9-2017 12:00,2932.03,-2330.8524959457104
10-9-2017 13:00,2698.2,-2372.0219926277896
10-9-2017 14:00,2481.43,-2677.521838013079
10-9-2017 15:00,2391.13,-2286.087839129784
10-9-2017 16:00,2266.82,-2195.580208495652
10-9-2017 17:00,2487.07,-1774.3244036579767
10-9-2017 18:00,2672.68,-1939.512709345912
10-9-2017 19:00,2891.82,-2451.334657632397
10-9-2017 20:00,2808.32,-2525.0862659300938
10-9-2017 21:00,2531.4,-1992.7711823493653
10-9-2017 22:00,2113.93,-1509.9399535177668
10-9-2017 23:00,1417.97,-311.61905247598384
11-9-2017 0:00,789.72,1556.8117518489294
11-9-2017 1:00,373.13,2945.0323517583574
11-9-2017 2:00,239.95,3541.571691904258
11-9-2017 3:00,177.77,3819.0888503716214
11-9-2017 4:00,164.13,3806.2755915681632
11-9-2017 5:00,257.02,3775.417170879626
11-9-2017 6:00,535.03,3271.4786173817547
11-9-2017 7:00,1203.8,2385.8052848775733
11-9-2017 8:00,1836.33,1316.6881436687681
11-9-2017 9:00,2500.8,40.72363744575887
11-9-2017 10:00,3374.28,-1276.3250011099894
11-9-2017 11:00,3774.9,-2106.084769823727
11-9-2017 12:00,3789.3,-2197.6779934007386
11-9-2017 13:00,3714.23,-2087.594237281865
11-9-2017 14:00,3585.03,-2329.0783018246575
11-9-2017 15:00,3533.47,-1870.3054576485877
11-9-2017 16:00,3572.35,-1612.9826423940845
11-9-2017 17:00,3592.65,-1374.1467158666042
11-9-2017 18:00,3614.22,-1710.7058904439969
11-9-2017 19:00,3666.73,-2440.6534309700282
11-9-2017 20:00,3683.12,-2410.1659720649486
11-9-2017 21:00,3267.03,-1950.6399227697684
11-9-2017 22:00,2710.57,-1534.840758812886
11-9-2017 23:00,1726.87,-486.0789830139254
12-9-2017 0:00,897.6,1361.6486458811778
12-9-2017 1:00,385.55,2817.6603691897144
12-9-2017 2:00,234.18,3490.1886746100818
12-9-2017 3:00,184.3,3853.40569942454
12-9-2017 4:00,178.48,3900.665960019103
12-9-2017 5:00,282.58,3927.6402112509595
12-9-2017 6:00,662.03,3539.357593441002
12-9-2017 7:00,1361.93,2657.2063478051796
12-9-2017 8:00,2083.73,1640.812450086155
12-9-2017 9:00,2652.73,190.89443010595141
12-9-2017 10:00,3387.28,-1351.5036899942202
12-9-2017 11:00,3594.3,-2407.2020941262185
12-9-2017 12:00,3621.33,-2455.886056982976
12-9-2017 13:00,3439.15,-2438.0911978824743
12-9-2017 14:00,3503.77,-2486.9816314020954
12-9-2017 15:00,3190.58,-2238.9120917525756
12-9-2017 16:00,3280.02,-1905.0654011100817
12-9-2017 17:00,3140.82,-1810.501739847439
12-9-2017 18:00,3198.82,-2120.264170268928
12-9-2017 19:00,3422.72,-2732.604764460024
12-9-2017 20:00,3498.35,-2640.815699777685
12-9-2017 21:00,3166.3,-2060.880405922194
12-9-2017 22:00,2515.8,-1697.1560680004143
12-9-2017 23:00,1654.48,-417.826178604663
13-9-2017 0:00,641.23,1399.0077141245483
13-9-2017 1:00,387.1,3223.284099244836
13-9-2017 2:00,217.27,3918.1713053450576
13-9-2017 3:00,127.78,4261.7662651107885
13-9-2017 4:00,141.97,4327.825375437608
13-9-2017 5:00,218.77,4322.458919175224
13-9-2017 6:00,570.67,3868.9125614380214
13-9-2017 7:00,1291.43,2927.5687859047875
13-9-2017 8:00,1910.43,1718.9912600568277
13-9-2017 9:00,2419.48,100.79117964113857
13-9-2017 10:00,3181.8,-1529.5495610089492
13-9-2017 11:00,3369.22,-2666.7856743161633
13-9-2017 12:00,3367.18,-2743.195899287509
13-9-2017 13:00,3187.15,-2721.5888134774887
13-9-2017 14:00,3180.45,-2855.8977344859486
13-9-2017 15:00,2988.55,-2448.9081868722
13-9-2017 16:00,2945.93,-2234.0780295899076
13-9-2017 17:00,3176.88,-1768.6346604229254
13-9-2017 18:00,3159.48,-2179.2157538193883
13-9-2017 19:00,3346.27,-2897.1839014363877
13-9-2017 20:00,3320.53,-2919.415885153236
13-9-2017 21:00,3004.18,-2304.358589201515
13-9-2017 22:00,2595.87,-1676.1243599377121
13-9-2017 23:00,1586.5,-454.63711928154953
14-9-2017 0:00,357.67,1281.906627027815
14-9-2017 1:00,228.22,3325.9728160266395
14-9-2017 2:00,189.27,4177.3240648735
14-9-2017 3:00,202.0,4627.892101657293
14-9-2017 4:00,288.43,4749.73229997877
14-9-2017 5:00,358.8,4724.744046127248
14-9-2017 6:00,674.13,4188.762858367902
14-9-2017 7:00,1390.42,3154.7386130836016
14-9-2017 8:00,1979.9,1819.0995192530536
14-9-2017 9:00,2509.43,105.80519713377089
14-9-2017 10:00,3163.73,-1755.5107032543633
14-9-2017 11:00,3511.68,-2801.3970649249227
14-9-2017 12:00,3632.08,-2761.266091198985
14-9-2017 13:00,3494.25,-2697.6094907754605
14-9-2017 14:00,3348.33,-2987.0496113687705
14-9-2017 15:00,3254.48,-2446.1927678868065
14-9-2017 16:00,3217.82,-2214.1620095853045
14-9-2017 17:00,3180.93,-2004.7570775866052
14-9-2017 18:00,3301.67,-2291.544979030661
14-9-2017 19:00,3362.05,-3193.3586799083237
14-9-2017 20:00,3187.07,-3366.399711859119
14-9-2017 21:00,3087.18,-2495.774474116364
14-9-2017 22:00,2508.17,-1996.226621287115
14-9-2017 23:00,1653.85,-509.7882971471199
15-9-2017 0:00,954.12,1910.8390349658212
15-9-2017 1:00,511.93,3759.7586180779235
15-9-2017 2:00,308.68,4494.877499906163
15-9-2017 3:00,264.9,4916.172203942756
15-9-2017 4:00,252.88,4945.589312840332
15-9-2017 5:00,303.53,4907.213944816342
15-9-2017 6:00,664.3,4390.332610451524
15-9-2017 7:00,1265.08,3172.1132328180147
15-9-2017 8:00,1965.58,1869.477908406735
15-9-2017 9:00,2548.13,114.52569081532647
15-9-2017 10:00,3297.75,-1753.5289379902947
15-9-2017 11:00,3694.68,-2798.7191167036394
15-9-2017 12:00,3826.77,-2731.9005129598586
15-9-2017 13:00,3524.97,-2813.49852089714
15-9-2017 14:00,3355.5,-3123.5339640496145
15-9-2017 15:00,3326.4,-2463.2439476737486
15-9-2017 16:00,3051.5,-2439.34671132735
15-9-2017 17:00,3093.68,-2131.578415205622
15-9-2017 18:00,3129.65,-2509.9913234059613
15-9-2017 19:00,3156.63,-3495.1487762529778
15-9-2017 20:00,3167.7,-3476.2170551464096
15-9-2017 21:00,2830.08,-2801.2084288882797
15-9-2017 22:00,2262.93,-2244.7815057692433
15-9-2017 23:00,1567.42,-486.6266514210738
16-9-2017 0:00,811.72,2036.0197132197845
16-9-2017 1:00,21.9,3651.9609813988905
16-9-2017 2:00,0.0,4613.555787162238
16-9-2017 3:00,0.0,5102.925449405359
16-9-2017 4:00,0.78,5148.22775983276
16-9-2017 5:00,221.72,5281.320374948551
16-9-2017 6:00,578.08,4728.533991290508
16-9-2017 7:00,1192.9,3450.51457862004
16-9-2017 8:00,1852.53,2023.8381209402778
16-9-2017 9:00,2499.82,232.3911552979862
16-9-2017 10:00,3170.02,-1823.699054503877
16-9-2017 11:00,3524.83,-2965.849902838763
16-9-2017 12:00,3734.88,-2812.630521655895
16-9-2017 13:00,3437.27,-2886.7624297216116
16-9-2017 14:00,3305.0,-3172.082487200876
16-9-2017 15:00,3122.3,-2626.1485896987333
16-9-2017 16:00,3073.57,-2361.414167075066
16-9-2017 17:00,3006.5,-2152.5702095054494
16-9-2017 18:00,3216.47,-2372.805827137213
16-9-2017 19:00,3106.18,-3554.144734628721
16-9-2017 20:00,2897.7,-3757.8079631399296
16-9-2017 21:00,1493.62,-4099.680296553068
16-9-2017 22:00,771.42,-3645.8186513308883
16-9-2017 23:00,1367.37,-475.83161496118896
17-9-2017 0:00,744.05,2344.6494340209424
17-9-2017 1:00,357.27,4499.802122607494
17-9-2017 2:00,229.95,5422.62258764639
17-9-2017 3:00,192.12,5919.97694343648
17-9-2017 4:00,124.08,5921.064190734145
17-9-2017 5:00,180.8,5899.736469195625
17-9-2017 6:00,419.68,5206.596716450269
17-9-2017 7:00,871.0,3699.8589489487476
17-9-2017 8:00,1458.47,2126.473038206412
17-9-2017 9:00,2028.65,144.38193360730202
17-9-2017 10:00,2630.73,-2100.743248096739
17-9-2017 11:00,2808.0,-3487.5741569591028
17-9-2017 12:00,2862.28,-3493.9833892430843
17-9-2017 13:00,2667.72,-3467.9458155082684
17-9-2017 14:00,2349.72,-3957.6371053853563
17-9-2017 15:00,2209.77,-3335.8659448279714
17-9-2017 16:00,2190.22,-3033.440953998068
17-9-2017 17:00,2338.65,-2636.6346021881336
17-9-2017 18:00,2679.87,-2779.3061964588915
17-9-2017 19:00,2731.93,-3895.069825802464
17-9-2017 20:00,2529.45,-4133.64127113902
17-9-2017 21:00,2137.32,-3544.473330230161
17-9-2017 22:00,1679.38,-2904.355728911574
17-9-2017 23:00,1222.98,-796.8352765270783
18-9-2017 0:00,605.92,2064.8716907895914
18-9-2017 1:00,307.92,4233.223132719777
18-9-2017 2:00,179.15,5009.486589970407
18-9-2017 3:00,160.95,5360.5329722436545
18-9-2017 4:00,144.37,5225.932489347776
18-9-2017 5:00,206.17,4974.22530793634
18-9-2017 6:00,467.92,4035.823062885067
18-9-2017 7:00,1124.0,2423.3678173338917
18-9-2017 8:00,2461.67,1280.37333031038
18-9-2017 9:00,3836.78,-239.6978509520368
18-9-2017 10:00,6051.22,-1222.7539422647442
18-9-2017 11:00,6606.45,-2528.1408493610734
18-9-2017 12:00,5898.12,-3530.394632818391
18-9-2017 13:00,6111.2,-3244.2004544884903
18-9-2017 14:00,5445.45,-4244.885853968848
18-9-2017 15:00,8647.07,-393.0603075616691
18-9-2017 16:00,9299.4,445.15003550239453
18-9-2017 17:00,167.25,-8499.127606143895
18-9-2017 18:00,8990.12,-246.80156475018885
18-9-2017 19:00,9179.32,-1355.179252692721
18-9-2017 20:00,8828.12,-1816.3582516015167
18-9-2017 21:00,8785.67,-933.4373561105012
18-9-2017 22:00,9125.5,451.3956521670261
18-9-2017 23:00,6716.65,621.2989714288478
19-9-2017 0:00,4242.62,1685.9513079425888
19-9-2017 1:00,2897.1,2781.7149620904675
19-9-2017 2:00,1769.28,2464.3348704268938
19-9-2017 3:00,1224.32,2173.196738057356
19-9-2017 4:00,648.6,1342.764509872407
19-9-2017 5:00,821.43,1076.1656272122655
19-9-2017 6:00,2037.88,933.8686484792779
19-9-2017 7:00,4721.32,1147.7896979788839
19-9-2017 8:00,6825.22,560.7104077746299
19-9-2017 9:00,8549.55,-809.9611855952098
19-9-2017 10:00,9889.58,-2874.6434712346527
19-9-2017 11:00,15038.0,259.71833871698254
19-9-2017 12:00,16693.8,1531.4347193682588
19-9-2017 13:00,15934.58,808.7285428338873
19-9-2017 14:00,15458.55,-54.59792570909849
19-9-2017 15:00,15336.45,472.87504708852066
19-9-2017 16:00,13592.2,-1110.6501233766612
19-9-2017 17:00,14274.17,-204.5812372825676
19-9-2017 18:00,13683.15,-1356.0670390277864
19-9-2017 19:00,14302.77,-2066.9645141794226
19-9-2017 20:00,15461.52,-995.2667952706106
19-9-2017 21:00,16186.0,712.3508235061836
19-9-2017 22:00,15421.08,1053.186392788415
19-9-2017 23:00,12350.0,689.4997329733305
20-9-2017 0:00,8658.35,719.5016542614194
20-9-2017 1:00,6110.65,561.1998960581986
20-9-2017 2:00,3370.73,-1494.9909153389672
20-9-2017 3:00,763.92,-3997.61044617072
20-9-2017 4:00,745.68,-4443.243110943793
20-9-2017 5:00,1696.55,-4351.008005740969
20-9-2017 6:00,4989.17,-2871.5246854413526
20-9-2017 7:00,8345.67,-2484.276326217221
20-9-2017 8:00,11526.52,-2504.447300359776
20-9-2017 9:00,17405.15,-192.90671843389282
20-9-2017 10:00,22909.73,1426.79022539164
20-9-2017 11:00,22192.2,-1726.5706448235615
20-9-2017 12:00,20682.68,-3973.939463374052
20-9-2017 13:00,26538.07,1845.0301909926275
20-9-2017 14:00,31054.72,5884.487784551136
20-9-2017 15:00,31539.57,6985.395356496443
20-9-2017 16:00,32310.4,7857.5798295447275
20-9-2017 17:00,33540.68,9580.582860329287
20-9-2017 18:00,32012.08,7731.270521536404
20-9-2017 19:00,32942.75,7524.251492018764
20-9-2017 20:00,37339.62,12087.361858182485
20-9-2017 21:00,28194.18,4558.243283058684
20-9-2017 22:00,25117.33,3224.192692350942
20-9-2017 23:00,17768.72,-706.3684568475292
21-9-2017 0:00,9659.62,-4336.240503510675
21-9-2017 1:00,4865.63,-5678.739849506499
21-9-2017 2:00,2616.9,-6256.473556078765
21-9-2017 3:00,1867.28,-5937.556660814245
21-9-2017 4:00,1375.78,-5915.240980853605
21-9-2017 5:00,1265.32,-5840.549428916522
21-9-2017 6:00,2932.83,-4977.573350713008
21-9-2017 7:00,5954.97,-3961.4785019101037
21-9-2017 8:00,9860.08,-2304.491980136716
21-9-2017 9:00,13159.42,-2082.011467091703
21-9-2017 10:00,17352.93,-1291.253438212123
21-9-2017 11:00,21174.15,634.6648669948954
21-9-2017 12:00,23195.55,2526.752704831699
21-9-2017 13:00,22234.17,1634.5596274802338
21-9-2017 14:00,23251.67,2263.5127205210447
21-9-2017 15:00,21644.68,1417.6063289948415
21-9-2017 16:00,21263.72,1257.22329910008
21-9-2017 17:00,20410.52,764.5492097476308
21-9-2017 18:00,21932.25,1804.499069079604
21-9-2017 19:00,21918.97,445.5950724610266
21-9-2017 20:00,21829.02,374.41467314471083
21-9-2017 21:00,23554.33,3360.24651180625
21-9-2017 22:00,23760.88,4957.703295341351
21-9-2017 23:00,18368.67,2705.261190992307
22-9-2017 0:00,10988.1,-427.4412893892513
22-9-2017 1:00,5561.05,-2958.0266538239357
22-9-2017 2:00,3044.63,-4433.301686217554
22-9-2017 3:00,2212.58,-4849.586795503006
22-9-2017 4:00,2286.03,-4938.215416821369
22-9-2017 5:00,1688.85,-6063.815179065787
22-9-2017 6:00,3171.1,-6134.854103874142
22-9-2017 7:00,6624.15,-5481.9958796615865
22-9-2017 8:00,11400.2,-3758.524976141376
22-9-2017 9:00,16737.08,-1972.5763844322646
22-9-2017 10:00,24440.63,1846.0513525265123
22-9-2017 11:00,27087.3,2173.647456180912
22-9-2017 12:00,30293.85,4895.120573430173
22-9-2017 13:00,29164.87,3796.416336727976
22-9-2017 14:00,32767.78,6954.906501618487
22-9-2017 15:00,30053.75,5002.467718988177
22-9-2017 16:00,31767.02,6911.018758517785
22-9-2017 17:00,30825.78,6464.942291606007
22-9-2017 18:00,30027.88,5291.029091640532
22-9-2017 19:00,28755.38,2731.804870498705
22-9-2017 20:00,28749.1,2863.658448280039
22-9-2017 21:00,30440.38,6199.667720189849
22-9-2017 22:00,23555.83,1094.1388974307156
22-9-2017 23:00,17351.05,-1509.1471426059688
23-9-2017 0:00,12311.82,-1791.8630372430198
23-9-2017 1:00,5162.97,-5387.334601894552
23-9-2017 2:00,2779.18,-6147.891141887512
23-9-2017 3:00,1881.07,-6071.068437500933
23-9-2017 4:00,2906.1,-4672.071541876296
23-9-2017 5:00,3875.22,-3687.1040125262352
23-9-2017 6:00,3880.15,-4726.379334570474
23-9-2017 7:00,6923.37,-4019.6591291722943
23-9-2017 8:00,11333.98,-2208.245238129286
23-9-2017 9:00,16464.05,-369.4020133872564
23-9-2017 10:00,20070.4,-396.36801398044554
23-9-2017 11:00,25055.47,2579.6324424901613
23-9-2017 12:00,25191.4,2608.4973935207036
23-9-2017 13:00,27403.22,5022.1389781438465
23-9-2017 14:00,28061.4,5390.483195560153
23-9-2017 15:00,25462.68,3764.3190025018175
23-9-2017 16:00,24277.32,2959.401092131875
23-9-2017 17:00,22406.0,1639.4998346171924
23-9-2017 18:00,23173.3,2058.171162310675
23-9-2017 19:00,27120.37,4699.034303602006
23-9-2017 20:00,28397.62,6155.399445437413
23-9-2017 21:00,12828.28,-7749.865031296837
23-9-2017 22:00,8361.48,-10414.390642242523
23-9-2017 23:00,16924.22,1846.7082001408326
24-9-2017 0:00,12670.83,2493.617709355969
24-9-2017 1:00,5431.22,-1077.0947210940867
24-9-2017 2:00,2886.08,-1958.3074342680611
24-9-2017 3:00,1461.4,-2390.281581791125
24-9-2017 4:00,1020.37,-2462.6938348051535
24-9-2017 5:00,1367.5,-2280.525195600114
24-9-2017 6:00,3035.65,-1872.5730966197425
24-9-2017 7:00,6216.4,-1289.7070917754336
24-9-2017 8:00,9491.2,-885.7963949491204
24-9-2017 9:00,12388.28,-1751.664833533825
24-9-2017 10:00,20285.12,2032.0391319613555
24-9-2017 11:00,23063.3,2379.727644888517
24-9-2017 12:00,22093.17,949.1181333406857
24-9-2017 13:00,18527.3,-2684.3678046379628
24-9-2017 14:00,17118.55,-4669.352878623013
24-9-2017 15:00,17413.78,-3631.5858260365076
24-9-2017 16:00,14867.67,-6053.076030233144
24-9-2017 17:00,14751.38,-5948.531577507309
24-9-2017 18:00,18296.27,-3111.7252213114334
24-9-2017 19:00,35130.98,12010.455783256495
24-9-2017 20:00,30740.3,7453.032989989399
24-9-2017 21:00,31418.13,9058.784912667757
24-9-2017 22:00,27299.05,6009.732661592188
24-9-2017 23:00,17874.47,-375.1234655477492
25-9-2017 0:00,15310.45,1349.4415955762415
25-9-2017 1:00,7659.25,-3668.3914359874507
25-9-2017 2:00,2750.65,-8023.420057657564
25-9-2017 3:00,2335.22,-8579.42079240539
25-9-2017 4:00,2128.62,-9573.801929373203
25-9-2017 5:00,2208.95,-10621.30034773672
25-9-2017 6:00,5614.82,-9473.678995155267
25-9-2017 7:00,11196.87,-7532.95535828836
25-9-2017 8:00,16456.0,-6198.466023102286
25-9-2017 9:00,27898.0,847.287030855754
25-9-2017 10:00,37747.07,5941.8241183087885
25-9-2017 11:00,43379.45,8560.713843561978
25-9-2017 12:00,41752.03,5957.823025305257
25-9-2017 13:00,44507.75,8491.993050571087
25-9-2017 14:00,46614.7,9851.81217103096
25-9-2017 15:00,42990.62,6855.7539551085865
25-9-2017 16:00,43485.82,7335.252418038206
25-9-2017 17:00,44042.03,8500.075088168705
25-9-2017 18:00,43770.92,7879.788980031117
25-9-2017 19:00,43223.35,5931.716755893598
25-9-2017 20:00,42924.78,5838.89493554195
25-9-2017 21:00,48394.83,13325.261797886404
25-9-2017 22:00,46708.6,13801.327286853764
25-9-2017 23:00,32214.63,3512.9605703633497
26-9-2017 0:00,19667.52,-3532.7644364309854
26-9-2017 1:00,10506.33,-8453.714135536004
26-9-2017 2:00,6679.57,-10194.85473212993
26-9-2017 3:00,2821.87,-12683.9981205302
26-9-2017 4:00,2045.2,-12762.501149325331
26-9-2017 5:00,2250.8,-12227.116786438699
26-9-2017 6:00,5212.92,-10100.816341437463
26-9-2017 7:00,11565.58,-6012.4879228928
26-9-2017 8:00,16980.82,-3155.202799691797
26-9-2017 9:00,24770.17,1254.7512645330826
26-9-2017 10:00,33022.52,5761.3070224586845
26-9-2017 11:00,33991.43,4783.863508552626
26-9-2017 12:00,35930.32,6882.426932101724
26-9-2017 13:00,33849.62,5194.821011005675
26-9-2017 14:00,33927.4,5123.15241630411
26-9-2017 15:00,30832.65,3310.4870222664795
26-9-2017 16:00,30655.05,3745.495962866047
26-9-2017 17:00,29251.23,3169.9713228273977
26-9-2017 18:00,28226.98,1987.3572227825207
26-9-2017 19:00,30615.02,3118.9068916556935
26-9-2017 20:00,31038.9,3953.0111659356553
26-9-2017 21:00,30192.42,5238.716535309974
26-9-2017 22:00,26541.25,3869.6938852861094
26-9-2017 23:00,15972.58,-2299.9092995889496
27-9-2017 0:00,2592.18,-9928.003278320777
27-9-2017 1:00,453.12,-7704.13076976702
27-9-2017 2:00,1637.97,-4391.951378949627
27-9-2017 3:00,1457.27,-3187.086631694787
27-9-2017 4:00,999.47,-2954.447070272492
27-9-2017 5:00,1210.15,-2498.60232483427
27-9-2017 6:00,2816.68,-1850.129739201795
27-9-2017 7:00,6256.12,-845.9527890147438
27-9-2017 8:00,9885.42,43.27158494980176
27-9-2017 9:00,14195.47,698.5620335935855
27-9-2017 10:00,18430.03,903.3420203387523
27-9-2017 11:00,21217.35,1523.3833979693409
27-9-2017 12:00,20358.42,676.2940174610776
27-9-2017 13:00,20600.48,1134.9800922163122
27-9-2017 14:00,20533.28,723.5447411163823
27-9-2017 15:00,19265.03,603.646711782636
27-9-2017 16:00,17353.58,-856.906924720417
27-9-2017 17:00,17693.92,39.784671650559176
27-9-2017 18:00,16974.78,-1137.3710968954401
27-9-2017 19:00,17410.63,-2310.3650634951227
27-9-2017 20:00,18194.95,-1401.8156133297016
27-9-2017 21:00,18400.78,523.6122012430642
27-9-2017 22:00,16347.65,345.09028489347475
27-9-2017 23:00,10327.87,-1603.4175066618063
28-9-2017 0:00,5623.57,-833.0235004187343
28-9-2017 1:00,2167.9,-248.742990253877
28-9-2017 2:00,1232.78,539.5021819271642
28-9-2017 3:00,798.63,1062.2508587894354
28-9-2017 4:00,723.83,1224.4039186395275
28-9-2017 5:00,784.47,1230.6097695725803
28-9-2017 6:00,1964.57,1115.4352187795394
28-9-2017 7:00,4642.48,972.1204759910761
28-9-2017 8:00,8013.02,1205.4338761012586
28-9-2017 9:00,11108.37,423.3576529751499
28-9-2017 10:00,15188.9,242.8039940727067
28-9-2017 11:00,18927.82,1646.2023887727592
28-9-2017 12:00,18112.12,747.1923297399571
28-9-2017 13:00,16899.68,-237.2264962421723
28-9-2017 14:00,16462.65,-1025.4155003291216
28-9-2017 15:00,15029.33,-1256.2530615476335
28-9-2017 16:00,14501.9,-1306.5875013785644
28-9-2017 17:00,14878.2,-413.9313477556152
28-9-2017 18:00,13798.82,-2019.0304639603974
28-9-2017 19:00,13573.77,-3973.2762941930087
28-9-2017 20:00,13530.55,-3946.2598963021974
28-9-2017 21:00,12298.82,-3504.4194136415135
28-9-2017 22:00,12247.28,-1722.2881399866292
28-9-2017 23:00,8900.25,-959.2380818919355
29-9-2017 0:00,5043.27,747.4663656562407
29-9-2017 1:00,2417.43,2180.18752488079
29-9-2017 2:00,1218.02,2641.7711258740674
29-9-2017 3:00,728.65,3022.2263797923642
29-9-2017 4:00,673.52,3092.169557666897
29-9-2017 5:00,827.15,3050.3558620005642
29-9-2017 6:00,1828.03,2577.33352268779
29-9-2017 7:00,4067.75,1768.4605640283953
29-9-2017 8:00,7013.97,1338.8964673887986
29-9-2017 9:00,10473.93,698.3754499588395
29-9-2017 10:00,13334.13,-934.1995525906714
29-9-2017 11:00,15713.75,-1058.7318388206058
29-9-2017 12:00,16065.42,-885.9102743774056
29-9-2017 13:00,15230.85,-1518.703960999791
29-9-2017 14:00,15318.78,-1826.496577976649
29-9-2017 15:00,14649.02,-1277.2836309828162
29-9-2017 16:00,14142.8,-1317.8498560030612
29-9-2017 17:00,14554.53,-406.73194833715024
29-9-2017 18:00,14633.22,-898.4372154097218
29-9-2017 19:00,15417.98,-1940.2030447618845
29-9-2017 20:00,14219.65,-3099.2678346323
29-9-2017 21:00,12764.57,-2852.4033625456805
29-9-2017 22:00,10417.33,-3332.5206709546237
29-9-2017 23:00,8573.47,-953.1045352782548
30-9-2017 0:00,5226.25,1426.7385815067246
30-9-2017 1:00,2325.58,2783.009983759537
30-9-2017 2:00,1222.8,3458.621607533625
30-9-2017 3:00,748.8,3947.1430324765115
30-9-2017 4:00,696.1,4087.384873354178
30-9-2017 5:00,882.17,4332.020527693681
30-9-2017 6:00,1673.37,3865.7092964663916
30-9-2017 7:00,3827.52,3138.901674568164
30-9-2017 8:00,6859.23,2951.2736338108843
30-9-2017 9:00,9296.23,1426.0043163684904
30-9-2017 10:00,11661.98,-571.4476979876254
30-9-2017 11:00,13414.77,-1130.1763333070876
30-9-2017 12:00,14497.23,39.16118645257848
30-9-2017 13:00,13644.85,-294.3346066869999
30-9-2017 14:00,12729.6,-1306.5180824307045
30-9-2017 15:00,11276.7,-1180.6018731014647
30-9-2017 16:00,10911.92,-747.8139449808805
30-9-2017 17:00,10919.92,192.458710281001
30-9-2017 18:00,11478.45,585.7702858936482
30-9-2017 19:00,12458.43,91.76001299256131
30-9-2017 20:00,11028.48,-880.0304090684622
30-9-2017 21:00,4645.77,-5083.681961647813
30-9-2017 22:00,5890.5,-1489.6094667336415
30-9-2017 23:00,6054.93,3460.0611319113473
