Time,Actual,STL processed
1-8-2017 0:00,1382.48,505.8847840622111
1-8-2017 1:00,18079.67,-1082.2539062173582
1-8-2017 2:00,10799.03,-5885.338769671644
1-8-2017 3:00,19895.8,-236.53695219230212
1-8-2017 4:00,14725.93,-1743.583889628222
1-8-2017 5:00,11935.35,-3603.373339171434
1-8-2017 6:00,15696.11,-3911.335695361642
1-8-2017 7:00,4701.68,-3675.7822236273005
1-8-2017 8:00,3175.44,-1880.82422809315
1-8-2017 9:00,3621.41,-7460.212222461336
1-8-2017 10:00,8611.14,-13548.480098092103
1-8-2017 11:00,30185.16,8252.191133704113
1-8-2017 12:00,39813.25,22672.5228434721
1-8-2017 13:00,49062.33,33907.162557007796
1-8-2017 14:00,19287.54,3113.4248151326065
1-8-2017 15:00,17520.14,5817.177895460372
1-8-2017 16:00,7864.83,678.5763611952643
1-8-2017 17:00,3843.7,-8074.133036607807
1-8-2017 18:00,1897.8,-8936.594660974879
1-8-2017 19:00,5068.73,1871.6698901260424
1-8-2017 20:00,2171.47,-860.0679386317352
1-8-2017 21:00,397.85,-2920.4476077221298
1-8-2017 22:00,46855.47,13713.633859484842
1-8-2017 23:00,48470.69,-9016.788797559664
2-8-2017 0:00,245.19,-4162.277855203134
2-8-2017 1:00,27875.68,5673.141572920624
2-8-2017 2:00,20107.45,650.231580291671
2-8-2017 3:00,20904.68,-1604.0076354848188
2-8-2017 4:00,24039.12,5435.850842446465
2-8-2017 5:00,13609.97,-4090.38139478449
2-8-2017 6:00,2059.83,-19790.337980350196
2-8-2017 7:00,2381.53,-8373.732882039021
2-8-2017 8:00,2507.85,-5015.4778583778025
2-8-2017 9:00,3614.13,-9880.628031160699
2-8-2017 10:00,7768.36,-16747.55806559739
2-8-2017 11:00,33247.22,9248.369517023104
2-8-2017 12:00,31667.4,12346.542023224458
2-8-2017 13:00,15299.99,-1983.3887040370846
2-8-2017 14:00,16946.75,-1240.8143554490634
2-8-2017 15:00,40820.53,27240.15331081205
2-8-2017 16:00,27719.89,18546.253067133257
2-8-2017 17:00,34653.14,21021.887395720074
2-8-2017 18:00,2455.65,-10407.548558996354
2-8-2017 19:00,952.8,-4353.340319976
2-8-2017 20:00,3324.02,-1806.5243280869618
2-8-2017 21:00,272.08,-5092.557335291804
2-8-2017 22:00,32459.9,-2827.144210500668
2-8-2017 23:00,59316.57,-10.105062422568153
3-8-2017 0:00,16140.6,9804.793639754567
3-8-2017 1:00,21871.62,-1569.6243610648417
3-8-2017 2:00,17275.95,-2952.8350302149483
3-8-2017 3:00,18471.27,-4213.110826593756
3-8-2017 4:00,12421.79,-5915.199728749287
3-8-2017 5:00,16901.19,-7.342072020368505
3-8-2017 6:00,21641.21,1055.1797946860424
3-8-2017 7:00,4547.57,-4525.215251805841
3-8-2017 8:00,3767.32,-1609.374971397452
3-8-2017 9:00,14900.05,3790.588200935543
3-8-2017 10:00,22132.3,243.25203495989626
3-8-2017 11:00,14716.46,-6180.368004328366
3-8-2017 12:00,7366.37,-8781.978674426664
3-8-2017 13:00,5344.22,-8635.606476483945
3-8-2017 14:00,5021.98,-9668.146671431212
3-8-2017 15:00,3618.46,-6249.321053235264
3-8-2017 16:00,6742.59,1250.7241310226545
3-8-2017 17:00,48219.84,38572.816626572
3-8-2017 18:00,18479.27,9313.410782078867
3-8-2017 19:00,337.33,-1323.2300364629991
3-8-2017 20:00,259.43,-1186.9429694088158
3-8-2017 21:00,329.62,-1812.949940002969
3-8-2017 22:00,41334.27,8655.669277763729
3-8-2017 23:00,43049.91,-13877.065333644161
4-8-2017 0:00,2571.96,-1968.044436255028
4-8-2017 1:00,24786.51,2744.1140571365504
4-8-2017 2:00,15362.11,-4087.2733653805535
4-8-2017 3:00,12788.32,-9607.371819207528
4-8-2017 4:00,15944.7,-2748.2160899231367
4-8-2017 5:00,17934.5,645.3977626866035
4-8-2017 6:00,17233.07,-3811.39561641392
4-8-2017 7:00,5403.03,-4260.036907598462
4-8-2017 8:00,8730.58,2677.5725296675046
4-8-2017 9:00,28716.32,17043.79465042105
4-8-2017 10:00,25143.58,2807.627242369992
4-8-2017 11:00,21561.07,567.0744706365203
4-8-2017 12:00,16410.12,109.67551370211004
4-8-2017 13:00,21599.2,7318.743067844402
4-8-2017 14:00,14440.04,-636.4092396428496
4-8-2017 15:00,6065.42,-4253.103238516753
4-8-2017 16:00,3412.86,-2840.150195326818
4-8-2017 17:00,11666.18,1693.3867621379377
4-8-2017 18:00,9996.17,350.56732282096164
4-8-2017 19:00,1380.55,-678.5962583302589
4-8-2017 20:00,502.21,-1171.241821158057
4-8-2017 21:00,194.01,-1886.7221549188562
4-8-2017 22:00,24019.29,-8460.076243953921
4-8-2017 23:00,46117.97,-10067.494014625143
5-8-2017 0:00,1857.42,-1793.9503218013251
5-8-2017 1:00,21093.92,146.62080050375698
5-8-2017 2:00,31282.92,12912.60275932216
5-8-2017 3:00,29952.73,8748.807782749534
5-8-2017 4:00,22927.85,5385.5042781763605
5-8-2017 5:00,9682.47,-6645.12995637265
5-8-2017 6:00,22007.19,1681.937135680313
5-8-2017 7:00,2966.1,-6274.024683236457
5-8-2017 8:00,2204.13,-3676.3903721524875
5-8-2017 9:00,5119.02,-6276.183527892828
5-8-2017 10:00,25820.1,3869.2135970662675
5-8-2017 11:00,25233.42,4965.813867973151
5-8-2017 12:00,33173.99,17536.592399288194
5-8-2017 13:00,3958.31,-9250.817068601616
5-8-2017 14:00,24705.34,11171.34613313948
5-8-2017 15:00,1400.81,-6882.859861035946
5-8-2017 16:00,286.62,-3685.121337145665
5-8-2017 17:00,339.93,-6688.10743961342
5-8-2017 18:00,25004.83,18378.122004397843
5-8-2017 19:00,314.58,1583.5981387893498
5-8-2017 20:00,234.57,2288.902424231652
5-8-2017 21:00,127.88,1851.6656236645013
5-8-2017 22:00,21865.42,-6884.214875812038
5-8-2017 23:00,52003.29,-122.34890938629178
6-8-2017 0:00,2137.03,2480.4244752324903
6-8-2017 1:00,8896.59,-8065.524789057406
6-8-2017 2:00,7838.47,-6778.73646441197
6-8-2017 3:00,3318.66,-14235.490979238726
6-8-2017 4:00,2988.04,-11161.776733177947
6-8-2017 5:00,2164.04,-10999.39186415428
6-8-2017 6:00,25920.22,8477.552889783601
6-8-2017 7:00,2241.97,-4451.132266133971
6-8-2017 8:00,2139.96,-1483.285890500565
6-8-2017 9:00,1790.38,-7706.996785711981
6-8-2017 10:00,25578.74,5169.142409280086
6-8-2017 11:00,9529.06,-9320.216740149865
6-8-2017 12:00,24338.95,9592.256816437448
6-8-2017 13:00,27549.04,14438.633419114974
6-8-2017 14:00,50482.33,36317.91522268386
6-8-2017 15:00,11281.05,1659.0903258063554
6-8-2017 16:00,178.96,-6084.922577003577
6-8-2017 17:00,161.45,-9507.52921278794
6-8-2017 18:00,24782.54,14576.741641167464
6-8-2017 19:00,214.88,-2798.209982282402
6-8-2017 20:00,291.93,-2548.513321954095
6-8-2017 21:00,152.61,-3022.3355951169833
6-8-2017 22:00,22578.05,-11225.791510824378
6-8-2017 23:00,52895.34,-4035.100813091043
7-8-2017 0:00,2229.46,-2377.6967424666746
7-8-2017 1:00,22143.27,842.0654570693041
7-8-2017 2:00,16980.03,-1587.2980020373743
7-8-2017 3:00,18126.5,-2860.070204697411
7-8-2017 4:00,17415.17,196.7336424181758
7-8-2017 5:00,22641.84,6688.410570523725
7-8-2017 6:00,22063.07,2055.8059418557277
7-8-2017 7:00,15066.17,5979.8904044465635
7-8-2017 8:00,4033.67,-1765.518199861399
7-8-2017 9:00,21126.51,9603.647371432733
7-8-2017 10:00,26543.49,4261.772842434382
7-8-2017 11:00,16492.37,-3842.08152135578
7-8-2017 12:00,6780.45,-9469.138733519583
7-8-2017 13:00,2590.01,-11788.567024220227
7-8-2017 14:00,341.5,-14793.517582769071
7-8-2017 15:00,10006.46,-267.2623462941756
7-8-2017 16:00,12081.37,5238.582243269428
7-8-2017 17:00,25022.41,15306.30633141596
7-8-2017 18:00,5471.05,-4839.440147436982
7-8-2017 19:00,1155.09,-1785.1283433436201
7-8-2017 20:00,4105.62,1605.9618772552822
7-8-2017 21:00,14024.6,11036.634026546424
7-8-2017 22:00,34599.29,677.0980599895247
7-8-2017 23:00,58675.78,1726.538854411796
8-8-2017 0:00,2687.86,-2233.701023576912
8-8-2017 1:00,15494.11,-6147.334668668978
8-8-2017 2:00,20766.97,1611.072780018303
8-8-2017 3:00,25403.82,3709.0855810710636
8-8-2017 4:00,20097.05,1896.9249449318777
8-8-2017 5:00,18910.22,2262.3539649845916
8-8-2017 6:00,14528.55,-5939.120013423997
8-8-2017 7:00,10821.61,1454.9492892423896
8-8-2017 8:00,6230.07,376.34092656021494
8-8-2017 9:00,21948.66,10690.544248116199
8-8-2017 10:00,31200.25,9505.463834017879
8-8-2017 11:00,17285.61,-1906.1479052420473
8-8-2017 12:00,12972.35,-1983.4480472665218
8-8-2017 13:00,2725.86,-10325.510798018971
8-8-2017 14:00,3355.29,-10356.263285359173
8-8-2017 15:00,7808.15,-924.5774822055027
8-8-2017 16:00,540.08,-4890.141314952465
8-8-2017 17:00,3068.62,-4839.383753823115
8-8-2017 18:00,1298.85,-7397.354816432486
8-8-2017 19:00,960.66,-323.9258261768209
8-8-2017 20:00,5369.98,4657.651713311756
8-8-2017 21:00,1438.8,361.8302728383969
8-8-2017 22:00,41817.78,9778.759815385525
8-8-2017 23:00,56468.77,1779.7562664502639
9-8-2017 0:00,2922.29,246.2382349006548
9-8-2017 1:00,29570.33,10286.498443365386
9-8-2017 2:00,18350.38,1431.0002349595998
9-8-2017 3:00,19146.44,-283.40131699604717
9-8-2017 4:00,17519.9,1462.787458774037
9-8-2017 5:00,15842.55,1261.8892041057316
9-8-2017 6:00,17061.52,-1441.3190809269654
9-8-2017 7:00,9109.6,1525.7443614489457
9-8-2017 8:00,2311.54,-1906.14319535482
9-8-2017 9:00,11624.08,2104.1724530703104
9-8-2017 10:00,8078.15,-11745.015509140889
9-8-2017 11:00,40558.82,23569.4040177695
9-8-2017 12:00,5316.89,-7500.167046393561
9-8-2017 13:00,6460.66,-4485.153040288232
9-8-2017 14:00,789.21,-10811.374410311353
9-8-2017 15:00,1247.48,-5345.896835697438
9-8-2017 16:00,2065.81,-1463.5528423128671
9-8-2017 17:00,330.27,-5457.101836101741
9-8-2017 18:00,1311.9,-5607.674562953467
9-8-2017 19:00,1466.46,1846.5018011485954
9-8-2017 20:00,227.26,1144.1263450930492
9-8-2017 21:00,170.77,780.2277381385211
9-8-2017 22:00,28715.54,-1761.2272946046833
9-8-2017 23:00,53504.76,735.1616395097662
10-8-2017 0:00,1120.93,258.58478920114067
10-8-2017 1:00,28935.5,11582.839439658605
10-8-2017 2:00,22864.43,7760.486162595684
10-8-2017 3:00,29697.78,12117.11084606757
10-8-2017 4:00,23133.62,8809.126374722113
10-8-2017 5:00,14363.66,1254.0169252336964
10-8-2017 6:00,2779.28,-14540.709586522216
10-8-2017 7:00,3881.09,-2887.759602462529
10-8-2017 8:00,3515.82,-219.4339514136318
10-8-2017 9:00,12055.43,2776.343087926878
10-8-2017 10:00,16943.35,-2849.365809536015
10-8-2017 11:00,6857.18,-10114.84840359413
10-8-2017 12:00,4400.8,-8806.253777034573
10-8-2017 13:00,3419.23,-8018.119570093584
10-8-2017 14:00,1546.87,-10608.196378821745
10-8-2017 15:00,900.84,-6286.993588769706
10-8-2017 16:00,30903.02,26472.375092752336
10-8-2017 17:00,280.27,-6347.304561178136
10-8-2017 18:00,319.25,-7943.223057495587
10-8-2017 19:00,3642.47,2408.9474410708262
10-8-2017 20:00,187.09,-703.7042499108811
10-8-2017 21:00,7922.67,6400.425993394629
10-8-2017 22:00,57231.61,24117.716914937522
10-8-2017 23:00,57395.05,1964.2388616781354
11-8-2017 0:00,1747.98,-2262.5362778130693
11-8-2017 1:00,5085.77,-15261.718872817008
11-8-2017 2:00,14359.98,-3818.648905991202
11-8-2017 3:00,27996.95,7411.210325454085
11-8-2017 4:00,19797.47,2387.2341553414935
11-8-2017 5:00,21545.03,5704.610297360745
11-8-2017 6:00,20794.03,1071.66234520941
11-8-2017 7:00,17291.92,8369.415090594925
11-8-2017 8:00,6143.79,538.8701691385304
11-8-2017 9:00,11779.91,946.4856166320278
11-8-2017 10:00,12151.5,-8848.987695685355
11-8-2017 11:00,30504.85,12868.924109685227
11-8-2017 12:00,7474.21,-6247.1890526354055
11-8-2017 13:00,15591.74,3676.51422975041
11-8-2017 14:00,304.85,-12253.029143073623
11-8-2017 15:00,200.81,-7291.802262974295
11-8-2017 16:00,322.62,-4581.62001870562
11-8-2017 17:00,3069.64,-3513.131888443695
11-8-2017 18:00,220.46,-8042.587709892877
11-8-2017 19:00,3517.61,2470.165367471889
11-8-2017 20:00,163.57,-277.9241141019884
11-8-2017 21:00,140.57,-599.1876719322972
11-8-2017 22:00,26917.71,-5261.893447499155
11-8-2017 23:00,60848.24,6984.858860471739
12-8-2017 0:00,1827.48,-445.33721959789
12-8-2017 1:00,12195.94,-6283.024161925552
12-8-2017 2:00,30295.16,13882.68194692666
12-8-2017 3:00,32266.46,13493.968624483019
12-8-2017 4:00,17137.57,1437.39365374097
12-8-2017 5:00,25195.43,10722.777265274952
12-8-2017 6:00,29600.83,10877.36975073524
12-8-2017 7:00,3927.0,-4445.132864546375
12-8-2017 8:00,1735.27,-3732.5464805010124
12-8-2017 9:00,1956.43,-8890.217259000652
12-8-2017 10:00,24864.79,3731.9903796813505
12-8-2017 11:00,2056.14,-15633.878049665489
12-8-2017 12:00,2782.73,-11308.863635012436
12-8-2017 13:00,2682.91,-9544.834938137734
12-8-2017 14:00,25905.46,13131.33146398642
12-8-2017 15:00,169.94,-7419.681226822898
12-8-2017 16:00,156.96,-4991.899080763529
12-8-2017 17:00,139.25,-6438.1183846937265
12-8-2017 18:00,31176.44,22605.04325034083
12-8-2017 19:00,7193.25,5755.733688119428
12-8-2017 20:00,153.13,-683.5888024311425
12-8-2017 21:00,85.31,-1165.1581992527572
12-8-2017 22:00,22172.56,-10814.622709784846
12-8-2017 23:00,57390.42,2903.9279215608585
13-8-2017 0:00,1897.27,-1277.0611369426915
13-8-2017 1:00,21099.75,1959.4991490259126
13-8-2017 2:00,20335.92,3269.182975524518
13-8-2017 3:00,21579.15,2308.8986748119496
13-8-2017 4:00,20623.3,4431.576479060432
13-8-2017 5:00,19589.5,4846.064641297668
13-8-2017 6:00,33205.11,14405.064645558114
13-8-2017 7:00,4908.1,-3426.0962492020954
13-8-2017 8:00,5470.05,189.95852153355554
13-8-2017 9:00,5360.42,-5213.946512135696
13-8-2017 10:00,24545.59,3800.864048369207
13-8-2017 11:00,4029.28,-12959.562644871534
13-8-2017 12:00,3774.21,-9697.428682421272
13-8-2017 13:00,3855.08,-7714.382975949546
13-8-2017 14:00,23618.73,11579.804796230936
13-8-2017 15:00,134.88,-6619.645870378893
13-8-2017 16:00,169.57,-4311.152227420691
13-8-2017 17:00,134.78,-5394.143184042043
13-8-2017 18:00,23523.72,15817.301688977235
13-8-2017 19:00,191.55,-332.4247313293781
13-8-2017 20:00,167.97,369.92555064432963
13-8-2017 21:00,134.73,-53.34588296567745
13-8-2017 22:00,34861.22,2778.764673739901
13-8-2017 23:00,43631.5,-9626.592569336675
14-8-2017 0:00,2495.77,410.6391959287612
14-8-2017 1:00,24112.88,6205.305845927071
14-8-2017 2:00,16389.14,465.35652580551687
14-8-2017 3:00,14754.75,-3312.7996174425534
14-8-2017 4:00,14978.5,-101.05990247009504
14-8-2017 5:00,16066.04,2508.994848445869
14-8-2017 6:00,18015.44,449.4444094819373
14-8-2017 7:00,15071.63,7939.467273218606
14-8-2017 8:00,9771.55,5696.742468620016
14-8-2017 9:00,12115.23,2870.085872124193
14-8-2017 10:00,33601.0,14340.672046795049
14-8-2017 11:00,1533.84,-13618.120217996555
14-8-2017 12:00,6721.1,-4955.494015406041
14-8-2017 13:00,10775.11,1146.5163386850527
14-8-2017 14:00,3737.61,-6176.026881055797
14-8-2017 15:00,856.28,-3565.5678854437947
14-8-2017 16:00,2693.77,486.26432086850946
14-8-2017 17:00,290.59,-2268.096903933606
14-8-2017 18:00,373.3,-4229.637408419221
14-8-2017 19:00,1731.73,4676.509436909455
14-8-2017 20:00,92.21,4204.762615127935
14-8-2017 21:00,151.49,4153.775600134633
14-8-2017 22:00,27580.64,-213.07684646870075
14-8-2017 23:00,37343.89,-11045.750034514138
15-8-2017 0:00,2547.75,5447.914483973718
15-8-2017 1:00,16404.16,3395.7372082508664
15-8-2017 2:00,15824.25,4480.274451758281
15-8-2017 3:00,12061.3,-1596.3138237761514
15-8-2017 4:00,4483.53,-6506.272112191709
15-8-2017 5:00,2314.49,-7550.79566671079
15-8-2017 6:00,2022.97,-12275.831443012863
15-8-2017 7:00,1946.31,-2422.919037163583
15-8-2017 8:00,2270.23,489.3623665193263
15-8-2017 9:00,3819.77,-3591.908202896253
15-8-2017 10:00,6586.95,-11269.163303103698
15-8-2017 11:00,11300.36,-2679.3280284904104
15-8-2017 12:00,25158.22,14027.6335251961
15-8-2017 13:00,21256.87,11506.470313858663
15-8-2017 14:00,25438.24,14773.577889148593
15-8-2017 15:00,9485.04,3705.918333934531
15-8-2017 16:00,608.59,-3829.2766064391326
15-8-2017 17:00,171.45,-4960.484642215399
15-8-2017 18:00,188.84,-7894.007066999298
15-8-2017 19:00,603.48,-606.2589627200978
15-8-2017 20:00,141.32,-498.6848949416162
15-8-2017 21:00,132.44,-825.7900348364055
15-8-2017 22:00,51571.21,18427.663309138457
15-8-2017 23:00,43469.93,-10177.517029988729
16-8-2017 0:00,1936.24,-785.1318178032398
16-8-2017 1:00,29781.65,11598.704317382648
16-8-2017 2:00,19270.83,2953.5686764562633
16-8-2017 3:00,19495.88,1230.595101964107
16-8-2017 4:00,15267.77,-88.5900833376636
16-8-2017 5:00,5996.13,-7953.321189659355
16-8-2017 6:00,3459.66,-14636.156214993518
16-8-2017 7:00,2920.03,-5056.062712326504
16-8-2017 8:00,5697.31,529.5329847403082
16-8-2017 9:00,20469.33,9940.307761115697
16-8-2017 10:00,26749.41,6068.423981877437
16-8-2017 11:00,30983.05,14670.042954319852
16-8-2017 12:00,17442.75,4083.451979428106
16-8-2017 13:00,1986.18,-9747.307072658059
16-8-2017 14:00,1146.44,-11244.20351262015
16-8-2017 15:00,5753.66,-1464.2574576194784
16-8-2017 16:00,1193.8,-4667.770316596132
16-8-2017 17:00,212.43,-5929.243293569718
16-8-2017 18:00,2681.88,-6564.034521250834
16-8-2017 19:00,269.33,-2012.685876031388
16-8-2017 20:00,1945.98,392.7193412203851
16-8-2017 21:00,310.68,-1459.1846981432227
16-8-2017 22:00,50963.82,16887.858961525413
16-8-2017 23:00,68019.55,13856.652431906705
17-8-2017 0:00,2562.1,-725.0646929453651
17-8-2017 1:00,19466.13,824.9875996259307
17-8-2017 2:00,13088.51,-3825.128179257579
17-8-2017 3:00,14300.4,-4535.064306230792
17-8-2017 4:00,12074.54,-3950.3483166442966
17-8-2017 5:00,17024.4,2505.6818257342948
17-8-2017 6:00,24148.46,5587.396351870928
17-8-2017 7:00,14111.43,5677.0789341942855
17-8-2017 8:00,16671.2,11081.956907483607
17-8-2017 9:00,4230.79,-6484.560987900812
17-8-2017 10:00,33280.64,12671.351983964525
17-8-2017 11:00,3148.17,-12636.029915629522
17-8-2017 12:00,3269.67,-9490.657988965115
17-8-2017 13:00,21308.64,10247.976266338697
17-8-2017 14:00,1457.95,-10174.535040736704
17-8-2017 15:00,374.44,-5969.904227382592
17-8-2017 16:00,571.41,-4573.254496949845
17-8-2017 17:00,167.77,-4914.582966261843
17-8-2017 18:00,216.22,-8195.253547981269
17-8-2017 19:00,254.94,-1173.3728984338522
17-8-2017 20:00,204.03,-408.03506832105995
17-8-2017 21:00,153.76,-850.2778427864378
17-8-2017 22:00,27620.12,-6087.761417555041
17-8-2017 23:00,70344.52,16689.69831220372
18-8-2017 0:00,1779.85,-1326.5486998169072
18-8-2017 1:00,11515.41,-7279.048598260957
18-8-2017 2:00,28526.42,10879.607136497652
18-8-2017 3:00,30144.34,10160.220108642636
18-8-2017 4:00,16599.0,-1114.5585501128298
18-8-2017 5:00,19924.73,3246.1510325954023
18-8-2017 6:00,18036.79,-3150.5666981678005
18-8-2017 7:00,9610.0,-2014.1010968618484
18-8-2017 8:00,3527.12,-5785.526908023763
18-8-2017 9:00,4564.93,-10039.269354284344
18-8-2017 10:00,33995.53,9354.839526250104
18-8-2017 11:00,21987.62,2228.545912185109
18-8-2017 12:00,20025.32,2959.6998979711825
18-8-2017 13:00,12090.52,-3136.8889112701745
18-8-2017 14:00,7322.01,-8327.191457394032
18-8-2017 15:00,39153.72,28972.767742378375
18-8-2017 16:00,20475.72,11402.47369028537
18-8-2017 17:00,753.06,-7857.682595309829
18-8-2017 18:00,334.34,-11772.624855012351
18-8-2017 19:00,2992.63,-2054.1345250817467
18-8-2017 20:00,151.11,-3934.1364060527194
18-8-2017 21:00,178.57,-4043.1927206457894
18-8-2017 22:00,34896.34,-1996.188334877559
18-8-2017 23:00,73810.92,17542.272849232744
19-8-2017 0:00,2345.98,-3270.7288549823643
19-8-2017 1:00,7799.55,-12842.452961955863
19-8-2017 2:00,5486.81,-13590.557731069237
19-8-2017 3:00,21950.72,1117.4123226798329
19-8-2017 4:00,16859.91,-1246.0030019316946
19-8-2017 5:00,15931.08,-803.0444515550444
19-8-2017 6:00,39331.26,18429.925088120686
19-8-2017 7:00,18452.29,7358.753235748009
19-8-2017 8:00,2778.3,-5729.436832526364
19-8-2017 9:00,6243.87,-7373.071994226382
19-8-2017 10:00,30313.15,6864.954630413911
19-8-2017 11:00,34378.13,16215.871137314694
19-8-2017 12:00,10786.1,-4665.330982340834
19-8-2017 13:00,1281.44,-12217.347091579279
19-8-2017 14:00,33292.89,19498.224887796485
19-8-2017 15:00,1944.49,-6225.931761464737
19-8-2017 16:00,1007.84,-6170.963831535408
19-8-2017 17:00,964.41,-5260.920543669714
19-8-2017 18:00,28088.91,18291.032908388763
19-8-2017 19:00,262.95,-2306.9096915533555
19-8-2017 20:00,1750.41,378.1161061359944
19-8-2017 21:00,450.4,-774.3720913591405
19-8-2017 22:00,7.27,-33826.60808782844
19-8-2017 23:00,67176.96,14566.366207859039
20-8-2017 0:00,1606.14,-220.41853132493816
20-8-2017 1:00,10228.97,-6349.718045510396
20-8-2017 2:00,6935.55,-8051.114517178265
20-8-2017 3:00,21327.89,4777.051419492382
20-8-2017 4:00,4760.28,-8995.93176965771
20-8-2017 5:00,16267.68,3794.211779954523
20-8-2017 6:00,44305.91,27580.944621636354
20-8-2017 7:00,12585.47,5486.991347152216
20-8-2017 8:00,10634.45,5970.263053332552
20-8-2017 9:00,2440.93,-7615.128161726399
20-8-2017 10:00,18140.2,-2006.887130899764
20-8-2017 11:00,1442.5,-13479.343840952692
20-8-2017 12:00,1682.31,-10976.345403969326
20-8-2017 13:00,2818.05,-8207.138763233146
20-8-2017 14:00,26424.09,14795.327791613958
20-8-2017 15:00,2952.3,-3329.834656709181
20-8-2017 16:00,149.78,-5690.4346947858085
20-8-2017 17:00,172.84,-4867.709993707471
20-8-2017 18:00,23711.77,14377.571009863752
20-8-2017 19:00,4751.73,2168.5873198006575
20-8-2017 20:00,173.1,-1621.207364097916
20-8-2017 21:00,116.77,-2244.5741995655208
20-8-2017 22:00,22452.33,-13455.057333342767
20-8-2017 23:00,72325.21,17241.913318851475
21-8-2017 0:00,3897.34,-1268.4212103717655
21-8-2017 1:00,6697.68,-13603.96804231339
21-8-2017 2:00,14357.05,-4982.1081270799605
21-8-2017 3:00,16332.18,-5036.308218031942
21-8-2017 4:00,10483.1,-8680.45118226481
21-8-2017 5:00,20290.62,2385.639114777201
21-8-2017 6:00,37086.79,14910.897006659332
21-8-2017 7:00,40138.34,27472.49405825793
21-8-2017 8:00,13171.41,2853.219287087166
21-8-2017 9:00,3660.8,-11814.243697087222
21-8-2017 10:00,33707.87,8399.706024169252
21-8-2017 11:00,25412.16,5786.2303814061015
21-8-2017 12:00,15395.22,-1897.4763407281425
21-8-2017 13:00,35594.56,20311.937946855724
21-8-2017 14:00,1079.0,-14419.106025952782
21-8-2017 15:00,21381.35,11648.040623535218
21-8-2017 16:00,444.47,-8700.833746242286
21-8-2017 17:00,1161.72,-6245.46248209734
21-8-2017 18:00,247.78,-11081.888777159409
21-8-2017 19:00,3423.01,-540.3053418286454
21-8-2017 20:00,4281.52,1790.5677081996837
21-8-2017 21:00,182.69,-2235.4843386217326
21-8-2017 22:00,26082.68,-9464.11971262109
21-8-2017 23:00,76509.98,22742.43219316574
22-8-2017 0:00,1494.28,-1867.8772290109137
22-8-2017 1:00,5871.86,-12157.71257173532
22-8-2017 2:00,6014.59,-10829.797462627208
22-8-2017 3:00,4366.72,-14119.924774228435
22-8-2017 4:00,17460.39,1441.1853175035412
22-8-2017 5:00,14819.13,36.801914514515374
22-8-2017 6:00,12183.75,-6886.4255908638725
22-8-2017 7:00,10095.41,421.29850486677606
22-8-2017 8:00,10906.64,3496.003974394227
22-8-2017 9:00,30485.68,17630.621045448315
22-8-2017 10:00,27334.36,4381.500328102273
22-8-2017 11:00,50464.07,33127.846623596546
22-8-2017 12:00,8576.88,-6878.654386687653
22-8-2017 13:00,3781.68,-10258.665595365625
22-8-2017 14:00,2744.01,-12095.22323893925
22-8-2017 15:00,16930.03,7302.2693652503785
22-8-2017 16:00,5404.5,-4460.625029957104
22-8-2017 17:00,241.93,-8077.226581995461
22-8-2017 18:00,495.41,-12505.679554940734
22-8-2017 19:00,798.73,-5351.265454487559
22-8-2017 20:00,253.87,-4870.791130803771
22-8-2017 21:00,187.71,-4890.419828897153
22-8-2017 22:00,51411.74,12956.40575625158
22-8-2017 23:00,75859.87,19472.952115001208
23-8-2017 0:00,6360.72,208.64586260162832
23-8-2017 1:00,28750.56,8178.9143041970965
23-8-2017 2:00,18301.36,-1065.1069062572096
23-8-2017 3:00,17954.8,-2892.2642282471643
23-8-2017 4:00,15040.09,-3280.8885206050363
23-8-2017 5:00,15230.92,-1577.8856157092123
23-8-2017 6:00,17193.32,-3614.281105707083
23-8-2017 7:00,18834.44,7619.748193376841
23-8-2017 8:00,19317.58,10584.000222171988
23-8-2017 9:00,25797.86,12323.815792933714
23-8-2017 10:00,21959.15,-898.4776380979365
23-8-2017 11:00,9293.55,-7068.025225910569
23-8-2017 12:00,11377.65,-2581.9039037856746
23-8-2017 13:00,21387.11,9527.795235497291
23-8-2017 14:00,2829.72,-9138.331521195601
23-8-2017 15:00,676.51,-5393.2744032275805
23-8-2017 16:00,279.29,-5554.4077623634375
23-8-2017 17:00,207.08,-3492.887231615705
23-8-2017 18:00,1553.17,-6750.048294113912
23-8-2017 19:00,1104.42,-51.101443056675635
23-8-2017 20:00,206.49,437.86018214189426
23-8-2017 21:00,3858.87,4213.351100226479
23-8-2017 22:00,25448.93,-7779.965051180479
23-8-2017 23:00,46512.06,-4262.30765697921
24-8-2017 0:00,80.19,-523.1459021003557
24-8-2017 1:00,20334.54,5328.952302863769
24-8-2017 2:00,10375.63,-3635.3092481041795
24-8-2017 3:00,13147.87,-2412.5306014340767
24-8-2017 4:00,13351.74,145.4914993906732
24-8-2017 5:00,24623.75,12588.082999446218
24-8-2017 6:00,18333.14,1970.8418121037303
24-8-2017 7:00,5681.72,-1507.7455708727211
24-8-2017 8:00,6897.69,1790.0511317764558
24-8-2017 9:00,16196.27,5838.368184628984
24-8-2017 10:00,16318.63,-3922.3985594525784
24-8-2017 11:00,3640.35,-10438.970629936412
24-8-2017 12:00,19962.04,7592.312425233287
24-8-2017 13:00,17109.25,6414.141675996889
24-8-2017 14:00,7549.58,-3674.784430295582
24-8-2017 15:00,2194.15,-3555.8230350294725
24-8-2017 16:00,1347.6,-4803.470666329551
24-8-2017 17:00,3065.75,-758.4894399636032
24-8-2017 18:00,3688.55,-5054.9199791826195
24-8-2017 19:00,1721.86,28.067285610992258
24-8-2017 20:00,209.21,-130.75612454333714
24-8-2017 21:00,189.41,177.51264878062648
24-8-2017 22:00,44273.94,10600.90058010209
24-8-2017 23:00,44499.1,-6204.895170960874
25-8-2017 0:00,2082.14,1613.7704104805234
25-8-2017 1:00,33054.27,18655.810287476128
25-8-2017 2:00,16929.19,3769.6903046573734
25-8-2017 3:00,16044.54,1721.5568286503567
25-8-2017 4:00,20916.61,9230.696844245835
25-8-2017 5:00,6362.17,-3863.558056758099
25-8-2017 6:00,2682.41,-11566.589937664405
25-8-2017 7:00,3465.3,-1399.7433298211054
25-8-2017 8:00,4039.81,1488.5087195622327
25-8-2017 9:00,2343.37,-5165.931933270187
25-8-2017 10:00,3223.97,-13865.939863991813
25-8-2017 11:00,16090.45,5629.965709262999
25-8-2017 12:00,9315.6,674.3426238873399
25-8-2017 13:00,1929.72,-5010.959701156174
25-8-2017 14:00,161.32,-7277.556844335966
25-8-2017 15:00,172.27,-1764.5128590595205
25-8-2017 16:00,147.48,-2376.0064498115717
25-8-2017 17:00,2136.18,1839.2631857769702
25-8-2017 18:00,1042.94,-4782.549116558483
25-8-2017 19:00,251.5,1084.3062755758838
25-8-2017 20:00,154.78,2014.985543673034
25-8-2017 21:00,558.53,2293.246371070465
25-8-2017 22:00,29864.84,-2797.867416045563
25-8-2017 23:00,43518.96,-6318.702113538673
26-8-2017 0:00,2187.29,1991.331493299358
26-8-2017 1:00,32146.96,17668.876958148056
26-8-2017 2:00,17342.37,3523.3624593000914
26-8-2017 3:00,19088.93,3668.2207764375635
26-8-2017 4:00,19985.6,6660.6826226253725
26-8-2017 5:00,4678.15,-7585.820651501697
26-8-2017 6:00,22565.83,5893.1048019645295
26-8-2017 7:00,2610.55,-5155.936571436077
26-8-2017 8:00,2008.53,-3901.1411473822354
26-8-2017 9:00,2636.94,-8368.991741204145
26-8-2017 10:00,27167.74,6453.196906129626
26-8-2017 11:00,3932.13,-10115.792112181469
26-8-2017 12:00,12835.32,285.7364265929791
26-8-2017 13:00,3388.83,-7383.3658990642025
26-8-2017 14:00,35869.87,24681.387496062125
26-8-2017 15:00,197.51,-5410.324353457644
26-8-2017 16:00,192.5,-6136.79232846822
26-8-2017 17:00,271.56,-3365.3251525513806
26-8-2017 18:00,24706.56,15497.85991310244
26-8-2017 19:00,203.51,-2172.1774363167315
26-8-2017 20:00,162.57,-946.0463588623988
26-8-2017 21:00,36.03,-820.0512399405943
26-8-2017 22:00,24963.97,-10194.234508043213
26-8-2017 23:00,44935.22,-6710.355914515561
27-8-2017 0:00,2631.81,865.5979551700057
27-8-2017 1:00,30394.6,14882.734485715138
27-8-2017 2:00,18779.89,4235.720948681323
27-8-2017 3:00,15995.89,300.30653680662726
27-8-2017 4:00,20925.76,7673.195691430115
27-8-2017 5:00,2203.63,-9789.158312305944
27-8-2017 6:00,27149.86,10960.90211904695
27-8-2017 7:00,3055.5,-4106.86959208342
27-8-2017 8:00,3883.19,-1281.2231498449291
27-8-2017 9:00,3110.71,-7001.876441498257
27-8-2017 10:00,22149.33,2486.476027048986
27-8-2017 11:00,3154.44,-9518.250339669936
27-8-2017 12:00,3726.18,-7482.712933587312
27-8-2017 13:00,2583.52,-6721.615807720585
27-8-2017 14:00,26961.78,17371.827577849443
27-8-2017 15:00,182.33,-3698.860654328965
27-8-2017 16:00,939.92,-3747.9235614604886
27-8-2017 17:00,690.66,-1033.3807600556866
27-8-2017 18:00,24883.14,17349.599758747067
27-8-2017 19:00,1049.55,329.2977529340242
27-8-2017 20:00,755.61,1347.6587249052063
27-8-2017 21:00,201.82,903.9539629309056
27-8-2017 22:00,25127.89,-8897.272958578778
27-8-2017 23:00,40071.74,-10273.685246450852
28-8-2017 0:00,528.91,-219.96528633821254
28-8-2017 1:00,7575.54,-6972.163547758861
28-8-2017 2:00,12391.98,-1469.0519806407574
28-8-2017 3:00,23362.67,8210.865020810163
28-8-2017 4:00,17984.58,5033.375626207115
28-8-2017 5:00,19159.53,7333.244481131007
28-8-2017 6:00,17521.89,1378.3334786395262
28-8-2017 7:00,3423.88,-3906.4249819516563
28-8-2017 8:00,2730.68,-2794.213933259567
28-8-2017 9:00,10481.69,-112.47450208801456
28-8-2017 10:00,14785.87,-5469.402791671009
28-8-2017 11:00,6920.68,-6290.071086141459
28-8-2017 12:00,25685.25,13634.57060790564
28-8-2017 13:00,7692.9,-2460.198861498091
28-8-2017 14:00,16972.52,6533.528467721269
28-8-2017 15:00,2729.87,-2004.7921939101416
28-8-2017 16:00,2588.38,-3170.694353676241
28-8-2017 17:00,13488.16,11027.737820706923
28-8-2017 18:00,198.66,-8245.492459850993
28-8-2017 19:00,7276.89,5689.655724851764
28-8-2017 20:00,2718.62,2552.271438249474
28-8-2017 21:00,893.69,963.5206089899093
28-8-2017 22:00,30361.64,-4452.721740179641
28-8-2017 23:00,45308.0,-5391.236683704234
29-8-2017 0:00,3413.67,2296.4475925826628
29-8-2017 1:00,7461.62,-7155.518001781073
29-8-2017 2:00,7172.5,-6686.903871488346
29-8-2017 3:00,6627.19,-8310.257997689114
29-8-2017 4:00,13669.14,1041.4905854246608
29-8-2017 5:00,17549.91,6106.580710675007
29-8-2017 6:00,17463.56,1776.1166860056437
29-8-2017 7:00,10660.8,3767.167046725972
29-8-2017 8:00,8814.36,3727.48827264399
29-8-2017 9:00,32360.02,22133.97541816216
29-8-2017 10:00,10412.71,-9534.253699802633
29-8-2017 11:00,11619.39,-1177.6639922761751
29-8-2017 12:00,5479.31,-6410.368080516158
29-8-2017 13:00,14197.93,4042.37866580586
29-8-2017 14:00,475.01,-10124.787250329242
29-8-2017 15:00,1907.53,-3149.6475304174546
29-8-2017 16:00,752.03,-5704.191966588368
29-8-2017 17:00,14429.35,11568.640524139964
29-8-2017 18:00,563.38,-8493.279612411803
29-8-2017 19:00,230.87,-1962.5810230428542
29-8-2017 20:00,590.37,-110.95035406822899
29-8-2017 21:00,536.95,218.25773996171665
29-8-2017 22:00,61789.36,26450.854546586765
29-8-2017 23:00,41414.68,-9352.0384691359
30-8-2017 0:00,2762.35,1691.6802809930668
30-8-2017 1:00,7787.17,-6663.885228504836
30-8-2017 2:00,8212.36,-5501.539350053003
30-8-2017 3:00,18978.18,4269.930566731555
30-8-2017 4:00,17718.93,5342.081756821988
30-8-2017 5:00,11945.77,839.4448760778614
30-8-2017 6:00,14991.07,-259.19024646829894
30-8-2017 7:00,10284.45,4008.1722910838835
30-8-2017 8:00,6070.11,1586.6979552783432
30-8-2017 9:00,10921.15,1369.2611248948833
30-8-2017 10:00,4112.79,-14838.886461923092
30-8-2017 11:00,10590.66,-977.1712395823324
30-8-2017 12:00,25256.75,14916.492082586941
30-8-2017 13:00,5457.65,-2889.2138467503355
30-8-2017 14:00,260.59,-8524.034850927921
30-8-2017 15:00,309.01,-2680.007439418243
30-8-2017 16:00,5159.82,779.0062838759841
30-8-2017 17:00,243.27,-790.7664341212148
30-8-2017 18:00,217.71,-7383.653265326422
30-8-2017 19:00,295.55,-458.77488593475573
30-8-2017 20:00,263.85,934.2175631936243
30-8-2017 21:00,1300.94,2228.9666043380967
30-8-2017 22:00,30615.66,-4651.892973009142
30-8-2017 23:00,47410.21,-2781.846296166126
31-8-2017 0:00,4206.42,3551.6938336766325
31-8-2017 1:00,8648.64,-5571.408910454105
31-8-2017 2:00,22091.55,8283.61139665817
31-8-2017 3:00,15291.03,267.968036929391
31-8-2017 4:00,15822.18,2846.7794427880854
31-8-2017 5:00,14897.07,2692.68712375209
31-8-2017 6:00,12701.38,-4132.467528968262
31-8-2017 7:00,3491.01,-4774.932290699151
31-8-2017 8:00,3003.63,-4069.5916643431665
31-8-2017 9:00,28514.9,15815.78432600558
31-8-2017 10:00,30236.33,7830.248859623131
31-8-2017 11:00,12847.79,-2568.819813933089
31-8-2017 12:00,4241.83,-10255.318492065842
31-8-2017 13:00,14510.72,2168.4216316372476
31-8-2017 14:00,4639.65,-8231.735731883165
31-8-2017 15:00,11930.2,5009.59809992406
31-8-2017 16:00,15074.26,6671.666329178121
31-8-2017 17:00,7329.82,2406.042442157748
31-8-2017 18:00,668.22,-10813.487043998537
31-8-2017 19:00,5944.82,1675.206634740356
31-8-2017 20:00,6799.51,4268.376373346995
31-8-2017 21:00,6935.15,5030.705934378175
31-8-2017 22:00,55983.54,17202.13796298324
31-8-2017 23:00,44522.33,-8185.477677683484
1-9-2017 0:00,2348.16,-486.64817820234384
1-9-2017 1:00,11029.42,-5144.307449920623
1-9-2017 2:00,12851.97,-2823.3520071026123
1-9-2017 3:00,13596.66,-3103.217936299443
1-9-2017 4:00,12290.41,-2234.0035378119937
1-9-2017 5:00,7276.83,-6345.788229410374
1-9-2017 6:00,8014.38,-10092.94934657543
1-9-2017 7:00,7189.07,-2126.05924039823
1-9-2017 8:00,5133.26,-2958.9214846895557
1-9-2017 9:00,10260.25,-3443.483937490737
1-9-2017 10:00,33852.72,10706.617025466123
1-9-2017 11:00,20226.03,4246.798764916695
1-9-2017 12:00,19732.37,4936.262395385695
1-9-2017 13:00,21985.93,9532.966630745512
1-9-2017 14:00,6295.6,-6750.939033501368
1-9-2017 15:00,22089.75,15176.00927721976
1-9-2017 16:00,17346.05,8886.960071050018
1-9-2017 17:00,10180.02,4927.678374819217
1-9-2017 18:00,1264.29,-10940.690406475405
1-9-2017 19:00,1697.72,-3334.218068576547
1-9-2017 20:00,1093.82,-2289.957680678912
1-9-2017 21:00,1073.7,-1434.716119919307
1-9-2017 22:00,46088.83,5901.718994479772
1-9-2017 23:00,45434.62,-7801.1574838549805
2-9-2017 0:00,1907.7,-1239.7671348937456
2-9-2017 1:00,7809.13,-8422.130376441519
2-9-2017 2:00,8014.58,-7603.25724015972
2-9-2017 3:00,2953.48,-13469.623181066549
2-9-2017 4:00,5639.22,-8451.893232192295
2-9-2017 5:00,14057.33,639.8150315865314
2-9-2017 6:00,37281.31,19164.86277791636
2-9-2017 7:00,19741.65,10282.723079941252
2-9-2017 8:00,20216.62,11651.893292942206
2-9-2017 9:00,5526.97,-8919.977467917597
2-9-2017 10:00,33516.94,9607.210059469875
2-9-2017 11:00,2731.07,-14119.397652981454
2-9-2017 12:00,645.43,-15043.2615788194
2-9-2017 13:00,3525.25,-9514.919401951542
2-9-2017 14:00,37415.25,23834.100462926428
2-9-2017 15:00,5706.29,-1442.962917587225
2-9-2017 16:00,35454.45,26813.574270670535
2-9-2017 17:00,6002.42,701.1593482041499
2-9-2017 18:00,33672.81,21429.135854746022
2-9-2017 19:00,9345.0,4640.251434779688
2-9-2017 20:00,620.22,-2121.7529450568436
2-9-2017 21:00,395.33,-1156.8050038678266
2-9-2017 22:00,0.0,-39966.76242297375
2-9-2017 23:00,42668.77,-9403.115358275552
3-9-2017 0:00,2121.3,418.8402208667776
3-9-2017 1:00,11928.65,-2386.7836705653426
3-9-2017 2:00,3132.49,-10238.80952087461
3-9-2017 3:00,3142.84,-10598.742153546295
3-9-2017 4:00,16645.2,5607.826665659912
3-9-2017 5:00,15680.74,5574.314944469197
3-9-2017 6:00,37509.63,22975.598613947168
3-9-2017 7:00,16255.24,10729.596171472997
3-9-2017 8:00,2428.62,-2046.024098580514
3-9-2017 9:00,2872.15,-7874.61082809232
3-9-2017 10:00,27111.57,6762.385603132383
3-9-2017 11:00,2732.35,-10784.409221814225
3-9-2017 12:00,2596.45,-9899.108364552496
3-9-2017 13:00,3215.5,-6624.980655425839
3-9-2017 14:00,26028.68,15400.992329327739
3-9-2017 15:00,419.09,-3776.4251516699305
3-9-2017 16:00,288.78,-5643.453978233899
3-9-2017 17:00,307.62,-2352.0043610727644
3-9-2017 18:00,31858.83,22067.14519916873
3-9-2017 19:00,352.74,-1734.0082127996848
3-9-2017 20:00,480.44,471.2104054927404
3-9-2017 21:00,1017.62,2056.156673746913
3-9-2017 22:00,26899.92,-11668.65133222826
3-9-2017 23:00,51808.54,1621.8412221386461
4-9-2017 0:00,2466.27,2473.5639780978017
4-9-2017 1:00,11552.46,-1307.461748636375
4-9-2017 2:00,15018.49,2708.352229045575
4-9-2017 3:00,10931.63,-2038.8682808086705
4-9-2017 4:00,7014.17,-3604.9617766882257
4-9-2017 5:00,3034.55,-6764.7287343512035
4-9-2017 6:00,2274.91,-12049.094393227813
4-9-2017 7:00,2103.73,-3229.4648317037736
4-9-2017 8:00,3110.81,-1383.030836314476
4-9-2017 9:00,20628.4,9813.590604074248
4-9-2017 10:00,23764.94,3549.1100776887124
4-9-2017 11:00,25778.12,12508.922278799353
4-9-2017 12:00,17418.14,5370.612057713295
4-9-2017 13:00,20771.97,11329.736689310683
4-9-2017 14:00,1673.2,-8858.805815848202
4-9-2017 15:00,4612.11,456.21399288204157
4-9-2017 16:00,5773.89,-420.1664148266209
4-9-2017 17:00,342.28,-2904.8979222579383
4-9-2017 18:00,454.98,-10372.630972536803
4-9-2017 19:00,334.19,-2881.248383356102
4-9-2017 20:00,341.52,-940.4317737835318
4-9-2017 21:00,288.01,490.3152194750801
4-9-2017 22:00,32259.46,-7759.401496697432
4-9-2017 23:00,45900.95,-4670.621575989904
5-9-2017 0:00,2019.6,2045.010233457997
5-9-2017 1:00,26821.0,14336.218682602555
5-9-2017 2:00,19800.86,8082.778499456521
5-9-2017 3:00,17155.65,5098.396123600505
5-9-2017 4:00,24856.8,15409.151254354523
5-9-2017 5:00,3294.13,-5506.641292195018
5-9-2017 6:00,2813.79,-10670.706631840512
5-9-2017 7:00,3519.42,-1053.8446894939734
5-9-2017 8:00,3794.71,-212.8460518375814
5-9-2017 9:00,12934.13,2312.415303836551
5-9-2017 10:00,2525.84,-17539.879507739657
5-9-2017 11:00,13092.33,-156.9376081522023
5-9-2017 12:00,9772.73,-2298.786235166499
5-9-2017 13:00,13942.34,4669.0816776545635
5-9-2017 14:00,3108.63,-7314.219958663841
5-9-2017 15:00,4130.74,270.68349854725784
5-9-2017 16:00,5768.92,-187.84932986752938
5-9-2017 17:00,3598.72,313.8199490311363
5-9-2017 18:00,1386.73,-9876.25380084565
5-9-2017 19:00,1605.34,-2087.278369594027
5-9-2017 20:00,749.24,-1102.966927819496
5-9-2017 21:00,1744.56,1152.7991009728266
5-9-2017 22:00,61760.34,19673.44660966241
5-9-2017 23:00,49532.5,-2701.5931682299997
6-9-2017 0:00,3032.04,1163.8054522918246
6-9-2017 1:00,17944.49,3575.0485156544037
6-9-2017 2:00,20836.88,7185.416146854968
6-9-2017 3:00,23329.32,9335.259883461467
6-9-2017 4:00,16960.32,5522.324484090386
6-9-2017 5:00,10591.36,-141.76796530520733
6-9-2017 6:00,3711.43,-11678.111481176431
6-9-2017 7:00,3223.68,-3026.10892848211
6-9-2017 8:00,5761.59,4.48088679574721
6-9-2017 9:00,18448.26,6060.414423664715
6-9-2017 10:00,24063.1,2437.391542470048
6-9-2017 11:00,13658.71,-900.1165001616391
6-9-2017 12:00,5285.33,-7607.560917296159
6-9-2017 13:00,10621.4,865.350288082449
6-9-2017 14:00,1622.11,-9200.994915563624
6-9-2017 15:00,1973.52,-1875.4212266745635
6-9-2017 16:00,733.88,-5058.737813767981
6-9-2017 17:00,3365.6,257.1009225766247
6-9-2017 18:00,6772.73,-4516.773460473837
6-9-2017 19:00,7355.61,4082.0519166801514
6-9-2017 20:00,1664.81,524.4466651879211
6-9-2017 21:00,1078.26,1509.9044464948984
6-9-2017 22:00,34608.42,-7481.091184439902
6-9-2017 23:00,44955.41,-6423.606905377659
7-9-2017 0:00,2387.5,1853.173884095655
7-9-2017 1:00,27795.97,14748.038201221658
7-9-2017 2:00,21218.0,8817.94028631423
7-9-2017 3:00,20334.79,7567.326774928657
7-9-2017 4:00,20347.08,10060.365670156083
7-9-2017 5:00,3700.82,-6216.988043816458
7-9-2017 6:00,3989.24,-10951.621097644296
7-9-2017 7:00,5429.22,-537.5542253231561
7-9-2017 8:00,5172.19,-769.1195231448
7-9-2017 9:00,10398.0,-2590.456116403164
7-9-2017 10:00,12349.79,-10070.294373697001
7-9-2017 11:00,25017.68,9515.000334971446
7-9-2017 12:00,14589.53,841.0628212359788
7-9-2017 13:00,6409.27,-4030.868907462913
7-9-2017 14:00,1190.06,-10401.693905071701
7-9-2017 15:00,2567.75,-1805.566211139725
7-9-2017 16:00,32560.81,26229.886105069025
7-9-2017 17:00,3131.05,-773.81463255364
7-9-2017 18:00,3479.09,-9080.00858019097
7-9-2017 19:00,5651.65,1283.9040561939
7-9-2017 20:00,967.52,-1244.4205752365779
7-9-2017 21:00,2526.84,2048.59336218498
7-9-2017 22:00,31674.93,-12500.257422778854
7-9-2017 23:00,48115.69,-4641.071101166597
8-9-2017 0:00,2718.48,1135.4798428535396
8-9-2017 1:00,10345.0,-3427.129839589901
8-9-2017 2:00,24085.89,11228.401446061813
8-9-2017 3:00,13810.8,897.9754333513029
8-9-2017 4:00,10669.79,499.37674252454053
8-9-2017 5:00,14366.32,4544.498888638078
8-9-2017 6:00,15360.22,464.3534215166528
8-9-2017 7:00,8695.7,2923.959567241971
8-9-2017 8:00,17574.93,11677.14411009818
8-9-2017 9:00,19639.89,6211.5786472617
8-9-2017 10:00,10610.92,-12509.740764485474
8-9-2017 11:00,9725.81,-6693.8790828710535
8-9-2017 12:00,8405.91,-6238.2454715616295
8-9-2017 13:00,24300.37,13047.95438237529
8-9-2017 14:00,1425.0,-11151.665892482895
8-9-2017 15:00,2345.78,-2856.2496767946886
8-9-2017 16:00,3785.67,-3475.9739405704677
8-9-2017 17:00,1317.67,-3512.032318459698
8-9-2017 18:00,7447.58,-6245.6439969832145
8-9-2017 19:00,9288.22,4225.697732333227
8-9-2017 20:00,1274.59,-1345.5744453348052
8-9-2017 21:00,1380.77,842.855809015984
8-9-2017 22:00,67583.05,22359.28003083777
8-9-2017 23:00,46872.49,-6038.051444185319
9-9-2017 0:00,2079.24,858.3998151963133
9-9-2017 1:00,15924.2,2671.4369128229173
9-9-2017 2:00,13583.89,1345.268178673261
9-9-2017 3:00,9271.43,-2877.7295557227044
9-9-2017 4:00,7343.02,-1969.3350529641702
9-9-2017 5:00,11549.85,2715.6692270112
9-9-2017 6:00,17339.27,3529.9476203719314
9-9-2017 7:00,16494.73,12109.46931327717
9-9-2017 8:00,13296.88,8783.959970586984
9-9-2017 9:00,4964.12,-6854.9098428095995
9-9-2017 10:00,4744.47,-16319.835889992108
9-9-2017 11:00,3794.69,-10077.282716413712
9-9-2017 12:00,4203.84,-7163.483461041395
9-9-2017 13:00,34047.76,26404.871233912287
9-9-2017 14:00,3194.75,-5695.7410598143615
9-9-2017 15:00,1582.08,471.70693601101993
9-9-2017 16:00,1697.27,-1325.4406493683364
9-9-2017 17:00,2525.05,1612.212602795964
9-9-2017 18:00,2025.62,-8287.977536293629
9-9-2017 19:00,1849.7,278.2025562744948
9-9-2017 20:00,1615.52,2444.9821026890113
9-9-2017 21:00,1151.31,3961.7589305881593
9-9-2017 22:00,423.81,-42890.331584185304
9-9-2017 23:00,47893.26,-2662.6705992246043
10-9-2017 0:00,3374.69,4574.581232137636
10-9-2017 1:00,11040.4,-47.80411091633505
10-9-2017 2:00,14578.08,4190.137914382023
10-9-2017 3:00,12033.86,1466.799237549989
10-9-2017 4:00,12840.34,4791.097713143205
10-9-2017 5:00,21845.75,13557.455394620683
10-9-2017 6:00,32758.35,18747.008916103856
10-9-2017 7:00,2723.85,-2410.3025761706995
10-9-2017 8:00,4036.63,-2073.6045367670013
10-9-2017 9:00,3028.98,-11320.663241266524
10-9-2017 10:00,36223.96,11918.399535572798
10-9-2017 11:00,5612.04,-12167.540339427656
10-9-2017 12:00,6088.87,-9614.659980535278
10-9-2017 13:00,19374.28,7290.726839542274
10-9-2017 14:00,37673.78,23982.119811054283
10-9-2017 15:00,1321.24,-4621.973128876043
10-9-2017 16:00,1093.98,-7051.446751751866
10-9-2017 17:00,1050.92,-4990.0196809354
10-9-2017 18:00,26565.78,10903.523908007559
10-9-2017 19:00,1364.71,-5127.365447574011
10-9-2017 20:00,1050.28,-2765.5519884783116
10-9-2017 21:00,1910.49,709.4083076783918
10-9-2017 22:00,27149.14,-20880.240048981133
10-9-2017 23:00,50190.51,-3900.649709327441
11-9-2017 0:00,5177.64,3643.449588724612
11-9-2017 1:00,13986.44,891.0648338305255
11-9-2017 2:00,19678.59,7952.680647417348
11-9-2017 3:00,28931.72,17741.194056989698
11-9-2017 4:00,18747.16,10738.549534258043
11-9-2017 5:00,23270.56,15365.816122889326
11-9-2017 6:00,3102.95,-10212.59972185337
11-9-2017 7:00,3320.18,-604.9088936560311
11-9-2017 8:00,6204.13,1514.68203349324
11-9-2017 9:00,5135.02,-7766.770096433327
11-9-2017 10:00,14621.95,-7986.033029896276
11-9-2017 11:00,5712.02,-10075.9704877997
11-9-2017 12:00,11766.05,-1414.1235597113646
11-9-2017 13:00,7592.06,-1492.805521354001
11-9-2017 14:00,1613.06,-8860.628191447393
11-9-2017 15:00,1221.39,-955.7329739774923
11-9-2017 16:00,7843.81,3754.3860436513514
11-9-2017 17:00,1420.15,-736.0742566040572
11-9-2017 18:00,14652.04,2488.0418706474175
11-9-2017 19:00,4029.35,1297.7092230966537
11-9-2017 20:00,3648.88,3702.862751054032
11-9-2017 21:00,7687.45,10093.722668524024
11-9-2017 22:00,40962.24,-5059.725706359835
11-9-2017 23:00,47808.54,-3991.4281883514122
12-9-2017 0:00,1697.67,2359.586400052185
12-9-2017 1:00,5061.14,-6197.768898054599
12-9-2017 2:00,5347.4,-4959.390427551885
12-9-2017 3:00,5795.86,-4347.59606294773
12-9-2017 4:00,5223.21,-2160.7945247235984
12-9-2017 5:00,15054.63,7539.2435472468005
12-9-2017 6:00,16396.25,3204.130912463552
12-9-2017 7:00,10263.47,6396.911044789527
12-9-2017 8:00,9075.44,4078.0718433411184
12-9-2017 9:00,4874.46,-8775.937561520685
12-9-2017 10:00,9908.38,-13666.24430822737
12-9-2017 11:00,18555.0,1626.622548024783
12-9-2017 12:00,40416.02,26159.46794236761
12-9-2017 13:00,24031.72,13572.54851243053
12-9-2017 14:00,470.69,-11931.278485842524
12-9-2017 15:00,4420.86,90.3162024533467
12-9-2017 16:00,7308.54,582.3528320502792
12-9-2017 17:00,1464.08,-3636.424755914366
12-9-2017 18:00,2997.63,-12633.33600699173
12-9-2017 19:00,1397.51,-4675.140974755108
12-9-2017 20:00,862.61,-2451.256406179473
12-9-2017 21:00,761.45,209.1233218344205
12-9-2017 22:00,37429.44,-12479.331283443324
12-9-2017 23:00,48858.96,-5872.302799249759
13-9-2017 0:00,8041.86,6352.5536774906195
13-9-2017 1:00,15820.66,2529.6669837339996
13-9-2017 2:00,18579.43,6508.239952783511
13-9-2017 3:00,29303.71,17701.558700925023
13-9-2017 4:00,19109.88,10552.749692046687
13-9-2017 5:00,14665.63,5871.626569794484
13-9-2017 6:00,3411.04,-11179.64024900807
13-9-2017 7:00,3747.02,-1432.763673676016
13-9-2017 8:00,4115.3,-2420.847398093134
13-9-2017 9:00,14499.92,-797.7618081942892
13-9-2017 10:00,14362.67,-10790.03330683006
13-9-2017 11:00,20496.05,2166.392613473621
13-9-2017 12:00,53871.96,38605.32103347854
13-9-2017 13:00,3399.61,-7578.284074834389
13-9-2017 14:00,1098.25,-11619.132380423354
13-9-2017 15:00,732.25,-3369.3167115420983
13-9-2017 16:00,2224.93,-3974.2735768191687
13-9-2017 17:00,4685.74,136.59073143805108
13-9-2017 18:00,2237.77,-13070.074064494638
13-9-2017 19:00,3014.9,-2261.407899216465
13-9-2017 20:00,475.97,-1747.2902663788318
13-9-2017 21:00,596.12,1435.179894369674
13-9-2017 22:00,32192.37,-17387.15895241099
13-9-2017 23:00,49275.43,-4327.67292049215
14-9-2017 0:00,2405.5,2358.4694017568
14-9-2017 1:00,16778.51,4967.524893993592
14-9-2017 2:00,28784.87,17979.965943233154
14-9-2017 3:00,29723.48,19211.91265655528
14-9-2017 4:00,9704.99,2042.570535223529
14-9-2017 5:00,3701.37,-4895.245973624378
14-9-2017 6:00,3688.99,-11416.079168819342
14-9-2017 7:00,4247.85,-1952.8419154916173
14-9-2017 8:00,3968.51,-4405.955927887846
14-9-2017 9:00,3882.87,-13995.2598150943
14-9-2017 10:00,28696.16,398.58056095633583
14-9-2017 11:00,12688.32,-9243.047828072959
14-9-2017 12:00,29552.55,10441.760244209541
14-9-2017 13:00,1232.62,-13646.762149441058
14-9-2017 14:00,6342.96,-10621.30336930776
14-9-2017 15:00,11544.94,3192.181673197065
14-9-2017 16:00,75097.6,64396.51253381223
14-9-2017 17:00,1203.31,-8211.122705809974
14-9-2017 18:00,24727.82,3938.687509300733
14-9-2017 19:00,4808.48,-5863.661056277811
14-9-2017 20:00,994.63,-6717.966223076453
14-9-2017 21:00,500.71,-3878.7851163722007
14-9-2017 22:00,61075.17,5184.949248377168
14-9-2017 23:00,49708.6,-9436.269718945743
15-9-2017 0:00,3010.83,-2093.8440981552594
15-9-2017 1:00,17388.2,1393.6887636317115
15-9-2017 2:00,17311.43,3145.6630766180824
15-9-2017 3:00,15499.87,2488.122938677583
15-9-2017 4:00,13584.7,4262.626057272888
15-9-2017 5:00,24246.16,14856.596638807263
15-9-2017 6:00,13924.34,-1121.422455802116
15-9-2017 7:00,6557.06,1473.1949425536332
15-9-2017 8:00,3323.53,-3187.4798907893473
15-9-2017 9:00,3610.96,-12248.819514181128
15-9-2017 10:00,20317.88,-5628.75119848147
15-9-2017 11:00,8529.22,-10611.007831881125
15-9-2017 12:00,35537.35,19872.28595764158
15-9-2017 13:00,2312.64,-8888.324026382234
15-9-2017 14:00,13022.44,-318.76846556221244
15-9-2017 15:00,9736.79,5292.805645530636
15-9-2017 16:00,347.14,-6405.8360729974975
15-9-2017 17:00,200.72,-5552.636236670804
15-9-2017 18:00,457.32,-17210.376386688375
15-9-2017 19:00,901.7,-6487.185059295319
15-9-2017 20:00,5430.14,983.6615980980896
15-9-2017 21:00,262.39,-1058.5159117235853
15-9-2017 22:00,57676.44,3274.362102074163
15-9-2017 23:00,51503.29,-5862.821426972199
16-9-2017 0:00,3685.58,365.477929878145
16-9-2017 1:00,27674.55,12740.972074554571
16-9-2017 2:00,15773.62,1893.6935646270322
16-9-2017 3:00,16109.6,2646.620488763194
16-9-2017 4:00,16407.11,5876.5727606248365
16-9-2017 5:00,19353.17,7884.687123277385
16-9-2017 6:00,29270.06,11260.468819989492
16-9-2017 7:00,8010.37,-716.966945890832
16-9-2017 8:00,3828.77,-7316.245909444679
16-9-2017 9:00,24432.41,3812.5605028691934
16-9-2017 10:00,37239.0,6583.938530108844
16-9-2017 11:00,5704.01,-17985.41457577019
16-9-2017 12:00,5709.62,-14131.013297116313
16-9-2017 13:00,4223.77,-10302.445442244461
16-9-2017 14:00,43971.16,27866.96232853116
16-9-2017 15:00,36522.16,30218.530937480893
16-9-2017 16:00,11034.75,3079.092069078335
16-9-2017 17:00,9776.52,3296.504900037633
16-9-2017 18:00,32557.26,14386.322303575482
16-9-2017 19:00,1755.4,-5211.848557376154
16-9-2017 20:00,262.21,-3016.712157106993
16-9-2017 21:00,198.58,763.0848435052067
16-9-2017 22:00,8.36,-53153.370366688876
16-9-2017 23:00,46712.76,-8197.00533049885
17-9-2017 0:00,1920.07,1987.5108893711458
17-9-2017 1:00,8653.61,-2164.1078933052922
17-9-2017 2:00,8617.7,-469.5034363890554
17-9-2017 3:00,2923.86,-5031.513660418561
17-9-2017 4:00,2044.53,-2283.6764455328994
17-9-2017 5:00,1979.35,-3341.0809893713667
17-9-2017 6:00,22089.42,10159.148811053008
17-9-2017 7:00,2458.0,-53.48280667259496
17-9-2017 8:00,13003.39,7899.871411953496
17-9-2017 9:00,19585.22,3981.264955655877
17-9-2017 10:00,52650.34,26163.273790118383
17-9-2017 11:00,4352.3,-15909.434692557177
17-9-2017 12:00,4788.35,-12150.504829089268
17-9-2017 13:00,2893.79,-9220.390086037554
17-9-2017 14:00,30526.6,16056.638943977858
17-9-2017 15:00,285.24,-4820.8688999313035
17-9-2017 16:00,202.01,-7239.225868924089
17-9-2017 17:00,2076.78,-4187.028649068468
17-9-2017 18:00,51655.06,33149.50770228852
17-9-2017 19:00,15360.45,8209.22604725591
17-9-2017 20:00,11233.72,7742.503584664542
17-9-2017 21:00,169.01,810.340790398528
17-9-2017 22:00,30919.98,-23238.721949099465
17-9-2017 23:00,54528.08,-591.3926529851797
18-9-2017 0:00,2773.69,3133.8861245923945
18-9-2017 1:00,3076.69,-7257.873557461517
18-9-2017 2:00,4778.56,-3686.5441057261196
18-9-2017 3:00,6732.55,-423.7594499459028
18-9-2017 4:00,7717.54,4345.204735939171
18-9-2017 5:00,5473.37,1336.0166889834945
18-9-2017 6:00,4231.67,-6302.77000350604
18-9-2017 7:00,2141.47,1443.8379302968897
18-9-2017 8:00,4450.29,1267.750734476731
18-9-2017 9:00,10104.23,-3601.6699120545727
18-9-2017 10:00,16057.33,-8376.9015919914
18-9-2017 11:00,26273.41,8326.883226914319
18-9-2017 12:00,5917.22,-8229.659646425927
18-9-2017 13:00,3859.86,-5587.943300062954
18-9-2017 14:00,7552.17,-4665.068295676348
18-9-2017 15:00,17033.52,14107.562122686988
18-9-2017 16:00,11427.72,5847.678888279808
18-9-2017 17:00,0.0,-5190.473047518518
18-9-2017 18:00,1568.18,-16904.501292892655
18-9-2017 19:00,3862.95,-3594.4213384385966
18-9-2017 20:00,12765.42,8450.079739677152
18-9-2017 21:00,11544.49,11007.594011674872
18-9-2017 22:00,52265.83,-4788.152189519105
18-9-2017 23:00,53989.02,-3881.7245658726024
19-9-2017 0:00,2938.04,406.1708370204942
19-9-2017 1:00,4955.02,-8412.824568162008
19-9-2017 2:00,22805.29,11114.23505464143
19-9-2017 3:00,16606.48,6069.569766480254
19-9-2017 4:00,14928.93,8001.141137230454
19-9-2017 5:00,10654.73,2726.9277132505795
19-9-2017 6:00,16192.86,1618.5226539401447
19-9-2017 7:00,11623.39,6841.643024069917
19-9-2017 8:00,11430.33,3808.567298601818
19-9-2017 9:00,42529.4,24119.852417175294
19-9-2017 10:00,3495.35,-25729.271422302223
19-9-2017 11:00,14129.53,-8586.534946956568
19-9-2017 12:00,14195.46,-4485.7122022463245
19-9-2017 13:00,23022.51,9375.895867235773
19-9-2017 14:00,894.53,-15474.093034198566
19-9-2017 15:00,5116.12,-1572.7142337548794
19-9-2017 16:00,5261.82,-3938.942000287434
19-9-2017 17:00,5609.7,-2999.438618596105
19-9-2017 18:00,2989.32,-18952.576987557768
19-9-2017 19:00,5287.21,-4988.413582796395
19-9-2017 20:00,570.11,-6091.477123152883
19-9-2017 21:00,4436.51,1987.4715381878996
19-9-2017 22:00,91842.45,31947.58701887607
19-9-2017 23:00,54875.59,-4903.711886367084
20-9-2017 0:00,604.43,-3170.1375960237256
20-9-2017 1:00,29975.51,15417.22935326031
20-9-2017 2:00,26462.36,13595.692611559181
20-9-2017 3:00,31045.74,19370.48009206552
20-9-2017 4:00,8162.03,139.70037669320664
20-9-2017 5:00,3321.76,-5969.151294011277
20-9-2017 6:00,3165.88,-13059.496226561389
20-9-2017 7:00,3045.54,-3428.51916029723
20-9-2017 8:00,9370.01,-316.21944207749766
20-9-2017 9:00,22181.58,1539.0415329226125
20-9-2017 10:00,10537.83,-20917.277862412768
20-9-2017 11:00,44490.86,19674.532079087785
20-9-2017 12:00,10527.89,-9859.94182730809
20-9-2017 13:00,4044.6,-10940.747934674737
20-9-2017 14:00,5684.83,-11989.10533348228
20-9-2017 15:00,10181.47,2615.2556221095765
20-9-2017 16:00,13242.95,3357.273371371608
20-9-2017 17:00,25090.07,15378.441266825703
20-9-2017 18:00,6080.4,-17615.04478067652
20-9-2017 19:00,11929.81,-12.498689324078441
20-9-2017 20:00,5526.73,-2905.346187445937
20-9-2017 21:00,662.91,-3613.618589353695
20-9-2017 22:00,96968.39,33723.07776393822
20-9-2017 23:00,57398.43,-5292.8343241201
21-9-2017 0:00,2275.25,-4199.7879606830065
21-9-2017 1:00,12207.14,-4911.796880419108
21-9-2017 2:00,18009.89,2684.9417898884967
21-9-2017 3:00,15370.07,1361.3438155756558
21-9-2017 4:00,9598.57,-625.9835805976763
21-9-2017 5:00,10728.14,-791.8199410549423
21-9-2017 6:00,11314.08,-7186.531189872905
21-9-2017 7:00,15981.09,7432.1930942696745
21-9-2017 8:00,16627.79,4736.23877792128
21-9-2017 9:00,33249.81,9885.619527854888
21-9-2017 10:00,46876.51,12354.419225281697
21-9-2017 11:00,29138.66,1037.7372815571907
21-9-2017 12:00,13139.77,-10486.88862732475
21-9-2017 13:00,13759.76,-4590.515916585877
21-9-2017 14:00,6806.8,-14692.668817812357
21-9-2017 15:00,1896.02,-9561.822712118066
21-9-2017 16:00,29111.34,15032.49940146284
21-9-2017 17:00,1097.57,-12741.082919813845
21-9-2017 18:00,3393.96,-24595.85137635017
21-9-2017 19:00,15277.46,-388.5980649873309
21-9-2017 20:00,6912.83,-4863.044987455229
21-9-2017 21:00,646.4,-6021.726199857341
21-9-2017 22:00,111975.76,45825.135512223285
21-9-2017 23:00,70962.26,6813.414727534768
22-9-2017 0:00,8078.32,1366.437650250573
22-9-2017 1:00,25966.25,8832.362943218173
22-9-2017 2:00,19649.88,4494.437107258367
22-9-2017 3:00,22921.93,9289.60375985019
22-9-2017 4:00,19688.92,10054.125469004008
22-9-2017 5:00,27859.21,15904.955792118351
22-9-2017 6:00,5653.55,-14324.770399643065
22-9-2017 7:00,5388.26,-5435.158627331119
22-9-2017 8:00,7892.23,-7401.536707956708
22-9-2017 9:00,5655.86,-22183.58981272492
22-9-2017 10:00,12047.87,-27851.520817467754
22-9-2017 11:00,5156.06,-29096.48444134913
22-9-2017 12:00,9976.24,-20312.982147648963
22-9-2017 13:00,3148.97,-22114.25772082105
22-9-2017 14:00,6878.05,-22119.26322648295
22-9-2017 15:00,12434.68,-6711.38907270271
22-9-2017 16:00,17328.99,-4863.899696819408
22-9-2017 17:00,107027.7,83996.18096654395
22-9-2017 18:00,21578.28,-16916.696697655658
22-9-2017 19:00,54079.16,27333.597035088394
22-9-2017 20:00,65919.21,42298.823889645275
22-9-2017 21:00,38703.61,19014.343241876937
22-9-2017 22:00,99401.83,17587.519687874417
22-9-2017 23:00,84146.3,3652.669581683833
23-9-2017 0:00,7547.61,-16417.151561193525
23-9-2017 1:00,28963.1,-5625.770241206774
23-9-2017 2:00,26210.85,-6639.118769118537
23-9-2017 3:00,17958.57,-13585.385675306585
23-9-2017 4:00,17205.7,-10551.363046510152
23-9-2017 5:00,23198.55,-5540.356313306078
23-9-2017 6:00,66998.83,31554.112278507186
23-9-2017 7:00,21774.33,-2950.6287344933808
23-9-2017 8:00,4672.23,-23289.100852878037
23-9-2017 9:00,11072.95,-27747.997893467298
23-9-2017 10:00,59672.93,10649.110318501007
23-9-2017 11:00,44972.72,3580.534933343519
23-9-2017 12:00,56863.36,21682.665348506573
23-9-2017 13:00,43993.71,15478.537930097584
23-9-2017 14:00,72135.97,41191.736258674326
23-9-2017 15:00,4186.66,-15206.79510078543
23-9-2017 16:00,6279.78,-14696.402023925673
23-9-2017 17:00,23858.81,3371.40552983847
23-9-2017 18:00,91317.42,56460.48256373633
23-9-2017 19:00,6449.51,-14826.12937637766
23-9-2017 20:00,5258.42,-11250.82483903526
23-9-2017 21:00,4172.57,-6382.296693030083
23-9-2017 22:00,5706.91,-66415.65728397603
23-9-2017 23:00,56357.61,-11925.48848252896
24-9-2017 0:00,5153.66,-4308.775461859739
24-9-2017 1:00,10859.31,-8093.869236586976
24-9-2017 2:00,19041.86,2923.5084218161537
24-9-2017 3:00,27078.68,13384.706835115081
24-9-2017 4:00,22775.6,13993.349261820978
24-9-2017 5:00,10761.89,196.532210028774
24-9-2017 6:00,45806.61,27714.81539033068
24-9-2017 7:00,4009.92,-3936.138603068417
24-9-2017 8:00,4414.59,-7672.744954298156
24-9-2017 9:00,4774.14,-19922.85382320884
24-9-2017 10:00,43433.51,6954.605712970235
24-9-2017 11:00,6546.91,-23751.67932596372
24-9-2017 12:00,26370.35,1095.3113181618428
24-9-2017 13:00,13508.1,-5767.417383177701
24-9-2017 14:00,63011.84,40306.75534194401
24-9-2017 15:00,7285.76,-4474.540968449379
24-9-2017 16:00,3677.69,-10506.77362830682
24-9-2017 17:00,4168.22,-10443.888719021881
24-9-2017 18:00,36732.73,6601.183478093455
24-9-2017 19:00,17095.65,133.45633024144263
24-9-2017 20:00,7057.26,-5741.150984510627
24-9-2017 21:00,5410.03,-2207.389375847004
24-9-2017 22:00,86658.48,15234.05766514856
24-9-2017 23:00,62213.44,-5649.369956881757
25-9-2017 0:00,5935.46,-3611.538103781022
25-9-2017 1:00,24692.32,5051.004006990595
25-9-2017 2:00,21652.57,4205.068831921468
25-9-2017 3:00,14397.58,-1244.116455079784
25-9-2017 4:00,6085.14,-5256.943250251581
25-9-2017 5:00,13308.29,-79.02757537175421
25-9-2017 6:00,20448.65,-746.5932949128837
25-9-2017 7:00,14848.98,3764.5862429578046
25-9-2017 8:00,15083.92,-507.51782944870865
25-9-2017 9:00,42158.88,13894.756587753625
25-9-2017 10:00,31849.88,-8088.177437422099
25-9-2017 11:00,29460.33,-4061.717015698083
25-9-2017 12:00,32897.06,4897.638971824428
25-9-2017 13:00,10688.38,-11067.739979749089
25-9-2017 14:00,29974.47,4698.058174614194
25-9-2017 15:00,14793.51,765.6679459837396
25-9-2017 16:00,24261.55,7877.887665255101
25-9-2017 17:00,8416.15,-8923.010488985365
25-9-2017 18:00,12898.74,-20721.19354769875
25-9-2017 19:00,18112.75,-2361.222884606923
25-9-2017 20:00,25725.59,9201.3409672284
25-9-2017 21:00,13218.65,1271.7601545213438
25-9-2017 22:00,107692.67,29869.188370660704
25-9-2017 23:00,49777.26,-24592.75213164473
26-9-2017 0:00,17745.06,1355.7220970897943
26-9-2017 1:00,6511.84,-20922.254468449028
26-9-2017 2:00,7735.42,-18492.73703879972
26-9-2017 3:00,11114.05,-14273.74058791044
26-9-2017 4:00,20270.36,-1776.8412567528503
26-9-2017 5:00,29397.64,4215.661192445812
26-9-2017 6:00,31157.54,-2941.2693792915306
26-9-2017 7:00,12993.76,-11856.536046768768
26-9-2017 8:00,38510.92,7960.362423030245
26-9-2017 9:00,64794.28,20497.084844584242
26-9-2017 10:00,83878.93,27004.83677649447
26-9-2017 11:00,83977.52,32744.1921773172
26-9-2017 12:00,37875.35,-8347.216973322596
26-9-2017 13:00,67075.92,27105.44797900117
26-9-2017 14:00,34956.54,-8859.934283262715
26-9-2017 15:00,30919.84,-1579.2642759989758
26-9-2017 16:00,12506.5,-22515.029072021254
26-9-2017 17:00,6245.39,-28962.320747813872
26-9-2017 18:00,100057.31,49104.660479617254
26-9-2017 19:00,54736.19,18203.351135954545
26-9-2017 20:00,14766.69,-16733.241663321103
26-9-2017 21:00,13624.47,-11619.650182177043
26-9-2017 22:00,109953.16,19045.06234813504
26-9-2017 23:00,115417.86,30137.292104583394
27-9-2017 0:00,23863.75,-1474.8043724499803
27-9-2017 1:00,15337.72,-19947.941963361587
27-9-2017 2:00,20031.0,-12965.680606253605
27-9-2017 3:00,16664.03,-14411.498388043852
27-9-2017 4:00,4377.59,-22260.414966165597
27-9-2017 5:00,9586.97,-19733.886452458908
27-9-2017 6:00,13838.17,-23986.96650944954
27-9-2017 7:00,18984.62,-8881.197875445607
27-9-2017 8:00,23191.67,-10019.567439285249
27-9-2017 9:00,60064.4,13493.242097601862
27-9-2017 10:00,40806.32,-17785.554089236124
27-9-2017 11:00,106637.73,54385.50459467394
27-9-2017 12:00,65189.67,18973.839489946207
27-9-2017 13:00,45311.29,5856.612343418805
27-9-2017 14:00,39669.58,-3471.3521513459127
27-9-2017 15:00,35147.82,3919.0180868937314
27-9-2017 16:00,46723.47,13341.449589277385
27-9-2017 17:00,46771.19,13035.680747268772
27-9-2017 18:00,56975.2,7099.155094197478
27-9-2017 19:00,70115.47,35054.420774403
27-9-2017 20:00,35560.85,5727.335033551659
27-9-2017 21:00,37724.15,15018.889815425508
27-9-2017 22:00,69193.63,-19864.699830560785
27-9-2017 23:00,66375.45,-15697.807699418088
28-9-2017 0:00,6650.68,-14283.2948479285
28-9-2017 1:00,28932.0,-554.8302861446064
28-9-2017 2:00,15908.79,-9909.411823509643
28-9-2017 3:00,7932.18,-14587.480659911125
28-9-2017 4:00,9523.68,-7165.037978654975
28-9-2017 5:00,24135.32,5764.942391332239
28-9-2017 6:00,11253.79,-14659.051359139186
28-9-2017 7:00,6220.69,-8472.83147346292
28-9-2017 8:00,7621.01,-11513.893120750039
28-9-2017 9:00,19817.28,-13195.6465555736
28-9-2017 10:00,27341.84,-18040.463724957168
28-9-2017 11:00,85990.31,46741.69537824287
28-9-2017 12:00,40688.58,7597.151455629813
28-9-2017 13:00,40961.82,13915.807887240604
28-9-2017 14:00,10192.27,-21605.04316303558
28-9-2017 15:00,29196.56,8681.342983169336
28-9-2017 16:00,10362.54,-13161.450421306567
28-9-2017 17:00,20492.08,-4666.830057071289
28-9-2017 18:00,13087.53,-29721.636218185122
28-9-2017 19:00,11898.54,-16814.52962586697
28-9-2017 20:00,9933.68,-14471.312420049584
28-9-2017 21:00,5608.16,-12431.832443731568
28-9-2017 22:00,160804.97,74087.15490596811
28-9-2017 23:00,89925.4,9914.538583789537
29-9-2017 0:00,50379.35,31069.379935786383
29-9-2017 1:00,57012.57,28533.02119701302
29-9-2017 2:00,23317.91,-2124.3386880778125
29-9-2017 3:00,20848.68,-1928.6140323432883
29-9-2017 4:00,10397.93,-7165.943585248293
29-9-2017 5:00,6726.31,-12828.87689753253
29-9-2017 6:00,14357.7,-13088.979880036717
29-9-2017 7:00,17996.39,1718.2037474183162
29-9-2017 8:00,28475.5,7349.142506790155
29-9-2017 9:00,57655.73,23498.64314993199
29-9-2017 10:00,31660.69,-13849.034163843258
29-9-2017 11:00,22773.35,-15443.243803199344
29-9-2017 12:00,28553.64,-2019.5757055438116
29-9-2017 13:00,30824.03,7816.270977652293
29-9-2017 14:00,10847.52,-15740.809954688226
29-9-2017 15:00,15206.1,1505.6087729290812
29-9-2017 16:00,9204.18,-6124.863966713743
29-9-2017 17:00,6150.51,-11020.923040506219
29-9-2017 18:00,8275.3,-26982.148353934226
29-9-2017 19:00,6122.35,-14683.946765601786
29-9-2017 20:00,37026.19,20682.46747078599
29-9-2017 21:00,8927.02,-1669.8250752952881
29-9-2017 22:00,69570.26,-11884.047272180735
29-9-2017 23:00,98951.5,24071.14141004831
30-9-2017 0:00,5838.03,-8634.715279718665
30-9-2017 1:00,22413.72,-2275.130042578876
30-9-2017 2:00,11208.61,-11504.070998925079
30-9-2017 3:00,8527.23,-12583.885574584132
30-9-2017 4:00,7415.49,-9529.551376037292
30-9-2017 5:00,6612.67,-13307.122880182102
30-9-2017 6:00,60740.45,31906.350395691836
30-9-2017 7:00,33411.59,15021.36045951421
30-9-2017 8:00,50443.81,26124.82232013358
30-9-2017 9:00,40051.82,1377.8560538497768
30-9-2017 10:00,131287.82,80106.41531524113
30-9-2017 11:00,16624.89,-28275.486347112834
30-9-2017 12:00,20631.29,-17311.05950963046
30-9-2017 13:00,11624.02,-19141.111733767022
30-9-2017 14:00,58265.3,23182.048292910134
30-9-2017 15:00,12833.72,-9664.229556978156
30-9-2017 16:00,14224.61,-10429.947089963796
30-9-2017 17:00,17098.44,-9141.350999598442
30-9-2017 18:00,82583.11,38286.169136844954
30-9-2017 19:00,17290.76,-11735.333472048886
30-9-2017 20:00,5582.84,-18361.541398331312
30-9-2017 21:00,5861.69,-11089.694307942886
30-9-2017 22:00,45535.72,-42588.485159884476
30-9-2017 23:00,117583.86,37764.87941828114
