Time,Actual,STL processed
1-8-2017 0:00,0.0,0.0011580711642161239
1-8-2017 1:00,0.0,0.0013274448290387488
1-8-2017 2:00,0.0,0.002001763889846122
1-8-2017 3:00,0.0,0.0022149807574808385
1-8-2017 4:00,0.0,-0.011897811217844606
1-8-2017 5:00,0.0,0.003929668835639077
1-8-2017 6:00,0.02,0.01279326128603243
1-8-2017 7:00,0.0,0.003886801480081271
1-8-2017 8:00,0.0,0.004606072866482833
1-8-2017 9:00,0.0,-0.0017206288785654076
1-8-2017 10:00,0.0,-0.009256062093587128
1-8-2017 11:00,0.0,-0.009609879187026965
1-8-2017 12:00,0.0,-0.0014764112299488104
1-8-2017 13:00,0.0,-0.0014961296105913242
1-8-2017 14:00,0.0,-0.001982175546367552
1-8-2017 15:00,0.0,0.0034034081694336057
1-8-2017 16:00,0.0,-0.00487374784128818
1-8-2017 17:00,0.0,5.830414471781034E-5
1-8-2017 18:00,0.0,8.50629399669605E-5
1-8-2017 19:00,0.0,-0.0025467785163717036
1-8-2017 20:00,0.0,1.8203300361024357E-4
1-8-2017 21:00,0.0,-0.00417017549031189
1-8-2017 22:00,0.0,-0.006575461786813052
1-8-2017 23:00,0.0,0.0020104376416490498
2-8-2017 0:00,0.0,0.0034782298874330504
2-8-2017 1:00,0.0,0.0033904101750635435
2-8-2017 2:00,0.0,0.003773597447903938
2-8-2017 3:00,0.0,0.003735173361328086
2-8-2017 4:00,0.0,-0.011118101552411134
2-8-2017 5:00,0.0,0.004892401538253563
2-8-2017 6:00,0.02,0.01391721770109866
2-8-2017 7:00,0.0,0.004259860239439141
2-8-2017 8:00,0.0,0.0046734036025293975
2-8-2017 9:00,0.0,-0.001684646361893311
2-8-2017 10:00,0.0,-0.009839759849128821
2-8-2017 11:00,0.0,-0.009654628336139639
2-8-2017 12:00,0.0,-0.0021963153964307453
2-8-2017 13:00,0.0,-0.0020558248945743685
2-8-2017 14:00,0.0,-0.0026749645573883292
2-8-2017 15:00,0.0,0.002155821293426791
2-8-2017 16:00,0.0,-0.006312783767237537
2-8-2017 17:00,0.0,-0.0010097958009226732
2-8-2017 18:00,0.0,-0.0011143310976560743
2-8-2017 19:00,0.03,0.02634105717532493
2-8-2017 20:00,0.0,-0.00121375667458589
2-8-2017 21:00,0.0,-0.005348753284430727
2-8-2017 22:00,0.0,-0.008262700474189949
2-8-2017 23:00,0.0,7.158507914189101E-4
3-8-2017 0:00,0.0,0.0021582843685731376
3-8-2017 1:00,0.0,0.0021882874876874452
3-8-2017 2:00,0.0,0.0026553591812368098
3-8-2017 3:00,0.0,0.0027403103491263356
3-8-2017 4:00,0.0,-0.012478413536997097
3-8-2017 5:00,0.0,0.004278515368815003
3-8-2017 6:00,0.02,0.014027958022078244
3-8-2017 7:00,0.0,0.00418311436252967
3-8-2017 8:00,0.0,0.004854341160127935
3-8-2017 9:00,0.0,-0.0011027260669936206
3-8-2017 10:00,0.0,-0.009445186094869712
3-8-2017 11:00,0.0,-0.008288772243878303
3-8-2017 12:00,0.0,-0.0010732805899654652
3-8-2017 13:00,0.0,-5.978189157139288E-4
3-8-2017 14:00,0.0,-0.0011752900156693537
3-8-2017 15:00,0.0,0.003275460260055998
3-8-2017 16:00,0.0,-0.005209833786639551
3-8-2017 17:00,0.0,5.484093562698824E-4
3-8-2017 18:00,0.0,3.9689916383962593E-4
3-8-2017 19:00,0.0,-0.0019761755402011127
3-8-2017 20:00,0.0,2.6969253365388853E-4
3-8-2017 21:00,0.0,-0.003693031226296394
3-8-2017 22:00,0.0,-0.007160592250539587
3-8-2017 23:00,0.0,0.002165657910990123
4-8-2017 0:00,0.0,0.0035377798782886666
4-8-2017 1:00,0.0,0.003430650612034064
4-8-2017 2:00,0.0,0.003726651509439671
4-8-2017 3:00,0.0,0.003680022714941847
4-8-2017 4:00,0.0,-0.012159112888231485
4-8-2017 5:00,0.0,0.0047966612431278866
4-8-2017 6:00,0.02,0.014723149797209132
4-8-2017 7:00,0.0,0.004143235731640793
4-8-2017 8:00,0.0,0.00452456175561635
4-8-2017 9:00,0.0,-0.0014155924839236971
4-8-2017 10:00,0.0,-0.010329469338616537
4-8-2017 11:00,0.0,-0.00858584343579907
4-8-2017 12:00,0.0,-0.0019972433538584544
4-8-2017 13:00,0.0,-0.0012692315562662442
4-8-2017 14:00,0.0,-0.0018874551424176188
4-8-2017 15:00,0.0,0.002100838509163478
4-8-2017 16:00,0.0,-0.006483565572617778
4-8-2017 17:00,0.0,-5.320918889820806E-4
4-8-2017 18:00,0.02,0.019007398387022503
4-8-2017 19:00,0.0,-0.0034561639299082866
4-8-2017 20:00,0.0,-0.0016716385681557699
4-8-2017 21:00,0.0,-0.006597597775289753
4-8-2017 22:00,0.0,-0.011754280931095167
4-8-2017 23:00,0.0,-0.0032158401707228597
5-8-2017 0:00,0.0,-0.0030495381103582513
5-8-2017 1:00,0.0,-0.004251828543839315
5-8-2017 2:00,0.0,-0.0050849272244350196
5-8-2017 3:00,0.0,-0.006221164763177743
5-8-2017 4:00,0.0,-0.023638740865258526
5-8-2017 5:00,0.0,-0.006554615801427296
5-8-2017 6:00,0.02,0.0034784243603965433
5-8-2017 7:00,0.0,-0.007907054404266976
5-8-2017 8:00,0.0,-0.007886123446989541
5-8-2017 9:00,0.0,-0.0135973212934956
5-8-2017 10:00,0.07,0.04712942843044729
5-8-2017 11:00,0.13,0.1096723097905433
5-8-2017 12:00,0.05,0.035846061705964175
5-8-2017 13:00,0.0,-0.012919124662538325
5-8-2017 14:00,0.02,0.006676150975678977
5-8-2017 15:00,0.0,-0.009543760286319555
5-8-2017 16:00,0.0,-0.017973022692621892
5-8-2017 17:00,0.0,-0.010474869883306245
5-8-2017 18:00,0.0,-0.009890930553913142
5-8-2017 19:00,0.0,-0.011091531898780295
5-8-2017 20:00,0.0,-0.00841490066417658
5-8-2017 21:00,0.0,-0.010643255065730604
5-8-2017 22:00,0.0,-0.013828220100334587
5-8-2017 23:00,0.0,-0.0024167484883560234
6-8-2017 0:00,0.0,2.045739178383058E-4
6-8-2017 1:00,0.0,9.131144431878471E-4
6-8-2017 2:00,0.0,0.001956908310647904
6-8-2017 3:00,0.0,0.0027370541537173497
6-8-2017 4:00,0.0,-0.013252970321213817
6-8-2017 5:00,0.0,0.004768829914976177
6-8-2017 6:00,0.02,0.01571774592442951
6-8-2017 7:00,0.0,0.004336026700557717
6-8-2017 8:00,0.0,0.004805886831023934
6-8-2017 9:00,0.0,-6.95409028680002E-4
6-8-2017 10:00,0.0,-0.010347087132333246
6-8-2017 11:00,0.0,-0.007024004721190568
6-8-2017 12:00,0.0,-0.0012841553785213028
6-8-2017 13:00,0.0,2.4966678721601455E-5
6-8-2017 14:00,0.0,-5.987518668523259E-4
6-8-2017 15:00,0.0,0.002540638549409609
6-8-2017 16:00,0.0,-0.006165975589573713
6-8-2017 17:00,0.0,8.831798218961717E-4
6-8-2017 18:00,0.0,5.158916811520921E-4
6-8-2017 19:00,0.0,-0.0014174252151771332
6-8-2017 20:00,0.0,1.5563536875207477E-4
6-8-2017 21:00,0.0,-0.003532019733619517
6-8-2017 22:00,0.0,-0.008902172153419588
6-8-2017 23:00,0.0,0.0012254248037677053
7-8-2017 0:00,0.0,0.0021448620493942326
7-8-2017 1:00,0.0,0.0015470940549756236
7-8-2017 2:00,0.0,0.0012506409918926838
7-8-2017 3:00,0.0,7.300307381755411E-4
7-8-2017 4:00,0.0,-0.017049581588204764
7-8-2017 5:00,0.0,8.608580853652669E-4
7-8-2017 6:00,0.02,0.011676614207469375
7-8-2017 7:00,0.0,-7.503812105894223E-4
7-8-2017 8:00,0.0,-8.806276419131452E-4
7-8-2017 9:00,0.02,0.013348682593982345
7-8-2017 10:00,0.0,-0.01716071922846973
7-8-2017 11:00,0.0,-0.013536731657483075
7-8-2017 12:00,0.0,-0.008710080778768111
7-8-2017 13:00,0.07,0.06259562648584102
7-8-2017 14:00,0.0,-0.008324809461903315
7-8-2017 15:00,0.0,-0.005903840585760088
7-8-2017 16:00,0.02,0.005034469777907493
7-8-2017 17:00,0.0,-0.007335368699082008
7-8-2017 18:00,0.0,-0.0076238808005769
7-8-2017 19:00,0.0,-0.009259913853351835
7-8-2017 20:00,0.03,0.022239575474919226
7-8-2017 21:00,0.0,-0.010583383200836155
7-8-2017 22:00,0.02,0.004185267026056554
7-8-2017 23:00,0.02,0.01535297936034145
8-8-2017 0:00,0.0,-0.003105478522710958
8-8-2017 1:00,0.0,-0.0027857100451226307
8-8-2017 2:00,0.0,-0.00219856504697348
8-8-2017 3:00,0.0,-0.0017960864057021244
8-8-2017 4:00,0.03,0.010858571183016776
8-8-2017 5:00,0.0,1.310634197541731E-5
8-8-2017 6:00,0.0,-0.007948841375261133
8-8-2017 7:00,0.0,-6.563878224060023E-5
8-8-2017 8:00,0.0,5.594824299120626E-4
8-8-2017 9:00,0.0,-0.00436502587647975
8-8-2017 10:00,0.02,0.005383442670203308
8-8-2017 11:00,0.0,-0.009576070511032094
8-8-2017 12:00,0.0,-0.004547024008337472
8-8-2017 13:00,0.0,-0.0026486641122647316
8-8-2017 14:00,0.0,-0.0032697500380820693
8-8-2017 15:00,0.0,-9.711352779601537E-4
8-8-2017 16:00,0.02,0.010208169778296396
8-8-2017 17:00,0.0,-0.0018046211181062155
8-8-2017 18:00,0.0,-0.002238315711305644
8-8-2017 19:00,0.0,-0.003801027642565958
8-8-2017 20:00,0.0,-0.002599072291992709
8-8-2017 21:00,0.0,-0.005660694148417962
8-8-2017 22:00,0.02,0.008143398560650468
8-8-2017 23:00,0.0,-7.521338924840982E-4
9-8-2017 0:00,0.0,3.10934072454111E-4
9-8-2017 1:00,0.0,3.2595432983387705E-5
9-8-2017 2:00,0.0,-1.6454773522338144E-5
9-8-2017 3:00,0.0,-2.072616823281838E-4
9-8-2017 4:00,0.03,0.011439729999882547
9-8-2017 5:00,0.0,2.2727385479829037E-4
9-8-2017 6:00,0.0,-0.008071028174631819
9-8-2017 7:00,0.0,-0.001334019333036408
9-8-2017 8:00,0.0,-0.001474092562649452
9-8-2017 9:00,0.0,-0.00681695708638976
9-8-2017 10:00,0.02,0.0019258869942892168
9-8-2017 11:00,0.02,0.007094918266078316
9-8-2017 12:00,0.0,-0.008902003021111375
9-8-2017 13:00,0.0,-0.007012939845133339
9-8-2017 14:00,0.0,-0.007822852270358675
9-8-2017 15:00,0.0,-0.006111111138616231
9-8-2017 16:00,0.02,0.004746353291754969
9-8-2017 17:00,0.02,0.01323900010336229
9-8-2017 18:00,0.0,-0.007161136427174917
9-8-2017 19:00,0.05,0.041489747374281225
9-8-2017 20:00,0.02,0.012550089213649104
9-8-2017 21:00,0.0,-0.010063392593653795
9-8-2017 22:00,0.02,0.003497332478083214
9-8-2017 23:00,0.0,-0.004825231644890382
10-8-2017 0:00,0.0,-0.003565716758534303
10-8-2017 1:00,0.0,-0.0033991692220324233
10-8-2017 2:00,0.0,-0.003041421340161373
10-8-2017 3:00,0.0,-0.002782520506012771
10-8-2017 4:00,0.03,0.008899826487488886
10-8-2017 5:00,0.0,-0.0014817405796482552
10-8-2017 6:00,0.0,-0.008918516539281914
10-8-2017 7:00,0.0,-0.0021297941822116207
10-8-2017 8:00,0.0,-0.0018371545866903679
10-8-2017 9:00,0.0,-0.007001485662568791
10-8-2017 10:00,0.02,0.0013326439511866274
10-8-2017 11:00,0.0,-0.01277287032491925
10-8-2017 12:00,0.0,-0.009198849402912731
10-8-2017 13:00,0.0,-0.007345396958900693
10-8-2017 14:00,0.02,0.011629550104594679
10-8-2017 15:00,0.0,-0.007271896403913641
10-8-2017 16:00,0.02,0.0032374150619637176
10-8-2017 17:00,0.0,-0.007950659965399542
10-8-2017 18:00,0.0,-0.008503397980255047
10-8-2017 19:00,0.0,-0.00982509041288893
10-8-2017 20:00,0.0,-0.0090925340515329
10-8-2017 21:00,0.12,0.1083907532663086
10-8-2017 22:00,0.02,0.001356725028415471
10-8-2017 23:00,0.0,-0.006744256436695883
11-8-2017 0:00,0.0,-0.005639680301220669
11-8-2017 1:00,0.0,-0.00551023284122894
11-8-2017 2:00,0.0,-0.005227673123463865
11-8-2017 3:00,0.0,-0.005001050798843562
11-8-2017 4:00,0.03,0.0062346576784691795
11-8-2017 5:00,0.0,-0.0033087874532199083
11-8-2017 6:00,0.0,-0.009876804485556171
11-8-2017 7:00,0.0,-0.0030291401193361708
11-8-2017 8:00,0.0,-0.0022965592050057954
11-8-2017 9:00,0.0,-0.006328045419160779
11-8-2017 10:00,0.02,0.0025516803375079085
11-8-2017 11:00,0.0,-0.009874068876656114
11-8-2017 12:00,0.0,-0.005774795135616556
11-8-2017 13:00,0.02,0.016764631604138235
11-8-2017 14:00,0.0,-0.0037539768159369287
11-8-2017 15:00,0.0,-0.002547025936987259
11-8-2017 16:00,0.02,0.008335717592105007
11-8-2017 17:00,0.0,-0.002312703828652696
11-8-2017 18:00,0.0,-0.0027976678822503607
11-8-2017 19:00,0.0,-0.003871561103398131
11-8-2017 20:00,0.0,-0.0032464147744778165
11-8-2017 21:00,0.0,-0.005507262137415413
11-8-2017 22:00,0.02,0.007023052509137779
11-8-2017 23:00,0.0,-6.972501040348562E-4
12-8-2017 0:00,0.0,4.114834746359753E-4
12-8-2017 1:00,0.0,4.114759687337127E-4
12-8-2017 2:00,0.0,5.264926330089698E-4
12-8-2017 3:00,0.0,6.284815587171266E-4
12-8-2017 4:00,0.03,0.01132519663045711
12-8-2017 5:00,0.0,0.001645044661246986
12-8-2017 6:00,0.0,-0.005029042216760976
12-8-2017 7:00,0.0,9.027353856396426E-4
12-8-2017 8:00,0.0,0.0011004288458100467
12-8-2017 9:00,0.0,-0.0032796978635416833
12-8-2017 10:00,0.02,0.00466413867912009
12-8-2017 11:00,0.0,-0.0075633308300222645
12-8-2017 12:00,0.0,-0.004420289626869852
12-8-2017 13:00,0.0,-0.0017927800342825038
12-8-2017 14:00,0.0,-0.002402835380838404
12-8-2017 15:00,0.0,-0.0016853785573409433
12-8-2017 16:00,0.02,0.00897290559205603
12-8-2017 17:00,0.0,-0.0012751815354711256
12-8-2017 18:00,0.0,-0.0018316909411859612
12-8-2017 19:00,0.0,-0.0027971042642226315
12-8-2017 20:00,0.0,-0.0024186872811130427
12-8-2017 21:00,0.0,-0.00456343694879491
12-8-2017 22:00,0.02,0.007391452958239452
12-8-2017 23:00,0.0,-8.793842695962615E-5
13-8-2017 0:00,0.0,8.851849709416593E-4
13-8-2017 1:00,0.0,7.886887555341171E-4
13-8-2017 2:00,0.0,7.691286227082678E-4
13-8-2017 3:00,0.0,7.794504058929921E-4
13-8-2017 4:00,0.03,0.01097013832844893
13-8-2017 5:00,0.0,0.0016276146938087955
13-8-2017 6:00,0.0,-0.004678206857779838
13-8-2017 7:00,0.0,8.120191528924224E-4
13-8-2017 8:00,0.0,9.491603309938843E-4
13-8-2017 9:00,0.0,-0.0032401752304984295
13-8-2017 10:00,0.02,0.004307203741212592
13-8-2017 11:00,0.0,-0.00718255441985193
13-8-2017 12:00,0.0,-0.004456314111530501
13-8-2017 13:00,0.0,-0.0016345210660848445
13-8-2017 14:00,0.0,-0.0022298227390957293
13-8-2017 15:00,0.0,-0.0018956593710247258
13-8-2017 16:00,0.02,0.008644365998702714
13-8-2017 17:00,0.0,-0.0014527255934739876
13-8-2017 18:00,0.0,-0.0023301191091860806
13-8-2017 19:00,0.0,-0.003436391291991736
13-8-2017 20:00,0.0,-0.0035540424125729587
13-8-2017 21:00,0.0,-0.006006363999037831
13-8-2017 22:00,0.02,0.004949431554438966
13-8-2017 23:00,0.0,-0.0027127182168252884
14-8-2017 0:00,0.0,-0.0022988746137322814
14-8-2017 1:00,0.0,-0.0027735583838158643
14-8-2017 2:00,0.0,-0.0032093941589135793
14-8-2017 3:00,0.0,-0.0035724383634230476
14-8-2017 4:00,0.03,0.005830523564778083
14-8-2017 5:00,0.0,-0.0033826846002439973
14-8-2017 6:00,0.0,-0.009528553690365241
14-8-2017 7:00,0.0,-0.004688192136373274
14-8-2017 8:00,0.0,-0.004819916105292692
14-8-2017 9:00,0.1,0.09108078118005163
14-8-2017 10:00,0.02,-0.0018690557202108837
14-8-2017 11:00,0.0,-0.012721860834220357
14-8-2017 12:00,0.0,-0.010513179721752693
14-8-2017 13:00,0.0,-0.007341799637994051
14-8-2017 14:00,0.0,-0.007767044052005244
14-8-2017 15:00,0.0,-0.007660870553906021
14-8-2017 16:00,0.02,0.00291619829233585
14-8-2017 17:00,0.0,-0.006009084103056214
14-8-2017 18:00,0.03,0.023813451932668612
14-8-2017 19:00,0.0,-0.00641287195615683
14-8-2017 20:00,0.0,-0.006005784026679663
14-8-2017 21:00,0.0,-0.0072396819905594795
14-8-2017 22:00,0.02,0.004243003911512526
14-8-2017 23:00,0.0,-0.0020759195436641327
15-8-2017 0:00,0.0,-6.953710332266308E-4
15-8-2017 1:00,0.0,-5.9356578910226E-4
15-8-2017 2:00,0.0,-4.910006375878472E-4
15-8-2017 3:00,0.0,-2.7273426090751365E-4
15-8-2017 4:00,0.03,0.00929718450946081
15-8-2017 5:00,0.0,8.171489182017136E-4
15-8-2017 6:00,0.0,-0.0045649106063072094
15-8-2017 7:00,0.0,2.2945250875492512E-4
15-8-2017 8:00,0.0,4.327294105650869E-4
15-8-2017 9:00,0.0,-0.0033216649994269095
15-8-2017 10:00,0.02,0.003486168956707207
15-8-2017 11:00,0.0,-0.006474796381877052
15-8-2017 12:00,0.0,-0.004528787736892992
15-8-2017 13:00,0.0,-0.001304513099407295
15-8-2017 14:00,0.0,-0.0018563927390047243
15-8-2017 15:00,0.0,-0.002274901595463212
15-8-2017 16:00,0.02,0.008042525117916519
15-8-2017 17:00,0.0,-8.945938991664149E-4
15-8-2017 18:00,0.0,-0.0015557741304801733
15-8-2017 19:00,0.0,-0.0020857882214094852
15-8-2017 20:00,0.0,-0.002337599737958015
15-8-2017 21:00,0.0,-0.00404263410147242
15-8-2017 22:00,0.02,0.006277399237239812
15-8-2017 23:00,0.0,-3.8784081380422754E-4
16-8-2017 0:00,0.0,2.7836310346314105E-4
16-8-2017 1:00,0.0,-3.451959305529424E-4
16-8-2017 2:00,0.0,-0.0010062302117607473
16-8-2017 3:00,0.0,-0.0015073949864149996
16-8-2017 4:00,0.03,0.006968427553594953
16-8-2017 5:00,0.0,-0.0018763935185798393
16-8-2017 6:00,0.0,-0.007553438480867501
16-8-2017 7:00,0.0,-0.0038095325315081075
16-8-2017 8:00,0.0,-0.004314048254917316
16-8-2017 9:00,0.0,-0.008209138784883182
16-8-2017 10:00,0.02,-0.0021037696922236865
16-8-2017 11:00,0.0,-0.011627551874924993
16-8-2017 12:00,0.0,-0.010389613116721022
16-8-2017 13:00,0.0,-0.007120821612732857
16-8-2017 14:00,0.1,0.09227856117593493
16-8-2017 15:00,0.0,-0.008508848815381652
16-8-2017 16:00,0.02,0.0015520052038096484
16-8-2017 17:00,0.0,-0.006858817718513179
16-8-2017 18:00,0.0,-0.007406554190482011
16-8-2017 19:00,0.0,-0.007688845488986499
16-8-2017 20:00,0.03,0.021941973053437917
16-8-2017 21:00,0.0,-0.008969242790686406
16-8-2017 22:00,0.02,0.0014721752342632538
16-8-2017 23:00,0.0,-0.004305408380233915
17-8-2017 0:00,0.0,-0.003107501686041324
17-8-2017 1:00,0.0,-0.0028711244569087696
17-8-2017 2:00,0.0,-0.002710457629549699
17-8-2017 3:00,0.0,-0.0023457530142494453
17-8-2017 4:00,0.03,0.006621286884510685
17-8-2017 5:00,0.0,-0.0015115173236295272
17-8-2017 6:00,0.0,-0.006406745378745653
17-8-2017 7:00,0.0,-0.002636479220476517
17-8-2017 8:00,0.0,-0.002771970194492614
17-8-2017 9:00,0.0,-0.006352004077586936
17-8-2017 10:00,0.02,-4.933343779718663E-4
17-8-2017 11:00,0.0,-0.00912416793436003
17-8-2017 12:00,0.0,-0.008138533592505954
17-8-2017 13:00,0.0,-0.004725541992857262
17-8-2017 14:00,0.0,-0.005275213546766204
17-8-2017 15:00,0.0,-0.006331841443782817
17-8-2017 16:00,0.02,0.003572127327046053
17-8-2017 17:00,0.08,0.07547579931457403
17-8-2017 18:00,0.0,-0.00517029458295918
17-8-2017 19:00,0.0,-0.005416669966926684
17-8-2017 20:00,0.0,-0.0061150282434171595
17-8-2017 21:00,0.0,-0.007115586801170711
17-8-2017 22:00,0.02,0.002564050108831154
17-8-2017 23:00,0.0,-0.003209042870304362
18-8-2017 0:00,0.0,-0.0023625992003717677
18-8-2017 1:00,0.0,-0.002225341068959023
18-8-2017 2:00,0.0,-0.0022020284939015247
18-8-2017 3:00,0.0,-0.001930509849515212
18-8-2017 4:00,0.03,0.006568688657035923
18-8-2017 5:00,0.0,-8.822448839474663E-4
18-8-2017 6:00,0.0,-0.005025802228769815
18-8-2017 7:00,0.0,-0.0012593251164970346
18-8-2017 8:00,0.0,-0.0010559405960261148
18-8-2017 9:00,0.0,-0.0042544293365612855
18-8-2017 10:00,0.02,0.0014240287491761316
18-8-2017 11:00,0.0,-0.006247368401732111
18-8-2017 12:00,0.0,-0.005447550697061158
18-8-2017 13:00,0.02,0.018138680907002908
18-8-2017 14:00,0.0,-0.0023310050807279128
18-8-2017 15:00,0.0,-0.0036278109746897096
18-8-2017 16:00,0.02,0.006148312456531583
18-8-2017 17:00,0.0,-0.0015087821445460329
18-8-2017 18:00,0.0,-0.0021284949661000132
18-8-2017 19:00,0.0,-0.0022142159339869267
18-8-2017 20:00,0.0,-0.0031170125278486877
18-8-2017 21:00,0.0,-0.0038998272952036343
18-8-2017 22:00,0.02,0.0053251150038782676
18-8-2017 23:00,0.0,-1.364008358677657E-4
19-8-2017 0:00,0.0,6.656663138326635E-4
19-8-2017 1:00,0.0,5.482726945114048E-4
19-8-2017 2:00,0.0,2.7869836425313804E-4
19-8-2017 3:00,0.0,3.0149838471131736E-4
19-8-2017 4:00,0.03,0.008177322846039269
19-8-2017 5:00,0.0,6.121094810879165E-4
19-8-2017 6:00,0.0,-0.003575927644565432
19-8-2017 7:00,0.0,-6.093900694137829E-4
19-8-2017 8:00,0.0,-8.632805455806268E-4
19-8-2017 9:00,0.0,-0.003929693242771402
19-8-2017 10:00,0.02,0.0013190841298736065
19-8-2017 11:00,0.0,-0.005642345714769471
19-8-2017 12:00,0.0,-0.005277813746496395
19-8-2017 13:00,0.0,-0.001519821154611909
19-8-2017 14:00,0.0,-0.001911000592759564
19-8-2017 15:00,0.0,-0.0034494635002614996
19-8-2017 16:00,0.02,0.006197335574757255
19-8-2017 17:00,0.03,0.028947630554953273
19-8-2017 18:00,0.0,-0.0016775450207422533
19-8-2017 19:00,0.0,-0.0016344554026693518
19-8-2017 20:00,0.0,-0.0027735341440231747
19-8-2017 21:00,0.0,-0.0033712814870054987
19-8-2017 22:00,0.0,-0.01463371016486954
19-8-2017 23:00,0.0,1.8367476874793336E-4
20-8-2017 0:00,0.0,9.086890321902174E-4
20-8-2017 1:00,0.0,8.898316083835421E-4
20-8-2017 2:00,0.0,6.805583190580972E-4
20-8-2017 3:00,0.0,8.078276618367305E-4
20-8-2017 4:00,0.03,0.008413466024190078
20-8-2017 5:00,0.0,0.001301135322305036
20-8-2017 6:00,0.0,-0.002364219097145049
20-8-2017 7:00,0.0,3.695414279197315E-4
20-8-2017 8:00,0.0,2.2553844214939127E-4
20-8-2017 9:00,0.0,-0.0027353574727654465
20-8-2017 10:00,0.02,0.0020571799257186954
20-8-2017 11:00,0.0,-0.0042208418737276765
20-8-2017 12:00,0.0,-0.004318154902920936
20-8-2017 13:00,0.0,-5.315395237005189E-4
20-8-2017 14:00,0.0,-9.87350612749498E-4
20-8-2017 15:00,0.0,-0.002910608734276062
20-8-2017 16:00,0.02,0.006463727784055669
20-8-2017 17:00,0.0,-4.0099989956122366E-4
20-8-2017 18:00,0.0,-0.0010540504744848446
20-8-2017 19:00,0.0,-9.045625155386745E-4
20-8-2017 20:00,0.0,-0.0023023356494711045
20-8-2017 21:00,0.0,-0.0027364192756933487
20-8-2017 22:00,0.02,0.005492377361884123
20-8-2017 23:00,0.0,5.672593612525557E-4
21-8-2017 0:00,0.0,0.0011938170308241512
21-8-2017 1:00,0.0,0.0010601747031875812
21-8-2017 2:00,0.0,6.978813554504798E-4
21-8-2017 3:00,0.0,7.162989212050877E-4
21-8-2017 4:00,0.03,0.007838430085239356
21-8-2017 5:00,0.0,9.569717693524086E-4
21-8-2017 6:00,0.0,-0.0024077102209626253
21-8-2017 7:00,0.0,-1.2873702305292618E-4
21-8-2017 8:00,0.0,-3.848627954949773E-4
21-8-2017 9:00,0.0,-0.003087595976735568
21-8-2017 10:00,0.02,0.0014013473989860172
21-8-2017 11:00,0.0,-0.004040620403865339
21-8-2017 12:00,0.0,-0.004447132479126624
21-8-2017 13:00,0.0,-5.052737760638079E-4
21-8-2017 14:00,0.0,-8.990959795076407E-4
21-8-2017 15:00,0.0,-0.0030805287785523657
21-8-2017 16:00,0.02,0.006147965671502866
21-8-2017 17:00,0.0,-3.0228450010419015E-4
21-8-2017 18:00,0.0,-9.537098984331556E-4
21-8-2017 19:00,0.0,-6.683251009481938E-4
21-8-2017 20:00,0.0,-0.0022952941297937086
21-8-2017 21:00,0.0,-0.0026306769735565004
21-8-2017 22:00,0.02,0.005024379517936742
21-8-2017 23:00,0.0,2.917931215303902E-4
22-8-2017 0:00,0.0,7.54928735705554E-4
22-8-2017 1:00,0.0,-2.0099947368744722E-4
22-8-2017 2:00,0.0,-0.0014238138577627422
22-8-2017 3:00,0.0,-0.0022217490469586968
22-8-2017 4:00,0.03,0.0037093948427284855
22-8-2017 5:00,0.0,-0.0040241396835350215
22-8-2017 6:00,0.0,-0.00817109784108966
22-8-2017 7:00,0.0,-0.007429839991203094
22-8-2017 8:00,0.0,-0.008881016571184907
22-8-2017 9:00,0.0,-0.012128876819729474
22-8-2017 10:00,0.02,-0.00874680418038078
22-8-2017 11:00,0.0,-0.014155994700247459
22-8-2017 12:00,0.0,-0.015674982535187107
22-8-2017 13:00,0.0,-0.011860339573069808
22-8-2017 14:00,0.0,-0.012474631955696414
22-8-2017 15:00,0.13,0.11480330150295279
22-8-2017 16:00,0.03,0.0036034838510943384
22-8-2017 17:00,0.0,-0.012466685308749989
22-8-2017 18:00,0.1,0.0868491179692686
22-8-2017 19:00,0.0,-0.012764019165278247
22-8-2017 20:00,0.0,-0.01465460285960744
22-8-2017 21:00,0.0,-0.01482723736635159
22-8-2017 22:00,0.02,-0.007681890642708879
22-8-2017 23:00,0.0,-0.012157915056656313
23-8-2017 0:00,0.02,0.008207866153657834
23-8-2017 1:00,0.0,-0.011801259695092943
23-8-2017 2:00,0.0,-0.012106355162264163
23-8-2017 3:00,0.0,-0.011945141740408376
23-8-2017 4:00,0.03,-0.00536784995530392
23-8-2017 5:00,0.0,-0.012466508063751651
23-8-2017 6:00,0.0,-0.015875430485895438
23-8-2017 7:00,0.0,-0.015090078639533685
23-8-2017 8:00,0.0,-0.016184539668507962
23-8-2017 9:00,0.0,-0.021056780745009405
23-8-2017 10:00,0.02,-0.019885241479492596
23-8-2017 11:00,0.05,0.02363445631426304
23-8-2017 12:00,0.13,0.0998947230480908
23-8-2017 13:00,0.0,-0.029108770649484174
23-8-2017 14:00,0.0,-0.03266074818811422
23-8-2017 15:00,0.0,-0.03861458327686501
23-8-2017 16:00,0.02,-0.032951323460019076
23-8-2017 17:00,0.0,-0.04167538423189746
23-8-2017 18:00,0.0,-0.04536629682336204
23-8-2017 19:00,0.08,0.03213303726276591
23-8-2017 20:00,0.1,0.046985025934421776
23-8-2017 21:00,0.1,0.04485589986475717
23-8-2017 22:00,0.1,0.02934563650355953
23-8-2017 23:00,0.08,0.022937302316475616
24-8-2017 0:00,0.05,-0.008949034083193648
24-8-2017 1:00,0.08,0.020490058315465673
24-8-2017 2:00,0.08,0.0196040976519664
24-8-2017 3:00,0.08,0.019225875571641807
24-8-2017 4:00,0.08,-0.00504923033223989
24-8-2017 5:00,0.05,-0.009277320407170567
24-8-2017 6:00,0.05,-0.009712515478202198
24-8-2017 7:00,0.1,0.04335265197788247
24-8-2017 8:00,0.1,0.04485062811316344
24-8-2017 9:00,0.08,0.02623370417974208
24-8-2017 10:00,0.12,0.053074422484998794
24-8-2017 11:00,0.1,0.05340272100594855
24-8-2017 12:00,0.07,0.025321954722115528
24-8-2017 13:00,0.0,-0.036850666475470216
24-8-2017 14:00,0.0,-0.033691320010422174
24-8-2017 15:00,0.0,-0.03322791448689144
24-8-2017 16:00,0.0,-0.04105257910670075
24-8-2017 17:00,0.0,-0.02297341350710929
24-8-2017 18:00,0.0,-0.020213923984553118
24-8-2017 19:00,0.0,-0.016145026320884433
24-8-2017 20:00,0.0,-0.015093372926377536
24-8-2017 21:00,0.0,-0.01206971294664749
24-8-2017 22:00,0.02,-0.0031263310111461183
24-8-2017 23:00,0.0,-0.004357719589827113
25-8-2017 0:00,0.0,-0.0013869182179404096
25-8-2017 1:00,0.0,-8.136246102514481E-4
25-8-2017 2:00,0.0,-5.944675084592144E-4
25-8-2017 3:00,0.0,1.7385787065533898E-4
25-8-2017 4:00,0.03,0.006732328425941943
25-8-2017 5:00,0.0,7.493917994872315E-4
25-8-2017 6:00,0.0,-0.0013374905054733743
25-8-2017 7:00,0.0,-6.179267357268345E-4
25-8-2017 8:00,0.0,-0.001152932732251632
25-8-2017 9:00,0.0,-0.0030406174619306034
25-8-2017 10:00,0.02,-5.6798733855140116E-5
25-8-2017 11:00,0.0,-0.002445978102632462
25-8-2017 12:00,0.0,-0.00439385602104744
25-8-2017 13:00,0.0,8.163628451466178E-5
25-8-2017 14:00,0.0,-2.3045224360060792E-4
25-8-2017 15:00,0.0,-0.0035325651046297325
25-8-2017 16:00,0.02,0.004972086842064317
25-8-2017 17:00,0.0,3.602717978704517E-5
25-8-2017 18:00,0.0,-5.725328169746166E-4
25-8-2017 19:00,0.0,2.474767908962256E-4
25-8-2017 20:00,0.0,-0.0023196567250844255
25-8-2017 21:00,0.0,-0.0015487502818248592
25-8-2017 22:00,0.02,0.004442737364510409
25-8-2017 23:00,0.0,9.827548083671976E-4
26-8-2017 0:00,0.0,0.0014051543659447407
26-8-2017 1:00,0.0,0.0012233707884671337
26-8-2017 2:00,0.0,6.583672613546527E-4
26-8-2017 3:00,0.0,6.839617057121552E-4
26-8-2017 4:00,0.03,0.006186730325970854
26-8-2017 5:00,0.0,4.734407659296013E-4
26-8-2017 6:00,0.0,-0.0012406351550224679
26-8-2017 7:00,0.0,-8.421814536765421E-4
26-8-2017 8:00,0.0,-0.0013856759640696065
26-8-2017 9:00,0.0,-0.0030545809570659667
26-8-2017 10:00,0.02,-4.381212732315421E-4
26-8-2017 11:00,0.0,-0.0020552379987957003
26-8-2017 12:00,0.0,-0.004380687018852413
26-8-2017 13:00,0.0,2.328541345491728E-4
26-8-2017 14:00,0.0,-6.0734042037769755E-5
26-8-2017 15:00,0.0,-0.003638429942935119
26-8-2017 16:00,0.02,0.00468547391495393
26-8-2017 17:00,0.0,1.1587620404945789E-4
26-8-2017 18:00,0.0,-4.790460987885029E-4
26-8-2017 19:00,0.0,4.7376266652603746E-4
26-8-2017 20:00,0.0,-0.0023304705467006312
26-8-2017 21:00,0.0,-0.001303715130643558
26-8-2017 22:00,0.02,0.004244480735793588
26-8-2017 23:00,0.0,0.0010645067114561455
27-8-2017 0:00,0.0,0.001447106963992514
27-8-2017 1:00,0.0,0.0012545719462378514
27-8-2017 2:00,0.0,6.497335351101688E-4
27-8-2017 3:00,0.0,6.769227896001309E-4
27-8-2017 4:00,0.03,0.005868315219720435
27-8-2017 5:00,0.0,3.742084646158571E-4
27-8-2017 6:00,0.0,-0.0010175253338044602
27-8-2017 7:00,0.0,-9.906459623359337E-4
27-8-2017 8:00,0.0,-0.0015930932480740499
27-8-2017 9:00,0.0,-0.0030495499913411822
27-8-2017 10:00,0.02,-8.067808387011762E-4
27-8-2017 11:00,0.0,-0.0016581664080055568
27-8-2017 12:00,0.0,-0.004367518016657388
27-8-2017 13:00,0.0,3.8407198458368817E-4
27-8-2017 14:00,0.0,1.0898415952508012E-4
27-8-2017 15:00,0.0,-0.0037442947812404877
27-8-2017 16:00,0.02,0.004398860987843565
27-8-2017 17:00,0.0,1.9572522832202264E-4
27-8-2017 18:00,0.0,-3.855593805821098E-4
27-8-2017 19:00,0.0,7.00048542186256E-4
27-8-2017 20:00,0.0,-0.002341284368276302
27-8-2017 21:00,0.0,-0.0010586799750821837
27-8-2017 22:00,0.02,0.004046224115796382
27-8-2017 23:00,0.0,0.0011462586276042462
28-8-2017 0:00,0.0,0.0014890595794389782
28-8-2017 1:00,0.0,0.0012857733207899125
28-8-2017 2:00,0.0,6.411002250296853E-4
28-8-2017 3:00,0.0,6.698844890347584E-4
28-8-2017 4:00,0.03,0.005549900928399325
28-8-2017 5:00,0.0,2.7497990990926584E-4
28-8-2017 6:00,0.0,-7.944088343014516E-4
28-8-2017 7:00,0.0,-0.0011391008610324772
28-8-2017 8:00,0.0,-0.001800497990437799
28-8-2017 9:00,0.0,-0.003044488858834302
28-8-2017 10:00,0.02,-0.0011753926122473092
28-8-2017 11:00,0.0,-0.0012610294001505155
28-8-2017 12:00,0.0,-0.004354265972256063
28-8-2017 13:00,0.0,5.354300453460545E-4
28-8-2017 14:00,0.0,2.788997403373331E-4
28-8-2017 15:00,0.0,-0.0038499050717749005
28-8-2017 16:00,0.02,0.004112554789644984
28-8-2017 17:00,0.0,2.759998707056346E-4
28-8-2017 18:00,0.0,-2.915281550654042E-4
28-8-2017 19:00,0.0,9.269495313452411E-4
28-8-2017 20:00,0.0,-0.0023514124701647524
28-8-2017 21:00,0.0,-8.128097015159949E-4
28-8-2017 22:00,0.02,0.0038488126064411404
28-8-2017 23:00,0.0,0.0012288656470314627
29-8-2017 0:00,0.0,0.0015318772908017105
29-8-2017 1:00,0.0,0.0013177492277877886
29-8-2017 2:00,0.0,6.331508839245593E-4
29-8-2017 3:00,0.0,6.634395939742925E-4
29-8-2017 4:00,0.03,0.005231898045116742
29-8-2017 5:00,0.0,1.7599239173848175E-4
29-8-2017 6:00,0.0,-5.712216697653584E-4
29-8-2017 7:00,0.0,-0.0012876733954315413
29-8-2017 8:00,0.0,-0.0020082086692396733
29-8-2017 9:00,0.0,-0.003040439406522583
29-8-2017 10:00,0.02,-0.0015456696565703662
29-8-2017 11:00,0.0,-8.662112536541484E-4
29-8-2017 12:00,0.0,-0.0043439863797951695
29-8-2017 13:00,0.0,6.809346930053673E-4
29-8-2017 14:00,0.0,4.4008094688390877E-4
29-8-2017 15:00,0.0,-0.003967130697737614
29-8-2017 16:00,0.02,0.0038119405709982203
29-8-2017 17:00,0.0,3.4047600384804746E-4
29-8-2017 18:00,0.0,-2.1478592758291445E-4
29-8-2017 19:00,0.0,0.0011352533339590671
29-8-2017 20:00,0.0,-0.0023814459471093044
29-8-2017 21:00,0.0,-5.852642866582686E-4
29-8-2017 22:00,0.02,0.0036349711934657272
29-8-2017 23:00,0.0,0.001296937717926801
30-8-2017 0:00,0.0,0.0015938300181313073
30-8-2017 1:00,0.0,0.0013343583501712673
30-8-2017 2:00,0.0,6.543753078121911E-4
30-8-2017 3:00,0.0,7.546293036931433E-4
30-8-2017 4:00,0.03,0.00555343110523264
30-8-2017 5:00,0.0,5.368691615162012E-5
30-8-2017 6:00,0.0,-6.417652374915684E-4
30-8-2017 7:00,0.0,-0.0014262491103547966
30-8-2017 8:00,0.0,-0.0022308325892358566
30-8-2017 9:00,0.0,-0.0031628414520174964
30-8-2017 10:00,0.02,-0.002169067928676164
30-8-2017 11:00,0.0,-6.502669073648864E-4
30-8-2017 12:00,0.0,-0.004121412307941986
30-8-2017 13:00,0.0,5.827887836425743E-4
30-8-2017 14:00,0.0,6.602760631763899E-4
30-8-2017 15:00,0.0,-0.0037159437557639846
30-8-2017 16:00,0.02,0.003572044115125777
30-8-2017 17:00,0.0,3.204307941948028E-4
30-8-2017 18:00,0.0,-2.1904348798231724E-4
30-8-2017 19:00,0.0,0.0011167805134322845
30-8-2017 20:00,0.0,-0.0025104337553732642
30-8-2017 21:00,0.0,-3.36548667239203E-4
30-8-2017 22:00,0.02,0.003810326502469396
30-8-2017 23:00,0.0,0.0012485174204110564
31-8-2017 0:00,0.0,0.0016631664408994148
31-8-2017 1:00,0.0,0.0013572249504393754
31-8-2017 2:00,0.0,6.807309920305719E-4
31-8-2017 3:00,0.0,8.498240561888616E-4
31-8-2017 4:00,0.03,0.005877757399007079
31-8-2017 5:00,0.0,-6.673361293502936E-5
31-8-2017 6:00,0.0,-7.113321458758937E-4
31-8-2017 7:00,0.0,-0.0015647422025498688
31-8-2017 8:00,0.0,-0.0024542679231175585
31-8-2017 9:00,0.0,-0.0032863752323594882
31-8-2017 10:00,0.02,-0.002793862856665789
31-8-2017 11:00,0.0,-4.359841379961995E-4
31-8-2017 12:00,0.0,-0.0039007647340461244
31-8-2017 13:00,0.0,4.8200235466377105E-4
31-8-2017 14:00,0.0,8.771166381941744E-4
31-8-2017 15:00,0.0,-0.003468825376723738
31-8-2017 16:00,0.02,0.0033275433760425535
31-8-2017 17:00,0.0,2.1553437097078434E-4
31-8-2017 18:00,0.0,-3.88399192312486E-4
31-8-2017 19:00,0.0,8.530483528751938E-4
31-8-2017 20:00,0.0,-0.002964842099767074
31-8-2017 21:00,0.0,-0.0010350896480228544
31-8-2017 22:00,0.02,0.002416624774577252
31-8-2017 23:00,0.0,-9.90760350693602E-4
1-9-2017 0:00,0.0,-0.001080155046614491
1-9-2017 1:00,0.0,-0.0028692948721117575
1-9-2017 2:00,0.0,-0.004979028259107516
1-9-2017 3:00,0.0,-0.006177824639209115
1-9-2017 4:00,0.03,-0.0023574911888651438
1-9-2017 5:00,0.0,-0.009891195350562928
1-9-2017 6:00,0.0,-0.011629406589696054
1-9-2017 7:00,0.0,-0.013696225246964124
1-9-2017 8:00,0.0,-0.015815175626001786
1-9-2017 9:00,0.02,0.003052698568559456
1-9-2017 10:00,0.02,-0.01735597187650578
1-9-2017 11:00,0.0,-0.014558937133589182
1-9-2017 12:00,0.07,0.051582725401776774
1-9-2017 13:00,0.02,0.00568201465413504
1-9-2017 14:00,0.02,0.006432712108185076
1-9-2017 15:00,0.17,0.1521550040638127
1-9-2017 16:00,0.03,-0.0015022901350214626
1-9-2017 17:00,0.0,-0.013856693128705057
1-9-2017 18:00,0.0,-0.01390708427756551
1-9-2017 19:00,0.0,-0.012142011493075783
1-9-2017 20:00,0.0,-0.0155325764340258
1-9-2017 21:00,0.0,-0.011428089783875679
1-9-2017 22:00,0.02,-0.006252669273588321
1-9-2017 23:00,0.0,-0.008086763607275943
2-9-2017 0:00,0.0,-0.006261335184810337
2-9-2017 1:00,0.0,-0.005256079340457176
2-9-2017 2:00,0.0,-0.004521458151152235
2-9-2017 3:00,0.0,-0.0028105499706260707
2-9-2017 4:00,0.03,0.004079777592131308
2-9-2017 5:00,0.0,-0.0021180346459109046
2-9-2017 6:00,0.0,-0.0020247535178250513
2-9-2017 7:00,0.0,-0.002379875702275961
2-9-2017 8:00,0.0,-0.0028031456663723513
2-9-2017 9:00,0.0,-0.003323406220619323
2-9-2017 10:00,0.02,-0.0037213757390548844
2-9-2017 11:00,0.0,4.26698775497337E-4
2-9-2017 12:00,0.0,-0.002913311810332234
2-9-2017 13:00,0.0,9.072243444496007E-4
2-9-2017 14:00,0.0,0.002018229707794447
2-9-2017 15:00,0.0,-0.0021865196272572757
2-9-2017 16:00,0.02,0.003707247961083344
2-9-2017 17:00,0.0,0.0011400149803781996
2-9-2017 18:00,0.0,6.727302475308399E-4
2-9-2017 19:00,0.0,0.00199099227291289
2-9-2017 20:00,0.0,-0.0019426831547546027
2-9-2017 21:00,0.0,0.001364446561826235
2-9-2017 22:00,0.0,-0.014708517972174342
2-9-2017 23:00,0.0,0.0020585873537460825
3-9-2017 0:00,0.0,0.0028267477626230018
3-9-2017 1:00,0.0,0.0023568403757347214
3-9-2017 2:00,0.0,0.0016662572402484925
3-9-2017 3:00,0.0,0.0020173110803105537
3-9-2017 4:00,0.03,0.007708073854389472
3-9-2017 5:00,0.0,3.515830871876442E-4
3-9-2017 6:00,0.0,-2.1821387032270462E-4
3-9-2017 7:00,0.0,-0.0013562100347716433
3-9-2017 8:00,0.0,-0.0025783700367419445
3-9-2017 9:00,0.0,-0.0032116742390261035
3-9-2017 10:00,0.02,-0.00432385173006096
3-9-2017 11:00,0.0,4.503536568979073E-4
3-9-2017 12:00,0.0,-0.003096238949356153
3-9-2017 13:00,0.0,2.903398561310152E-4
3-9-2017 14:00,0.0,0.001606448877052447
3-9-2017 15:00,0.0,-0.0026805460003968165
3-9-2017 16:00,0.02,0.0026090791234003314
3-9-2017 17:00,0.0,2.3702538626561636E-4
3-9-2017 18:00,0.0,-2.391436999766715E-4
3-9-2017 19:00,0.0,0.0010403167968896813
3-9-2017 20:00,0.0,-0.0030284598869033067
3-9-2017 21:00,0.0,6.564180235544602E-4
3-9-2017 22:00,0.02,0.004510173572712163
3-9-2017 23:00,0.0,0.0010535836856868444
4-9-2017 0:00,0.0,0.0019395812084212882
4-9-2017 1:00,0.0,0.001394511944340959
4-9-2017 2:00,0.0,6.787258381129539E-4
4-9-2017 3:00,0.0,0.0010699266917603032
4-9-2017 4:00,0.03,0.0069611260312101506
4-9-2017 5:00,0.0,-9.136099940837404E-4
4-9-2017 6:00,0.0,-0.0015060517661227455
4-9-2017 7:00,0.0,-0.002786488639502165
4-9-2017 8:00,0.0,-0.004167105408278829
4-9-2017 9:00,0.0,-0.0047163406561054845
4-9-2017 10:00,0.02,-0.0063456135172449465
4-9-2017 11:00,0.0,-7.481646553847395E-4
4-9-2017 12:00,0.0,-0.004304226679568599
4-9-2017 13:00,0.0,-0.0012395443182209218
4-9-2017 14:00,0.0,3.937292654322688E-4
4-9-2017 15:00,0.0,-0.0038634502492593597
4-9-2017 16:00,0.02,9.340921528718498E-4
4-9-2017 17:00,0.0,-0.001182362605263821
4-9-2017 18:00,0.03,0.02839300369052758
4-9-2017 19:00,0.0,-3.059374533185416E-4
4-9-2017 20:00,0.0,-0.004449415505433802
4-9-2017 21:00,0.0,-2.487102390905946E-4
4-9-2017 22:00,0.02,0.0036697726305571342
4-9-2017 23:00,0.0,1.2749476791782018E-4
5-9-2017 0:00,0.0,0.0012693366418415368
5-9-2017 1:00,0.0,9.258649723547585E-4
5-9-2017 2:00,0.0,4.6163536717057797E-4
5-9-2017 3:00,0.0,0.001169742706188818
5-9-2017 4:00,0.03,0.007538038318951854
5-9-2017 5:00,0.0,-4.5407248584185093E-4
5-9-2017 6:00,0.0,-6.682885938172575E-4
5-9-2017 7:00,0.0,-0.0016903713076594684
5-9-2017 8:00,0.0,-0.0028286499747748085
5-9-2017 9:00,0.0,-0.0031049147374238115
5-9-2017 10:00,0.0,-0.025062420294023127
5-9-2017 11:00,0.0,0.0015471347173831762
5-9-2017 12:00,0.0,-0.0018295340500857266
5-9-2017 13:00,0.0,9.640697906980883E-4
5-9-2017 14:00,0.0,0.0029653258606586698
5-9-2017 15:00,0.0,-0.0012112203676996956
5-9-2017 16:00,0.02,0.0031451831020283053
5-9-2017 17:00,0.0,0.001165024077365552
5-9-2017 18:00,0.0,6.726225096645153E-4
5-9-2017 19:00,0.0,0.0018761368118619362
5-9-2017 20:00,0.0,-0.002461185521819578
5-9-2017 21:00,0.0,0.001852856376730739
5-9-2017 22:00,0.02,0.005433827482190201
5-9-2017 23:00,0.0,0.0014036225592586032
6-9-2017 0:00,0.0,0.0024103199451458316
6-9-2017 1:00,0.0,0.0017220620609039688
6-9-2017 2:00,0.0,0.0010178013228651526
6-9-2017 3:00,0.0,0.0016670261850398505
6-9-2017 4:00,0.02,-0.0019138205725582336
6-9-2017 5:00,0.0,-7.875229560933773E-4
6-9-2017 6:00,0.0,-0.0010901205705354231
6-9-2017 7:00,0.0,-0.0023512800766087695
6-9-2017 8:00,0.0,-0.003792618260889587
6-9-2017 9:00,0.0,-0.0041752555626601105
6-9-2017 10:00,0.03,0.0032954901225078076
6-9-2017 11:00,0.0,6.896723253185903E-4
6-9-2017 12:00,0.0,-0.0025431027144214935
6-9-2017 13:00,0.0,-4.681583387866105E-4
6-9-2017 14:00,0.0,0.0020385800758126547
6-9-2017 15:00,0.0,-0.001980784375608085
6-9-2017 16:00,0.02,0.0015937699777297887
6-9-2017 17:00,0.0,-2.0268327439449188E-5
6-9-2017 18:00,0.0,-6.46630700802538E-4
6-9-2017 19:00,0.0,4.8242574703978233E-4
6-9-2017 20:00,0.0,-0.003860764614138333
6-9-2017 21:00,0.0,0.001235262961242961
6-9-2017 22:00,0.02,0.005080822416390549
6-9-2017 23:00,0.0,6.103253330062789E-4
7-9-2017 0:00,0.0,0.0020883718783487586
7-9-2017 1:00,0.0,0.0014079093638067553
7-9-2017 2:00,0.0,8.161990773682443E-4
7-9-2017 3:00,0.0,0.0017591230471543451
7-9-2017 4:00,0.03,0.008581514654044956
7-9-2017 5:00,0.0,-9.66817041440539E-4
7-9-2017 6:00,0.0,-0.0011508338955581354
7-9-2017 7:00,0.0,-0.002444206342379151
7-9-2017 8:00,0.0,-0.003981740192341979
7-9-2017 9:00,0.0,-0.00436529268210914
7-9-2017 10:00,0.02,-0.007360883814441135
7-9-2017 11:00,0.0,9.233375205069784E-4
7-9-2017 12:00,0.0,-0.0020601318507714357
7-9-2017 13:00,0.0,-6.162913650375685E-4
7-9-2017 14:00,0.0,0.0024834849694482983
7-9-2017 15:00,0.0,-0.001291142129786903
7-9-2017 16:00,0.02,0.0015892422235405743
7-9-2017 17:00,0.0,2.943751848234061E-4
7-9-2017 18:00,0.0,-5.128974472431822E-4
7-9-2017 19:00,0.0,4.948723302339508E-4
7-9-2017 20:00,0.0,-0.0039010148744508554
7-9-2017 21:00,0.0,0.0017560472146074708
7-9-2017 22:00,0.02,0.005645351645935753
7-9-2017 23:00,0.0,5.137190285913768E-4
8-9-2017 0:00,0.0,0.0022422713598816736
8-9-2017 1:00,0.0,0.0014633931123340365
8-9-2017 2:00,0.0,8.780221747903411E-4
8-9-2017 3:00,0.0,0.002008434149482352
8-9-2017 4:00,0.03,0.009127903561037053
8-9-2017 5:00,0.0,-0.0011176037660590526
8-9-2017 6:00,0.0,-0.0012055861795124642
8-9-2017 7:00,0.0,-0.0025537064841498827
8-9-2017 8:00,0.0,-0.004209970916863458
8-9-2017 9:00,0.0,-0.004784868406304756
8-9-2017 10:00,0.02,-0.008437222890655845
8-9-2017 11:00,0.0,5.466110419104185E-4
8-9-2017 12:00,0.0,-0.0023779791954255053
8-9-2017 13:00,0.0,-0.002153779555476199
8-9-2017 14:00,0.0,9.504977430127232E-4
8-9-2017 15:00,0.0,-0.0031679289599204808
8-9-2017 16:00,0.02,-0.001570251562486945
8-9-2017 17:00,0.0,-0.0031175536567341795
8-9-2017 18:00,0.0,-0.004677342869486405
8-9-2017 19:00,0.0,-0.004362466084356596
8-9-2017 20:00,0.0,-0.009382656454530229
8-9-2017 21:00,0.0,-0.0034137129543624373
8-9-2017 22:00,0.02,2.701833505789706E-4
8-9-2017 23:00,0.0,-0.005771737903293074
9-9-2017 0:00,0.02,0.015958167111377475
9-9-2017 1:00,0.0,-0.004967489250970651
9-9-2017 2:00,0.03,0.02440511677858561
9-9-2017 3:00,0.03,0.025674654376388675
9-9-2017 4:00,0.05,0.02304283921081262
9-9-2017 5:00,0.03,0.02222263398172768
9-9-2017 6:00,0.0,-0.007646836261439755
9-9-2017 7:00,0.0,-0.008927226694271791
9-9-2017 8:00,0.0,-0.010579743980114324
9-9-2017 9:00,0.0,-0.010595532085797443
9-9-2017 10:00,0.03,-0.004154195538735313
9-9-2017 11:00,0.0,-0.0037202946251185826
9-9-2017 12:00,0.0,-0.005835551345079702
9-9-2017 13:00,0.0,-0.005060793634489945
9-9-2017 14:00,0.0,-1.8181645557295567E-4
9-9-2017 15:00,0.0,-0.0028738438457791547
9-9-2017 16:00,0.02,-7.886744878145471E-4
9-9-2017 17:00,0.0,-0.0010128266221167727
9-9-2017 18:00,0.0,-0.0017495474000795565
9-9-2017 19:00,0.0,-5.519785918219966E-4
9-9-2017 20:00,0.0,-0.004620887112009378
9-9-2017 21:00,0.0,0.002312485277486117
9-9-2017 22:00,0.02,0.006443520934258887
9-9-2017 23:00,0.0,1.438585220774084E-4
10-9-2017 0:00,0.0,0.0025276636983464482
10-9-2017 1:00,0.0,0.0015704041385004876
10-9-2017 2:00,0.0,0.0010161620524593651
10-9-2017 3:00,0.0,0.0025400001906761387
10-9-2017 4:00,0.02,2.72075365271969E-4
10-9-2017 5:00,0.0,-0.0013650523031399067
10-9-2017 6:00,0.0,-0.0012582349133594905
10-9-2017 7:00,0.0,-0.002713120011724262
10-9-2017 8:00,0.0,-0.004604114688033872
10-9-2017 9:00,0.0,-0.005087223764526336
10-9-2017 10:00,0.03,4.2137345938149124E-4
10-9-2017 11:00,0.0,0.001278910999481166
10-9-2017 12:00,0.0,-0.0010534425576726714
10-9-2017 13:00,0.0,-0.001611944450372593
10-9-2017 14:00,0.0,0.0031579149350423356
10-9-2017 15:00,0.0,8.469183633014708E-6
10-9-2017 16:00,0.02,6.973128281985651E-4
10-9-2017 17:00,0.0,3.9243402227036274E-4
10-9-2017 18:00,0.0,-9.250949524739639E-4
10-9-2017 19:00,0.0,-2.487107526596365E-4
10-9-2017 20:00,0.0,-0.0047702140544317526
10-9-2017 21:00,0.0,0.002733644038138446
10-9-2017 22:00,0.02,0.006917875860489581
10-9-2017 23:00,0.0,-3.347089625433189E-5
11-9-2017 0:00,0.0,0.002610291255360199
11-9-2017 1:00,0.0,0.0015724339836999425
11-9-2017 2:00,0.0,0.0010423492677449709
11-9-2017 3:00,0.0,0.0027714934320589935
11-9-2017 4:00,0.02,8.184644325102547E-4
11-9-2017 5:00,0.0,-0.001509506980593509
11-9-2017 6:00,0.0,-0.001300323263230181
11-9-2017 7:00,0.0,-0.00280362433249263
11-9-2017 8:00,0.0,-0.004807017704634261
11-9-2017 9:00,0.0,-0.005316029190220838
11-9-2017 10:00,0.03,-2.987527277520819E-4
11-9-2017 11:00,0.0,0.0014238400005457674
11-9-2017 12:00,0.0,-6.841918320855574E-4
11-9-2017 13:00,0.0,-0.0019107145204272332
11-9-2017 14:00,0.0,0.003415265879133557
11-9-2017 15:00,0.0,4.7364057416903697E-4
11-9-2017 16:00,0.02,4.313961721886363E-4
11-9-2017 17:00,0.0,4.4453783293545764E-4
11-9-2017 18:00,0.0,-0.0010550522002894156
11-9-2017 19:00,0.0,-5.0111150284906E-4
11-9-2017 20:00,0.0,-0.005076468480136651
11-9-2017 21:00,0.0,0.002949926868635137
11-9-2017 22:00,0.02,0.007139395579736307
11-9-2017 23:00,0.0,-5.115947983983628E-4
12-9-2017 0:00,0.0,0.0023441650517333308
12-9-2017 1:00,0.0,0.001071656470192697
12-9-2017 2:00,0.0,4.116755262577971E-4
12-9-2017 3:00,0.0,0.002192072118602984
12-9-2017 4:00,0.02,3.998954085063554E-4
12-9-2017 5:00,0.0,-0.0027151294713088302
12-9-2017 6:00,0.0,-0.0024997891483821253
12-9-2017 7:00,0.0,-0.004147703568201102
12-9-2017 8:00,0.0,-0.006359693015833602
12-9-2017 9:00,0.0,-0.00691716916542581
12-9-2017 10:00,0.03,-0.002413765565475413
12-9-2017 11:00,0.0,1.5133024994132445E-4
12-9-2017 12:00,0.0,-0.001754931959246773
12-9-2017 13:00,0.03,0.02635512275089251
12-9-2017 14:00,0.0,0.0022418223587218804
12-9-2017 15:00,0.0,-4.8738430567512106E-4
12-9-2017 16:00,0.02,-0.0012561104339972656
12-9-2017 17:00,0.0,-8.828656705702166E-4
12-9-2017 18:00,0.0,-0.002522434126270432
12-9-2017 19:00,0.0,-0.002048845726795616
12-9-2017 20:00,0.0,-0.006635965175190247
12-9-2017 21:00,0.0,0.002023046199541946
12-9-2017 22:00,0.02,0.0063278525311847595
12-9-2017 23:00,0.0,-0.0019126807365490647
13-9-2017 0:00,0.0,0.001275419142993446
13-9-2017 1:00,0.0,-8.046373571271928E-5
13-9-2017 2:00,0.0,-7.064565629805626E-4
13-9-2017 3:00,0.0,0.0013091643915448762
13-9-2017 4:00,0.02,-1.4694049722117648E-4
13-9-2017 5:00,0.0,-0.004064159042521851
13-9-2017 6:00,0.0,-0.0037947000067783095
13-9-2017 7:00,0.0,-0.005545622248505182
13-9-2017 8:00,0.0,-0.007937167060781241
13-9-2017 9:00,0.0,-0.008538172106528692
13-9-2017 10:00,0.03,-0.0045149252175041175
13-9-2017 11:00,0.0,-0.0010995870254891472
13-9-2017 12:00,0.05,0.04722887113040115
13-9-2017 13:00,0.0,-0.0053839117718563236
13-9-2017 14:00,0.0,0.0010919340062258637
13-9-2017 15:00,0.0,-0.0013443813453176776
13-9-2017 16:00,0.03,0.007096026395690475
13-9-2017 17:00,0.0,-0.002156941241427425
13-9-2017 18:00,0.0,-0.003926105596252623
13-9-2017 19:00,0.0,-0.003536088719087795
13-9-2017 20:00,0.0,-0.008153415934257408
13-9-2017 21:00,0.0,0.0014102946072080645
13-9-2017 22:00,0.02,0.006060276996874454
13-9-2017 23:00,0.0,-0.002608880982799692
14-9-2017 0:00,0.0,0.0011333966418340486
14-9-2017 1:00,0.0,-2.037468749001292E-6
14-9-2017 2:00,0.0,-2.902191140611429E-4
14-9-2017 3:00,0.0,0.0022644492679331904
14-9-2017 4:00,0.02,0.0014482407469627537
14-9-2017 5:00,0.0,-0.003042851964623722
14-9-2017 6:00,0.0,-0.002490954716863658
14-9-2017 7:00,0.0,-0.004116552659891261
14-9-2017 8:00,0.0,-0.006459320716203712
14-9-2017 9:00,0.0,-0.007034178242065991
14-9-2017 10:00,0.05,0.016578598605880422
14-9-2017 11:00,0.0,9.138658443412781E-4
14-9-2017 12:00,0.0,-4.5326896484238974E-4
14-9-2017 13:00,0.0,-0.0037906313861144013
14-9-2017 14:00,0.0,0.003272618655602808
14-9-2017 15:00,0.0,0.001127452710294928
14-9-2017 16:00,0.02,-0.0012247417414925589
14-9-2017 17:00,0.0,-1.7367113106991818E-4
14-9-2017 18:00,0.0,-0.0021421807369346076
14-9-2017 19:00,0.0,-0.0019054882300545218
14-9-2017 20:00,0.0,-0.006622776059973873
14-9-2017 21:00,0.0,0.0034902343435497763
14-9-2017 22:00,0.02,0.008129993788687005
14-9-2017 23:00,0.0,-0.0013231879054802038
15-9-2017 0:00,0.0,0.0026178684616920246
15-9-2017 1:00,0.0,0.00106369561651206
15-9-2017 2:00,0.0,4.7413765043559115E-4
15-9-2017 3:00,0.0,0.0029286659571787915
15-9-2017 4:00,0.02,0.002113170591527125
15-9-2017 5:00,0.0,-0.003874759217140682
15-9-2017 6:00,0.0,-0.003963386688159624
15-9-2017 7:00,0.0,-0.006386623402806884
15-9-2017 8:00,0.0,-0.009603577773474654
15-9-2017 9:00,0.0,-0.011246840568021834
15-9-2017 10:00,0.03,-0.009139086599711166
15-9-2017 11:00,0.0,-0.004978443153361993
15-9-2017 12:00,0.0,-0.007135723766177193
15-9-2017 13:00,0.0,-0.013084286965002155
15-9-2017 14:00,0.03,0.02267974608181167
15-9-2017 15:00,0.0,-0.011060891715798948
15-9-2017 16:00,0.02,-0.016092309618920473
15-9-2017 17:00,0.0,-0.019019950670661815
15-9-2017 18:00,0.0,-0.025470555437270517
15-9-2017 19:00,0.0,-0.029669937210379697
15-9-2017 20:00,0.15,0.11123006443524669
15-9-2017 21:00,0.0,-0.03219145037117672
15-9-2017 22:00,0.02,-0.0316457389425739
15-9-2017 23:00,0.02,-0.02596676942323941
16-9-2017 0:00,0.0,-0.045910759385533934
16-9-2017 1:00,0.03,-0.019004081255954416
16-9-2017 2:00,0.03,-0.021015425833438822
16-9-2017 3:00,0.03,-0.019781447892590363
16-9-2017 4:00,0.03,-0.04171664039356687
16-9-2017 5:00,0.12,0.06283722558045662
16-9-2017 6:00,0.18,0.12414670627043133
16-9-2017 7:00,0.18,0.12296446366393705
16-9-2017 8:00,0.23,0.17091195585868663
16-9-2017 9:00,0.15,0.09210012340836726
16-9-2017 10:00,0.08,-0.0033973098900450804
16-9-2017 11:00,0.0,-0.04551145462289486
16-9-2017 12:00,0.0,-0.044559045426428856
16-9-2017 13:00,0.05,0.0040230923701471966
16-9-2017 14:00,0.0,-0.0343701898049884
16-9-2017 15:00,0.0,-0.03256439768194779
16-9-2017 16:00,0.02,-0.0331331372634494
16-9-2017 17:00,0.0,-0.026810676716144424
16-9-2017 18:00,0.0,-0.024514563382286837
16-9-2017 19:00,0.0,-0.019921206174174977
16-9-2017 20:00,0.0,-0.02017510179179255
16-9-2017 21:00,0.0,-0.005758164299002047
16-9-2017 22:00,0.0,-0.017933523377772646
16-9-2017 23:00,0.0,-0.005749425135775475
17-9-2017 0:00,0.0,0.0017945160816242303
17-9-2017 1:00,0.0,7.332535552572452E-4
17-9-2017 2:00,0.0,8.713307356589314E-4
17-9-2017 3:00,0.0,0.004455966679906675
17-9-2017 4:00,0.02,0.004972285412899356
17-9-2017 5:00,0.0,-0.0018347015138093113
17-9-2017 6:00,0.0,-0.0010297613462644647
17-9-2017 7:00,0.0,-0.002873658528029236
17-9-2017 8:00,0.0,-0.005664368451285843
17-9-2017 9:00,0.0,-0.006407993134077214
17-9-2017 10:00,0.03,-0.004273836275912423
17-9-2017 11:00,0.0,0.002574008235338982
17-9-2017 12:00,0.0,0.001872884664386322
17-9-2017 13:00,0.0,-0.003725793698014329
17-9-2017 14:00,0.0,0.0050120917505229534
17-9-2017 15:00,0.0,0.0036527966398370625
17-9-2017 16:00,0.02,-0.0011647817744223376
17-9-2017 17:00,0.0,7.670694619602504E-4
17-9-2017 18:00,0.0,-0.001830810013684586
17-9-2017 19:00,0.0,-0.002085424734320401
17-9-2017 20:00,0.0,-0.0071339285251506394
17-9-2017 21:00,0.0,0.004948789939052275
17-9-2017 22:00,0.02,0.00987968902510675
17-9-2017 23:00,0.0,-0.0016037553380349053
18-9-2017 0:00,0.0,0.003255445731257527
18-9-2017 1:00,0.0,0.0015911829459956386
18-9-2017 2:00,0.0,0.001243622281335009
18-9-2017 3:00,0.0,0.00454385662603363
18-9-2017 4:00,0.02,0.004876626990047095
18-9-2017 5:00,0.0,-0.0027056532555336994
18-9-2017 6:00,0.0,-0.0018196940285586543
18-9-2017 7:00,0.0,-0.0037396862037338773
18-9-2017 8:00,0.0,-0.006683038663136597
18-9-2017 9:00,0.0,-0.0074500229593552495
18-9-2017 10:00,0.03,-0.00577584332556858
18-9-2017 11:00,0.0,0.001942423048828754
18-9-2017 12:00,0.0,0.0014961993295021792
18-9-2017 13:00,0.0,-0.004864619245343149
18-9-2017 14:00,0.0,0.004423109773399023
18-9-2017 15:00,0.0,0.0033174033755186657
18-9-2017 16:00,0.02,-0.002330339470576949
18-9-2017 17:00,0.0,-9.391690701700695E-5
18-9-2017 18:00,0.0,-0.0028906085540645215
18-9-2017 19:00,0.0,-0.0032980232966100267
18-9-2017 20:00,0.0,-0.00844596335381495
18-9-2017 21:00,0.02,0.024312360497736968
18-9-2017 22:00,0.02,0.009359320345145744
18-9-2017 23:00,0.0,-0.002781864026605505
19-9-2017 0:00,0.0,0.0024023994911088796
19-9-2017 1:00,0.0,6.848808102647179E-4
19-9-2017 2:00,0.0,4.0142666385440187E-4
19-9-2017 3:00,0.0,0.003967003772316533
19-9-2017 4:00,0.02,0.004665951016312435
19-9-2017 5:00,0.0,-0.0035204310734909716
19-9-2017 6:00,0.0,-0.002382261312436216
19-9-2017 7:00,0.0,-0.004207168946668824
19-9-2017 8:00,0.0,-0.00713198440786459
19-9-2017 9:00,0.0,-0.007725578493685995
19-9-2017 10:00,0.03,-0.006314627843101573
19-9-2017 11:00,0.0,0.0024708086356175656
19-9-2017 12:00,0.0,0.0024762330090929516
19-9-2017 13:00,0.0,-0.004536597154593907
19-9-2017 14:00,0.0,0.005411104057956305
19-9-2017 15:00,0.0,0.004669114996484629
19-9-2017 16:00,0.02,-0.0016986337213954297
19-9-2017 17:00,0.0,8.720467139396396E-4
19-9-2017 18:00,0.0,-0.002093770559912778
19-9-2017 19:00,0.0,-0.0026242605205146477
19-9-2017 20:00,0.0,-0.00784191204024093
19-9-2017 21:00,0.0,0.005582527163662578
19-9-2017 22:00,0.02,0.010736119485648348
19-9-2017 23:00,0.0,-0.002072233181489807
20-9-2017 0:00,0.0,0.0034392217407126086
20-9-2017 1:00,0.0,0.00154650955255522
20-9-2017 2:00,0.0,0.0012243121421266915
20-9-2017 3:00,0.0,0.004952380076777043
20-9-2017 4:00,0.02,0.005923500173660778
20-9-2017 5:00,0.0,-0.0031854682966211117
20-9-2017 6:00,0.0,-0.002086370398766858
20-9-2017 7:00,0.0,-0.00410560365391897
20-9-2017 8:00,0.0,-0.007302234625901571
20-9-2017 9:00,0.0,-0.00805921881596728
20-9-2017 10:00,0.03,-0.007234569146317749
20-9-2017 11:00,0.0,0.0023435111980687935
20-9-2017 12:00,0.0,0.0025215435581420363
20-9-2017 13:00,0.0,-0.005284853472210022
20-9-2017 14:00,0.0,0.005231790208879683
20-9-2017 15:00,0.0,0.004798642278899988
20-9-2017 16:00,0.03,0.007547938745513719
20-9-2017 17:00,0.0,4.183191256638217E-4
20-9-2017 18:00,0.0,-0.0027098552682531278
20-9-2017 19:00,0.0,-0.003379647945374838
20-9-2017 20:00,0.0,-0.00867786003701805
20-9-2017 21:00,0.0,0.005455525341966161
20-9-2017 22:00,0.02,0.010772612261814259
20-9-2017 23:00,0.0,-0.0027088328378639817
21-9-2017 0:00,0.0,0.003170175485768756
21-9-2017 1:00,0.0,9.221743004465804E-4
21-9-2017 2:00,0.0,3.8113813614827977E-4
21-9-2017 3:00,0.0,0.004091601407135293
21-9-2017 4:00,0.02,0.005154764740531796
21-9-2017 5:00,0.0,-0.005266240961208452
21-9-2017 6:00,0.0,-0.004595665777534577
21-9-2017 7:00,0.0,-0.007198689562553547
21-9-2017 8:00,0.0,-0.011056600954270333
21-9-2017 9:00,0.0,-0.012216356608125527
21-9-2017 10:00,0.03,-0.012217391157150067
21-9-2017 11:00,0.0,-0.002086050184835279
21-9-2017 12:00,0.0,-0.0019747930759033503
21-9-2017 13:00,0.0,-0.010638917794783216
21-9-2017 14:00,0.0,3.825075329833734E-4
21-9-2017 15:00,0.0,1.9403991263305595E-4
21-9-2017 16:00,0.02,-0.008003752412894295
21-9-2017 17:00,0.12,0.11517673406892553
21-9-2017 18:00,0.0,-0.008103391288201253
21-9-2017 19:00,0.0,-0.008902059728256076
21-9-2017 20:00,0.0,-0.014270405438229496
21-9-2017 21:00,0.0,6.73391333029006E-4
21-9-2017 22:00,0.02,0.006255456177338385
21-9-2017 23:00,0.0,-0.007797598028280981
22-9-2017 0:00,0.0,-0.0014495529766189626
22-9-2017 1:00,0.0,-0.0032997426251403393
22-9-2017 2:00,0.0,-0.003306517009342826
22-9-2017 3:00,0.0,0.0011394421319464356
22-9-2017 4:00,0.02,0.00304775674190756
22-9-2017 5:00,0.0,-0.007384993712932079
22-9-2017 6:00,0.0,-0.005842648765079613
22-9-2017 7:00,0.0,-0.0077291695427709525
22-9-2017 8:00,0.0,-0.010948067817027441
22-9-2017 9:00,0.0,-0.011829718805794557
22-9-2017 10:00,0.03,-0.011975561296842931
22-9-2017 11:00,0.0,-6.100834199496766E-4
22-9-2017 12:00,0.0,1.152747144911679E-4
22-9-2017 13:00,0.02,0.010749063847383087
22-9-2017 14:00,0.0,0.0024309123621261506
22-9-2017 15:00,0.0,0.0026427665917047975
22-9-2017 16:00,0.08,0.053653527014335956
22-9-2017 17:00,0.0,-0.0028283917805839555
22-9-2017 18:00,0.0,-0.006232979479330036
22-9-2017 19:00,0.0,-0.007133035060727436
22-9-2017 20:00,0.0,-0.012544025767440525
22-9-2017 21:00,0.0,0.003182632977279061
22-9-2017 22:00,0.02,0.009002126327236529
22-9-2017 23:00,0.0,-0.005650086403137159
23-9-2017 0:00,0.0,0.0011394459577409397
23-9-2017 1:00,0.0,-6.268194221485824E-4
23-9-2017 2:00,0.0,-4.1321929442420056E-4
23-9-2017 3:00,0.0,0.004454348448998361
23-9-2017 4:00,0.02,0.006893927067355162
23-9-2017 5:00,0.0,-0.00423168570260511
23-9-2017 6:00,0.0,-0.0024986885525952957
23-9-2017 7:00,0.0,-0.00434982388498025
23-9-2017 8:00,0.0,-0.007610826603797681
23-9-2017 9:00,0.0,-0.00835508133100979
23-9-2017 10:00,0.03,-0.008786440167615064
23-9-2017 11:00,0.0,0.0036724662103235902
23-9-2017 12:00,0.0,0.004871216966740281
23-9-2017 13:00,0.0,-0.005091327531401011
23-9-2017 14:00,0.0,0.007356696687513533
23-9-2017 15:00,0.0,0.008074625284216149
23-9-2017 16:00,0.02,-0.0016003090277991808
23-9-2017 17:00,0.0,0.002276654343743191
23-9-2017 18:00,0.0,-0.0012311082534201673
23-9-2017 19:00,0.0,-0.002211263532958125
23-9-2017 20:00,0.0,-0.007643611793208863
23-9-2017 21:00,0.0,0.00853766626832731
23-9-2017 22:00,0.0,-0.005733654532711643
23-9-2017 23:00,0.0,-0.0013132684444841583
24-9-2017 0:00,0.0,0.0055895085689655205
24-9-2017 1:00,0.0,0.003267273476120253
24-9-2017 2:00,0.0,0.003061354134183905
24-9-2017 3:00,0.0,0.007710636498152172
24-9-2017 4:00,0.0,-0.009958414856682953
24-9-2017 5:00,0.0,-0.002263279198636393
24-9-2017 6:00,0.0,-8.26019103341768E-4
24-9-2017 7:00,0.0,-0.003128158247292872
24-9-2017 8:00,0.0,-0.006917654667543785
24-9-2017 9:00,0.0,-0.007988410465779403
24-9-2017 10:00,0.02,-0.0191691829805201
24-9-2017 11:00,0.02,0.02391925456588543
24-9-2017 12:00,0.0,0.005127500611699453
24-9-2017 13:00,0.0,-0.005894434883547547
24-9-2017 14:00,0.0,0.0068567076734659844
24-9-2017 15:00,0.0,0.007617653271220076
24-9-2017 16:00,0.02,-0.0032060331415142383
24-9-2017 17:00,0.0,7.342788334665567E-4
24-9-2017 18:00,0.0,-0.0031721922251379403
24-9-2017 19:00,0.0,-0.004527980765840316
24-9-2017 20:00,0.0,-0.010277220142652565
24-9-2017 21:00,0.0,0.006525613050770746
24-9-2017 22:00,0.02,0.012330413913805936
24-9-2017 23:00,0.0,-0.004009665364294851
25-9-2017 0:00,0.0,0.003173292116796963
25-9-2017 1:00,0.0,7.583299621336907E-4
25-9-2017 2:00,0.0,5.961338016743515E-4
25-9-2017 3:00,0.0,0.005490373437326059
25-9-2017 4:00,0.02,0.008175934760436755
25-9-2017 5:00,0.0,-0.004917813202506186
25-9-2017 6:00,0.0,-0.003385922210923078
25-9-2017 7:00,0.0,-0.005748697215436662
25-9-2017 8:00,0.0,-0.009676319386117386
25-9-2017 9:00,0.02,0.009286243158907874
25-9-2017 10:00,0.03,-0.01228412361968386
25-9-2017 11:00,0.0,0.001793664509472946
25-9-2017 12:00,0.0,0.0033712252589686827
25-9-2017 13:00,0.0,-0.008281325949312154
25-9-2017 14:00,0.0,0.005201710229872229
25-9-2017 15:00,0.0,0.006434448112749666
25-9-2017 16:00,0.02,-0.005109215693866793
25-9-2017 17:00,0.0,-9.09810302573733E-4
25-9-2017 18:00,0.02,0.01498075499025447
25-9-2017 19:00,0.0,-0.006554927381508221
25-9-2017 20:00,0.0,-0.012425318444777877
25-9-2017 21:00,0.0,0.00477436094775799
25-9-2017 22:00,0.02,0.010430554902612677
25-9-2017 23:00,0.0,-0.006894718314071019
26-9-2017 0:00,0.0,3.436910624082905E-4
26-9-2017 1:00,0.0,-0.0024721488368787637
26-9-2017 2:00,0.0,-0.0028987724986668725
26-9-2017 3:00,0.0,0.0019322737258625003
26-9-2017 4:00,0.02,0.004664263602995428
26-9-2017 5:00,0.0,-0.009514763446752197
26-9-2017 6:00,0.0,-0.008184637024695796
26-9-2017 7:00,0.0,-0.010904469830012238
26-9-2017 8:00,0.0,-0.01526663969136315
26-9-2017 9:00,0.07,0.05341686802930305
26-9-2017 10:00,0.05,0.001144519543688386
26-9-2017 11:00,0.0,-0.004100729187575454
26-9-2017 12:00,0.0,-0.002466241177569906
26-9-2017 13:00,0.0,-0.014867340312473701
26-9-2017 14:00,0.0,-7.703427247075824E-4
26-9-2017 15:00,0.0,8.16255229704077E-4
26-9-2017 16:00,0.03,-0.00156528406699245
26-9-2017 17:00,0.0,-0.007067977733632049
26-9-2017 18:00,0.05,0.038658431436383936
26-9-2017 19:00,0.03,0.016981707319810843
26-9-2017 20:00,0.0,-0.0189709833436663
26-9-2017 21:00,0.0,-0.001723112217520941
26-9-2017 22:00,0.02,0.0034358883598907854
26-9-2017 23:00,0.0,-0.015223165264638284
27-9-2017 0:00,0.0,-0.008273538497160195
27-9-2017 1:00,0.0,-0.011688798723456737
27-9-2017 2:00,0.0,-0.012561636208778868
27-9-2017 3:00,0.0,-0.007966988384975298
27-9-2017 4:00,0.02,-0.005373327583897431
27-9-2017 5:00,0.0,-0.020027318134086907
27-9-2017 6:00,0.0,-0.018261288891867233
27-9-2017 7:00,0.0,-0.020724945979186168
27-9-2017 8:00,0.0,-0.024895690511905953
27-9-2017 9:00,0.0,-0.02582644151541308
27-9-2017 10:00,0.33,0.2718743335596701
27-9-2017 11:00,0.0,-0.011952412168034152
27-9-2017 12:00,0.0,-0.009527120285892712
27-9-2017 13:00,0.0,-0.022258794557950136
27-9-2017 14:00,0.0,-0.007075262077517035
27-9-2017 15:00,0.0,-0.004672086337889644
27-9-2017 16:00,0.03,-0.007484416982683678
27-9-2017 17:00,0.03,0.018794962486812766
27-9-2017 18:00,0.0,-0.014184253762671337
27-9-2017 19:00,0.0,-0.014526278285054855
27-9-2017 20:00,0.0,-0.01905652685734551
27-9-2017 21:00,0.0,0.0012980142612048235
27-9-2017 22:00,0.0,-0.010978686164154093
27-9-2017 23:00,0.0,-0.007988596176457719
28-9-2017 0:00,0.0,0.0017383118624724444
28-9-2017 1:00,0.0,-9.182510705724161E-4
28-9-2017 2:00,0.0,-8.79184759167405E-4
28-9-2017 3:00,0.0,0.004837182284171536
28-9-2017 4:00,0.0,-0.011349425912177163
28-9-2017 5:00,0.0,-0.007161142573162926
28-9-2017 6:00,0.0,-0.005641973121134425
28-9-2017 7:00,0.0,-0.00853224998366961
28-9-2017 8:00,0.0,-0.013194364680972017
28-9-2017 9:00,0.0,-0.014596583319175002
28-9-2017 10:00,0.0,-0.0477799093831289
28-9-2017 11:00,0.0,-0.0010453768070085249
28-9-2017 12:00,0.02,0.021313494247533867
28-9-2017 13:00,0.1,0.08726891709432139
28-9-2017 14:00,0.0,0.002556656723420035
28-9-2017 15:00,0.0,0.004794082504261721
28-9-2017 16:00,0.07,0.040568665730289895
28-9-2017 17:00,0.0,-0.00401875958071624
28-9-2017 18:00,0.0,-0.008352479166339058
28-9-2017 19:00,0.0,-0.010008648216216264
28-9-2017 20:00,0.0,-0.015765298819003695
28-9-2017 21:00,0.0,0.004500046692173595
28-9-2017 22:00,0.0,-0.008408191618453494
28-9-2017 23:00,0.0,-0.006964794901029215
29-9-2017 0:00,0.0,0.0023435575268554937
29-9-2017 1:00,0.0,1.117741952795662E-4
29-9-2017 2:00,0.0,7.288266116289742E-4
29-9-2017 3:00,0.0,0.007232995182720534
29-9-2017 4:00,0.0,-0.008067787652580045
29-9-2017 5:00,0.0,-0.006157442202063833
29-9-2017 6:00,0.0,-0.00600534431792824
29-9-2017 7:00,0.0,-0.010442449529164344
29-9-2017 8:00,0.0,-0.016716142964534053
29-9-2017 9:00,0.02,-0.0026953479102664202
29-9-2017 10:00,0.0,-0.060868293029260716
29-9-2017 11:00,0.0,-0.017678000065319006
29-9-2017 12:00,0.0,-0.01949106775437897
29-9-2017 13:00,0.0,-0.04023471631356971
29-9-2017 14:00,0.0,-0.030228938060628693
29-9-2017 15:00,0.0,-0.0335434307633959
29-9-2017 16:00,0.0,-0.07456810228301154
29-9-2017 17:00,0.0,-0.05575808122863285
29-9-2017 18:00,0.07,0.002817946995493009
29-9-2017 19:00,0.13,0.05411188267194547
29-9-2017 20:00,0.17,0.08139307929248463
29-9-2017 21:00,0.1,0.02480121556954777
29-9-2017 22:00,0.1,0.004493417548173145
29-9-2017 23:00,0.2,0.09762209916984597
30-9-2017 0:00,0.1,-2.5612583879415507E-4
30-9-2017 1:00,0.13,0.021129884314132333
30-9-2017 2:00,0.13,0.01551793671845958
30-9-2017 3:00,0.07,-0.04399707929966275
30-9-2017 4:00,0.13,-0.005219037924427988
30-9-2017 5:00,0.17,0.035780053495472364
30-9-2017 6:00,0.13,-0.004068236330402791
30-9-2017 7:00,0.17,0.03131450151696552
30-9-2017 8:00,0.2,0.05479590075083382
30-9-2017 9:00,0.17,0.02268063872641915
30-9-2017 10:00,0.13,-0.05204100314238219
30-9-2017 11:00,0.17,0.03604597251461414
30-9-2017 12:00,0.13,-0.0014981116128148508
30-9-2017 13:00,0.17,0.022444009733607495
30-9-2017 14:00,0.13,-0.00144733207801781
30-9-2017 15:00,0.13,0.001071098047197433
30-9-2017 16:00,0.2,0.03463201429823953
30-9-2017 17:00,0.13,-0.009746568822931706
30-9-2017 18:00,0.17,0.025153156670008114
30-9-2017 19:00,0.17,0.022811151221630688
30-9-2017 20:00,0.17,0.01654414921433689
30-9-2017 21:00,0.07,-0.0624794965252127
30-9-2017 22:00,0.1,-0.04576140941136561
30-9-2017 23:00,0.13,-0.016521998039475017
