Time,Actual,STL processed
1-8-2017 0:00,575.62,-46.086014172822956
1-8-2017 1:00,485.0,-34.47239723964856
1-8-2017 2:00,474.83,-86.03654972360209
1-8-2017 3:00,459.65,-118.0945672897052
1-8-2017 4:00,397.78,-198.96943051843925
1-8-2017 5:00,456.02,-146.5862383611468
1-8-2017 6:00,504.58,-144.91891564363436
1-8-2017 7:00,586.17,-64.09159810378412
1-8-2017 8:00,605.77,-73.90835366957299
1-8-2017 9:00,904.77,-202.55310509349874
1-8-2017 10:00,1246.2,-485.4161882805744
1-8-2017 11:00,1889.85,404.9459952463335
1-8-2017 12:00,1941.03,745.8182311162045
1-8-2017 13:00,1486.08,383.77512971866315
1-8-2017 14:00,1445.93,125.28737866453957
1-8-2017 15:00,1583.85,463.81599865435135
1-8-2017 16:00,1379.08,470.3682353567199
1-8-2017 17:00,1082.8,44.434249508915286
1-8-2017 18:00,1111.58,150.89491402533372
1-8-2017 19:00,1048.75,319.71165429953487
1-8-2017 20:00,997.67,55.197264935114845
1-8-2017 21:00,941.42,97.6095504280413
1-8-2017 22:00,877.8,-103.04617075422198
1-8-2017 23:00,731.85,-341.32004125568255
2-8-2017 0:00,580.2,-253.63973052037454
2-8-2017 1:00,520.48,-205.04867411302791
2-8-2017 2:00,501.22,-256.50306476429773
2-8-2017 3:00,428.38,-338.34329765640416
2-8-2017 4:00,470.03,-308.48672685131214
2-8-2017 5:00,516.38,-293.71982729915123
2-8-2017 6:00,573.13,-310.27863614380044
2-8-2017 7:00,659.68,-253.2226610744459
2-8-2017 8:00,751.17,-219.634348437766
2-8-2017 9:00,856.57,-594.147842027108
2-8-2017 10:00,1537.67,-586.3320097237772
2-8-2017 11:00,2042.78,95.92291054653606
2-8-2017 12:00,1861.85,135.21191673042495
2-8-2017 13:00,1432.48,-247.03587151284842
2-8-2017 14:00,1827.23,-92.32914751075805
2-8-2017 15:00,2614.25,845.7868348719151
2-8-2017 16:00,1925.5,320.06366650422046
2-8-2017 17:00,2123.1,369.3184423477462
2-8-2017 18:00,1330.4,-374.0866942176849
2-8-2017 19:00,1128.28,-380.5139359838579
2-8-2017 20:00,1737.38,-0.49599409726397425
2-8-2017 21:00,3177.18,1502.8432245836148
2-8-2017 22:00,3887.07,2042.5985350797368
2-8-2017 23:00,4754.45,2783.6730835296025
3-8-2017 0:00,2128.1,351.65317721773636
3-8-2017 1:00,506.92,-1167.662809528371
3-8-2017 2:00,475.42,-1234.6819209745836
3-8-2017 3:00,448.5,-1275.24885182032
3-8-2017 4:00,430.48,-1310.3779405946632
3-8-2017 5:00,429.77,-1275.2100770566424
3-8-2017 6:00,606.12,-1105.3977608724617
3-8-2017 7:00,639.05,-1037.5065186497486
3-8-2017 8:00,775.57,-894.1865281867464
3-8-2017 9:00,4041.75,2016.6328758883808
3-8-2017 10:00,6000.83,3430.2589495210696
3-8-2017 11:00,4744.45,2458.277932373738
3-8-2017 12:00,1871.72,-86.88496528940254
3-8-2017 13:00,1084.13,-748.4655107492051
3-8-2017 14:00,2932.65,962.9776179383023
3-8-2017 15:00,1376.97,-366.4471076569596
3-8-2017 16:00,1174.88,-329.12933005921855
3-8-2017 17:00,1889.23,318.19068514491437
3-8-2017 18:00,1863.93,413.80622516691005
3-8-2017 19:00,751.65,-438.72375976983426
3-8-2017 20:00,708.37,-626.7222477624246
3-8-2017 21:00,739.58,-432.29986757386746
3-8-2017 22:00,928.78,-311.5335333960263
3-8-2017 23:00,791.23,-474.5705739915004
4-8-2017 0:00,641.45,-340.22070534720547
4-8-2017 1:00,556.28,-292.35932619354
4-8-2017 2:00,501.3,-348.5687493814678
4-8-2017 3:00,489.58,-340.9679691276058
4-8-2017 4:00,507.9,-307.4569799822358
4-8-2017 5:00,475.48,-345.04117475731834
4-8-2017 6:00,554.93,-313.86075584327034
4-8-2017 7:00,608.1,-269.7768221302474
4-8-2017 8:00,796.98,-117.89772950397128
4-8-2017 9:00,1003.72,-321.6132468008474
4-8-2017 10:00,2057.97,135.36530945019967
4-8-2017 11:00,1584.17,-126.42940382577422
4-8-2017 12:00,2034.5,579.1680359530549
4-8-2017 13:00,2579.93,1205.642168673591
4-8-2017 14:00,2675.85,1143.5991374433838
4-8-2017 15:00,1032.62,-322.0688607329457
4-8-2017 16:00,1081.5,-81.25270177290099
4-8-2017 17:00,1353.78,96.43808543758905
4-8-2017 18:00,2221.77,1048.089834692762
4-8-2017 19:00,1116.73,157.98263923119657
4-8-2017 20:00,1042.85,-85.12674599482807
4-8-2017 21:00,1015.03,31.22770831387038
4-8-2017 22:00,949.98,-119.26602121410588
4-8-2017 23:00,643.93,-468.6957382424564
5-8-2017 0:00,633.83,-223.57718202953754
5-8-2017 1:00,538.3,-164.3548080652879
5-8-2017 2:00,579.45,-99.59091408411996
5-8-2017 3:00,568.98,-67.21879381984945
5-8-2017 4:00,545.85,-52.30409784395522
5-8-2017 5:00,488.85,-75.42077350530042
5-8-2017 6:00,587.07,12.887325565454944
5-8-2017 7:00,604.07,56.84352819562787
5-8-2017 8:00,627.63,79.69130041201845
5-8-2017 9:00,743.33,-181.75953121261216
5-8-2017 10:00,1020.57,-465.2088852989575
5-8-2017 11:00,1229.52,-28.247687659325152
5-8-2017 12:00,1220.52,234.11969660572345
5-8-2017 13:00,773.6,-128.91337388927263
5-8-2017 14:00,777.48,-256.0744464330661
5-8-2017 15:00,888.82,31.94240141366606
5-8-2017 16:00,736.28,71.67506034014264
5-8-2017 17:00,762.88,1.9482071984937193
5-8-2017 18:00,769.25,80.54775332834743
5-8-2017 19:00,688.73,195.96493498346354
5-8-2017 20:00,729.97,69.28624016550873
5-8-2017 21:00,323.73,-210.89040573480918
5-8-2017 22:00,556.18,-79.9673732977601
5-8-2017 23:00,570.17,-126.32294108814438
6-8-2017 0:00,505.0,35.74112836424115
6-8-2017 1:00,479.55,135.0143421252218
6-8-2017 2:00,464.27,116.44139826163223
6-8-2017 3:00,460.85,127.63470352245827
6-8-2017 4:00,441.65,117.58295131502337
6-8-2017 5:00,446.9,135.90661544325326
6-8-2017 6:00,524.05,181.6452153465542
6-8-2017 7:00,519.17,179.90650756971547
6-8-2017 8:00,556.62,193.07578005205846
6-8-2017 9:00,600.8,-145.91214568135098
6-8-2017 10:00,668.6,-641.5411898861132
6-8-2017 11:00,671.63,-433.81586111189904
6-8-2017 12:00,716.83,-140.47031214165526
6-8-2017 13:00,685.03,-100.87310172883178
6-8-2017 14:00,706.92,-198.43473146285936
6-8-2017 15:00,642.05,-102.8455534697141
6-8-2017 16:00,626.22,58.60108954654697
6-8-2017 17:00,614.27,-52.95841653546893
6-8-2017 18:00,660.25,52.27391388083811
6-8-2017 19:00,656.92,224.34046006440883
6-8-2017 20:00,642.67,41.93744306629583
6-8-2017 21:00,628.27,139.49870129765043
6-8-2017 22:00,612.67,10.297500040413297
6-8-2017 23:00,580.42,-95.25491417131616
7-8-2017 0:00,493.12,20.70367286122439
7-8-2017 1:00,487.3,118.3842112532368
7-8-2017 2:00,464.98,74.67091437919044
7-8-2017 3:00,461.63,66.5118894708728
7-8-2017 4:00,404.42,-1.6398260855901299
7-8-2017 5:00,415.92,10.667461639170028
7-8-2017 6:00,474.63,25.009846181971284
7-8-2017 7:00,488.58,26.829511805075867
7-8-2017 8:00,493.07,-7.986431639673697
7-8-2017 9:00,929.75,46.3904709008126
7-8-2017 10:00,1206.48,-236.16634103969193
7-8-2017 11:00,1467.92,213.53504125177835
7-8-2017 12:00,957.58,-64.99932269010822
7-8-2017 13:00,845.98,-113.91734697166635
7-8-2017 14:00,748.33,-315.65504949812924
7-8-2017 15:00,760.58,-155.38905696077165
7-8-2017 16:00,986.73,236.81563935494046
7-8-2017 17:00,1071.58,231.3377456530933
7-8-2017 18:00,794.45,13.047125676388987
7-8-2017 19:00,665.55,51.56509424481419
7-8-2017 20:00,675.25,-94.56018707705675
7-8-2017 21:00,875.43,230.57609232163134
7-8-2017 22:00,780.48,37.042252558631276
7-8-2017 23:00,646.98,-155.62541288592013
8-8-2017 0:00,522.93,-73.30071308470121
8-8-2017 1:00,498.02,10.937064371309816
8-8-2017 2:00,546.98,47.27332891977335
8-8-2017 3:00,517.73,20.66188827527924
8-8-2017 4:00,524.52,23.28106669626311
8-8-2017 5:00,514.1,19.78887345487078
8-8-2017 6:00,535.62,2.3719380744897762
8-8-2017 7:00,587.43,45.16025023504153
8-8-2017 8:00,624.98,46.7593640007035
8-8-2017 9:00,812.8,-135.59357262560502
8-8-2017 10:00,1442.45,-49.824554261514095
8-8-2017 11:00,1273.72,-35.46352041245018
8-8-2017 12:00,1555.83,473.3758007738704
8-8-2017 13:00,938.55,-83.42673687228273
8-8-2017 14:00,826.83,-277.3597908613945
8-8-2017 15:00,1051.52,89.41373754996141
8-8-2017 16:00,817.62,16.86701806512599
8-8-2017 17:00,791.35,-89.31695221019527
8-8-2017 18:00,769.08,-52.02821153355387
8-8-2017 19:00,758.83,98.30763592589744
8-8-2017 20:00,729.85,-73.02345321356006
8-8-2017 21:00,693.95,27.85956044429406
8-8-2017 22:00,690.57,-60.236392946226374
8-8-2017 23:00,655.03,-141.9587847453572
9-8-2017 0:00,552.55,-34.27904274167895
9-8-2017 1:00,537.78,64.34321820061814
9-8-2017 2:00,557.97,78.34804519383306
9-8-2017 3:00,536.37,64.22887418386142
9-8-2017 4:00,542.35,70.215992978136
9-8-2017 5:00,529.1,61.80715896595484
9-8-2017 6:00,571.95,62.50020831180154
9-8-2017 7:00,610.53,86.19078038357964
9-8-2017 8:00,616.55,50.696151302844214
9-8-2017 9:00,906.6,-24.682156708266803
9-8-2017 10:00,1172.82,-294.3499818108047
9-8-2017 11:00,1563.52,267.6644654539857
9-8-2017 12:00,912.23,-166.68744723250006
9-8-2017 13:00,858.3,-160.87793857981137
9-8-2017 14:00,828.97,-252.95372293313113
9-8-2017 15:00,877.87,-66.79870284520223
9-8-2017 16:00,876.67,88.92691687902209
9-8-2017 17:00,1191.62,334.5893059347218
9-8-2017 18:00,1043.83,246.21988968892788
9-8-2017 19:00,801.52,158.20097382271376
9-8-2017 20:00,633.2,-139.28734131893657
9-8-2017 21:00,620.45,-5.332396507710428
9-8-2017 22:00,630.45,-68.42420148164547
9-8-2017 23:00,556.57,-176.82450694541922
10-8-2017 0:00,470.98,-50.87910495450956
10-8-2017 1:00,451.77,48.17416128844343
10-8-2017 2:00,418.98,16.264072540779352
10-8-2017 3:00,459.67,69.90369297970017
10-8-2017 4:00,453.83,68.86115194948377
10-8-2017 5:00,443.33,67.24050877531135
10-8-2017 6:00,426.9,11.558374456183401
10-8-2017 7:00,473.72,43.73797547131346
10-8-2017 8:00,524.12,53.17637257630622
10-8-2017 9:00,764.45,-68.60296466277441
10-8-2017 10:00,1270.6,-91.77517067881558
10-8-2017 11:00,1024.12,-180.14484744517392
10-8-2017 12:00,865.68,-132.86553145134064
10-8-2017 13:00,817.7,-129.7884514791756
10-8-2017 14:00,651.98,-346.73144117606967
10-8-2017 15:00,811.17,-63.05940439093399
10-8-2017 16:00,1203.08,473.41305875693536
10-8-2017 17:00,651.78,-147.8350536842048
10-8-2017 18:00,806.15,54.530512319704485
10-8-2017 19:00,925.4,310.4997028315071
10-8-2017 20:00,750.77,8.607031391346027
10-8-2017 21:00,672.88,62.509510175388414
10-8-2017 22:00,607.25,-89.41477547038255
10-8-2017 23:00,564.0,-180.34962368722097
11-8-2017 0:00,440.25,-116.0151907975013
11-8-2017 1:00,409.13,-73.67550560401514
11-8-2017 2:00,388.07,-136.46509644268076
11-8-2017 3:00,408.7,-147.09127090498976
11-8-2017 4:00,430.45,-165.42552565698986
11-8-2017 5:00,414.58,-227.27142035596808
11-8-2017 6:00,454.6,-282.4921807028852
11-8-2017 7:00,612.65,-197.7262729687884
11-8-2017 8:00,693.42,-216.25757190245258
11-8-2017 9:00,1035.07,-271.06860138670663
11-8-2017 10:00,1125.52,-741.0457787910866
11-8-2017 11:00,1312.05,-447.2801700634293
11-8-2017 12:00,1171.38,-431.1202158641131
11-8-2017 13:00,1772.42,201.15319247562934
11-8-2017 14:00,4192.22,2570.1117544832628
11-8-2017 15:00,3136.6,1615.0595650137063
11-8-2017 16:00,886.62,-513.8623713666778
11-8-2017 17:00,1472.87,17.81317970370469
11-8-2017 18:00,892.92,-509.53210703431955
11-8-2017 19:00,1859.47,592.1993548638627
11-8-2017 20:00,4750.15,3373.556492133554
11-8-2017 21:00,858.72,-332.57671046306416
11-8-2017 22:00,806.0,-416.3766921341477
11-8-2017 23:00,702.72,-512.089298457527
12-8-2017 0:00,528.23,-453.52905002247394
12-8-2017 1:00,452.65,-363.9861574818567
12-8-2017 2:00,454.82,-309.6884620149258
12-8-2017 3:00,468.62,-234.88364298186718
12-8-2017 4:00,455.23,-196.77282305905294
12-8-2017 5:00,464.67,-139.3278240861456
12-8-2017 6:00,530.9,-75.49106526416062
12-8-2017 7:00,577.88,-11.60270561440575
12-8-2017 8:00,717.9,119.61244460996454
12-8-2017 9:00,813.43,-117.14262387314454
12-8-2017 10:00,981.45,-442.1271194195456
12-8-2017 11:00,944.88,-323.8085719515542
12-8-2017 12:00,978.07,-84.15032630043675
12-8-2017 13:00,880.83,-136.9208493935248
12-8-2017 14:00,889.0,-146.15099548177227
12-8-2017 15:00,860.3,-65.13767100642804
12-8-2017 16:00,837.6,42.77573328452638
12-8-2017 17:00,895.15,47.35020834878628
12-8-2017 18:00,938.25,133.88932935118294
12-8-2017 19:00,1031.68,347.18832311809956
12-8-2017 20:00,941.25,151.60052957999756
12-8-2017 21:00,445.23,-180.32943848539003
12-8-2017 22:00,668.72,-7.416200269895171
12-8-2017 23:00,659.37,-28.657648787924927
13-8-2017 0:00,483.37,-1.3526688956476391
13-8-2017 1:00,481.2,116.58151996181266
13-8-2017 2:00,477.2,121.88459070405133
13-8-2017 3:00,402.85,64.1184922021896
13-8-2017 4:00,406.35,74.0224757695297
13-8-2017 5:00,379.48,57.56196133175308
13-8-2017 6:00,513.62,150.57983224007057
13-8-2017 7:00,477.67,90.1542367229141
13-8-2017 8:00,598.92,161.51942902274936
13-8-2017 9:00,696.43,-88.1989505361903
13-8-2017 10:00,883.77,-405.56003630158796
13-8-2017 11:00,827.58,-338.3278221702383
13-8-2017 12:00,821.87,-167.05055714429534
13-8-2017 13:00,816.27,-137.28657085482467
13-8-2017 14:00,761.12,-198.73698422356364
13-8-2017 15:00,733.32,-130.0197049879298
13-8-2017 16:00,713.48,-32.03251921024798
13-8-2017 17:00,752.17,-55.173133364888486
13-8-2017 18:00,802.78,19.256382165151194
13-8-2017 19:00,853.58,164.15889458802417
13-8-2017 20:00,858.58,57.71215702935126
13-8-2017 21:00,770.28,103.67081213254812
13-8-2017 22:00,697.97,-47.33734112802472
13-8-2017 23:00,632.7,-152.5822432033509
14-8-2017 0:00,495.72,-124.62714321649526
14-8-2017 1:00,452.95,-81.15637062250323
14-8-2017 2:00,437.18,-119.29263718526727
14-8-2017 3:00,439.77,-133.38436580236043
14-8-2017 4:00,456.6,-144.09193117080554
14-8-2017 5:00,458.42,-148.33217399962757
14-8-2017 6:00,496.82,-168.6574059853392
14-8-2017 7:00,631.1,-79.11117164976861
14-8-2017 8:00,699.28,-80.77015225483012
14-8-2017 9:00,1463.73,341.54517038414633
14-8-2017 10:00,4835.68,3217.1345076734997
14-8-2017 11:00,1022.77,-483.78259825804685
14-8-2017 12:00,1318.38,-20.62930058353129
14-8-2017 13:00,1692.12,396.17499144025714
14-8-2017 14:00,775.58,-498.7598928572136
14-8-2017 15:00,664.12,-510.09286250953073
14-8-2017 16:00,963.45,-88.91658473066957
14-8-2017 17:00,941.25,-126.21122842862565
14-8-2017 18:00,1855.22,847.5497413046418
14-8-2017 19:00,636.63,-247.11574398320056
14-8-2017 20:00,457.82,-488.07294192911615
14-8-2017 21:00,570.12,-165.26100967720413
14-8-2017 22:00,542.4,-193.7223539849856
14-8-2017 23:00,575.47,-122.63250918874883
15-8-2017 0:00,427.53,-37.92908867845597
15-8-2017 1:00,368.57,42.54839180979104
15-8-2017 2:00,404.62,111.62291209974683
15-8-2017 3:00,376.0,120.1156775251452
15-8-2017 4:00,333.95,103.63591086316035
15-8-2017 5:00,365.92,152.2926333091599
15-8-2017 6:00,347.22,96.48099209528641
15-8-2017 7:00,422.52,145.99775947408818
15-8-2017 8:00,433.47,106.36330915463418
15-8-2017 9:00,526.03,-136.73594651052127
15-8-2017 10:00,626.9,-522.5066502376303
15-8-2017 11:00,664.55,-382.9135403032824
15-8-2017 12:00,867.37,-20.614674051406325
15-8-2017 13:00,664.93,-197.63554742967216
15-8-2017 14:00,648.08,-190.32037379224784
15-8-2017 15:00,596.3,-163.70906346888887
15-8-2017 16:00,578.73,-80.74745369692391
15-8-2017 17:00,591.03,-112.35096697512961
15-8-2017 18:00,625.62,-57.54338307556816
15-8-2017 19:00,713.3,108.35514838645383
15-8-2017 20:00,659.57,-33.75049548612469
15-8-2017 21:00,605.13,75.73152795970498
15-8-2017 22:00,611.43,36.42609506986162
15-8-2017 23:00,552.93,-28.880210797192376
16-8-2017 0:00,454.97,52.889602964317874
16-8-2017 1:00,462.3,162.95026542107985
16-8-2017 2:00,431.22,129.60024926938127
16-8-2017 3:00,446.62,144.81791165617506
16-8-2017 4:00,418.35,104.13451489467718
16-8-2017 5:00,413.77,94.3573658149968
16-8-2017 6:00,424.23,44.1927926064418
16-8-2017 7:00,464.25,31.82290961553315
16-8-2017 8:00,517.77,8.432217807515599
16-8-2017 9:00,897.05,46.856206612615665
16-8-2017 10:00,1362.87,23.050404406059556
16-8-2017 11:00,1389.53,131.13559260622173
16-8-2017 12:00,1296.87,180.05884167507202
16-8-2017 13:00,774.02,-319.1961666492514
16-8-2017 14:00,730.88,-322.0632787678494
16-8-2017 15:00,750.42,-229.87209787101983
16-8-2017 16:00,879.98,-5.717617932298026
16-8-2017 17:00,821.95,-87.19754644497357
16-8-2017 18:00,743.98,-136.65328064596076
16-8-2017 19:00,782.17,-17.43279848537668
16-8-2017 20:00,1630.52,764.4757086994742
16-8-2017 21:00,740.55,70.2951819291327
16-8-2017 22:00,675.18,-8.177473414754445
16-8-2017 23:00,538.15,-118.46928305401752
17-8-2017 0:00,476.58,23.162043041272568
17-8-2017 1:00,435.75,106.75052773684536
17-8-2017 2:00,414.08,105.91061541378815
17-8-2017 3:00,352.27,65.017815032273
17-8-2017 4:00,420.73,141.4588094968625
17-8-2017 5:00,411.55,143.65414228593113
17-8-2017 6:00,417.12,103.54299047712288
17-8-2017 7:00,378.67,24.543335425850955
17-8-2017 8:00,457.5,38.58328043861695
17-8-2017 9:00,546.75,-198.73887245787705
17-8-2017 10:00,916.98,-301.6414521026701
17-8-2017 11:00,676.67,-461.5658645954836
17-8-2017 12:00,815.82,-179.24991166844876
17-8-2017 13:00,1207.78,232.37834776425416
17-8-2017 14:00,733.28,-187.84364740728194
17-8-2017 15:00,888.13,31.81480676610272
17-8-2017 16:00,751.43,-18.319700971652765
17-8-2017 17:00,732.47,-63.59560061097113
17-8-2017 18:00,675.7,-106.87420880467948
17-8-2017 19:00,654.62,-67.41962942470525
17-8-2017 20:00,635.62,-154.23482466159726
17-8-2017 21:00,627.25,24.61690465845811
17-8-2017 22:00,658.38,34.72121448449593
17-8-2017 23:00,597.9,-5.901911303007637
18-8-2017 0:00,486.25,68.69511475003094
18-8-2017 1:00,435.67,126.24856203254308
18-8-2017 2:00,438.22,134.75589388625576
18-8-2017 3:00,471.5,172.07977108456032
18-8-2017 4:00,446.43,137.41521833797435
18-8-2017 5:00,388.43,74.60334757088981
18-8-2017 6:00,449.63,72.30593173692648
18-8-2017 7:00,461.82,23.027561505248514
18-8-2017 8:00,542.32,18.0992002187553
18-8-2017 9:00,623.43,-230.84109766084316
18-8-2017 10:00,1274.32,-54.352403416495235
18-8-2017 11:00,1336.8,69.7116347250934
18-8-2017 12:00,1044.33,-95.77165716230957
18-8-2017 13:00,1027.2,-92.87575884915623
18-8-2017 14:00,914.13,-133.3782659502068
18-8-2017 15:00,1075.85,89.59183262315639
18-8-2017 16:00,1663.65,760.2127083323473
18-8-2017 17:00,803.1,-112.381909906543
18-8-2017 18:00,626.3,-273.57613956590137
18-8-2017 19:00,1122.95,280.24978956053394
18-8-2017 20:00,560.28,-334.47185557102983
18-8-2017 21:00,562.77,-127.61875386421639
18-8-2017 22:00,529.33,-164.29836257189208
18-8-2017 23:00,512.78,-142.16368821127458
19-8-2017 0:00,435.97,-23.9718459041261
19-8-2017 1:00,341.98,5.736163913108271
19-8-2017 2:00,377.58,64.27033989137385
19-8-2017 3:00,394.07,99.78049461728119
19-8-2017 4:00,354.4,64.78999460730302
19-8-2017 5:00,403.68,122.98739816620696
19-8-2017 6:00,451.03,118.94019618922971
19-8-2017 7:00,462.33,77.76958865928702
19-8-2017 8:00,437.07,-23.64060104432383
19-8-2017 9:00,753.93,-25.807359468089203
19-8-2017 10:00,1136.92,-103.98570689566282
19-8-2017 11:00,2121.0,937.3784663192655
19-8-2017 12:00,1235.73,177.41761405636225
19-8-2017 13:00,662.47,-375.92803294671415
19-8-2017 14:00,629.0,-319.01023617395896
19-8-2017 15:00,972.32,81.53232260270318
19-8-2017 16:00,686.62,-125.56060243783952
19-8-2017 17:00,706.77,-104.19112046850466
19-8-2017 18:00,730.08,-64.1681527857163
19-8-2017 19:00,647.75,-93.6880551050233
19-8-2017 20:00,611.58,-167.15333132346183
19-8-2017 21:00,312.5,-238.90948185564184
19-8-2017 22:00,120.18,-410.86363372278277
19-8-2017 23:00,413.08,-54.631783839795844
20-8-2017 0:00,308.35,50.21425009571101
20-8-2017 1:00,359.48,237.02147903946093
20-8-2017 2:00,313.32,227.18715573407246
20-8-2017 3:00,364.52,308.7982445793757
20-8-2017 4:00,308.35,267.99645389779863
20-8-2017 5:00,355.38,323.09027662019435
20-8-2017 6:00,417.05,330.88043333770713
20-8-2017 7:00,370.18,225.95473334700324
20-8-2017 8:00,465.63,239.94986006377826
20-8-2017 9:00,450.53,-97.47535229378627
20-8-2017 10:00,571.47,-438.7927347829136
20-8-2017 11:00,470.48,-501.12041988427774
20-8-2017 12:00,569.0,-293.2908259123135
20-8-2017 13:00,556.05,-298.25474193501
20-8-2017 14:00,566.17,-191.74336499183943
20-8-2017 15:00,495.47,-221.06506971526892
20-8-2017 16:00,517.23,-136.72851920893532
20-8-2017 17:00,488.5,-173.28868705708715
20-8-2017 18:00,576.05,-90.23227205786378
20-8-2017 19:00,626.58,-13.571755848624548
20-8-2017 20:00,575.37,-109.63441317964975
20-8-2017 21:00,486.47,-1.5059956083071597
20-8-2017 22:00,541.4,44.139129707602706
20-8-2017 23:00,455.05,-7.488024544524933
21-8-2017 0:00,407.13,115.48602136185616
21-8-2017 1:00,373.57,175.25601902205563
21-8-2017 2:00,361.92,158.9967460229476
21-8-2017 3:00,321.27,105.82231857758075
21-8-2017 4:00,370.1,126.3827868143386
21-8-2017 5:00,326.43,67.72193213490732
21-8-2017 6:00,420.35,83.07835098159103
21-8-2017 7:00,396.0,-27.113538035192846
21-8-2017 8:00,481.75,-50.32419146335121
21-8-2017 9:00,514.35,-341.2023161839953
21-8-2017 10:00,1221.3,-95.45319216395717
21-8-2017 11:00,983.57,-310.9971940108943
21-8-2017 12:00,1172.62,-26.491612233343176
21-8-2017 13:00,3771.57,2578.2738257477044
21-8-2017 14:00,845.48,-235.66359411534563
21-8-2017 15:00,894.08,-151.77193931550255
21-8-2017 16:00,925.9,-63.64877595789483
21-8-2017 17:00,732.98,-246.0192668376269
21-8-2017 18:00,610.28,-366.9900777360622
21-8-2017 19:00,700.95,-249.44257326495983
21-8-2017 20:00,617.33,-358.0460419752545
21-8-2017 21:00,596.28,-136.09452397534028
21-8-2017 22:00,554.35,-140.69875961085552
21-8-2017 23:00,545.55,-67.12355613257387
22-8-2017 0:00,401.7,-2.50013638979442
22-8-2017 1:00,403.62,137.73046330470106
22-8-2017 2:00,385.52,161.4140739297195
22-8-2017 3:00,376.95,184.711963511529
22-8-2017 4:00,411.5,234.67034465533607
22-8-2017 5:00,358.67,184.8511104561818
22-8-2017 6:00,430.93,194.92008931414034
22-8-2017 7:00,458.22,149.62950553482483
22-8-2017 8:00,516.07,112.06056622528183
22-8-2017 9:00,780.23,59.41311609539207
22-8-2017 10:00,863.25,-309.8898133994725
22-8-2017 11:00,1150.05,-9.558692016051282
22-8-2017 12:00,600.35,-469.8356824569815
22-8-2017 13:00,514.3,-554.4185840889055
22-8-2017 14:00,748.77,-194.2124943748916
22-8-2017 15:00,1221.87,305.91482633150804
22-8-2017 16:00,934.72,66.63025085221864
22-8-2017 17:00,1467.8,608.25134831575
22-8-2017 18:00,469.53,-402.45477710549994
22-8-2017 19:00,551.45,-313.2793387213709
22-8-2017 20:00,509.33,-380.8826731597717
22-8-2017 21:00,428.0,-236.88451986356034
22-8-2017 22:00,423.18,-221.38952193729585
22-8-2017 23:00,412.97,-165.1933662153998
23-8-2017 0:00,1091.95,697.9725275938457
23-8-2017 1:00,419.97,144.3221737959891
23-8-2017 2:00,398.82,145.03639181869198
23-8-2017 3:00,279.8,35.44461927408986
23-8-2017 4:00,412.72,160.48608832833906
23-8-2017 5:00,382.27,129.70197263113732
23-8-2017 6:00,453.03,132.78616804169815
23-8-2017 7:00,496.02,94.16863859999592
23-8-2017 8:00,671.58,165.40147273228797
23-8-2017 9:00,979.32,161.71074214520127
23-8-2017 10:00,1070.12,-192.60049189771178
23-8-2017 11:00,940.02,-318.36963029565607
23-8-2017 12:00,1485.92,312.2558773741242
23-8-2017 13:00,2483.42,1315.7219691214477
23-8-2017 14:00,662.58,-357.33497777554487
23-8-2017 15:00,684.6,-307.26340586847283
23-8-2017 16:00,646.07,-297.44179617139343
23-8-2017 17:00,663.27,-252.44722376095325
23-8-2017 18:00,717.42,-203.93002997796418
23-8-2017 19:00,542.03,-371.18178812290995
23-8-2017 20:00,613.5,-304.39889434900334
23-8-2017 21:00,508.45,-157.0185451283847
23-8-2017 22:00,453.48,-163.19243866607843
23-8-2017 23:00,416.73,-102.9594894076406
24-8-2017 0:00,405.72,92.01603905953596
24-8-2017 1:00,403.17,226.41033084240576
24-8-2017 2:00,321.1,184.88075533587096
24-8-2017 3:00,317.3,206.6649197379354
24-8-2017 4:00,272.35,169.1256806699904
24-8-2017 5:00,347.25,242.63472429054866
24-8-2017 6:00,320.7,145.21217706951938
24-8-2017 7:00,393.15,129.30464212175184
24-8-2017 8:00,441.52,66.7161898522005
24-8-2017 9:00,856.2,164.2181422173585
24-8-2017 10:00,1285.42,144.41213764061865
24-8-2017 11:00,662.78,-494.2237265244705
24-8-2017 12:00,1203.78,115.6778132702409
24-8-2017 13:00,1102.23,5.628071433308378
24-8-2017 14:00,930.13,-15.606739038194632
24-8-2017 15:00,685.43,-250.19574289395428
24-8-2017 16:00,415.0,-490.74040449339793
24-8-2017 17:00,707.53,-173.68878310087558
24-8-2017 18:00,721.58,-180.9946960784742
24-8-2017 19:00,696.8,-219.26655654618042
24-8-2017 20:00,666.07,-256.400340353652
24-8-2017 21:00,623.2,-45.81129476758156
24-8-2017 22:00,626.55,8.753139398239796
24-8-2017 23:00,582.58,66.28010136069315
25-8-2017 0:00,485.27,170.6924836532744
25-8-2017 1:00,480.28,305.0666700691311
25-8-2017 2:00,454.07,321.8785500856194
25-8-2017 3:00,447.52,340.8739004866111
25-8-2017 4:00,455.55,355.4128102370237
25-8-2017 5:00,430.02,333.3088592707155
25-8-2017 6:00,451.25,286.34341551346915
25-8-2017 7:00,478.45,224.3108696754747
25-8-2017 8:00,526.62,160.7661256199185
25-8-2017 9:00,569.05,-106.01890687771197
25-8-2017 10:00,663.42,-450.87920859465294
25-8-2017 11:00,1208.17,71.25867486673951
25-8-2017 12:00,891.98,-178.1432798199918
25-8-2017 13:00,630.57,-446.52463124534177
25-8-2017 14:00,628.83,-278.32308129551643
25-8-2017 15:00,759.47,-139.518436918269
25-8-2017 16:00,602.08,-269.49514581839696
25-8-2017 17:00,589.2,-250.61465042574173
25-8-2017 18:00,605.8,-260.5818451458774
25-8-2017 19:00,723.3,-167.69198291829338
25-8-2017 20:00,633.6,-255.00061928909247
25-8-2017 21:00,617.0,-14.340237585376485
25-8-2017 22:00,587.63,12.695164036154438
25-8-2017 23:00,544.13,77.97877845481696
26-8-2017 0:00,462.35,196.43065432499702
26-8-2017 1:00,457.98,331.03373075111756
26-8-2017 2:00,447.43,363.1760616679062
26-8-2017 3:00,439.77,378.2115934451024
26-8-2017 4:00,449.28,390.5176473911497
26-8-2017 5:00,423.78,367.8490004431528
26-8-2017 6:00,438.47,311.6089587548678
26-8-2017 7:00,474.95,252.56970063182496
26-8-2017 8:00,520.35,180.086963395442
26-8-2017 9:00,566.15,-80.20291531097553
26-8-2017 10:00,659.52,-421.10537551411653
26-8-2017 11:00,828.5,-286.1916057722418
26-8-2017 12:00,924.18,-130.67491628641437
26-8-2017 13:00,774.3,-289.5417988573588
26-8-2017 14:00,842.0,-36.367810043381894
26-8-2017 15:00,604.73,-270.9634389903043
26-8-2017 16:00,601.6,-252.69611674829332
26-8-2017 17:00,666.45,-148.04649323914964
26-8-2017 18:00,636.73,-208.7447155854668
26-8-2017 19:00,614.78,-265.62287654623674
26-8-2017 20:00,584.95,-283.4661113640078
26-8-2017 21:00,157.4,-442.14456616515366
26-8-2017 22:00,493.18,-36.95836971042104
26-8-2017 23:00,526.95,120.69172454194324
27-8-2017 0:00,468.85,269.1429213672144
27-8-2017 1:00,460.25,408.3239393030101
27-8-2017 2:00,457.63,457.26577261951013
27-8-2017 3:00,448.55,477.23053727232184
27-8-2017 4:00,471.18,508.14278691341497
27-8-2017 5:00,376.08,415.4312530350537
27-8-2017 6:00,358.73,324.568422467054
27-8-2017 7:00,418.63,282.81426111028657
27-8-2017 8:00,458.32,198.60533974440102
27-8-2017 9:00,500.33,-68.37625787086421
27-8-2017 10:00,584.22,-419.82774926026576
27-8-2017 11:00,657.38,-398.21496593796905
27-8-2017 12:00,602.35,-406.3865049796435
27-8-2017 13:00,586.23,-437.85415477541756
27-8-2017 14:00,593.18,-234.2429631765242
27-8-2017 15:00,573.72,-260.8641015268514
27-8-2017 16:00,562.48,-261.06798422193674
27-8-2017 17:00,565.97,-217.82441867262577
27-8-2017 18:00,596.7,-230.56885472144552
27-8-2017 19:00,589.53,-291.07022494689085
27-8-2017 20:00,578.07,-289.03324428795503
27-8-2017 21:00,559.0,-46.124747885038175
27-8-2017 22:00,543.6,2.3780311118210875
27-8-2017 23:00,537.5,116.75039290681195
28-8-2017 0:00,454.65,228.26669839609895
28-8-2017 1:00,425.12,332.05514345276936
28-8-2017 2:00,413.12,357.21596478018034
28-8-2017 3:00,421.17,377.389447919807
28-8-2017 4:00,445.03,391.7473788671456
28-8-2017 5:00,453.93,387.7189602431441
28-8-2017 6:00,481.12,323.9393429801539
28-8-2017 7:00,459.17,179.32628057438592
28-8-2017 8:00,515.08,90.44717726372187
28-8-2017 9:00,850.8,110.72795632523548
28-8-2017 10:00,1014.5,-165.52847066479978
28-8-2017 11:00,807.47,-445.1325781764542
28-8-2017 12:00,998.42,-223.84825016000423
28-8-2017 13:00,909.05,-332.9024206951136
28-8-2017 14:00,804.77,-227.30977982580998
28-8-2017 15:00,620.18,-426.8721810940483
28-8-2017 16:00,1255.48,211.11628650156968
28-8-2017 17:00,1071.18,79.75602279917791
28-8-2017 18:00,742.22,-291.9423982440147
28-8-2017 19:00,1275.23,182.5088946151219
28-8-2017 20:00,701.53,-363.00803689997815
28-8-2017 21:00,598.12,-183.94680572741765
28-8-2017 22:00,612.75,-83.67139764843728
28-8-2017 23:00,553.97,1.8592782291747199
29-8-2017 0:00,477.63,134.94673892247215
29-8-2017 1:00,449.98,261.98490327781917
29-8-2017 2:00,425.23,295.82700479394293
29-8-2017 3:00,432.93,334.5614985981865
29-8-2017 4:00,449.75,359.70059000588753
29-8-2017 5:00,446.67,361.022474828845
29-8-2017 6:00,488.7,327.2732590634637
29-8-2017 7:00,505.1,232.48526342191894
29-8-2017 8:00,589.2,183.38994597969997
29-8-2017 9:00,841.3,129.1479174625282
29-8-2017 10:00,927.7,-213.5181066651204
29-8-2017 11:00,1085.4,-133.91376654770556
29-8-2017 12:00,742.47,-447.5282330101104
29-8-2017 13:00,999.83,-214.21467372260236
29-8-2017 14:00,711.12,-279.8663330209353
29-8-2017 15:00,739.85,-273.9457466451316
29-8-2017 16:00,736.32,-282.9270775246193
29-8-2017 17:00,861.25,-101.53473662179294
29-8-2017 18:00,646.17,-368.28070880243695
29-8-2017 19:00,695.57,-391.9947394759317
29-8-2017 20:00,658.27,-395.753569782281
29-8-2017 21:00,617.05,-151.23774939927353
29-8-2017 22:00,625.22,-52.45858233869444
29-8-2017 23:00,580.77,54.461537521016226
30-8-2017 0:00,477.77,207.02967164607423
30-8-2017 1:00,441.27,356.0804417834447
30-8-2017 2:00,449.75,433.58545076113955
30-8-2017 3:00,449.7,463.0968568048289
30-8-2017 4:00,466.78,485.2481303603183
30-8-2017 5:00,507.32,519.5043376780617
30-8-2017 6:00,500.63,413.88507807269593
30-8-2017 7:00,550.58,314.1691615057309
30-8-2017 8:00,563.17,155.37285473718623
30-8-2017 9:00,837.33,82.1145224580672
30-8-2017 10:00,901.45,-325.7640942456585
30-8-2017 11:00,1012.62,-330.11712375834577
30-8-2017 12:00,1258.67,-69.20655237122082
30-8-2017 13:00,902.43,-446.0183379835602
30-8-2017 14:00,798.08,-316.2774963714463
30-8-2017 15:00,877.05,-249.88577410714765
30-8-2017 16:00,976.45,-165.02316710996433
30-8-2017 17:00,761.62,-319.42685471294135
30-8-2017 18:00,773.35,-369.57710318063533
30-8-2017 19:00,727.58,-505.84958968462536
30-8-2017 20:00,714.93,-468.2802859922654
30-8-2017 21:00,798.92,-76.86372692140037
30-8-2017 22:00,706.33,-61.23045248789424
30-8-2017 23:00,683.08,107.36640672011868
31-8-2017 0:00,482.7,210.51589233503068
31-8-2017 1:00,439.87,387.72692491296766
31-8-2017 2:00,456.92,487.86249801077724
31-8-2017 3:00,450.08,512.7384729524555
31-8-2017 4:00,473.33,541.1182098447928
31-8-2017 5:00,458.78,509.54747517184546
31-8-2017 6:00,481.13,409.7669072410191
31-8-2017 7:00,519.82,260.0747392671342
31-8-2017 8:00,573.03,103.46911269076418
31-8-2017 9:00,990.02,128.88853971146705
31-8-2017 10:00,1182.43,-196.75002187622215
31-8-2017 11:00,1123.55,-411.6977733268974
31-8-2017 12:00,1141.08,-396.87951639812945
31-8-2017 13:00,947.62,-609.8326345432381
31-8-2017 14:00,895.35,-419.3752796535998
31-8-2017 15:00,1439.75,120.28159086627181
31-8-2017 16:00,1029.68,-315.595633735947
31-8-2017 17:00,1095.13,-185.5565504309585
31-8-2017 18:00,958.87,-393.71227577193383
31-8-2017 19:00,1690.45,230.39844811546982
31-8-2017 20:00,905.77,-486.9624479715718
31-8-2017 21:00,846.63,-213.60846877825566
31-8-2017 22:00,786.35,-144.50460412972734
31-8-2017 23:00,703.67,8.68547726868303
1-9-2017 0:00,534.17,194.22279721554423
1-9-2017 1:00,466.42,390.7574515180942
1-9-2017 2:00,484.88,516.1169480200645
1-9-2017 3:00,449.52,524.380851143778
1-9-2017 4:00,463.12,552.969691879909
1-9-2017 5:00,437.47,518.2854715491194
1-9-2017 6:00,496.57,450.77705162568054
1-9-2017 7:00,576.42,322.2640113860481
1-9-2017 8:00,598.0,114.33444414302505
1-9-2017 9:00,932.0,26.582009623410954
1-9-2017 10:00,1436.52,-19.025148644310548
1-9-2017 11:00,1100.37,-537.8162738290428
1-9-2017 12:00,1102.9,-541.5989831546999
1-9-2017 13:00,1265.03,-392.2751898613848
1-9-2017 14:00,1090.85,-309.48307772302906
1-9-2017 15:00,1408.15,16.517185023608818
1-9-2017 16:00,1210.62,-212.48162720681898
1-9-2017 17:00,1147.82,-202.99088989574557
1-9-2017 18:00,977.22,-451.96320901188244
1-9-2017 19:00,909.3,-640.7803916349653
1-9-2017 20:00,1329.4,-132.7226044032891
1-9-2017 21:00,728.38,-367.41213637380685
1-9-2017 22:00,784.25,-152.22861279654103
1-9-2017 23:00,649.9,2.083759505982016
2-9-2017 0:00,514.12,281.6179824985079
2-9-2017 1:00,459.12,545.1221724423114
2-9-2017 2:00,427.12,653.8115062650832
2-9-2017 3:00,418.13,710.329251487473
2-9-2017 4:00,428.12,755.1431099840381
2-9-2017 5:00,452.15,781.4920362575766
2-9-2017 6:00,503.55,705.1723966036955
2-9-2017 7:00,582.87,559.5151163604852
2-9-2017 8:00,639.4,370.2082407129792
2-9-2017 9:00,679.5,-37.956381440318864
2-9-2017 10:00,863.67,-432.32246248143963
2-9-2017 11:00,858.47,-643.0672874935957
2-9-2017 12:00,787.0,-720.7812891670455
2-9-2017 13:00,743.53,-769.3915828629362
2-9-2017 14:00,720.27,-520.4557119034921
2-9-2017 15:00,695.8,-521.8030553577182
2-9-2017 16:00,1107.65,-146.10445364398424
2-9-2017 17:00,854.33,-328.79423473680436
2-9-2017 18:00,876.5,-400.8353200380817
2-9-2017 19:00,1053.8,-367.2225815816298
2-9-2017 20:00,681.38,-640.4082834412143
2-9-2017 21:00,451.0,-494.41600610296894
2-9-2017 22:00,0.0,-779.9675031243685
2-9-2017 23:00,530.57,68.26248055486406
3-9-2017 0:00,505.6,495.0889270656512
3-9-2017 1:00,475.33,808.1217828219407
3-9-2017 2:00,450.0,927.8500841367461
3-9-2017 3:00,445.58,981.400801629044
3-9-2017 4:00,460.77,1021.828808057276
3-9-2017 5:00,464.33,1009.6701544383413
3-9-2017 6:00,506.68,893.798568557217
3-9-2017 7:00,552.37,668.5063218136281
3-9-2017 8:00,569.9,394.48141126483813
3-9-2017 9:00,625.98,-53.283386020281
3-9-2017 10:00,776.8,-538.4763773329385
3-9-2017 11:00,711.57,-861.2228896706555
3-9-2017 12:00,693.55,-914.4861711900352
3-9-2017 13:00,661.93,-957.8865335598873
3-9-2017 14:00,659.5,-687.2028854641111
3-9-2017 15:00,645.63,-677.8338168039566
3-9-2017 16:00,759.57,-619.0337828308169
3-9-2017 17:00,902.65,-413.3241916160923
3-9-2017 18:00,1076.53,-355.83415239107126
3-9-2017 19:00,1064.22,-540.961602143646
3-9-2017 20:00,1050.23,-450.7809023830529
3-9-2017 21:00,986.95,-144.4295557480374
3-9-2017 22:00,869.37,-107.20881338009553
3-9-2017 23:00,784.12,137.41604166385355
4-9-2017 0:00,589.63,414.4219716809089
4-9-2017 1:00,498.27,673.1073052129423
4-9-2017 2:00,476.82,783.0283859830391
4-9-2017 3:00,465.83,804.4158877085035
4-9-2017 4:00,457.18,793.3618540316597
4-9-2017 5:00,448.73,754.7133566068874
4-9-2017 6:00,533.15,653.9675605851553
4-9-2017 7:00,670.27,477.6580834278236
4-9-2017 8:00,923.9,397.57287406438536
4-9-2017 9:00,1298.23,233.84728726527737
4-9-2017 10:00,1586.27,-150.2332287010836
4-9-2017 11:00,1939.55,-85.07204274652952
4-9-2017 12:00,2002.22,-65.27521849400603
4-9-2017 13:00,1423.07,-646.5818167341492
4-9-2017 14:00,1311.75,-467.60655869837035
4-9-2017 15:00,1258.28,-481.4572451201649
4-9-2017 16:00,1279.02,-518.5859995353659
4-9-2017 17:00,1063.65,-647.6920293344409
4-9-2017 18:00,1138.37,-679.9058589044666
4-9-2017 19:00,1201.53,-787.0784933257263
4-9-2017 20:00,1155.7,-692.1863884046135
4-9-2017 21:00,1121.68,-294.330216953859
4-9-2017 22:00,980.08,-222.83864767111254
4-9-2017 23:00,827.88,35.98966626301615
5-9-2017 0:00,621.45,389.693667311803
5-9-2017 1:00,535.53,728.7324428372754
5-9-2017 2:00,500.17,879.2272672803592
5-9-2017 3:00,483.82,937.8325174566851
5-9-2017 4:00,519.23,1011.2975530735213
5-9-2017 5:00,485.9,964.5595032190494
5-9-2017 6:00,545.12,842.9397884328474
5-9-2017 7:00,704.27,677.4376070440131
5-9-2017 8:00,864.52,493.03662504816714
5-9-2017 9:00,854.47,-84.93118622748295
5-9-2017 10:00,1009.08,-634.2052410195256
5-9-2017 11:00,1686.65,-271.01237094467774
5-9-2017 12:00,1409.22,-594.6014550922292
5-9-2017 13:00,1344.97,-658.2432903351181
5-9-2017 14:00,998.43,-704.1654234917911
5-9-2017 15:00,1080.52,-572.9348661279888
5-9-2017 16:00,1044.95,-675.8876208182628
5-9-2017 17:00,1001.63,-640.3352311336848
5-9-2017 18:00,932.72,-837.7488890013034
5-9-2017 19:00,978.22,-991.0191020804355
5-9-2017 20:00,1077.08,-745.8079859879908
5-9-2017 21:00,914.38,-475.4557594009476
5-9-2017 22:00,1025.02,-154.36378479321047
5-9-2017 23:00,869.75,121.61756644128423
6-9-2017 0:00,675.97,536.6959358174029
6-9-2017 1:00,579.13,890.0358459317574
6-9-2017 2:00,557.27,1053.5220560848031
6-9-2017 3:00,537.57,1094.0490377577773
6-9-2017 4:00,537.37,1115.3926600625675
6-9-2017 5:00,512.98,1055.4412840306554
6-9-2017 6:00,569.75,893.781223806589
6-9-2017 7:00,645.05,587.2017338088426
6-9-2017 8:00,667.45,207.74657708198697
6-9-2017 9:00,1326.82,239.412417625864
6-9-2017 10:00,1776.0,-78.13927316469312
6-9-2017 11:00,1918.4,-299.3505812120652
6-9-2017 12:00,1391.27,-897.4828557281427
6-9-2017 13:00,1482.55,-802.7347292015272
6-9-2017 14:00,1151.02,-813.5558377631951
6-9-2017 15:00,1380.47,-522.947931128295
6-9-2017 16:00,1094.05,-887.5077411267064
6-9-2017 17:00,1285.17,-610.5385063098325
6-9-2017 18:00,1367.43,-665.0672855781079
6-9-2017 19:00,1372.95,-866.9158616150805
6-9-2017 20:00,1816.17,-251.94103432664224
6-9-2017 21:00,1149.4,-455.25291086115465
6-9-2017 22:00,1131.47,-239.0529237674093
6-9-2017 23:00,829.07,-60.97054022525958
7-9-2017 0:00,652.8,450.139817791651
7-9-2017 1:00,531.57,828.1503594858925
7-9-2017 2:00,519.07,1024.3274523399043
7-9-2017 3:00,533.0,1107.5956625005304
7-9-2017 4:00,543.33,1146.7080030079476
7-9-2017 5:00,506.48,1072.4867749213358
7-9-2017 6:00,564.48,894.8098433821451
7-9-2017 7:00,764.6,676.1157437245979
7-9-2017 8:00,879.95,352.69911121584323
7-9-2017 9:00,1293.1,91.1545064099214
7-9-2017 10:00,1820.68,-198.05409763448415
7-9-2017 11:00,1878.17,-540.6188610594106
7-9-2017 12:00,1631.65,-870.1936031993473
7-9-2017 13:00,1692.8,-801.2048281578652
7-9-2017 14:00,1080.27,-1071.4242253791654
7-9-2017 15:00,1363.73,-713.2782827278047
7-9-2017 16:00,1964.1,-200.22877894610224
7-9-2017 17:00,1599.7,-474.00127845445866
7-9-2017 18:00,2316.22,95.24624141908316
7-9-2017 19:00,1411.15,-1027.925717796523
7-9-2017 20:00,1221.88,-1022.1721995328844
7-9-2017 21:00,1183.57,-567.4295734182285
7-9-2017 22:00,1077.33,-416.6289559651268
7-9-2017 23:00,876.58,-88.43292224197353
8-9-2017 0:00,642.1,442.222042289078
8-9-2017 1:00,538.63,896.866643528992
8-9-2017 2:00,509.82,1109.878047049756
8-9-2017 3:00,557.68,1246.0009136638205
8-9-2017 4:00,548.92,1283.0851556683467
8-9-2017 5:00,545.38,1252.5571195301686
8-9-2017 6:00,622.55,1088.996360678987
8-9-2017 7:00,786.72,809.6132003546381
8-9-2017 8:00,1006.28,565.6906410569843
8-9-2017 9:00,1358.48,202.59951646894137
8-9-2017 10:00,1493.65,-522.6817748233432
8-9-2017 11:00,1712.17,-734.2657676198544
8-9-2017 12:00,1860.43,-674.7187513776811
8-9-2017 13:00,1709.38,-802.5408389061024
8-9-2017 14:00,1342.85,-794.140035871806
8-9-2017 15:00,1174.72,-863.0375682887556
8-9-2017 16:00,1370.13,-753.1102618117095
8-9-2017 17:00,1213.4,-800.8673435759056
8-9-2017 18:00,1602.9,-555.5563724911551
8-9-2017 19:00,1697.88,-675.8445628160044
8-9-2017 20:00,1193.52,-948.3452015077754
8-9-2017 21:00,1157.5,-449.84527023515045
8-9-2017 22:00,1089.45,-226.07121991389124
8-9-2017 23:00,839.23,112.99126649906634
9-9-2017 0:00,359.68,488.20364005306
9-9-2017 1:00,176.85,922.8805055805973
9-9-2017 2:00,173.72,1195.2344245100649
9-9-2017 3:00,192.67,1321.8901523195188
9-9-2017 4:00,207.73,1400.3745005631054
9-9-2017 5:00,198.27,1368.9196050275893
9-9-2017 6:00,431.88,1351.354967518645
9-9-2017 7:00,596.13,1041.9226951817227
9-9-2017 8:00,690.02,642.2241577493983
9-9-2017 9:00,674.0,-136.31167134246107
9-9-2017 10:00,766.37,-954.6838346043199
9-9-2017 11:00,1078.05,-1109.785241494111
9-9-2017 12:00,1167.17,-1121.6646515915231
9-9-2017 13:00,1491.05,-786.6375041946264
9-9-2017 14:00,953.57,-944.0364034095109
9-9-2017 15:00,895.72,-905.5773133995483
9-9-2017 16:00,901.77,-1010.6421067319376
9-9-2017 17:00,1224.25,-603.6239789038008
9-9-2017 18:00,1164.8,-846.95976475967
9-9-2017 19:00,1132.42,-1134.55439434559
9-9-2017 20:00,1126.8,-914.2593981445982
9-9-2017 21:00,586.1,-924.0465061667136
9-9-2017 22:00,653.68,-574.9333674300069
9-9-2017 23:00,684.37,60.301227220045575
10-9-2017 0:00,540.08,815.3266653442712
10-9-2017 1:00,511.52,1431.9792357390465
10-9-2017 2:00,514.05,1711.96911065683
10-9-2017 3:00,462.63,1756.0111402412872
10-9-2017 4:00,466.3,1808.9990353035478
10-9-2017 5:00,485.23,1792.2665111450806
10-9-2017 6:00,547.38,1574.1372257527612
10-9-2017 7:00,639.82,1144.105072177654
10-9-2017 8:00,793.53,755.4597873850458
10-9-2017 9:00,887.78,35.47048476863381
10-9-2017 10:00,997.78,-820.0613194835353
10-9-2017 11:00,1178.05,-1147.7489094873424
10-9-2017 12:00,943.55,-1500.0335149450761
10-9-2017 13:00,1238.78,-1183.402003516679
10-9-2017 14:00,956.38,-1058.2354758745632
10-9-2017 15:00,913.9,-984.9946343315074
10-9-2017 16:00,848.13,-1165.1763983671497
10-9-2017 17:00,906.63,-1015.7702116575387
10-9-2017 18:00,989.95,-1125.229905164886
10-9-2017 19:00,1088.93,-1290.6081247227353
10-9-2017 20:00,1048.1,-1080.6646443398388
10-9-2017 21:00,980.02,-606.3963068215725
10-9-2017 22:00,836.85,-463.2815948342955
10-9-2017 23:00,751.22,85.93759288797423
11-9-2017 0:00,561.87,855.4985804175542
11-9-2017 1:00,473.57,1433.1351240276997
11-9-2017 2:00,461.05,1693.069223281933
11-9-2017 3:00,490.92,1799.1758229895256
11-9-2017 4:00,471.23,1807.7155332185919
11-9-2017 5:00,519.17,1795.1921102633523
11-9-2017 6:00,560.12,1515.6249068138357
11-9-2017 7:00,706.62,1079.7296018267202
11-9-2017 8:00,821.2,592.0542995000067
11-9-2017 9:00,957.65,-144.11200956481105
11-9-2017 10:00,1395.58,-733.1569877311438
11-9-2017 11:00,1657.1,-1027.42429377282
11-9-2017 12:00,1641.58,-1184.1676275147283
11-9-2017 13:00,2400.85,-400.3784490293675
11-9-2017 14:00,1187.03,-1186.2831915047868
11-9-2017 15:00,1448.42,-796.897295403173
11-9-2017 16:00,1674.0,-696.1628849129507
11-9-2017 17:00,1140.25,-1127.3264360542253
11-9-2017 18:00,1248.23,-1215.7078339454101
11-9-2017 19:00,1324.45,-1407.6781558932398
11-9-2017 20:00,1272.9,-1178.2847037464899
11-9-2017 21:00,1264.37,-601.6373325082707
11-9-2017 22:00,1071.67,-471.9090508999317
11-9-2017 23:00,852.05,5.016726265047282
12-9-2017 0:00,594.18,797.0452595704733
12-9-2017 1:00,484.08,1424.6214219989843
12-9-2017 2:00,445.63,1704.6353911926626
12-9-2017 3:00,436.85,1803.8822066263863
12-9-2017 4:00,444.33,1869.5173941894234
12-9-2017 5:00,467.83,1846.0287445407541
12-9-2017 6:00,548.18,1603.8992951373828
12-9-2017 7:00,578.9,1030.5756143858705
12-9-2017 8:00,675.53,503.32507017266266
12-9-2017 9:00,963.77,-122.31331905911475
12-9-2017 10:00,1376.93,-780.4558321512197
12-9-2017 11:00,2744.77,0.8827847576259273
12-9-2017 12:00,1774.08,-1117.3536382800658
12-9-2017 13:00,1219.93,-1637.5602610002827
12-9-2017 14:00,1070.47,-1332.4497418557794
12-9-2017 15:00,1106.87,-1149.4722594581508
12-9-2017 16:00,1343.37,-1041.941536554934
12-9-2017 17:00,1288.8,-985.3711334164756
12-9-2017 18:00,1351.93,-1125.3105435608793
12-9-2017 19:00,1369.33,-1383.054647407159
12-9-2017 20:00,1363.33,-1081.0629030050245
12-9-2017 21:00,1143.33,-698.9880006078952
12-9-2017 22:00,989.27,-520.4020885501344
12-9-2017 23:00,817.7,40.3443388859132
13-9-2017 0:00,839.43,1178.048860803748
13-9-2017 1:00,250.95,1343.7634670566501
13-9-2017 2:00,216.38,1618.5971734112218
13-9-2017 3:00,197.03,1683.9581632923955
13-9-2017 4:00,213.07,1733.0637188126232
13-9-2017 5:00,206.93,1636.7154702062746
13-9-2017 6:00,311.47,1360.06713172776
13-9-2017 7:00,465.8,831.9450492712515
13-9-2017 8:00,590.75,254.38998012890966
13-9-2017 9:00,927.27,-412.70431170795166
13-9-2017 10:00,1518.38,-986.4853241704113
13-9-2017 11:00,2146.42,-1023.3911515710452
13-9-2017 12:00,3093.22,-279.03771454017624
13-9-2017 13:00,2233.17,-1147.871629925079
13-9-2017 14:00,1901.25,-1050.000006367012
13-9-2017 15:00,2018.7,-819.5307397776662
13-9-2017 16:00,1831.45,-1191.4380172464255
13-9-2017 17:00,1900.15,-1051.5364311449798
13-9-2017 18:00,2662.35,-548.7640470813667
13-9-2017 19:00,2403.45,-1138.2241236407858
13-9-2017 20:00,1952.28,-1303.8753989361423
13-9-2017 21:00,1878.28,-764.4130421955117
13-9-2017 22:00,1695.63,-610.5415649897514
13-9-2017 23:00,1468.4,-76.57001744902641
14-9-2017 0:00,1195.78,827.6736631818817
14-9-2017 1:00,1209.37,1662.7031695008932
14-9-2017 2:00,1265.08,2069.4830692580745
14-9-2017 3:00,1266.13,2182.6546898284155
14-9-2017 4:00,1211.17,2186.3934380178725
14-9-2017 5:00,1197.23,2113.205699775108
14-9-2017 6:00,1280.28,1830.5385815427117
14-9-2017 7:00,1442.98,1306.55667235543
14-9-2017 8:00,1576.6,733.2256532581762
14-9-2017 9:00,1782.03,-76.15099131599573
14-9-2017 10:00,2349.2,-688.9163556568337
14-9-2017 11:00,2466.57,-1236.392479874969
14-9-2017 12:00,2705.4,-1176.3650352835616
14-9-2017 13:00,1852.87,-1992.0437081252278
14-9-2017 14:00,2005.28,-1346.2584449456735
14-9-2017 15:00,2061.25,-1122.4648589566884
14-9-2017 16:00,2430.68,-905.0143110325214
14-9-2017 17:00,1877.63,-1347.272152725093
14-9-2017 18:00,2574.73,-886.4285852104665
14-9-2017 19:00,2382.77,-1384.8320482504992
14-9-2017 20:00,1869.58,-1555.443757010822
14-9-2017 21:00,1844.83,-921.0677938047896
14-9-2017 22:00,1735.68,-655.542219557886
14-9-2017 23:00,1518.43,-48.42702001933867
15-9-2017 0:00,1332.43,1037.6043512177876
15-9-2017 1:00,1298.47,1897.034603737397
15-9-2017 2:00,1183.07,2179.076543031678
15-9-2017 3:00,1126.13,2266.3746404256763
15-9-2017 4:00,1202.42,2431.703251465775
15-9-2017 5:00,1215.58,2427.680934887018
15-9-2017 6:00,1308.95,2181.9099482011634
15-9-2017 7:00,1408.53,1601.6834425291859
15-9-2017 8:00,1574.98,1067.8417037230981
15-9-2017 9:00,1701.58,181.6338139028137
15-9-2017 10:00,2424.67,-277.06473728383276
15-9-2017 11:00,2131.42,-1221.8699932869022
15-9-2017 12:00,2941.65,-553.6073761023874
15-9-2017 13:00,1681.6,-1724.7545860759255
15-9-2017 14:00,1254.3,-1588.679462949993
15-9-2017 15:00,977.47,-1636.4653372364762
15-9-2017 16:00,814.42,-1912.4007435944914
15-9-2017 17:00,870.83,-1696.502309469483
15-9-2017 18:00,1028.68,-1742.6318548922468
15-9-2017 19:00,979.3,-2065.2330008012964
15-9-2017 20:00,1090.12,-1545.6694394149881
15-9-2017 21:00,834.88,-1080.8070484679838
15-9-2017 22:00,702.42,-785.1245559043659
15-9-2017 23:00,666.75,82.04711690757381
16-9-2017 0:00,344.72,1142.5290000264886
16-9-2017 1:00,209.95,1935.3398019351919
16-9-2017 2:00,178.73,2310.1735839550693
16-9-2017 3:00,175.98,2446.0179613612204
16-9-2017 4:00,179.83,2531.486238440458
16-9-2017 5:00,320.2,2599.4948139546013
16-9-2017 6:00,443.82,2313.3054292441825
16-9-2017 7:00,397.65,1496.9597975164013
16-9-2017 8:00,410.43,718.8628094303726
16-9-2017 9:00,780.0,-23.63352177824254
16-9-2017 10:00,655.9,-1432.6324559529162
16-9-2017 11:00,575.53,-2252.5240398831365
16-9-2017 12:00,559.53,-2474.9134462477327
16-9-2017 13:00,945.97,-2041.8952416281923
16-9-2017 14:00,1315.75,-1133.1163068309318
16-9-2017 15:00,1943.22,-309.7576896679342
16-9-2017 16:00,1752.03,-669.1150985831819
16-9-2017 17:00,1456.3,-854.6030267299608
16-9-2017 18:00,1321.62,-1258.9283231794816
16-9-2017 19:00,1447.6,-1470.8897900469146
16-9-2017 20:00,949.93,-1591.5935966033423
16-9-2017 21:00,470.93,-1375.1497096232383
16-9-2017 22:00,212.3,-1237.8052304507792
16-9-2017 23:00,448.52,-105.90201607331949
17-9-2017 0:00,298.68,1151.6154472195108
17-9-2017 1:00,229.87,2047.7779940967919
17-9-2017 2:00,197.77,2433.544814421749
17-9-2017 3:00,197.92,2569.8466674195365
17-9-2017 4:00,197.15,2646.475806117396
17-9-2017 5:00,206.63,2592.793134683128
17-9-2017 6:00,255.42,2225.4832129068323
17-9-2017 7:00,397.05,1570.9463160819364
17-9-2017 8:00,569.15,925.9619396746551
17-9-2017 9:00,819.88,11.18473945700589
17-9-2017 10:00,1928.82,-222.0670053263982
17-9-2017 11:00,1126.22,-1806.337344804473
17-9-2017 12:00,1091.37,-2066.1812023388843
17-9-2017 13:00,1046.02,-2069.6194009904293
17-9-2017 14:00,957.22,-1606.1384723860047
17-9-2017 15:00,992.78,-1370.1871816376902
17-9-2017 16:00,949.38,-1599.3784109743342
17-9-2017 17:00,976.17,-1463.8051854731643
17-9-2017 18:00,1165.53,-1561.9687170297063
17-9-2017 19:00,1192.15,-1890.2229889357873
17-9-2017 20:00,1128.43,-1560.9666475152153
17-9-2017 21:00,853.55,-1129.0673222206406
17-9-2017 22:00,761.72,-821.0969141579684
17-9-2017 23:00,652.03,-6.26821593361808
18-9-2017 0:00,472.03,1281.9287698144985
18-9-2017 1:00,375.27,2161.895808922291
18-9-2017 2:00,391.68,2582.34841481426
18-9-2017 3:00,346.45,2645.190490665617
18-9-2017 4:00,374.92,2721.203238244031
18-9-2017 5:00,397.75,2631.7156705614266
18-9-2017 6:00,453.47,2206.69156241933
18-9-2017 7:00,625.98,1498.6897511973943
18-9-2017 8:00,803.95,775.0143371689355
18-9-2017 9:00,1352.2,64.48459293203905
18-9-2017 10:00,1800.03,-927.0016374703084
18-9-2017 11:00,2136.88,-1453.802407506451
18-9-2017 12:00,1568.85,-2305.262391220889
18-9-2017 13:00,1629.03,-2232.7070000456238
18-9-2017 14:00,1504.37,-1816.6740845361385
18-9-2017 15:00,2317.08,-823.9401271046104
18-9-2017 16:00,2377.52,-991.786504864174
18-9-2017 17:00,34.97,-3249.5737452314706
18-9-2017 18:00,2190.82,-1421.6871314114478
18-9-2017 19:00,2442.87,-1564.0128289953598
18-9-2017 20:00,2317.67,-1302.79496023697
18-9-2017 21:00,2461.63,-478.3733294991705
18-9-2017 22:00,2799.0,224.95242263748423
18-9-2017 23:00,2167.3,508.93601989249646
19-9-2017 0:00,1530.55,1363.55194327967
19-9-2017 1:00,1081.87,1861.8058011629014
19-9-2017 2:00,924.43,2053.0365191668116
19-9-2017 3:00,787.38,1954.4311444166665
19-9-2017 4:00,602.0,1745.1610648402489
19-9-2017 5:00,649.37,1594.2571435710506
19-9-2017 6:00,1035.5,1398.1973917248934
19-9-2017 7:00,1698.43,1059.4482394449587
19-9-2017 8:00,2266.03,604.0193611343625
19-9-2017 9:00,3020.87,-19.001293711387916
19-9-2017 10:00,3008.05,-1594.075695369826
19-9-2017 11:00,4688.85,-884.7205816011842
19-9-2017 12:00,4771.02,-1170.2303771327975
19-9-2017 13:00,5219.88,-742.8126938381015
19-9-2017 14:00,4423.85,-1014.0190891309353
19-9-2017 15:00,4609.67,-672.823762723573
19-9-2017 16:00,4157.5,-1400.0266131584235
19-9-2017 17:00,4024.97,-1460.5928507243743
19-9-2017 18:00,4156.55,-1686.194622857975
19-9-2017 19:00,5246.05,-1019.3072454843295
19-9-2017 20:00,5399.6,-474.63334875273586
19-9-2017 21:00,5897.82,679.8635675451646
19-9-2017 22:00,5608.32,724.6649763395708
19-9-2017 23:00,4548.93,574.3137852090131
20-9-2017 0:00,3322.43,870.4572534932213
20-9-2017 1:00,2620.97,1010.6797267465654
20-9-2017 2:00,1694.3,299.68137054677754
20-9-2017 3:00,809.68,-695.0761803012192
20-9-2017 4:00,745.47,-933.6864034274986
20-9-2017 5:00,1105.1,-1027.2422560632103
20-9-2017 6:00,2354.65,-631.5896450117016
20-9-2017 7:00,3448.27,-832.5835484915278
20-9-2017 8:00,4835.98,-761.1982486988245
20-9-2017 9:00,6640.95,-579.5103914063584
20-9-2017 10:00,8715.8,-317.5171369090158
20-9-2017 11:00,9050.58,-1185.7728748470463
20-9-2017 12:00,8077.02,-2734.3879715424146
20-9-2017 13:00,11041.35,169.5198547924365
20-9-2017 14:00,12822.23,2455.2348574104126
20-9-2017 15:00,12960.27,2721.1068472374063
20-9-2017 16:00,13349.73,2783.8541575603776
20-9-2017 17:00,14123.48,3749.377831846339
20-9-2017 18:00,13284.62,2656.5099303837887
20-9-2017 19:00,14775.52,3827.1654881312934
20-9-2017 20:00,16598.82,6179.580303872413
20-9-2017 21:00,11682.92,2226.6751629680375
20-9-2017 22:00,10339.03,1514.6052239522105
20-9-2017 23:00,7212.13,-378.22667222850214
21-9-2017 0:00,3908.72,-1800.8803102344418
21-9-2017 1:00,2139.82,-2226.5405796130444
21-9-2017 2:00,1161.17,-2515.7093680185917
21-9-2017 3:00,1066.33,-2262.460452966504
21-9-2017 4:00,942.25,-2104.6834677377165
21-9-2017 5:00,961.58,-2060.2992864364924
21-9-2017 6:00,1701.07,-1713.2623471838706
21-9-2017 7:00,3001.6,-1267.1529936601928
21-9-2017 8:00,4466.62,-678.6255075607933
21-9-2017 9:00,6187.4,-385.6158868645816
21-9-2017 10:00,7897.5,-298.04723943345925
21-9-2017 11:00,8999.32,-189.9260923001657
21-9-2017 12:00,8877.65,-653.0987533812922
21-9-2017 13:00,8882.03,-695.9655773346713
21-9-2017 14:00,9757.08,716.086029865729
21-9-2017 15:00,8710.78,-177.77011021603266
21-9-2017 16:00,8693.72,-521.0401012074544
21-9-2017 17:00,8139.75,-977.6170218001789
21-9-2017 18:00,9264.37,-218.02155932227652
21-9-2017 19:00,10731.98,817.5507017885238
21-9-2017 20:00,10937.05,1475.5649595286131
21-9-2017 21:00,10818.5,2103.2474449814954
21-9-2017 22:00,10786.27,2476.898270291891
21-9-2017 23:00,8693.13,1419.3977811974837
22-9-2017 0:00,5759.58,201.25914903785633
22-9-2017 1:00,3382.13,-1204.8751434407532
22-9-2017 2:00,2285.65,-2011.5456445201162
22-9-2017 3:00,2028.17,-2336.191544035997
22-9-2017 4:00,1946.18,-2553.5423671638528
22-9-2017 5:00,1756.47,-3154.1439648295145
22-9-2017 6:00,2629.88,-3125.9285102795984
22-9-2017 7:00,4479.32,-2604.9002187675624
22-9-2017 8:00,6870.57,-1564.4948653766132
22-9-2017 9:00,9458.47,-679.1538568116066
22-9-2017 10:00,12679.48,639.3499057383415
22-9-2017 11:00,14697.15,1402.3576601280056
22-9-2017 12:00,16202.37,2329.3271568461696
22-9-2017 13:00,15723.27,1783.6276182508755
22-9-2017 14:00,16863.98,3460.977765680018
22-9-2017 15:00,15365.83,2107.355431335818
22-9-2017 16:00,17002.95,3386.240074676327
22-9-2017 17:00,18202.88,4782.662519188383
22-9-2017 18:00,16240.92,2538.141305590203
22-9-2017 19:00,15657.55,1604.4202300477755
22-9-2017 20:00,16324.25,2841.3738897703006
22-9-2017 21:00,16257.53,3763.3634223530626
22-9-2017 22:00,12869.72,1014.734432762305
22-9-2017 23:00,9720.63,-837.9052284731715
23-9-2017 0:00,7357.2,-1192.029434013868
23-9-2017 1:00,3738.23,-3483.8893693897135
23-9-2017 2:00,2510.98,-4093.2832029401234
23-9-2017 3:00,2083.83,-4275.135536821207
23-9-2017 4:00,2384.87,-3798.955788102937
23-9-2017 5:00,3069.02,-3242.714536923131
23-9-2017 6:00,3207.18,-3683.5619392635735
23-9-2017 7:00,5231.52,-2742.696081950825
23-9-2017 8:00,7608.13,-1472.3542334559734
23-9-2017 9:00,10977.7,333.4291793518423
23-9-2017 10:00,13611.43,1198.2390733946268
23-9-2017 11:00,15474.62,1959.3644514146763
23-9-2017 12:00,17511.3,3594.6071223061354
23-9-2017 13:00,16846.0,2971.9657707872284
23-9-2017 14:00,17193.88,3984.7353601634113
23-9-2017 15:00,14848.08,1904.1577332750712
23-9-2017 16:00,14470.45,1264.8779126658064
23-9-2017 17:00,14205.73,1293.9325170529992
23-9-2017 18:00,15335.77,2222.0574221491024
23-9-2017 19:00,17894.87,4510.675804723798
23-9-2017 20:00,19643.0,6944.551661199119
23-9-2017 21:00,8495.83,-3066.508853716894
23-9-2017 22:00,5548.6,-5236.334752837457
23-9-2017 23:00,9339.43,16.679319157343343
24-9-2017 0:00,7201.95,87.32244560692561
24-9-2017 1:00,3688.37,-1918.3201020360502
24-9-2017 2:00,1985.2,-2850.554237427402
24-9-2017 3:00,2375.3,-2077.659975043578
24-9-2017 4:00,1110.4,-3031.8866238490755
24-9-2017 5:00,1075.12,-3164.0424466023787
24-9-2017 6:00,2473.17,-2330.7626286117484
24-9-2017 7:00,4683.63,-1210.7891282768633
24-9-2017 8:00,6159.85,-848.210707456682
24-9-2017 9:00,7703.52,-994.1574047385284
24-9-2017 10:00,12471.75,1874.1361064646226
24-9-2017 11:00,13501.48,1689.7965937825848
24-9-2017 12:00,13706.08,1405.1699245148757
24-9-2017 13:00,11847.77,-489.08910745590765
24-9-2017 14:00,10753.68,-977.9059436609477
24-9-2017 15:00,11188.58,-344.9547306216882
24-9-2017 16:00,10169.78,-1716.6848827089907
24-9-2017 17:00,10036.48,-1697.354685216681
24-9-2017 18:00,11635.45,-458.0802281963224
24-9-2017 19:00,20279.57,7757.001045725476
24-9-2017 20:00,15844.13,3884.3725321835645
24-9-2017 21:00,15633.87,4466.0958862197185
24-9-2017 22:00,14116.18,3372.5069940202848
24-9-2017 23:00,8028.33,-1578.9512843037028
25-9-2017 0:00,5731.08,-1960.7869094129019
25-9-2017 1:00,3542.05,-3180.012997333365
25-9-2017 2:00,1848.43,-4668.578362576011
25-9-2017 3:00,1378.72,-5336.958431937638
25-9-2017 4:00,1088.55,-5899.882406277261
25-9-2017 5:00,1472.83,-6226.52226197249
25-9-2017 6:00,2942.15,-5952.812182659609
25-9-2017 7:00,5685.77,-4951.767998311407
25-9-2017 8:00,8044.18,-4359.449964174719
25-9-2017 9:00,13053.13,-1560.2433526148343
25-9-2017 10:00,18729.35,1690.7271946800793
25-9-2017 11:00,23706.27,4947.27621022735
25-9-2017 12:00,23860.85,4130.543619731865
25-9-2017 13:00,23168.02,3166.7925168155016
25-9-2017 14:00,24122.0,4510.064864535532
25-9-2017 15:00,21581.5,1944.080527008682
25-9-2017 16:00,23714.05,3476.054241497088
25-9-2017 17:00,25412.78,5343.311979503713
25-9-2017 18:00,25676.52,5246.617935857525
25-9-2017 19:00,30145.63,9285.166761209988
25-9-2017 20:00,28540.13,8276.578537734407
25-9-2017 21:00,28742.57,9540.263497610427
25-9-2017 22:00,28933.92,10415.781555634796
25-9-2017 23:00,18044.95,950.7808702946932
26-9-2017 0:00,10454.02,-4404.073563070611
26-9-2017 1:00,5070.17,-8297.354440194202
26-9-2017 2:00,3258.4,-9411.052284213785
26-9-2017 3:00,2191.63,-10199.057934246504
26-9-2017 4:00,1690.18,-10497.818747389
26-9-2017 5:00,2341.87,-9771.536720432076
26-9-2017 6:00,4906.15,-7634.150464202859
26-9-2017 7:00,9164.22,-4371.2095959471335
26-9-2017 8:00,13085.77,-1468.665948599728
26-9-2017 9:00,18303.82,2370.7657329567755
26-9-2017 10:00,24587.73,7055.360859902543
26-9-2017 11:00,26299.57,7891.775947238217
26-9-2017 12:00,28185.03,9675.08497907405
26-9-2017 13:00,26552.25,8351.319295773697
26-9-2017 14:00,24694.03,7481.318317980404
26-9-2017 15:00,23363.02,6716.19592044905
26-9-2017 16:00,23952.85,7272.739681755886
26-9-2017 17:00,23286.78,7245.794276292096
26-9-2017 18:00,24413.33,8465.871047994631
26-9-2017 19:00,12310.53,-3614.2722789158415
26-9-2017 20:00,7027.28,-7811.769916018688
26-9-2017 21:00,6974.4,-6095.787994376042
26-9-2017 22:00,6328.87,-5358.672655560305
26-9-2017 23:00,4418.83,-5118.755417348961
27-9-2017 0:00,1727.87,-4807.9176357968045
27-9-2017 1:00,1035.38,-3313.0338362152597
27-9-2017 2:00,1251.78,-1731.8031121834556
27-9-2017 3:00,989.55,-1065.2971071859674
27-9-2017 4:00,1133.95,-70.28915329482152
27-9-2017 5:00,1185.77,243.71822710606466
27-9-2017 6:00,1327.27,127.87669749557244
27-9-2017 7:00,2222.23,174.38007851304246
27-9-2017 8:00,2683.58,-236.98572760535808
27-9-2017 9:00,4163.15,-392.4799549487925
27-9-2017 10:00,5139.67,-1277.766692436419
27-9-2017 11:00,6967.03,-566.20893185882
27-9-2017 12:00,6669.23,-1181.624017221683
27-9-2017 13:00,8626.22,846.1611438549039
27-9-2017 14:00,5259.7,-1748.2809581591746
27-9-2017 15:00,5760.88,-906.0562410441389
27-9-2017 16:00,8534.1,1582.8325397850413
27-9-2017 17:00,5859.57,-901.6477259856147
27-9-2017 18:00,4830.82,-2302.159749241648
27-9-2017 19:00,5430.8,-2146.370575467672
27-9-2017 20:00,4703.87,-2216.1815223690455
27-9-2017 21:00,4765.73,-1104.3458093360964
27-9-2017 22:00,4212.4,-1004.032307438235
27-9-2017 23:00,3737.07,-28.586199236419816
28-9-2017 0:00,2488.07,1060.9203271727101
28-9-2017 1:00,1268.85,1381.2920767588357
28-9-2017 2:00,1318.42,2117.8646421414705
28-9-2017 3:00,856.42,1889.9855754686105
28-9-2017 4:00,935.97,2123.437842560028
28-9-2017 5:00,941.07,2023.2329658385838
28-9-2017 6:00,1539.5,1978.7860398221
28-9-2017 7:00,1981.8,1164.1922918791379
28-9-2017 8:00,2680.57,581.4273905727528
28-9-2017 9:00,3932.83,81.22380915023177
28-9-2017 10:00,4833.62,-1003.2425868328828
28-9-2017 11:00,6399.2,-654.7999470754535
28-9-2017 12:00,7948.65,500.61305630089055
28-9-2017 13:00,9754.32,2393.208686798085
28-9-2017 14:00,4113.28,-2437.54491439311
28-9-2017 15:00,5205.18,-975.0934575880156
28-9-2017 16:00,3974.72,-2486.554165416799
28-9-2017 17:00,4634.67,-1628.522901548712
28-9-2017 18:00,4241.63,-2401.5073298177026
28-9-2017 19:00,4060.83,-3036.2128597738138
28-9-2017 20:00,3658.7,-2752.724320888252
28-9-2017 21:00,3639.5,-1666.345182668647
28-9-2017 22:00,3090.72,-1515.9744964215654
28-9-2017 23:00,3166.33,85.73950303781248
29-9-2017 0:00,1939.1,1308.233795571011
29-9-2017 1:00,1642.58,2630.0776764254883
29-9-2017 2:00,1071.92,2795.1462644227277
29-9-2017 3:00,1024.38,3013.666307343293
29-9-2017 4:00,976.25,3149.2918002936062
29-9-2017 5:00,1042.25,3097.0960312307693
29-9-2017 6:00,1238.77,2619.8050735892302
29-9-2017 7:00,1708.33,1778.6366191947782
29-9-2017 8:00,2961.67,1696.225045209353
29-9-2017 9:00,3999.93,905.8298104748228
29-9-2017 10:00,3737.47,-1424.1284775931258
29-9-2017 11:00,4328.5,-2110.3631922452114
29-9-2017 12:00,4749.57,-2118.5443337190054
29-9-2017 13:00,4816.82,-1975.4735112767476
29-9-2017 14:00,3593.07,-2377.9638891206037
29-9-2017 15:00,3951.03,-1647.1809701009956
29-9-2017 16:00,3856.3,-2046.816962506089
29-9-2017 17:00,3406.88,-2324.0565316474567
29-9-2017 18:00,3749.0,-2403.995727577602
29-9-2017 19:00,3719.15,-2931.4009283105056
29-9-2017 20:00,4279.85,-1690.5178706847137
29-9-2017 21:00,3366.25,-1521.077628449915
29-9-2017 22:00,3225.88,-994.9383023452447
29-9-2017 23:00,4388.13,1690.5950438800655
30-9-2017 0:00,1903.17,1688.4285580457013
30-9-2017 1:00,1593.27,3014.155011319629
30-9-2017 2:00,1082.8,3226.6300630825726
30-9-2017 3:00,1143.38,3523.6996567476613
30-9-2017 4:00,754.67,3287.079342771606
30-9-2017 5:00,863.55,3367.7468106044234
30-9-2017 6:00,1097.82,3000.145950574874
30-9-2017 7:00,1904.72,2545.350542661592
30-9-2017 8:00,2713.33,2066.860048929786
30-9-2017 9:00,3153.7,726.6140966253574
30-9-2017 10:00,4415.15,-37.44472666603633
30-9-2017 11:00,3954.55,-1711.205438866248
30-9-2017 12:00,4115.47,-1890.5193683287898
30-9-2017 13:00,3437.22,-2314.33338335452
30-9-2017 14:00,3411.07,-1318.5305672640866
30-9-2017 15:00,3143.97,-1020.8162154430142
30-9-2017 16:00,3091.15,-1212.7258689036175
30-9-2017 17:00,2858.8,-988.8536499264776
30-9-2017 18:00,3267.65,-734.2349923898146
30-9-2017 19:00,3754.0,-479.14098135123334
30-9-2017 20:00,2639.03,-609.4145224369335
30-9-2017 21:00,1543.07,-287.4900505113626
30-9-2017 22:00,1516.0,676.7046580887976
30-9-2017 23:00,1803.22,2841.7840937179394
