Time,Actual,STL processed
1-8-2017 0:00,84.0,-3.2318564094000948
1-8-2017 1:00,84.0,-0.11761901454497092
1-8-2017 2:00,84.0,-0.38948624138761545
1-8-2017 3:00,84.0,-0.37725257351274877
1-8-2017 4:00,84.0,-0.6537653943491506
1-8-2017 5:00,84.0,-0.6728835966210909
1-8-2017 6:00,84.0,-0.43836130344746493
1-8-2017 7:00,84.0,-0.06787221138408484
1-8-2017 8:00,84.0,1.4408778213082627
1-8-2017 9:00,84.0,1.8091407758022626
1-8-2017 10:00,84.0,1.6501557516680379
1-8-2017 11:00,84.0,1.5278813349876401
1-8-2017 12:00,84.0,1.1371544135820528
1-8-2017 13:00,84.02,0.978590713577077
1-8-2017 14:00,84.0,1.0942304603687774
1-8-2017 15:00,84.0,1.5051001155354413
1-8-2017 16:00,84.0,0.45679013360138754
1-8-2017 17:00,84.0,0.22769371311832742
1-8-2017 18:00,84.0,1.071175781936546
1-8-2017 19:00,84.0,-0.8458716031604894
1-8-2017 20:00,84.0,-2.697462567896352
1-8-2017 21:00,84.0,2.1658607976965243
1-8-2017 22:00,84.0,-3.540855688703971
1-8-2017 23:00,84.0,-3.695205354639242
2-8-2017 0:00,84.0,-2.7912343202500836
2-8-2017 1:00,84.0,0.20651888174499788
2-8-2017 2:00,84.0,-0.07073800541360242
2-8-2017 3:00,84.0,-0.07481195002223728
2-8-2017 4:00,84.0,-0.3508219376373489
2-8-2017 5:00,84.0,-0.4121521933826102
2-8-2017 6:00,84.0,-0.23230780114670324
2-8-2017 7:00,84.0,0.08700847384990595
2-8-2017 8:00,84.0,1.5307563852482247
2-8-2017 9:00,84.0,1.886325765249964
2-8-2017 10:00,84.0,1.6935338329259935
2-8-2017 11:00,84.0,1.5473046568633606
2-8-2017 12:00,84.0,1.1351352862410096
2-8-2017 13:00,84.0,0.9761827793522855
2-8-2017 14:00,84.0,1.1284246750491747
2-8-2017 15:00,84.0,1.546769438011168
2-8-2017 16:00,84.0,0.5599982843748563
2-8-2017 17:00,84.0,0.30218815012955247
2-8-2017 18:00,81.2,-1.704114147484546
2-8-2017 19:00,84.0,-0.7181654874666492
2-8-2017 20:00,84.0,-2.5081529890290852
2-8-2017 21:00,84.0,2.300939645603677
2-8-2017 22:00,84.0,-3.204250222131961
2-8-2017 23:00,84.0,-3.451025839425128
3-8-2017 0:00,84.0,-2.564532201156169
3-8-2017 1:00,84.0,0.32500734386267993
3-8-2017 2:00,84.0,0.05063133227199046
3-8-2017 3:00,84.0,0.038520311063649615
3-8-2017 4:00,84.0,-0.22874415566396067
3-8-2017 5:00,84.0,-0.27073634519084067
3-8-2017 6:00,84.0,-0.08401973420099296
3-8-2017 7:00,84.0,0.2456617503142695
3-8-2017 8:00,84.0,1.6859455670039836
3-8-2017 9:00,84.0,2.1070916157255652
3-8-2017 10:00,84.0,1.958758743217473
3-8-2017 11:00,84.0,1.8668407757782433
3-8-2017 12:00,84.0,1.5114949239447526
3-8-2017 13:00,84.0,1.4165892816276369
3-8-2017 14:00,84.0,1.6298689976850795
3-8-2017 15:00,82.6,0.7001245398977574
3-8-2017 16:00,84.0,1.2193369147537538
3-8-2017 17:00,84.0,1.052114195052397
3-8-2017 18:00,84.0,1.9153286593121521
3-8-2017 19:00,82.6,-1.076408234683555
3-8-2017 20:00,77.0,-8.285473872201194
3-8-2017 21:00,81.2,0.9031414993933993
3-8-2017 22:00,82.6,-2.7667488822285833
3-8-2017 23:00,82.6,-2.8721775834307977
4-8-2017 0:00,84.0,-0.3693884738331832
4-8-2017 1:00,84.0,2.64305094679564
4-8-2017 2:00,84.0,2.6026693433590253
4-8-2017 3:00,81.2,0.013634778137230796
4-8-2017 4:00,84.0,2.7862424370074734
4-8-2017 5:00,84.0,2.890188530035843
4-8-2017 6:00,82.6,1.810377576116494
4-8-2017 7:00,79.8,-0.5229698668353677
4-8-2017 8:00,74.2,-4.559544281839976
4-8-2017 9:00,74.2,-3.5604038121683317
4-8-2017 10:00,82.6,5.248141049897214
4-8-2017 11:00,77.0,0.12295296583917548
4-8-2017 12:00,75.6,-1.0631506924476355
4-8-2017 13:00,75.6,0.6095481701313616
4-8-2017 14:00,79.8,6.787423346873879
4-8-2017 15:00,77.0,6.21314730866176
4-8-2017 16:00,84.0,14.141900852334572
4-8-2017 17:00,82.6,15.129716001666125
4-8-2017 18:00,78.4,14.326897682288703
4-8-2017 19:00,79.8,16.82192568876828
4-8-2017 20:00,75.6,13.658232369784407
4-8-2017 21:00,77.0,22.74329198346087
4-8-2017 22:00,78.4,22.02562259307267
4-8-2017 23:00,75.63,21.808462313081463
5-8-2017 0:00,60.42,10.434468399127809
5-8-2017 1:00,14.68,-29.714715540063487
5-8-2017 2:00,15.2,-26.54562597077609
5-8-2017 3:00,15.2,-23.65610731544146
5-8-2017 4:00,15.73,-20.458150766403406
5-8-2017 5:00,15.2,-19.030613090405744
5-8-2017 6:00,15.47,-16.59929830882018
5-8-2017 7:00,15.47,-14.288021378825082
5-8-2017 8:00,14.4,-11.963800725109968
5-8-2017 9:00,14.4,-11.585355774656286
5-8-2017 10:00,14.45,-11.768623118185072
5-8-2017 11:00,16.15,-10.225771259029923
5-8-2017 12:00,17.13,-9.66132266393809
5-8-2017 13:00,17.33,-11.673069907414565
5-8-2017 14:00,18.0,-12.912649880938567
5-8-2017 15:00,18.0,-14.583508110527053
5-8-2017 16:00,18.77,-16.727264008989025
5-8-2017 17:00,20.17,-18.579990772337144
5-8-2017 18:00,20.17,-20.844421657064345
5-8-2017 19:00,37.57,-7.858208531822029
5-8-2017 20:00,74.4,24.457890686015276
5-8-2017 21:00,35.93,-12.217888302184733
5-8-2017 22:00,74.43,18.52938045470249
5-8-2017 23:00,77.0,17.723205751963967
6-8-2017 0:00,77.0,15.705145970500674
6-8-2017 1:00,77.0,15.842040934127297
6-8-2017 2:00,77.0,13.148303938776735
6-8-2017 3:00,77.0,10.684078077305827
6-8-2017 4:00,77.0,8.015085779149715
6-8-2017 5:00,77.0,6.3905505665550635
6-8-2017 6:00,77.0,4.957326612083904
6-8-2017 7:00,77.0,3.6775634434643507
6-8-2017 8:00,77.0,3.466914694337575
6-8-2017 9:00,77.0,3.3434075860526633
6-8-2017 10:00,77.0,2.587071497408914
6-8-2017 11:00,77.0,1.9167067602566021
6-8-2017 12:00,77.0,0.9904510692064434
6-8-2017 13:00,77.0,0.798890479258219
6-8-2017 14:00,77.0,0.9064881150514026
6-8-2017 15:00,77.0,1.2436804536702653
6-8-2017 16:00,77.0,0.39204787265722985
6-8-2017 17:00,77.0,0.003606119155094234
6-8-2017 18:00,77.0,0.5823895916037714
6-8-2017 19:00,77.0,-0.8353852418655237
6-8-2017 20:00,77.0,-2.3946665646813727
6-8-2017 21:00,77.0,2.2449735546896363
6-8-2017 22:00,77.0,-2.4065618317002446
6-8-2017 23:00,77.0,-2.975493247738598
7-8-2017 0:00,77.0,-2.1113611872640234
7-8-2017 1:00,77.0,0.43040182061859866
7-8-2017 2:00,77.0,0.2526274020681427
7-8-2017 3:00,77.0,0.2934461652297955
7-8-2017 4:00,77.0,0.14629416131759854
7-8-2017 5:00,77.0,0.10073088464540092
7-8-2017 6:00,77.0,0.2340130186322682
7-8-2017 7:00,77.0,0.524254575912849
7-8-2017 8:00,77.0,1.8697812484589633
7-8-2017 9:00,77.0,2.2800467815981307
7-8-2017 10:00,73.15,-1.8136333519979502
7-8-2017 11:00,77.0,1.88851001470492
7-8-2017 12:00,75.72,0.2072747376754478
7-8-2017 13:00,75.72,0.0795314485177272
7-8-2017 14:00,73.15,-2.3220626591096334
7-8-2017 15:00,75.72,0.6368108949787938
7-8-2017 16:00,77.0,1.1709323965212235
7-8-2017 17:00,74.43,-1.7941325914969752
7-8-2017 18:00,77.0,1.3269569937655206
7-8-2017 19:00,77.0,0.03428306837565742
7-8-2017 20:00,77.0,-1.4412899283022966
7-8-2017 21:00,75.72,1.8554870564624935
7-8-2017 22:00,77.0,-1.3231465387398487
7-8-2017 23:00,77.0,-1.9931287336134176
8-8-2017 0:00,77.0,-1.1550988967363764
8-8-2017 1:00,75.72,-0.06893479421779602
8-8-2017 2:00,77.0,0.9687864144118379
8-8-2017 3:00,77.0,0.9341828525860052
8-8-2017 4:00,77.0,0.7283761345081246
8-8-2017 5:00,75.72,-0.6733881396564811
8-8-2017 6:00,75.72,-0.6287728506264187
8-8-2017 7:00,75.72,-0.4237282670005271
8-8-2017 8:00,73.15,-1.7472278723363104
8-8-2017 9:00,70.58,-3.947825421094862
8-8-2017 10:00,74.43,-0.4035087472069989
8-8-2017 11:00,77.0,1.9664835757873504
8-8-2017 12:00,77.0,1.5156095652147883
8-8-2017 13:00,77.0,1.3289303595289823
8-8-2017 14:00,77.0,1.435391291162503
8-8-2017 15:00,77.0,1.7531928434019477
8-8-2017 16:00,77.0,0.9903273744312031
8-8-2017 17:00,77.0,0.44728314741252007
8-8-2017 18:00,77.0,0.8293228410044406
8-8-2017 19:00,77.0,-0.4795752534788136
8-8-2017 20:00,77.0,-2.0127650011916955
8-8-2017 21:00,77.0,2.422346957502114
8-8-2017 22:00,77.0,-1.922134602095113
8-8-2017 23:00,77.0,-2.771917331386291
9-8-2017 0:00,77.0,-2.0495172267196295
9-8-2017 1:00,77.0,0.24130315336086028
9-8-2017 2:00,77.0,0.014273625477400742
9-8-2017 3:00,77.0,-0.013580230483412947
9-8-2017 4:00,77.0,-0.19950447242322866
9-8-2017 5:00,77.0,-0.2954779870650839
9-8-2017 6:00,77.0,-0.24021210891025646
9-8-2017 7:00,77.0,-0.020219010143620153
9-8-2017 8:00,77.0,1.2274715439601636
9-8-2017 9:00,77.0,1.6257179626909135
9-8-2017 10:00,77.0,1.32055114293766
9-8-2017 11:00,77.0,1.1400837194806996
9-8-2017 12:00,77.0,0.7260400510035367
9-8-2017 13:00,77.0,0.593181700358798
9-8-2017 14:00,77.0,0.7406902622039553
9-8-2017 15:00,77.0,1.0944781041319231
9-8-2017 16:00,75.72,-0.8590759904458025
9-8-2017 17:00,77.0,-0.06631368223173695
9-8-2017 18:00,77.0,0.33474570260618464
9-8-2017 19:00,77.0,-0.8105147256493268
9-8-2017 20:00,77.0,-2.223650843707702
9-8-2017 21:00,77.0,2.2292390723630575
9-8-2017 22:00,77.0,-1.860125105685185
9-8-2017 23:00,77.0,-2.736396311703359
10-8-2017 0:00,77.0,-1.9603400526256394
10-8-2017 1:00,77.0,0.24933428148654002
10-8-2017 2:00,77.0,0.03175169355978369
10-8-2017 3:00,77.0,0.004845219933784506
10-8-2017 4:00,77.0,-0.16706654719114056
10-8-2017 5:00,77.0,-0.277702547141331
10-8-2017 6:00,77.0,-0.2522393246928374
10-8-2017 7:00,77.0,-0.05779693052221546
10-8-2017 8:00,77.0,1.1505845632844114
10-8-2017 9:00,77.0,1.54904743553125
10-8-2017 10:00,77.0,1.2157433444712353
10-8-2017 11:00,77.0,1.0261623968972913
10-8-2017 12:00,77.0,0.6202952928498746
10-8-2017 13:00,77.0,0.49366001713009666
10-8-2017 14:00,77.0,0.6346184290707981
10-8-2017 15:00,77.0,0.9767947805712254
10-8-2017 16:00,77.0,0.3449666802088842
10-8-2017 17:00,77.0,-0.16338668803990686
10-8-2017 18:00,77.0,0.1797701763483559
10-8-2017 19:00,77.0,-0.8787496477572319
10-8-2017 20:00,77.0,-2.2487291982389053
10-8-2017 21:00,77.0,2.1641218672138507
10-8-2017 22:00,77.0,-1.7279132481142767
10-8-2017 23:00,77.0,-2.688461249688345
11-8-2017 0:00,77.0,-1.9165371550284789
11-8-2017 1:00,77.0,0.21794660363953255
11-8-2017 2:00,77.0,0.015766426193621896
11-8-2017 3:00,77.0,-0.004237194573448733
11-8-2017 4:00,77.0,-0.15616120685763235
11-8-2017 5:00,77.0,-0.26524216863366235
11-8-2017 6:00,77.0,-0.2533640784090352
11-8-2017 7:00,77.0,-0.06824626096909014
11-8-2017 8:00,77.0,1.1170523004057458
11-8-2017 9:00,77.0,1.5197514937719916
11-8-2017 10:00,77.0,1.1623314187337712
11-8-2017 11:00,77.0,0.9676582343714273
11-8-2017 12:00,77.0,0.5739889820823123
11-8-2017 13:00,77.0,0.45408002922229684
11-8-2017 14:00,77.0,0.5889915391932874
11-8-2017 15:00,77.0,0.9200596482009189
11-8-2017 16:00,77.0,0.3304607899887628
11-8-2017 17:00,77.0,-0.19950796265895576
11-8-2017 18:00,77.0,0.08524667334359037
11-8-2017 19:00,77.0,-0.8870322545481315
11-8-2017 20:00,77.0,-2.2143549453891467
11-8-2017 21:00,77.0,2.1598603286287243
11-8-2017 22:00,77.0,-1.5334426647961408
11-8-2017 23:00,77.0,-2.5768644027429843
12-8-2017 0:00,77.0,-1.807669413317825
12-8-2017 1:00,77.0,0.26972302499606826
12-8-2017 2:00,77.0,0.1010445131210389
12-8-2017 3:00,77.0,0.10604300030296088
12-8-2017 4:00,77.0,-0.007794002050417248
12-8-2017 5:00,77.0,0.0010359610648578155
12-8-2017 6:00,77.0,0.1156848057827915
12-8-2017 7:00,77.0,0.40783393320923267
12-8-2017 8:00,77.0,1.686405448869408
12-8-2017 9:00,77.0,2.264380909744034
12-8-2017 10:00,77.0,2.053884797116581
12-8-2017 11:00,77.0,2.0251593223547957
12-8-2017 12:00,77.0,1.814727868212941
12-8-2017 13:00,77.0,1.7614658009822364
12-8-2017 14:00,77.0,1.9502509717530927
12-8-2017 15:00,71.87,-2.7998685989624903
12-8-2017 16:00,77.0,1.8426823477450824
12-8-2017 17:00,77.0,1.2325793886490146
12-8-2017 18:00,77.0,1.4004129742164224
12-8-2017 19:00,77.47,0.9258561204891294
12-8-2017 20:00,79.0,1.1126714672393092
12-8-2017 21:00,39.5,-34.174861026927495
12-8-2017 22:00,75.05,-2.2425438751989475
12-8-2017 23:00,79.0,0.45804867373165337
13-8-2017 0:00,79.0,1.101402581172323
13-8-2017 1:00,79.0,2.8892509019495094
13-8-2017 2:00,79.0,2.5216212584627584
13-8-2017 3:00,79.0,2.3191690564110985
13-8-2017 4:00,77.68,0.6909662668059013
13-8-2017 5:00,79.0,1.6404897016894893
13-8-2017 6:00,79.0,1.360691847777744
13-8-2017 7:00,79.0,1.2626548320676818
13-8-2017 8:00,79.0,2.1372818488902112
13-8-2017 9:00,79.0,2.3312183845446413
13-8-2017 10:00,79.0,1.7083310415993935
13-8-2017 11:00,79.0,1.2862380837095913
13-8-2017 12:00,79.0,0.6997292349864352
13-8-2017 13:00,79.0,0.5442057702376957
13-8-2017 14:00,79.0,0.6179563186610864
13-8-2017 15:00,79.0,0.8777407850749341
13-8-2017 16:00,79.0,0.32353325355491336
13-8-2017 17:00,79.0,-0.25476945075557467
13-8-2017 18:00,79.0,-0.09192245438936197
13-8-2017 19:00,79.0,-0.8968227727183091
13-8-2017 20:00,79.0,-2.143934927142965
13-8-2017 21:00,79.0,2.138778119441085
13-8-2017 22:00,79.0,-1.1712912747413782
13-8-2017 23:00,79.0,-2.394691129997824
14-8-2017 0:00,79.0,-1.6451849956061437
14-8-2017 1:00,79.0,0.2457230215266577
14-8-2017 2:00,79.0,0.07174606032053532
14-8-2017 3:00,79.0,0.05444698292758687
14-8-2017 4:00,79.0,-0.055517780037092734
14-8-2017 5:00,79.0,-0.11322469460507989
14-8-2017 6:00,79.0,-0.09539306836640549
14-8-2017 7:00,79.0,0.1084599515671556
14-8-2017 8:00,79.0,1.2712186483321517
14-8-2017 9:00,79.0,1.9188084137765173
14-8-2017 10:00,79.0,1.7212219955235781
14-8-2017 11:00,79.0,1.7434537095158902
14-8-2017 12:00,79.0,1.6185596212215643
14-8-2017 13:00,79.0,1.895434435341258
14-8-2017 14:00,79.0,2.388810037803694
14-8-2017 15:00,79.0,3.0631582177334593
14-8-2017 16:00,79.0,2.9768522212476967
14-8-2017 17:00,79.0,2.809958041799618
14-8-2017 18:00,79.0,3.347426719041451
14-8-2017 19:00,79.0,3.0617904598934587
14-8-2017 20:00,77.58,0.8703583280765059
14-8-2017 21:00,68.97,-3.0703517927912003
14-8-2017 22:00,70.0,-4.72648187324522
14-8-2017 23:00,70.0,-5.607548273049204
15-8-2017 0:00,70.0,-4.435564052067022
15-8-2017 1:00,70.0,-2.2412834588775183
15-8-2017 2:00,70.0,-2.0212948581019248
15-8-2017 3:00,70.0,-1.653127931135046
15-8-2017 4:00,70.0,-1.3645561696239525
15-8-2017 5:00,70.0,-1.246596246392727
15-8-2017 6:00,70.0,-1.0682379527528383
15-8-2017 7:00,70.0,-0.6996123596680093
15-8-2017 8:00,70.0,0.6141605545471265
15-8-2017 9:00,70.0,1.0769838317460199
15-8-2017 10:00,70.0,0.6662659275023515
15-8-2017 11:00,70.0,0.4943899026936691
15-8-2017 12:00,70.0,0.19267816414507877
15-8-2017 13:00,70.0,0.056481452659539855
15-8-2017 14:00,70.0,0.12401230468728386
15-8-2017 15:00,70.0,0.3674543936592869
15-8-2017 16:00,70.0,-0.09641433504779684
15-8-2017 17:00,70.0,-0.7609787937351626
15-8-2017 18:00,70.0,-0.7579672397194059
15-8-2017 19:00,70.75,-0.68340402536721
15-8-2017 20:00,71.0,-1.6382207202571664
15-8-2017 21:00,71.0,2.5114617885395063
15-8-2017 22:00,71.0,-0.45688813140279194
15-8-2017 23:00,71.0,-1.901780228971063
16-8-2017 0:00,71.0,-1.221681756115359
16-8-2017 1:00,71.0,0.47905709986760314
16-8-2017 2:00,71.0,0.2843907767249618
16-8-2017 3:00,71.0,0.23114706290033382
16-8-2017 4:00,71.0,0.11007773498245399
16-8-2017 5:00,71.0,-0.03715043595693146
16-8-2017 6:00,71.0,-0.1408584060932725
16-8-2017 7:00,71.0,-0.04910569157050304
16-8-2017 8:00,71.0,0.9808510262683825
16-8-2017 9:00,71.0,1.3948372881278601
16-8-2017 10:00,71.0,0.8969700271172627
16-8-2017 11:00,71.0,0.6678848516573339
16-8-2017 12:00,71.0,0.3461892590451754
16-8-2017 13:00,71.0,0.2761484989482028
16-8-2017 14:00,71.0,0.3874215039731439
16-8-2017 15:00,71.0,0.6705193523048649
16-8-2017 16:00,71.0,0.30366734007041885
16-8-2017 17:00,71.0,0.0067351681913123684
16-8-2017 18:00,71.0,0.3217508164837568
16-8-2017 19:00,71.0,0.09123377215621531
16-8-2017 20:00,71.0,-0.7080463950959484
16-8-2017 21:00,71.0,4.405897414385407
16-8-2017 22:00,71.0,2.6160474259619235
16-8-2017 23:00,71.0,2.072193567024428
17-8-2017 0:00,71.0,3.7396004466889536
17-8-2017 1:00,71.0,6.6762104814686865
17-8-2017 2:00,71.0,7.796302150411194
17-8-2017 3:00,71.0,9.051060711798435
17-8-2017 4:00,71.0,10.249727453893186
17-8-2017 5:00,71.0,11.360617725346927
17-8-2017 6:00,71.0,12.49815002799808
17-8-2017 7:00,69.02,11.856312498679706
17-8-2017 8:00,41.62,-13.274264345136736
17-8-2017 9:00,34.9,-18.430265505964634
17-8-2017 10:00,37.15,-15.566446768150634
17-8-2017 11:00,39.58,-12.223905738670275
17-8-2017 12:00,40.0,-10.946749829754495
17-8-2017 13:00,40.0,-10.096812812012857
17-8-2017 14:00,42.58,-6.50797582754074
17-8-2017 15:00,47.0,-0.9114003933992549
17-8-2017 16:00,47.0,-0.32740765174215625
17-8-2017 17:00,46.98,-0.5753850953084765
17-8-2017 18:00,47.0,-0.22704291123481823
17-8-2017 19:00,47.0,-0.31130504690513305
17-8-2017 20:00,47.0,-1.0037135191825044
17-8-2017 21:00,47.0,3.027251641971276
17-8-2017 22:00,47.0,0.36867582140563115
17-8-2017 23:00,47.0,-1.321365562562029
18-8-2017 0:00,47.0,-0.7138760397496569
18-8-2017 1:00,47.0,0.7551831666022082
18-8-2017 2:00,47.0,0.48661082040516135
18-8-2017 3:00,47.0,0.3459496497796053
18-8-2017 4:00,47.0,0.16094114201025178
18-8-2017 5:00,47.0,0.009564945623473875
18-8-2017 6:00,47.0,-0.13204738917151815
18-8-2017 7:00,47.0,-0.06785544651481956
18-8-2017 8:00,47.0,0.9206538638296138
18-8-2017 9:00,47.0,1.337420404621625
18-8-2017 10:00,47.0,0.7656810377739234
18-8-2017 11:00,47.0,0.5226041687082699
18-8-2017 12:00,47.0,0.2613674756656934
18-8-2017 13:00,47.0,0.19907705064755987
18-8-2017 14:00,47.0,0.27327279396852333
18-8-2017 15:00,47.0,0.511120593321408
18-8-2017 16:00,47.0,0.21375286827167628
18-8-2017 17:00,47.0,-0.4209815689192169
18-8-2017 18:00,47.0,-0.5550245710017094
18-8-2017 19:00,47.0,-0.9687435199521488
18-8-2017 20:00,47.0,-2.0299920191921075
18-8-2017 21:00,47.0,2.085682626167568
18-8-2017 22:00,47.0,-0.2739308940067744
18-8-2017 23:00,47.0,-1.942471670471157
19-8-2017 0:00,47.0,-1.2272113719774538
19-8-2017 1:00,47.0,0.30575877289704323
19-8-2017 2:00,47.0,0.17998417851095638
19-8-2017 3:00,47.0,0.1753650428230955
19-8-2017 4:00,47.0,0.13814305214015832
19-8-2017 5:00,47.0,0.11923328282989587
19-8-2017 6:00,47.0,0.0932092055058078
19-8-2017 7:00,47.0,0.2781635150546009
19-8-2017 8:00,47.0,1.3804918744769594
19-8-2017 9:00,47.0,2.1098716366545602
19-8-2017 10:00,47.0,1.81241968491085
19-8-2017 11:00,47.0,1.8735704370648634
19-8-2017 12:00,47.0,1.9537866618296178
19-8-2017 13:00,47.0,2.1931974089305797
19-8-2017 14:00,47.0,2.5466805259792196
19-8-2017 15:00,47.0,3.0597293054223584
19-8-2017 16:00,47.0,3.0949297285446633
19-8-2017 17:00,47.0,2.6430114428761726
19-8-2017 18:00,47.0,2.636156399784518
19-8-2017 19:00,47.0,2.4825537827009256
19-8-2017 20:00,47.0,1.6420384016453653
19-8-2017 21:00,26.63,-14.520226221106501
19-8-2017 22:00,14.88,-28.323526193206973
19-8-2017 23:00,43.87,-0.9732151144855123
20-8-2017 0:00,43.08,-0.932832792627913
20-8-2017 1:00,43.87,1.3022877198438323
20-8-2017 2:00,43.87,1.1675503063433368
20-8-2017 3:00,46.22,3.497212634667811
20-8-2017 4:00,42.3,-0.4639834098541016
20-8-2017 5:00,44.65,1.5108538655433534
20-8-2017 6:00,45.43,1.8916986633213497
20-8-2017 7:00,43.08,-0.6413040426065635
20-8-2017 8:00,43.87,0.8761239835248986
20-8-2017 9:00,44.65,1.7303488009203107
20-8-2017 10:00,41.52,-2.3905839018871973
20-8-2017 11:00,43.87,-0.6429736946812952
20-8-2017 12:00,47.0,1.940927281723006
20-8-2017 13:00,47.0,1.6952824147249714
20-8-2017 14:00,47.0,1.541296119283217
20-8-2017 15:00,47.0,1.5427890925985324
20-8-2017 16:00,47.0,1.1238008776747819
20-8-2017 17:00,47.0,0.35448063593995016
20-8-2017 18:00,47.0,-0.02540455574960987
20-8-2017 19:00,47.0,-0.41910894855509184
20-8-2017 20:00,47.0,-1.5391093190150045
20-8-2017 21:00,47.0,2.459553345143526
20-8-2017 22:00,47.0,0.4114334761388605
20-8-2017 23:00,47.0,-1.500537034931888
21-8-2017 0:00,47.0,-0.8561661346884719
21-8-2017 1:00,47.0,0.6493585910264628
21-8-2017 2:00,47.0,0.6539122040574838
21-8-2017 3:00,46.22,-0.01389015795979276
21-8-2017 4:00,47.0,0.8691935893252705
21-8-2017 5:00,47.0,0.9700006096714091
21-8-2017 6:00,47.0,1.029936982792485
21-8-2017 7:00,47.0,1.3111999616288657
21-8-2017 8:00,46.88,2.375950354710419
21-8-2017 9:00,47.0,3.199199227160932
21-8-2017 10:00,47.0,2.7989647731269116
21-8-2017 11:00,46.98,2.797213435221991
21-8-2017 12:00,47.0,2.9289781631031317
21-8-2017 13:00,48.9,5.082738689338683
21-8-2017 14:00,38.68,-4.8142560112608805
21-8-2017 15:00,39.0,-4.019857836740812
21-8-2017 16:00,39.92,-2.9885732773591016
21-8-2017 17:00,40.97,-2.3233219025511573
21-8-2017 18:00,40.32,-3.0242636702295016
21-8-2017 19:00,41.0,-2.2760957424133395
21-8-2017 20:00,41.0,-2.9736070059340634
21-8-2017 21:00,41.0,1.2549809743909748
21-8-2017 22:00,41.0,-0.3489619812622635
21-8-2017 23:00,41.0,-2.0942172718695957
22-8-2017 0:00,41.0,-1.196860982984731
22-8-2017 1:00,41.0,0.19866080679643972
22-8-2017 2:00,41.0,0.17209829718203906
22-8-2017 3:00,41.0,0.24642409564607703
22-8-2017 4:00,41.0,0.32337804477692345
22-8-2017 5:00,41.0,0.17067372765059474
22-8-2017 6:00,41.0,-0.03977940630641541
22-8-2017 7:00,41.0,-0.02373277085327885
22-8-2017 8:00,41.0,0.8888579610308511
22-8-2017 9:00,41.05,1.3514314318546354
22-8-2017 10:00,41.0,0.5721933242800574
22-8-2017 11:00,41.02,0.31137853895025813
22-8-2017 12:00,41.12,0.26130511599416906
22-8-2017 13:00,41.05,0.16612863024909075
22-8-2017 14:00,40.25,-0.6122168807225137
22-8-2017 15:00,40.32,-0.37325591021190974
22-8-2017 16:00,41.08,0.24996171990254368
22-8-2017 17:00,41.02,-0.46915133894358974
22-8-2017 18:00,41.0,-0.8700857328076026
22-8-2017 19:00,40.37,-1.6289769737703708
22-8-2017 20:00,41.17,-1.762930619752467
22-8-2017 21:00,41.05,2.1418550779782137
22-8-2017 22:00,41.25,0.7483696416317045
22-8-2017 23:00,41.33,-1.1838898225569352
23-8-2017 0:00,41.1,-0.702616828987594
23-8-2017 1:00,41.17,0.7192096819484846
23-8-2017 2:00,41.22,0.7735008843393629
23-8-2017 3:00,41.15,0.8034270673077017
23-8-2017 4:00,41.05,0.817205890917144
23-8-2017 5:00,40.98,0.7610742398813741
23-8-2017 6:00,40.37,0.09046183245612127
23-8-2017 7:00,41.03,0.9216075898450384
23-8-2017 8:00,41.1,2.06005481081327
23-8-2017 9:00,40.32,1.8999273618007066
23-8-2017 10:00,41.4,2.4041224214075996
23-8-2017 11:00,41.05,1.9766747535212446
23-8-2017 12:00,40.97,2.0051341056276897
23-8-2017 13:00,39.33,0.573376751141339
23-8-2017 14:00,36.52,-2.011139321921
23-8-2017 15:00,36.42,-1.7437686609642213
23-8-2017 16:00,36.03,-2.005667983249161
23-8-2017 17:00,36.58,-1.915773109169315
23-8-2017 18:00,36.8,-1.9443920536015042
23-8-2017 19:00,36.87,-1.7604762132205138
23-8-2017 20:00,36.78,-2.5675114874992175
23-8-2017 21:00,36.78,1.5614037922220376
23-8-2017 22:00,36.77,0.27372232213115666
23-8-2017 23:00,36.85,-1.632650779491378
24-8-2017 0:00,36.48,-1.1672151596527982
24-8-2017 1:00,35.87,-0.4510332786159026
24-8-2017 2:00,36.4,0.13216228472615654
24-8-2017 3:00,36.38,0.2557395011447028
24-8-2017 4:00,36.55,0.5943749713685875
24-8-2017 5:00,36.87,0.8342793981675882
24-8-2017 6:00,36.5,0.292971129018305
24-8-2017 7:00,36.95,0.808670855611858
24-8-2017 8:00,36.35,1.172429412933063
24-8-2017 9:00,36.92,2.1481036819824837
24-8-2017 10:00,37.0,1.3842308773755647
24-8-2017 11:00,37.0,1.0886492955373868
24-8-2017 12:00,37.0,1.0341403913110696
24-8-2017 13:00,37.0,0.9830586806952795
24-8-2017 14:00,37.0,0.9196285581540451
24-8-2017 15:00,31.45,-4.557334577831153
24-8-2017 16:00,19.73,-16.37709082822428
24-8-2017 17:00,37.0,0.17293958786009966
24-8-2017 18:00,37.0,-0.402236298061716
24-8-2017 19:00,37.92,0.41561984100671623
24-8-2017 20:00,38.0,-0.46336384422491506
24-8-2017 21:00,38.0,3.39032387090878
24-8-2017 22:00,38.0,2.0490949872105375
24-8-2017 23:00,38.0,-0.2907431317088722
25-8-2017 0:00,38.0,0.28950373453596967
25-8-2017 1:00,38.0,1.249338321126828
25-8-2017 2:00,38.0,1.0107355808732095
25-8-2017 3:00,38.0,0.8572611661951086
25-8-2017 4:00,38.0,0.7400588364995073
25-8-2017 5:00,38.0,0.43102097306416454
25-8-2017 6:00,38.0,0.014038474121718991
25-8-2017 7:00,38.0,-0.16068238877470975
25-8-2017 8:00,38.0,0.5634129462048563
25-8-2017 9:00,38.0,0.9081202074065899
25-8-2017 10:00,38.0,-0.05058857549310147
25-8-2017 11:00,38.0,-0.41107218536208023
25-8-2017 12:00,38.0,-0.4753174600001344
25-8-2017 13:00,38.37,-0.1309129582295725
25-8-2017 14:00,39.0,0.4315534382660715
25-8-2017 15:00,39.0,0.4950670738546563
25-8-2017 16:00,39.0,0.45226446386912045
25-8-2017 17:00,39.0,-0.23560640485562345
25-8-2017 18:00,39.0,-0.8453760590807349
25-8-2017 19:00,39.0,-0.8716164481385178
25-8-2017 20:00,39.0,-1.7805853711367376
25-8-2017 21:00,39.0,2.1376767115775053
25-8-2017 22:00,39.0,1.0727023464400247
25-8-2017 23:00,39.0,-1.2807988576081542
26-8-2017 0:00,39.0,-0.6159388127889471
26-8-2017 1:00,39.0,0.4421110686404859
26-8-2017 2:00,39.0,0.37627261407581614
26-8-2017 3:00,39.0,0.3903091575856763
26-8-2017 4:00,39.0,0.45183161725520193
26-8-2017 5:00,39.0,0.3607135426599797
26-8-2017 6:00,39.0,0.1449188929988665
26-8-2017 7:00,39.0,0.1766395196869297
26-8-2017 8:00,39.0,1.107933711399312
26-8-2017 9:00,39.0,1.6538939123007665
26-8-2017 10:00,39.0,0.8425690986556944
26-8-2017 11:00,39.0,0.6794034083033225
26-8-2017 12:00,39.0,0.8676417108009389
26-8-2017 13:00,39.0,0.9986906740872996
26-8-2017 14:00,39.0,1.0582118387492727
26-8-2017 15:00,39.0,1.2433604950411166
26-8-2017 16:00,39.0,1.3886697745926213
26-8-2017 17:00,39.0,0.7730299354153587
26-8-2017 18:00,39.0,0.16879882724358453
26-8-2017 19:00,39.0,0.25859422441619273
26-8-2017 20:00,39.0,-0.5602276219919986
26-8-2017 21:00,10.4,-25.23331399578346
26-8-2017 22:00,38.35,1.8720433335535773
26-8-2017 23:00,39.0,0.09895622029037554
27-8-2017 0:00,39.0,0.7925066195976953
27-8-2017 1:00,39.0,1.7449557861787213
27-8-2017 2:00,39.0,1.6480656076160045
27-8-2017 3:00,39.0,1.625797099626844
27-8-2017 4:00,39.0,1.6622283389745007
27-8-2017 5:00,39.0,1.3525485101664856
27-8-2017 6:00,39.0,0.9014601667337843
27-8-2017 7:00,39.0,0.703140739953426
27-8-2017 8:00,39.0,1.4051522453457252
27-8-2017 9:00,39.0,1.6607683453560327
27-8-2017 10:00,39.0,0.5052304603747118
27-8-2017 11:00,39.0,0.04778564894806436
27-8-2017 12:00,39.0,-0.0030895120095166817
27-8-2017 13:00,39.0,0.021414064604925898
27-8-2017 14:00,39.0,-0.05519985075446954
27-8-2017 15:00,39.0,-0.011606021947073941
27-8-2017 16:00,39.0,0.058625298953764116
27-8-2017 17:00,39.0,-0.5658209604791935
27-8-2017 18:00,39.0,-1.245550972400828
27-8-2017 19:00,39.0,-1.120757238801012
27-8-2017 20:00,39.0,-1.9304694584223512
27-8-2017 21:00,39.0,2.0229758979301877
27-8-2017 22:00,39.0,1.416545108391439
27-8-2017 23:00,39.0,-1.0582477274370774
28-8-2017 0:00,39.0,-0.3181267869919324
28-8-2017 1:00,39.0,0.6702075485989099
28-8-2017 2:00,39.0,0.6837515298963766
28-8-2017 3:00,39.0,0.7666638542664188
28-8-2017 4:00,39.0,0.919489757150437
28-8-2017 5:00,39.0,0.7589354075558461
28-8-2017 6:00,39.0,0.44024060377775953
28-8-2017 7:00,39.0,0.37956835695519686
28-8-2017 8:00,39.0,1.219984409453609
28-8-2017 9:00,39.0,1.611031736475752
28-8-2017 10:00,38.35,-0.11294389193884058
28-8-2017 11:00,31.2,-7.588892496536772
28-8-2017 12:00,39.0,0.3468942069534364
28-8-2017 13:00,39.0,0.40695554673273193
28-8-2017 14:00,39.0,0.33630970118873194
28-8-2017 15:00,37.05,-1.569548147651581
28-8-2017 16:00,39.0,0.5177187335485769
28-8-2017 17:00,39.0,-0.10227960905842082
28-8-2017 18:00,39.0,-0.8442541876482608
28-8-2017 19:00,39.0,-0.6712084949784582
28-8-2017 20:00,39.0,-1.4585574651701805
28-8-2017 21:00,39.0,2.4579329941186785
28-8-2017 22:00,39.0,2.0261426705464842
28-8-2017 23:00,39.0,-0.5639273030049949
29-8-2017 0:00,39.0,0.15919276342032163
29-8-2017 1:00,39.0,1.0526367360491236
29-8-2017 2:00,39.0,1.0458393452349384
29-8-2017 3:00,39.0,1.103156969992341
29-8-2017 4:00,39.0,1.2413946511379592
29-8-2017 5:00,39.0,1.058584508325005
29-8-2017 6:00,39.0,0.7009019717697598
29-8-2017 7:00,39.0,0.6063086922301082
29-8-2017 8:00,39.0,1.41356107915977
29-8-2017 9:00,27.95,-9.2564980602355
29-8-2017 10:00,37.05,-1.2956227787292818
29-8-2017 11:00,37.7,-0.98678652314441
29-8-2017 12:00,39.0,0.48895069814765435
29-8-2017 13:00,39.0,0.5434689092380012
29-8-2017 14:00,39.0,0.4376902416555737
29-8-2017 15:00,39.0,0.4412798233137707
29-8-2017 16:00,39.0,0.6045869606479073
29-8-2017 17:00,39.0,-0.08251819595339782
29-8-2017 18:00,39.0,-0.9582920720317105
29-8-2017 19:00,39.0,-0.8083422520753416
29-8-2017 20:00,39.0,-1.64467580462086
29-8-2017 21:00,39.0,2.160825755206133
29-8-2017 22:00,39.0,1.83002260897959
29-8-2017 23:00,39.0,-0.9489777909157695
30-8-2017 0:00,39.0,-0.5034176660151743
30-8-2017 1:00,39.0,0.5508377824150443
30-8-2017 2:00,39.0,0.4980846775080181
30-8-2017 3:00,39.0,0.641072743684056
30-8-2017 4:00,39.0,0.7743334917133922
30-8-2017 5:00,39.0,0.5898671893707714
30-8-2017 6:00,39.0,0.17259302355260076
30-8-2017 7:00,39.0,-0.029445707190888015
30-8-2017 8:00,39.0,0.7981644584749077
30-8-2017 9:00,39.0,1.1497410333357863
30-8-2017 10:00,39.0,-0.3648884661048015
30-8-2017 11:00,39.0,-0.7593867872448925
30-8-2017 12:00,39.0,-0.2317871681830681
30-8-2017 13:00,39.0,-0.048692557654099744
30-8-2017 14:00,39.0,-0.18250254324832582
30-8-2017 15:00,39.0,-0.19652832637444106
30-8-2017 16:00,39.0,0.03765237378936348
30-8-2017 17:00,39.0,-0.428051249245776
30-8-2017 18:00,39.0,-1.2362216283853797
30-8-2017 19:00,39.0,-1.40629768498588
30-8-2017 20:00,39.0,-2.420547179292967
30-8-2017 21:00,39.0,1.8479176804101698
30-8-2017 22:00,39.0,1.7055168858243093
30-8-2017 23:00,39.0,-1.1947651730752682
31-8-2017 0:00,39.0,-0.651239542792446
31-8-2017 1:00,39.0,0.6817792678313523
31-8-2017 2:00,39.0,0.7010223352236409
31-8-2017 3:00,39.0,1.0476327292104486
31-8-2017 4:00,39.0,1.2932772736191822
31-8-2017 5:00,39.0,1.1714098861759297
31-8-2017 6:00,39.0,0.758799165523854
31-8-2017 7:00,39.0,0.513219789609856
31-8-2017 8:00,39.0,1.425092540045135
31-8-2017 9:00,39.0,1.6587122822233198
31-8-2017 10:00,39.0,-0.32121437948096343
31-8-2017 11:00,39.0,-0.8588396586628875
31-8-2017 12:00,39.0,-0.0691700231482244
31-8-2017 13:00,39.0,0.013507347145250037
31-8-2017 14:00,39.0,-0.3773275961349043
31-8-2017 15:00,35.2,-4.4379623837194515
31-8-2017 16:00,32.25,-7.311775434485192
31-8-2017 17:00,33.0,-7.1119108222533
31-8-2017 18:00,33.0,-8.158311002753326
31-8-2017 19:00,39.7,-2.2540407640507425
31-8-2017 20:00,44.0,0.5481659717405591
31-8-2017 21:00,44.0,4.919932425462854
31-8-2017 22:00,44.0,4.606483414538026
31-8-2017 23:00,44.0,1.2254691286545736
1-9-2017 0:00,44.0,1.50750969633998
1-9-2017 1:00,44.0,2.660755182785067
1-9-2017 2:00,44.0,2.2934577361043793
1-9-2017 3:00,44.0,2.38515377152968
1-9-2017 4:00,44.0,2.2848373277423093
1-9-2017 5:00,44.0,1.893664681407202
1-9-2017 6:00,44.0,1.1538132321299983
1-9-2017 7:00,44.0,0.5328707013305518
1-9-2017 8:00,44.0,1.1971835268203819
1-9-2017 9:00,44.0,1.4354259888762684
1-9-2017 10:00,43.27,-1.6172051919506387
1-9-2017 11:00,44.0,-1.4453647860333376
1-9-2017 12:00,44.0,-0.2710324909247319
1-9-2017 13:00,44.0,0.1182479947300692
1-9-2017 14:00,44.0,-0.12259155063921412
1-9-2017 15:00,44.0,-0.22281498708537129
1-9-2017 16:00,44.0,0.10239856681616288
1-9-2017 17:00,44.0,-0.04660072304809404
1-9-2017 18:00,44.0,-0.8456628422717429
1-9-2017 19:00,44.0,-1.7814784456292756
1-9-2017 20:00,44.0,-3.277247617102759
1-9-2017 21:00,44.0,1.7604537428381448
1-9-2017 22:00,44.0,1.838589827773788
1-9-2017 23:00,44.0,-1.4605233728941016
2-9-2017 0:00,44.0,-0.8773345556066587
2-9-2017 1:00,44.0,0.7713624256472968
2-9-2017 2:00,44.0,0.6927492838812128
2-9-2017 3:00,44.0,1.2047557797326007
2-9-2017 4:00,44.0,1.4337031667367057
2-9-2017 5:00,44.0,1.3808318213489699
2-9-2017 6:00,44.0,0.9213462032858644
2-9-2017 7:00,44.0,0.532647077440231
2-9-2017 8:00,44.0,1.5570065378238453
2-9-2017 9:00,44.0,2.111698341270369
2-9-2017 10:00,44.0,-0.24181073716622592
2-9-2017 11:00,44.0,-0.508678024636751
2-9-2017 12:00,44.0,1.3621435515787326
2-9-2017 13:00,44.0,2.0811731928480413
2-9-2017 14:00,44.0,2.013475085642831
2-9-2017 15:00,44.0,2.0968090405882407
2-9-2017 16:00,44.0,2.6941952394102415
2-9-2017 17:00,44.0,2.7759097285374352
2-9-2017 18:00,44.0,2.053763351677773
2-9-2017 19:00,44.0,0.8074395873477371
2-9-2017 20:00,44.0,-0.8567278103029352
2-9-2017 21:00,29.33,-10.098073309616062
2-9-2017 22:00,0.0,-39.23333389429256
2-9-2017 23:00,42.5,-0.22552777521751466
3-9-2017 0:00,44.0,1.883827526199326
3-9-2017 1:00,44.0,3.6434790115470648
3-9-2017 2:00,44.0,3.469053183980506
3-9-2017 3:00,44.0,4.0168731495428815
3-9-2017 4:00,44.0,4.190587376623384
3-9-2017 5:00,44.0,3.777457314498264
3-9-2017 6:00,44.0,2.899777509964501
3-9-2017 7:00,44.0,2.044761771387904
3-9-2017 8:00,44.0,2.730607848980547
3-9-2017 9:00,44.0,2.6499404803192093
3-9-2017 10:00,44.0,-0.6862550092255688
3-9-2017 11:00,44.0,-1.6136385035824077
3-9-2017 12:00,44.0,0.001863840241433934
3-9-2017 13:00,44.0,0.5037114783667533
3-9-2017 14:00,44.0,0.062223650567126754
3-9-2017 15:00,44.0,-0.2178161618543868
3-9-2017 16:00,44.0,0.10481152312956254
3-9-2017 17:00,44.0,0.27813253380799097
3-9-2017 18:00,44.0,-0.5062053581279002
3-9-2017 19:00,44.0,-2.2021445408706484
3-9-2017 20:00,44.0,-4.173817422138725
3-9-2017 21:00,44.0,1.6463155601465829
3-9-2017 22:00,44.0,1.9581836467103955
3-9-2017 23:00,44.0,-1.7265655736191547
4-9-2017 0:00,44.0,-1.0905184472204468
4-9-2017 1:00,44.0,0.9441330572930653
4-9-2017 2:00,44.0,0.8379400589980222
4-9-2017 3:00,44.0,1.5856190093433682
4-9-2017 4:00,44.0,1.868145591572251
4-9-2017 5:00,44.0,1.7002121928387766
4-9-2017 6:00,44.0,1.009793581963386
4-9-2017 7:00,44.0,0.293916610784855
4-9-2017 8:00,44.0,1.2467046857155495
4-9-2017 9:00,44.0,1.429806854958052
4-9-2017 10:00,44.0,-1.9899463356832001
4-9-2017 11:00,44.0,-2.678717326914665
4-9-2017 12:00,44.0,-0.41940550547074196
4-9-2017 13:00,44.0,0.2821584563802162
4-9-2017 14:00,44.0,-0.11622076514420598
4-9-2017 15:00,44.0,-0.3427360180630217
4-9-2017 16:00,44.0,0.1220398472668407
4-9-2017 17:00,44.0,0.47699415861085015
4-9-2017 18:00,44.0,-0.27950846928692386
4-9-2017 19:00,44.0,-2.3350216355800413
4-9-2017 20:00,44.0,-4.524158565603187
4-9-2017 21:00,44.0,1.7277921531048932
4-9-2017 22:00,44.0,2.1971210421685043
4-9-2017 23:00,44.0,-1.6398513863061481
5-9-2017 0:00,44.0,-0.9367803036660902
5-9-2017 1:00,44.0,1.1433084693260653
5-9-2017 2:00,44.0,0.8757855496154008
5-9-2017 3:00,44.0,1.593760734056616
5-9-2017 4:00,44.0,1.755518504808748
5-9-2017 5:00,44.0,1.2900736252078175
5-9-2017 6:00,44.0,0.2442080637317119
5-9-2017 7:00,44.0,-0.875225664580249
5-9-2017 8:00,44.0,-0.19819111684300594
5-9-2017 9:00,39.6,-4.356443278553961
5-9-2017 10:00,38.85,-8.814829986784837
5-9-2017 11:00,43.97,-4.350064291384051
5-9-2017 12:00,44.02,-1.6020188088131917
5-9-2017 13:00,43.93,-0.3133022071389462
5-9-2017 14:00,45.17,1.04886349370949
5-9-2017 15:00,45.22,1.4033091163910143
5-9-2017 16:00,50.35,7.617750870858117
5-9-2017 17:00,70.05,28.574600295328047
5-9-2017 18:00,85.75,44.26619474392874
5-9-2017 19:00,41.47,-1.708597345073784
5-9-2017 20:00,41.47,-3.3949032630110167
5-9-2017 21:00,41.03,3.6005717122580805
5-9-2017 22:00,32.18,-3.870897760739453
5-9-2017 23:00,24.35,-14.938352561920158
6-9-2017 0:00,26.45,-11.429015991073278
6-9-2017 1:00,26.85,-7.537192668084717
6-9-2017 2:00,26.92,-6.719978001758648
6-9-2017 3:00,27.02,-4.587762062342186
6-9-2017 4:00,26.82,-3.5545893317136645
6-9-2017 5:00,26.72,-3.0711344078773237
6-9-2017 6:00,27.02,-2.86899275697078
6-9-2017 7:00,26.15,-4.010863954634541
6-9-2017 8:00,26.4,-2.0957645358696695
6-9-2017 9:00,27.67,-0.626694743154502
6-9-2017 10:00,29.5,-2.8847172023884866
6-9-2017 11:00,30.0,-3.1208867353180665
6-9-2017 12:00,30.0,-0.04798065638446403
6-9-2017 13:00,29.8,0.45064113728438215
6-9-2017 14:00,31.0,0.9360822460097147
6-9-2017 15:00,31.0,0.4069627928654995
6-9-2017 16:00,30.38,0.06913572965843073
6-9-2017 17:00,32.0,2.1750859002774767
6-9-2017 18:00,32.0,1.2951953506807286
6-9-2017 19:00,32.0,-1.890499942993312
6-9-2017 20:00,32.0,-4.821827560128376
6-9-2017 21:00,32.0,2.369210065885568
6-9-2017 22:00,32.0,2.7448058273727334
6-9-2017 23:00,32.0,-1.796603888384837
7-9-2017 0:00,32.0,-1.3594549539821266
7-9-2017 1:00,32.0,1.4768887284702572
7-9-2017 2:00,32.0,1.1716267903004898
7-9-2017 3:00,32.0,2.450869294159652
7-9-2017 4:00,32.0,2.6882565410081867
7-9-2017 5:00,32.0,2.5827592239374653
7-9-2017 6:00,32.0,1.6950560428823565
7-9-2017 7:00,32.0,0.532919318636722
7-9-2017 8:00,32.0,1.448255551199125
7-9-2017 9:00,32.0,1.514395465369347
7-9-2017 10:00,32.0,-3.043468711344225
7-9-2017 11:00,32.0,-3.9507794390806446
7-9-2017 12:00,32.0,-0.5932187302607943
7-9-2017 13:00,32.0,0.4407748280795438
7-9-2017 14:00,32.0,-0.0950420826413314
7-9-2017 15:00,32.0,-0.44226003893441046
7-9-2017 16:00,32.0,0.05320878018356012
7-9-2017 17:00,32.0,0.938883411692558
7-9-2017 18:00,32.0,0.35813157863921674
7-9-2017 19:00,32.0,-3.1477806450888686
7-9-2017 20:00,32.0,-6.153443686804305
7-9-2017 21:00,32.0,1.8314144993495844
7-9-2017 22:00,32.0,2.242353472887679
7-9-2017 23:00,32.0,-2.564733179880534
8-9-2017 0:00,32.0,-2.0614939043557747
8-9-2017 1:00,32.0,1.0049544876703038
8-9-2017 2:00,32.0,0.532800295114555
8-9-2017 3:00,32.0,1.9446537135262645
8-9-2017 4:00,32.0,2.0718237452975643
8-9-2017 5:00,32.0,1.7952542771233837
8-9-2017 6:00,32.0,0.6355863539101918
8-9-2017 7:00,32.0,-0.8989414908070685
8-9-2017 8:00,32.0,-0.21549403833686398
8-9-2017 9:00,32.0,-0.1230498332495884
8-9-2017 10:00,32.02,-4.971520465045963
8-9-2017 11:00,33.2,-4.710737125192452
8-9-2017 12:00,36.63,2.5207134759104335
8-9-2017 13:00,37.0,4.802845819460899
8-9-2017 14:00,37.0,4.988537909832466
8-9-2017 15:00,37.0,5.36598847092916
8-9-2017 16:00,37.0,6.617520192910813
8-9-2017 17:00,37.0,8.832214197429245
8-9-2017 18:00,37.0,9.479895993038795
8-9-2017 19:00,37.67,7.253061751376151
8-9-2017 20:00,38.0,5.432358197199832
8-9-2017 21:00,38.0,15.285457193567893
8-9-2017 22:00,38.0,16.80615962923113
8-9-2017 23:00,38.0,12.807816289526514
9-9-2017 0:00,8.43,-15.118433843752456
9-9-2017 1:00,0.0,-18.985305452352943
9-9-2017 2:00,0.0,-18.357776609494923
9-9-2017 3:00,0.0,-15.54673698673092
9-9-2017 4:00,0.0,-14.263208880237103
9-9-2017 5:00,0.0,-13.474969501919919
9-9-2017 6:00,9.62,-4.050721169696349
9-9-2017 7:00,14.0,-0.3417591372903974
9-9-2017 8:00,14.0,1.3456805326824508
9-9-2017 9:00,14.83,2.411465146918788
9-9-2017 10:00,15.03,-2.450575821728389
9-9-2017 11:00,16.0,-2.2946622960529304
9-9-2017 12:00,16.0,2.0677143155650004
9-9-2017 13:00,16.0,2.9938828184700004
9-9-2017 14:00,16.0,2.0369812840783865
9-9-2017 15:00,16.0,1.2749977367092615
9-9-2017 16:00,16.0,1.4184897356989836
9-9-2017 17:00,16.0,2.376988411537143
9-9-2017 18:00,16.12,1.7878891341198688
9-9-2017 19:00,17.0,-2.2050818271670494
9-9-2017 20:00,17.0,-6.086040595493966
9-9-2017 21:00,9.92,-3.801636810983787
9-9-2017 22:00,13.88,0.4318930647325452
9-9-2017 23:00,17.0,-1.9946429839805297
10-9-2017 0:00,17.0,-1.5673185481352814
10-9-2017 1:00,17.0,2.224933227714004
10-9-2017 2:00,17.0,1.6845884910621294
10-9-2017 3:00,17.0,3.62725770325477
10-9-2017 4:00,17.0,3.799587269547441
10-9-2017 5:00,17.0,3.710575490085535
10-9-2017 6:00,17.0,2.536680073475406
10-9-2017 7:00,17.0,0.7870719787341116
10-9-2017 8:00,17.0,1.5364438619391372
10-9-2017 9:00,17.0,1.380066498242968
10-9-2017 10:00,17.0,-4.411047194336572
10-9-2017 11:00,17.0,-5.655505869920734
10-9-2017 12:00,17.82,-0.4477056348693189
10-9-2017 13:00,18.0,1.0509814712709478
10-9-2017 14:00,18.0,0.32996875599690867
10-9-2017 15:00,18.0,-0.192966455957297
10-9-2017 16:00,18.0,0.22096826392123603
10-9-2017 17:00,18.0,1.662232925355383
10-9-2017 18:00,18.0,1.3353138891875531
10-9-2017 19:00,18.0,-3.7748324774473687
10-9-2017 20:00,18.0,-7.647085145648621
10-9-2017 21:00,18.0,2.523107344462378
10-9-2017 22:00,18.0,2.843948577690508
10-9-2017 23:00,18.0,-2.9562962625723337
11-9-2017 0:00,18.0,-2.4509133401441634
11-9-2017 1:00,18.0,1.7486618692690534
11-9-2017 2:00,18.0,1.2186436022214373
11-9-2017 3:00,18.0,3.4711424529568653
11-9-2017 4:00,18.0,3.7104735281625523
11-9-2017 5:00,18.0,3.7187654691520855
11-9-2017 6:00,18.0,2.5412811819387926
11-9-2017 7:00,18.0,0.6876578382807885
11-9-2017 8:00,18.0,1.473516812948528
11-9-2017 9:00,18.0,1.1910999724129248
11-9-2017 10:00,18.0,-5.062963943005904
11-9-2017 11:00,18.0,-6.471672318756616
11-9-2017 12:00,18.0,-1.7923259591786511
11-9-2017 13:00,18.0,-0.638386219588746
11-9-2017 14:00,18.0,-1.6807760855308516
11-9-2017 15:00,18.0,-2.5219289318557756
11-9-2017 16:00,18.0,-2.3948157512472044
11-9-2017 17:00,18.0,-1.1305281063491748
11-9-2017 18:00,18.0,-1.7350099033996678
11-9-2017 19:00,19.5,-6.242069243488704
11-9-2017 20:00,21.0,-9.265353379670387
11-9-2017 21:00,21.0,1.213425301891668
11-9-2017 22:00,21.65,1.73438381204015
11-9-2017 23:00,26.75,0.28323609963610963
12-9-2017 0:00,27.0,0.6194834280557657
12-9-2017 1:00,27.0,4.73288414181831
12-9-2017 2:00,27.0,3.719694415160351
12-9-2017 3:00,27.0,5.788524975223968
12-9-2017 4:00,27.0,5.6013746134917035
12-9-2017 5:00,27.0,5.342087025757646
12-9-2017 6:00,27.0,3.796130618766142
12-9-2017 7:00,27.0,1.473627207394614
12-9-2017 8:00,27.0,1.9311084547282569
12-9-2017 9:00,27.0,1.5294389112905016
12-9-2017 10:00,27.0,-5.1807675271397144
12-9-2017 11:00,27.0,-6.746917903229061
12-9-2017 12:00,27.38,-1.3892177192966457
12-9-2017 13:00,28.0,0.5579126154586547
12-9-2017 14:00,28.0,-0.46791643943575423
12-9-2017 15:00,28.0,-1.289348958415637
12-9-2017 16:00,28.0,-1.1111161761554769
12-9-2017 17:00,28.0,0.41955951216388243
12-9-2017 18:00,28.0,-0.01911998581183383
12-9-2017 19:00,28.78,-5.69974276669091
12-9-2017 20:00,29.0,-10.210708838188964
12-9-2017 21:00,29.0,1.0630120980608595
12-9-2017 22:00,29.0,0.9704149376760896
12-9-2017 23:00,29.0,-5.845308594322756
13-9-2017 0:00,33.57,-1.138803516210288
13-9-2017 1:00,35.0,4.842927974843036
13-9-2017 2:00,35.0,3.8494433519754594
13-9-2017 3:00,35.0,6.258272508007039
13-9-2017 4:00,35.0,6.147784104006
13-9-2017 5:00,35.0,6.006972800678859
13-9-2017 6:00,35.0,4.474023851758716
13-9-2017 7:00,35.0,2.0602055887694988
13-9-2017 8:00,35.0,2.562957386143566
13-9-2017 9:00,35.0,2.2197268754669253
13-9-2017 10:00,35.0,-4.752696645462173
13-9-2017 11:00,35.0,-6.294566013566797
13-9-2017 12:00,35.0,-0.8416117411039679
13-9-2017 13:00,35.0,0.8373008243272295
13-9-2017 14:00,35.0,0.009120902413421561
13-9-2017 15:00,35.0,-0.6142152905076799
13-9-2017 16:00,35.0,-0.21139988033883128
13-9-2017 17:00,35.0,1.87520990067123
13-9-2017 18:00,35.0,1.888559260403163
13-9-2017 19:00,35.0,-4.751039553537435
13-9-2017 20:00,35.0,-9.403401660249315
13-9-2017 21:00,35.0,2.998254221482483
13-9-2017 22:00,35.0,3.1931306053636703
13-9-2017 23:00,35.0,-3.6302196502735065
14-9-2017 0:00,35.0,-3.148458382341264
14-9-2017 1:00,35.0,2.0856529002830584
14-9-2017 2:00,35.0,1.3559223954860755
14-9-2017 3:00,35.0,4.348799161765854
14-9-2017 4:00,35.0,4.559064854702797
14-9-2017 5:00,35.0,4.887530571120436
14-9-2017 6:00,35.0,3.7183898156095125
14-9-2017 7:00,35.0,1.5640858425219335
14-9-2017 8:00,35.0,2.4629373314557554
14-9-2017 9:00,35.0,2.7009859657445006
14-9-2017 10:00,35.0,-4.010793095348628
14-9-2017 11:00,35.0,-5.005519913133664
14-9-2017 12:00,35.0,1.4455499901944293
14-9-2017 13:00,35.0,3.949801296035538
14-9-2017 14:00,35.0,3.7928270168363554
14-9-2017 15:00,35.0,3.8411436597080595
14-9-2017 16:00,35.0,4.942104805979106
14-9-2017 17:00,35.0,7.957490761261507
14-9-2017 18:00,35.0,8.795711060282741
14-9-2017 19:00,34.07,1.4199736356208845
14-9-2017 20:00,22.37,-14.480947083964548
14-9-2017 21:00,15.8,-7.194399512174719
14-9-2017 22:00,17.93,-4.255104983025202
14-9-2017 23:00,19.78,-8.909137361298338
15-9-2017 0:00,20.0,-7.535175302543941
15-9-2017 1:00,20.0,-1.427721978829986
15-9-2017 2:00,20.0,-1.7027361160377374
15-9-2017 3:00,20.0,2.0651505100088627
15-9-2017 4:00,20.0,2.7871184786209717
15-9-2017 5:00,20.0,3.215333828375943
15-9-2017 6:00,20.0,2.040473879866788
15-9-2017 7:00,20.0,-0.2238481776282235
15-9-2017 8:00,20.0,0.7015706285562828
15-9-2017 9:00,20.0,0.45210702920018164
15-9-2017 10:00,20.6,-6.467819202787187
15-9-2017 11:00,21.0,-7.5841951009828605
15-9-2017 12:00,21.0,-1.2038011975197094
15-9-2017 13:00,21.0,1.0646021948096198
15-9-2017 14:00,22.73,2.2476469044033642
15-9-2017 15:00,23.0,2.1764297291461787
15-9-2017 16:00,23.0,2.914349957597743
15-9-2017 17:00,23.0,5.906712248869265
15-9-2017 18:00,23.0,6.6180036488965825
15-9-2017 19:00,23.37,-0.21567222476972958
15-9-2017 20:00,24.0,-4.286951395511927
15-9-2017 21:00,24.0,9.943651020689913
15-9-2017 22:00,24.0,10.286526849461755
15-9-2017 23:00,24.0,3.020975502906648
16-9-2017 0:00,24.0,3.766301506837195
16-9-2017 1:00,2.78,-11.460044973810295
16-9-2017 2:00,0.0,-15.047484588879888
16-9-2017 3:00,0.0,-11.491729948517545
16-9-2017 4:00,0.0,-11.245201549681346
16-9-2017 5:00,9.15,-1.8614967320923412
16-9-2017 6:00,10.13,-2.3563360391030166
16-9-2017 7:00,11.0,-4.154936346508759
16-9-2017 8:00,11.97,-2.5272103885768686
16-9-2017 9:00,18.65,3.5906989518874255
16-9-2017 10:00,20.75,-2.4624892775289506
16-9-2017 11:00,22.35,-2.7256290826700074
16-9-2017 12:00,23.0,4.408973994393438
16-9-2017 13:00,23.05,5.942397154463329
16-9-2017 14:00,24.0,5.406328534102336
16-9-2017 15:00,24.0,4.1264452219685985
16-9-2017 16:00,24.05,4.002192213853018
16-9-2017 17:00,23.2,5.355130132560745
16-9-2017 18:00,21.42,3.3930919250412224
16-9-2017 19:00,22.7,-4.054923106182475
16-9-2017 20:00,23.0,-9.722961436634357
16-9-2017 21:00,13.03,-5.186155676193703
16-9-2017 22:00,10.8,-7.637550047972741
16-9-2017 23:00,24.0,-2.562471862983017
17-9-2017 0:00,24.0,-2.3236334140495245
17-9-2017 1:00,24.0,3.8547579863723094
17-9-2017 2:00,24.0,2.813430578871632
17-9-2017 3:00,24.0,6.455590918980487
17-9-2017 4:00,24.0,6.525217433471543
17-9-2017 5:00,24.0,6.688655375730594
17-9-2017 6:00,24.0,5.038080367054409
17-9-2017 7:00,24.0,2.089445466573949
17-9-2017 8:00,24.0,2.60372223308924
17-9-2017 9:00,24.0,2.1092139201643185
17-9-2017 10:00,24.0,-6.2970268998906676
17-9-2017 11:00,24.0,-8.12672120518672
17-9-2017 12:00,24.0,-1.1576995477325944
17-9-2017 13:00,24.0,0.9777801479625019
17-9-2017 14:00,24.0,-0.01036503446858461
17-9-2017 15:00,24.0,-0.7918777155942252
17-9-2017 16:00,24.0,-0.44126719239230994
17-9-2017 17:00,24.0,2.47471433906955
17-9-2017 18:00,24.0,2.901814509321113
17-9-2017 19:00,24.0,-5.848071694142035
17-9-2017 20:00,24.0,-11.580401198985678
17-9-2017 21:00,24.0,3.845466556222121
17-9-2017 22:00,24.0,3.7026606344205355
17-9-2017 23:00,24.0,-4.638772998516583
18-9-2017 0:00,24.0,-4.263563454051813
18-9-2017 1:00,24.0,2.2792144806158277
18-9-2017 2:00,24.0,1.1836479338605592
18-9-2017 3:00,24.0,5.091862626892418
18-9-2017 4:00,24.0,5.164235910214817
18-9-2017 5:00,24.0,5.321100315835437
18-9-2017 6:00,24.0,3.5584829441852577
18-9-2017 7:00,24.0,0.3935067893216022
18-9-2017 8:00,24.0,0.8280277031118146
18-9-2017 9:00,24.0,-0.07449040550413955
18-9-2017 10:00,24.58,-8.629375958499555
18-9-2017 11:00,26.28,-9.201216906252426
18-9-2017 12:00,27.0,-1.503368810709432
18-9-2017 13:00,27.0,0.02536443951516887
18-9-2017 14:00,27.3,-1.4236602860816951
18-9-2017 15:00,29.43,-0.835605317294938
18-9-2017 16:00,29.87,-0.7789321756549157
18-9-2017 17:00,0.55,-27.801684344984373
18-9-2017 18:00,31.35,2.7027768894928172
18-9-2017 19:00,32.97,-5.7807531101657545
18-9-2017 20:00,33.43,-12.14914641335713
18-9-2017 21:00,37.9,7.714697798817454
18-9-2017 22:00,42.0,10.799396519070015
18-9-2017 23:00,42.12,1.4103672602827473
19-9-2017 0:00,42.28,1.1308640923554876
19-9-2017 1:00,40.85,5.7954165981338335
19-9-2017 2:00,43.0,5.982998948988865
19-9-2017 3:00,41.57,7.914656031808619
19-9-2017 4:00,41.57,7.17716241110098
19-9-2017 5:00,40.85,6.088659524996785
19-9-2017 6:00,42.28,5.125206035286219
19-9-2017 7:00,43.0,1.9450955446292753
19-9-2017 8:00,43.0,1.7810675242843317
19-9-2017 9:00,43.0,0.69063037393353
19-9-2017 10:00,41.57,-10.382814040623757
19-9-2017 11:00,43.18,-11.266715759454883
19-9-2017 12:00,44.45,-2.7899553544444586
19-9-2017 13:00,45.0,-0.6414989969182585
19-9-2017 14:00,46.55,-0.9249337129088318
19-9-2017 15:00,49.0,-0.10084154143758894
19-9-2017 16:00,46.55,-2.991636944136566
19-9-2017 17:00,48.18,1.0493062811207707
19-9-2017 18:00,49.0,1.5835576752017175
19-9-2017 19:00,47.37,-10.771192782792205
19-9-2017 20:00,48.18,-17.153226546471224
19-9-2017 21:00,49.0,-0.39863987928499967
19-9-2017 22:00,49.0,-1.713671935836345
19-9-2017 23:00,61.15,0.3324677606681945
20-9-2017 0:00,61.87,0.3473541324703149
20-9-2017 1:00,62.93,6.814885506392734
20-9-2017 2:00,64.0,4.791481894631943
20-9-2017 3:00,61.87,5.229496117904887
20-9-2017 4:00,62.93,4.484236292453957
20-9-2017 5:00,62.93,1.7610968741588664
20-9-2017 6:00,64.0,-2.0264690691460885
20-9-2017 7:00,62.93,-9.571696213671416
20-9-2017 8:00,59.73,-15.352988649456385
20-9-2017 9:00,64.0,-15.47005495875382
20-9-2017 10:00,63.08,-29.691520289915168
20-9-2017 11:00,65.0,-33.59946055345043
20-9-2017 12:00,67.67,-26.557693677027046
20-9-2017 13:00,74.57,-21.193853242989448
20-9-2017 14:00,96.33,-4.570888595874379
20-9-2017 15:00,118.82,12.988001418153388
20-9-2017 16:00,125.0,15.458049558566643
20-9-2017 17:00,125.0,15.072927158920507
20-9-2017 18:00,127.92,14.7929011312808
20-9-2017 19:00,141.4,13.939488472311766
20-9-2017 20:00,151.0,13.021308798867878
20-9-2017 21:00,143.45,20.031968646023017
20-9-2017 22:00,143.5,16.477928317356884
20-9-2017 23:00,146.93,7.206150776525391
21-9-2017 0:00,146.93,4.273859663102002
21-9-2017 1:00,149.47,12.646830356492472
21-9-2017 2:00,149.47,9.534901233439825
21-9-2017 3:00,149.47,12.421733048489983
21-9-2017 4:00,152.0,13.191146206336242
21-9-2017 5:00,141.87,3.2039207191982086
21-9-2017 6:00,152.0,11.232792785646836
21-9-2017 7:00,149.47,4.872991368657864
21-9-2017 8:00,152.0,7.624976898837588
21-9-2017 9:00,144.4,0.010920416876075478
21-9-2017 10:00,146.93,-6.748933261915482
21-9-2017 11:00,146.93,-8.241279501181054
21-9-2017 12:00,152.0,6.035126415629122
21-9-2017 13:00,152.0,9.460016144432217
21-9-2017 14:00,152.67,9.785045372907007
21-9-2017 15:00,153.23,10.204398447745348
21-9-2017 16:00,139.07,-2.839041229591686
21-9-2017 17:00,131.83,-5.475613726288145
21-9-2017 18:00,137.0,1.3646983522046128
21-9-2017 19:00,142.6,-3.192757358225549
21-9-2017 20:00,143.43,-8.422463791920194
21-9-2017 21:00,121.62,-10.86222310094675
21-9-2017 22:00,121.0,-11.191761995027036
21-9-2017 23:00,131.22,-10.087947066494081
22-9-2017 0:00,133.0,-7.283905958442347
22-9-2017 1:00,133.0,1.0466897021167085
22-9-2017 2:00,133.0,-0.01157928452721535
22-9-2017 3:00,133.0,5.26625577000064
22-9-2017 4:00,133.0,5.622537335623207
22-9-2017 5:00,130.78,3.5489445545008778
22-9-2017 6:00,133.0,3.5619734055616448
22-9-2017 7:00,133.0,-0.484679131222606
22-9-2017 8:00,133.0,-0.3216924824097589
22-9-2017 9:00,128.57,-6.143603499629506
22-9-2017 10:00,130.78,-14.9627091212799
22-9-2017 11:00,133.0,-15.650324931504315
22-9-2017 12:00,130.78,-9.58014356953592
22-9-2017 13:00,140.08,1.6041213843918172
22-9-2017 14:00,147.0,6.469541124585504
22-9-2017 15:00,149.22,6.837683190593594
22-9-2017 16:00,141.12,-1.8209183741345498
22-9-2017 17:00,139.63,-0.7759703039163526
22-9-2017 18:00,142.0,1.0776505446739293
22-9-2017 19:00,142.08,-11.880877553252247
22-9-2017 20:00,157.42,-5.19914008323272
22-9-2017 21:00,154.38,8.425483342211095
22-9-2017 22:00,148.2,-1.0847522266313945
22-9-2017 23:00,148.0,-14.33054293808189
23-9-2017 0:00,159.0,-5.865367717903013
23-9-2017 1:00,148.4,-9.910050382340359
23-9-2017 2:00,153.7,-7.887562524740616
23-9-2017 3:00,145.75,-12.441627522900035
23-9-2017 4:00,148.4,-11.591380841666108
23-9-2017 5:00,153.7,-6.455974605070253
23-9-2017 6:00,143.1,-19.683422657694734
23-9-2017 7:00,153.7,-13.661560002571775
23-9-2017 8:00,151.05,-16.522205923423286
23-9-2017 9:00,184.37,14.694721797107121
23-9-2017 10:00,358.85,177.07305750560636
23-9-2017 11:00,359.62,174.18686539743138
23-9-2017 12:00,182.57,5.177515477566317
23-9-2017 13:00,124.67,-52.46192919061029
23-9-2017 14:00,127.0,-53.97920378592677
23-9-2017 15:00,124.88,-59.74535757597792
23-9-2017 16:00,127.0,-59.942205875326195
23-9-2017 17:00,124.88,-60.17018476787206
23-9-2017 18:00,124.88,-61.44770267886295
23-9-2017 19:00,148.05,-52.77175069396384
23-9-2017 20:00,280.8,70.14698315009124
23-9-2017 21:00,130.5,-61.77741306687773
23-9-2017 22:00,100.48,-94.33174768736545
23-9-2017 23:00,247.52,40.14945358431751
24-9-2017 0:00,278.4,69.35236053974037
24-9-2017 1:00,249.1,46.19865791519419
24-9-2017 2:00,235.0,27.968160981925223
24-9-2017 3:00,230.3,26.148454295966133
24-9-2017 4:00,206.8,0.05892445769893584
24-9-2017 5:00,225.6,17.746973328768064
24-9-2017 6:00,248.32,36.78269198921342
24-9-2017 7:00,271.63,54.34671345299873
24-9-2017 8:00,234.17,15.666078579237904
24-9-2017 9:00,206.07,-11.263416186902418
24-9-2017 10:00,243.53,17.00709962732546
24-9-2017 11:00,238.85,11.907069996779114
24-9-2017 12:00,234.17,19.00292757065975
24-9-2017 13:00,229.48,23.053828920597084
24-9-2017 14:00,224.95,22.98791562998872
24-9-2017 15:00,207.4,10.101521624096591
24-9-2017 16:00,196.33,5.06048223034648
24-9-2017 17:00,185.47,6.259466971747173
24-9-2017 18:00,174.4,3.96070089788563
24-9-2017 19:00,209.68,34.101023562320535
24-9-2017 20:00,190.03,14.256644377121688
24-9-2017 21:00,217.02,69.37165584482378
24-9-2017 22:00,208.33,66.98164949977459
24-9-2017 23:00,145.98,0.5982700816747695
25-9-2017 0:00,78.38,-59.782663900574505
25-9-2017 1:00,62.33,-61.98408404951907
25-9-2017 2:00,62.33,-58.856263337946274
25-9-2017 3:00,63.47,-47.24030927599462
25-9-2017 4:00,64.6,-41.378313198052425
25-9-2017 5:00,61.2,-42.88785894812469
25-9-2017 6:00,60.17,-44.709210830224265
25-9-2017 7:00,62.48,-45.363267813391346
25-9-2017 8:00,57.45,-48.67412889567616
25-9-2017 9:00,68.75,-40.127806091243926
25-9-2017 10:00,83.63,-38.7228701140441
25-9-2017 11:00,111.35,-15.384497209718546
25-9-2017 12:00,114.37,-4.051192084848907
25-9-2017 13:00,115.0,-4.351328539904287
25-9-2017 14:00,120.4,-4.327264348911044
25-9-2017 15:00,133.0,3.094717606249276
25-9-2017 16:00,133.0,-0.6818949407205537
25-9-2017 17:00,133.0,0.18449727696327045
25-9-2017 18:00,151.57,16.214926882567653
25-9-2017 19:00,238.05,85.55006700263337
25-9-2017 20:00,221.03,56.61302156427564
25-9-2017 21:00,188.3,43.22017673869328
25-9-2017 22:00,188.58,40.0972319634559
25-9-2017 23:00,165.48,2.952005149946558
26-9-2017 0:00,163.8,-1.1500364756016097
26-9-2017 1:00,143.82,-12.860158885444406
26-9-2017 2:00,153.9,-5.675005265529705
26-9-2017 3:00,153.73,-1.0543751921671003
26-9-2017 4:00,139.53,-16.481844602885758
26-9-2017 5:00,147.58,-8.360551835926486
26-9-2017 6:00,155.63,-3.0305411223980627
26-9-2017 7:00,161.0,-2.6642443878907898
26-9-2017 8:00,152.95,-10.876899514072846
26-9-2017 9:00,158.32,-7.356887706774728
26-9-2017 10:00,161.0,-17.609660920899074
26-9-2017 11:00,166.65,-15.475014835997797
26-9-2017 12:00,165.32,-7.1263915144353405
26-9-2017 13:00,163.98,-7.119415157960418
26-9-2017 14:00,166.45,-7.917222868842657
26-9-2017 15:00,177.0,-0.43871433610695476
26-9-2017 16:00,176.9,-2.172739706952001
26-9-2017 17:00,170.05,-5.929963485014042
26-9-2017 18:00,186.03,9.618638328027345
26-9-2017 19:00,204.0,11.85757703885136
26-9-2017 20:00,204.0,1.6368464824622038
26-9-2017 21:00,204.0,22.846864014795358
26-9-2017 22:00,206.65,23.051710189107354
26-9-2017 23:00,199.45,2.455365359926077
27-9-2017 0:00,192.73,-5.689962068903441
27-9-2017 1:00,189.47,-0.27814240750834074
27-9-2017 2:00,192.73,0.011636153666387372
27-9-2017 3:00,196.0,8.362247601461263
27-9-2017 4:00,196.0,7.130150781466824
27-9-2017 5:00,196.0,6.917776393527788
27-9-2017 6:00,191.92,-0.28155932363151237
27-9-2017 7:00,195.0,-2.7272108290699464
27-9-2017 8:00,191.75,-6.484123068878517
27-9-2017 9:00,195.0,-5.321114649008848
27-9-2017 10:00,195.0,-18.883841990026326
27-9-2017 11:00,210.73,-6.950080868432565
27-9-2017 12:00,211.0,3.2564133950510836
27-9-2017 13:00,211.08,5.160728468333758
27-9-2017 14:00,212.0,3.113098279139308
27-9-2017 15:00,212.0,0.3372477391754103
27-9-2017 16:00,209.78,-3.1852033725592435
27-9-2017 17:00,188.75,-20.53799019748425
27-9-2017 18:00,165.9,-43.3480527835747
27-9-2017 19:00,212.58,-12.700650464616047
27-9-2017 20:00,249.0,13.513872393731702
27-9-2017 21:00,249.0,36.06075218682764
27-9-2017 22:00,244.85,29.802033488095617
27-9-2017 23:00,215.8,-12.626444565941227
28-9-2017 0:00,240.7,11.253817595501118
28-9-2017 1:00,236.55,16.802552555249775
28-9-2017 2:00,240.7,18.531929284800214
28-9-2017 3:00,207.5,-8.672504665856877
28-9-2017 4:00,219.95,3.165722811078325
28-9-2017 5:00,215.8,0.29478494365878305
28-9-2017 6:00,224.1,6.8512064712295455
28-9-2017 7:00,236.55,15.028703447333555
28-9-2017 8:00,249.0,28.40263081538663
28-9-2017 9:00,243.28,23.605114028869878
28-9-2017 10:00,220.72,-9.901091159809482
28-9-2017 11:00,218.03,-13.421738722292076
28-9-2017 12:00,219.17,1.159102762343906
28-9-2017 13:00,223.0,10.885439859933683
28-9-2017 14:00,219.28,8.092670499926527
28-9-2017 15:00,222.23,12.157144194762395
28-9-2017 16:00,222.0,14.550963891036531
28-9-2017 17:00,222.0,22.41235604085773
28-9-2017 18:00,180.23,-15.246628922755406
28-9-2017 19:00,184.43,-23.78101049937976
28-9-2017 20:00,190.0,-24.801481730012597
28-9-2017 21:00,190.0,1.8568190852846271
28-9-2017 22:00,183.85,-3.2909004518578797
28-9-2017 23:00,182.7,-15.026947696116764
29-9-2017 0:00,182.7,-12.866531909768867
29-9-2017 1:00,176.4,-7.528429923904724
29-9-2017 2:00,173.25,-11.637003298216541
29-9-2017 3:00,166.95,-10.114030919563731
29-9-2017 4:00,179.55,3.4069800083330506
29-9-2017 5:00,166.95,-8.818668634120172
29-9-2017 6:00,166.95,-11.582637157372517
29-9-2017 7:00,173.25,-10.69813600508752
29-9-2017 8:00,185.85,1.8604866654657997
29-9-2017 9:00,189.0,1.9610541545998217
29-9-2017 10:00,189.0,-13.350018842093561
29-9-2017 11:00,189.0,-18.196465049004587
29-9-2017 12:00,189.0,-8.232666303568323
29-9-2017 13:00,189.0,-8.05643784739425
29-9-2017 14:00,189.0,-13.026477043936922
29-9-2017 15:00,185.85,-20.963809780024064
29-9-2017 16:00,212.0,1.9441510782455964
29-9-2017 17:00,212.0,3.4604041428200674
29-9-2017 18:00,212.0,1.1131787416913141
29-9-2017 19:00,212.0,-18.85230242897265
29-9-2017 20:00,212.0,-32.3570834470427
29-9-2017 21:00,212.0,-11.008006139449776
29-9-2017 22:00,204.93,-23.385369856866703
29-9-2017 23:00,256.97,11.44037036678833
30-9-2017 0:00,284.18,34.57029643617764
30-9-2017 1:00,255.28,12.981873207930448
30-9-2017 2:00,279.37,31.30945748952945
30-9-2017 3:00,255.28,10.60394395726533
30-9-2017 4:00,264.92,16.431848300351135
30-9-2017 5:00,260.1,11.514485588654793
30-9-2017 6:00,260.1,8.163123720369754
30-9-2017 7:00,269.73,11.667631297099604
30-9-2017 8:00,289.0,30.363951518417025
30-9-2017 9:00,289.0,29.719350520022033
30-9-2017 10:00,288.73,16.15016609175194
30-9-2017 11:00,283.47,8.404677616849767
30-9-2017 12:00,281.93,19.728189999523465
30-9-2017 13:00,280.5,22.690024058046447
30-9-2017 14:00,279.35,20.608429268732777
30-9-2017 15:00,278.0,18.505004345487123
30-9-2017 16:00,278.0,19.33281964457632
30-9-2017 17:00,278.0,26.31314614996387
30-9-2017 18:00,278.0,29.3168928373795
30-9-2017 19:00,277.12,13.049521471962521
30-9-2017 20:00,268.08,-4.60035993425825
30-9-2017 21:00,119.73,-125.01729813817406
30-9-2017 22:00,188.55,-55.921099126395234
30-9-2017 23:00,263.0,6.579635474643908
