Time,Actual,STL processed
1-8-2017 0:00,12616.58,-137975.34730089325
1-8-2017 1:00,10171.85,-123091.48603214929
1-8-2017 2:00,9859.03,-145400.33138675077
1-8-2017 3:00,9410.83,-133791.44787964536
1-8-2017 4:00,9100.73,-140065.08789748763
1-8-2017 5:00,9271.48,-141343.54383476044
1-8-2017 6:00,11115.93,-170884.9108055246
1-8-2017 7:00,25746.65,-131510.5927768032
1-8-2017 8:00,32334.37,-260553.51774970343
1-8-2017 9:00,23632.7,-386793.5939968089
1-8-2017 10:00,29419.27,-630256.8496327894
1-8-2017 11:00,3638888.18,2600631.1091904333
1-8-2017 12:00,1757059.8,1188201.1038215493
1-8-2017 13:00,21041.78,-178105.4140009468
1-8-2017 14:00,176635.78,-46029.10264309053
1-8-2017 15:00,330482.38,102477.27945697622
1-8-2017 16:00,173650.9,-43589.24412918603
1-8-2017 17:00,23828.55,-157840.97436659283
1-8-2017 18:00,18749.93,-157768.19755804187
1-8-2017 19:00,18554.93,-172324.5129261797
1-8-2017 20:00,16991.95,-133095.64301380966
1-8-2017 21:00,16387.07,-118072.79711508917
1-8-2017 22:00,277900.98,-94036.69208944147
1-8-2017 23:00,15574.85,-103142.18184633685
2-8-2017 0:00,12063.3,-103484.85181055161
2-8-2017 1:00,10008.47,-78322.14253271544
2-8-2017 2:00,9636.88,-91408.50800100132
2-8-2017 3:00,1780.27,-79077.47793273108
2-8-2017 4:00,1467.43,-76647.41826756478
2-8-2017 5:00,1701.07,-81332.94843501759
2-8-2017 6:00,3525.15,-114978.90207523586
2-8-2017 7:00,3863.42,-92723.2522800132
2-8-2017 8:00,5862.43,-224932.2361799097
2-8-2017 9:00,6765.67,-342187.5185402124
2-8-2017 10:00,142415.03,-450553.08719788364
2-8-2017 11:00,2361686.87,1402897.719362202
2-8-2017 12:00,1436334.13,925170.7795175632
2-8-2017 13:00,105950.5,-49961.348278429854
2-8-2017 14:00,9588.85,-168531.99083173796
2-8-2017 15:00,240755.27,56738.57951308187
2-8-2017 16:00,10061.78,-162575.64522126561
2-8-2017 17:00,9952.27,-137356.2276801498
2-8-2017 18:00,104667.78,-46878.06910689702
2-8-2017 19:00,239354.22,65880.69479975762
2-8-2017 20:00,61365.57,-81322.78916353281
2-8-2017 21:00,18715.9,-131607.94407582193
2-8-2017 22:00,428145.02,17925.12147769332
2-8-2017 23:00,18260.05,-162383.1293436904
3-8-2017 0:00,14813.32,-187420.46424234658
3-8-2017 1:00,10767.53,-177013.01742721174
3-8-2017 2:00,9378.78,-204488.5434809755
3-8-2017 3:00,9100.37,-199102.00732333394
3-8-2017 4:00,8824.83,-210580.7925639872
3-8-2017 5:00,8836.93,-215012.43795060442
3-8-2017 6:00,10783.72,-248674.50924926123
3-8-2017 7:00,11262.88,-225158.46394997597
3-8-2017 8:00,139979.68,-225281.28303930757
3-8-2017 9:00,1445795.22,967951.3078374056
3-8-2017 10:00,2198808.93,1488380.7815948878
3-8-2017 11:00,1989610.88,932317.41132868
3-8-2017 12:00,670680.9,45436.45244513155
3-8-2017 13:00,209643.57,-70235.80753543577
3-8-2017 14:00,389498.97,93292.86378901481
3-8-2017 15:00,17129.4,-280954.6198324892
3-8-2017 16:00,25802.42,-255713.8394638461
3-8-2017 17:00,19201.23,-230970.50177761342
3-8-2017 18:00,17892.15,-229648.3890730644
3-8-2017 19:00,16211.77,-244565.48322102518
3-8-2017 20:00,14597.35,-209144.09838938405
3-8-2017 21:00,16818.28,-206513.34262869
3-8-2017 22:00,441792.32,-32545.555996564508
3-8-2017 23:00,42518.58,-194578.4473316935
4-8-2017 0:00,228060.58,-24078.486614048248
4-8-2017 1:00,9859.53,-224744.6697522733
4-8-2017 2:00,9116.07,-249100.97388217362
4-8-2017 3:00,8513.58,-242715.27912581927
4-8-2017 4:00,8747.33,-251785.22320685268
4-8-2017 5:00,8959.08,-254709.72974421986
4-8-2017 6:00,10508.0,-288076.43463290064
4-8-2017 7:00,10806.77,-262789.28868870396
4-8-2017 8:00,1494109.4,1097874.0821733782
4-8-2017 9:00,963769.58,461110.3787592863
4-8-2017 10:00,3208392.72,2485163.455316521
4-8-2017 11:00,1477738.05,427182.65860861953
4-8-2017 12:00,397954.42,-235545.24892924086
4-8-2017 13:00,23678.47,-272321.7633594971
4-8-2017 14:00,23816.78,-280607.1204224027
4-8-2017 15:00,10753.32,-289509.76027534535
4-8-2017 16:00,9481.35,-267004.6770688265
4-8-2017 17:00,8415.13,-217115.96844033131
4-8-2017 18:00,46705.63,-155730.93080734037
4-8-2017 19:00,24056.7,-169330.81221277098
4-8-2017 20:00,13959.12,-122547.14778905259
4-8-2017 21:00,8005.07,-92505.64437395637
4-8-2017 22:00,281510.25,-33576.49968180136
4-8-2017 23:00,5392.13,-37249.224549256585
5-8-2017 0:00,6507.3,-17087.1112338909
5-8-2017 1:00,3624.95,19827.96210088284
5-8-2017 2:00,2875.82,17120.84632120475
5-8-2017 3:00,2177.67,43915.046102630484
5-8-2017 4:00,1562.85,55077.009607575754
5-8-2017 5:00,1774.9,57730.054926441444
5-8-2017 6:00,94380.63,120383.15945471951
5-8-2017 7:00,3412.28,60624.439050810455
5-8-2017 8:00,4575.8,-50381.17712871076
5-8-2017 9:00,261457.38,101057.29657415819
5-8-2017 10:00,50140.12,-323994.1426610896
5-8-2017 11:00,135821.27,-551278.2144029194
5-8-2017 12:00,127638.8,-162576.54918732547
5-8-2017 13:00,42129.65,64570.344168042495
5-8-2017 14:00,65389.5,70331.83095309389
5-8-2017 15:00,10531.25,8695.37710402572
5-8-2017 16:00,68474.18,80646.89538373341
5-8-2017 17:00,26417.13,62250.11055836529
5-8-2017 18:00,37741.6,70227.39872367217
5-8-2017 19:00,11888.87,28804.415664645872
5-8-2017 20:00,8524.05,55261.21528431561
5-8-2017 21:00,3847.1,56489.75726136773
5-8-2017 22:00,126631.13,-64547.81907889419
5-8-2017 23:00,6718.87,57514.073428878015
6-8-2017 0:00,11651.73,49907.07024951791
6-8-2017 1:00,2478.47,73035.197442187
6-8-2017 2:00,1853.43,62348.43739762763
6-8-2017 3:00,1786.85,80519.77958902137
6-8-2017 4:00,1673.05,83504.64806484184
6-8-2017 5:00,1685.33,86883.10653950623
6-8-2017 6:00,77782.83,133338.9117843089
6-8-2017 7:00,3449.65,91784.54633185994
6-8-2017 8:00,4364.05,-13652.135589698872
6-8-2017 9:00,5367.38,-115292.95032583096
6-8-2017 10:00,49379.05,-276361.39090952266
6-8-2017 11:00,7141.9,-615384.6732412425
6-8-2017 12:00,8204.6,-235791.24082815624
6-8-2017 13:00,6987.9,60922.97674617987
6-8-2017 14:00,27467.63,64947.9138125323
6-8-2017 15:00,6648.85,36530.17240068265
6-8-2017 16:00,6142.43,50382.14218692325
6-8-2017 17:00,6193.18,70961.52384492819
6-8-2017 18:00,53466.67,112609.14247978748
6-8-2017 19:00,6848.35,49964.29770440189
6-8-2017 20:00,6760.75,76801.72245725937
6-8-2017 21:00,5695.03,77380.82052958128
6-8-2017 22:00,25943.45,-149608.5493097836
6-8-2017 23:00,6481.48,68261.77810652992
7-8-2017 0:00,3956.58,47439.59596575788
7-8-2017 1:00,2380.42,74014.3268561908
7-8-2017 2:00,1939.73,58753.72238661868
7-8-2017 3:00,1668.68,70811.70682784892
7-8-2017 4:00,1456.53,68365.65011441306
7-8-2017 5:00,1608.03,66303.3303880967
7-8-2017 6:00,3237.87,32097.224992644522
7-8-2017 7:00,2953.45,59655.62313487619
7-8-2017 8:00,4219.55,-46116.48588549971
7-8-2017 9:00,153443.65,-2307.109068387479
7-8-2017 10:00,65248.03,-292498.3110082777
7-8-2017 11:00,90927.67,-552995.2539376424
7-8-2017 12:00,40083.1,-249232.03433481843
7-8-2017 13:00,25163.27,15546.377726568026
7-8-2017 14:00,7249.13,-21286.534657696473
7-8-2017 15:00,12343.17,-28119.763364245548
7-8-2017 16:00,400410.62,371148.2848996357
7-8-2017 17:00,296585.87,286087.3072006166
7-8-2017 18:00,16690.87,-345.4795353688387
7-8-2017 19:00,10512.32,-21640.259157172753
7-8-2017 20:00,20716.65,13959.067598813432
7-8-2017 21:00,18678.88,15997.944642115544
7-8-2017 22:00,514353.92,267711.02286795684
7-8-2017 23:00,13993.22,6732.77675712081
8-8-2017 0:00,9283.23,-15339.902780753982
8-8-2017 1:00,7619.17,18667.61889859251
8-8-2017 2:00,252552.97,255694.49709515736
8-8-2017 3:00,7072.2,28305.060877373806
8-8-2017 4:00,7934.97,33272.37697304707
8-8-2017 5:00,7096.8,39041.66076212734
8-8-2017 6:00,7777.05,12092.986442797788
8-8-2017 7:00,9142.12,50766.62912658843
8-8-2017 8:00,10116.92,-41582.156045726115
8-8-2017 9:00,84378.98,-61875.72688247143
8-8-2017 10:00,104485.13,-227050.15680544137
8-8-2017 11:00,32533.38,-560938.4669593319
8-8-2017 12:00,124801.8,-124354.72679365125
8-8-2017 13:00,19867.98,41252.9842915031
8-8-2017 14:00,14034.63,23112.846993339328
8-8-2017 15:00,18547.95,20446.55552880847
8-8-2017 16:00,14169.95,33188.078354942976
8-8-2017 17:00,14458.1,52747.13693269408
8-8-2017 18:00,12835.37,45946.700459658205
8-8-2017 19:00,13178.12,34355.96492695183
8-8-2017 20:00,20416.7,67731.96262158258
8-8-2017 21:00,12410.8,62276.7411766587
8-8-2017 22:00,169856.28,-24921.201659390994
8-8-2017 23:00,14341.07,57038.90957552625
9-8-2017 0:00,9583.62,32136.32579795103
9-8-2017 1:00,8052.48,63390.55423046235
9-8-2017 2:00,7560.27,51362.99057562408
9-8-2017 3:00,7729.85,64963.84289130682
9-8-2017 4:00,8090.67,65288.10053953366
9-8-2017 5:00,7477.1,65028.02205592301
9-8-2017 6:00,8179.62,31332.941963857316
9-8-2017 7:00,9341.72,64094.54976566033
9-8-2017 8:00,10036.6,-30377.50896043469
9-8-2017 9:00,115585.93,-22350.5616880714
9-8-2017 10:00,41288.87,-279609.80459985556
9-8-2017 11:00,218986.3,-354136.6187893551
9-8-2017 12:00,23400.72,-227816.54492695536
9-8-2017 13:00,20580.92,23472.532039010403
9-8-2017 14:00,17270.9,5810.757892651287
9-8-2017 15:00,25834.02,3664.67791410107
9-8-2017 16:00,68582.5,60696.57727475104
9-8-2017 17:00,14682.37,24582.859445436843
9-8-2017 18:00,25565.97,29469.2747621866
9-8-2017 19:00,186265.17,179263.107042536
9-8-2017 20:00,15357.28,33209.89617083192
9-8-2017 21:00,15004.82,36090.497519448414
9-8-2017 22:00,449555.05,227253.14906996727
9-8-2017 23:00,16737.2,32504.603940967427
10-8-2017 0:00,12425.0,7279.177117999105
10-8-2017 1:00,10188.75,40890.104038505626
10-8-2017 2:00,9765.92,31251.51026709455
10-8-2017 3:00,9845.63,46050.45285107393
10-8-2017 4:00,10605.2,48580.655118529714
10-8-2017 5:00,9922.0,51852.18071898627
10-8-2017 6:00,10426.2,21045.301210942605
10-8-2017 7:00,11547.37,57912.7327972979
10-8-2017 8:00,12282.03,-28507.080816037695
10-8-2017 9:00,74990.48,-57733.483934622534
10-8-2017 10:00,143208.38,-161604.26386368703
10-8-2017 11:00,74819.5,-463949.9661172617
10-8-2017 12:00,62548.92,-168169.45258660882
10-8-2017 13:00,16553.92,27377.339883595872
10-8-2017 14:00,16172.92,14465.188512468972
10-8-2017 15:00,21350.9,9269.949643326989
10-8-2017 16:00,16692.92,19925.520115866333
10-8-2017 17:00,15461.07,35315.633946894144
10-8-2017 18:00,16141.73,29499.67912083678
10-8-2017 19:00,14780.55,18581.33600404694
10-8-2017 20:00,15055.98,42748.79335581307
10-8-2017 21:00,15392.48,45868.65244286222
10-8-2017 22:00,268866.75,56078.62903414844
10-8-2017 23:00,16844.3,41586.908195430166
11-8-2017 0:00,219439.5,221368.2289812675
11-8-2017 1:00,10154.13,47665.38780331532
11-8-2017 2:00,10098.37,37386.99732887761
11-8-2017 3:00,10021.72,49991.08359469978
11-8-2017 4:00,10768.97,50989.48368261602
11-8-2017 5:00,9919.98,51632.937071286455
11-8-2017 6:00,10849.65,18274.5318514115
11-8-2017 7:00,12044.68,53298.98938682533
11-8-2017 8:00,12897.48,-31053.806949244572
11-8-2017 9:00,85858.72,-47926.63172385998
11-8-2017 10:00,32043.98,-266443.3008809721
11-8-2017 11:00,99377.63,-418285.8034093893
11-8-2017 12:00,79169.58,-147784.07242125075
11-8-2017 13:00,28022.78,30435.277818849165
11-8-2017 14:00,26037.32,18130.71148861071
11-8-2017 15:00,45565.13,28012.725994533146
11-8-2017 16:00,21898.17,21080.889844618105
11-8-2017 17:00,22084.2,37044.12963821012
11-8-2017 18:00,47552.85,55836.42897156786
11-8-2017 19:00,184844.3,185238.61475986103
11-8-2017 20:00,18086.9,41730.2846373196
11-8-2017 21:00,15774.83,42632.2805442797
11-8-2017 22:00,226272.7,10869.551257811545
11-8-2017 23:00,19437.45,41906.8637908532
12-8-2017 0:00,12828.23,11463.52126697448
12-8-2017 1:00,11266.37,48010.03356996005
12-8-2017 2:00,10505.47,38810.127971892114
12-8-2017 3:00,10411.9,52149.289498953454
12-8-2017 4:00,11197.52,54457.06898672654
12-8-2017 5:00,10183.15,56200.84002250118
12-8-2017 6:00,127603.42,140084.01894968527
12-8-2017 7:00,11823.22,59944.39229304799
12-8-2017 8:00,12991.1,-18416.46690686584
12-8-2017 9:00,14267.55,-103903.01499367486
12-8-2017 10:00,53006.85,-221508.61503499775
12-8-2017 11:00,14431.93,-463508.7394944204
12-8-2017 12:00,16441.43,-187160.4927049593
12-8-2017 13:00,15425.63,28099.08248450722
12-8-2017 14:00,82843.43,86494.68837462859
12-8-2017 15:00,20962.08,14779.833435086883
12-8-2017 16:00,14913.88,25973.197842188813
12-8-2017 17:00,17929.92,43880.640536826446
12-8-2017 18:00,139306.7,158360.2809680807
12-8-2017 19:00,23250.75,36041.91259993827
12-8-2017 20:00,15864.7,51220.92194157067
12-8-2017 21:00,7040.52,44739.42963812777
12-8-2017 22:00,107212.03,-97648.05055640874
12-8-2017 23:00,17972.78,50025.01031807887
13-8-2017 0:00,15778.93,21674.709454170144
13-8-2017 1:00,13509.42,57975.025568387566
13-8-2017 2:00,12933.2,48679.035176983525
13-8-2017 3:00,12231.12,60097.2922955782
13-8-2017 4:00,13316.28,61911.23151350225
13-8-2017 5:00,12212.95,62917.96459713651
13-8-2017 6:00,120092.07,136097.202072135
13-8-2017 7:00,13530.2,65073.275624201975
13-8-2017 8:00,14550.88,-9671.70203880043
13-8-2017 9:00,15054.52,-93987.25934015636
13-8-2017 10:00,57503.68,-200653.2361680433
13-8-2017 11:00,16937.1,-430021.3384608248
13-8-2017 12:00,17017.35,-173100.64177239436
13-8-2017 13:00,17006.12,30149.803367194312
13-8-2017 14:00,83705.25,89200.72647843108
13-8-2017 15:00,16400.77,11952.107094180777
13-8-2017 16:00,16237.27,29613.687059055275
13-8-2017 17:00,15923.22,43812.462045119275
13-8-2017 18:00,66810.45,88088.9929646508
13-8-2017 19:00,16569.12,33719.319830453525
13-8-2017 20:00,17546.25,57084.7280266405
13-8-2017 21:00,16465.05,58203.27086423554
13-8-2017 22:00,93115.8,-107274.9268869283
13-8-2017 23:00,18137.7,54427.46568044621
14-8-2017 0:00,14233.53,22772.949827948447
14-8-2017 1:00,13172.15,60861.458034175186
14-8-2017 2:00,12805.9,51613.28113021248
14-8-2017 3:00,12922.28,62656.21212111792
14-8-2017 4:00,13528.42,63316.3593499704
14-8-2017 5:00,12954.58,64017.37405543417
14-8-2017 6:00,13263.85,28276.839652216997
14-8-2017 7:00,14182.33,64443.50298695816
14-8-2017 8:00,15121.2,-6807.333565162902
14-8-2017 9:00,20929.37,-84213.39865114716
14-8-2017 10:00,49159.15,-198207.83083567952
14-8-2017 11:00,37761.6,-384122.0595319012
14-8-2017 12:00,101022.25,-81858.10151458283
14-8-2017 13:00,35040.57,41387.421424246844
14-8-2017 14:00,18712.97,17764.829605717903
14-8-2017 15:00,59912.53,47888.84362587787
14-8-2017 16:00,18133.02,23497.137979652547
14-8-2017 17:00,22410.02,41018.42422035904
14-8-2017 18:00,17843.72,29237.904591383973
14-8-2017 19:00,17645.4,26155.26087234191
14-8-2017 20:00,14144.68,43975.9821042935
14-8-2017 21:00,16222.07,48631.31930962842
14-8-2017 22:00,240614.72,31845.983715917544
14-8-2017 23:00,18297.67,46498.527690259274
15-8-2017 0:00,14199.68,13577.216563252761
15-8-2017 1:00,12712.62,53128.83411327086
15-8-2017 2:00,12599.8,45280.65794853156
15-8-2017 3:00,12472.6,56194.95006352983
15-8-2017 4:00,12954.78,57364.95719866525
15-8-2017 5:00,12457.15,58791.64364549752
15-8-2017 6:00,12579.12,22998.557483603658
15-8-2017 7:00,13661.68,60524.35262718169
15-8-2017 8:00,14303.68,-5962.590787895344
15-8-2017 9:00,15812.55,-84077.51090027319
15-8-2017 10:00,20602.97,-212634.58821063247
15-8-2017 11:00,19233.53,-372250.07307947584
15-8-2017 12:00,123412.12,-44919.523502451135
15-8-2017 13:00,28850.02,37020.83409076379
15-8-2017 14:00,16422.42,18961.184197613333
15-8-2017 15:00,16403.25,8044.78847732778
15-8-2017 16:00,16337.48,26239.644049971557
15-8-2017 17:00,16578.35,37866.45891900308
15-8-2017 18:00,19063.67,31944.236115203952
15-8-2017 19:00,20516.43,31167.173307267152
15-8-2017 20:00,21719.2,52035.029070933444
15-8-2017 21:00,22071.67,52270.38980861501
15-8-2017 22:00,151593.92,-61507.3162693953
15-8-2017 23:00,22704.57,43789.09647016126
16-8-2017 0:00,18666.97,6873.999961710739
16-8-2017 1:00,14789.2,42417.8801191216
16-8-2017 2:00,13576.07,31010.17904350323
16-8-2017 3:00,13352.0,38404.013219081666
16-8-2017 4:00,13499.85,36303.88327575535
16-8-2017 5:00,13467.4,35613.57016978998
16-8-2017 6:00,14706.33,-2136.310925546677
16-8-2017 7:00,17163.03,34705.4676585619
16-8-2017 8:00,18018.27,-29897.51076125519
16-8-2017 9:00,105580.52,-21709.404087219184
16-8-2017 10:00,251840.95,-3585.2048621922804
16-8-2017 11:00,123529.28,-277654.4759785526
16-8-2017 12:00,115081.48,-81517.92111788545
16-8-2017 13:00,43300.48,10059.064454863219
16-8-2017 14:00,29000.97,-9346.646232745297
16-8-2017 15:00,19735.0,-30249.208141633826
16-8-2017 16:00,175593.72,143553.02517973995
16-8-2017 17:00,18068.73,-1109.579546177505
16-8-2017 18:00,45061.43,19437.31328244052
16-8-2017 19:00,17242.65,-6707.614256372151
16-8-2017 20:00,26629.15,24013.17257437286
16-8-2017 21:00,44862.3,46851.05807220061
16-8-2017 22:00,399583.68,163433.38421572628
16-8-2017 23:00,20496.38,23369.952530270668
17-8-2017 0:00,13981.05,-12696.77686636855
17-8-2017 1:00,12983.52,31317.476503982165
17-8-2017 2:00,12375.0,25262.331123031865
17-8-2017 3:00,12266.25,36555.05796473761
17-8-2017 4:00,13129.97,39442.144836861306
17-8-2017 5:00,12527.9,41502.259991178755
17-8-2017 6:00,13400.92,6214.941775479689
17-8-2017 7:00,13806.07,44849.42053673374
17-8-2017 8:00,15585.35,-11256.386151208502
17-8-2017 9:00,18434.88,-83517.539396962
17-8-2017 10:00,19812.28,-201050.97746078856
17-8-2017 11:00,22850.08,-327268.20864890545
17-8-2017 12:00,50871.93,-109215.4823288355
17-8-2017 13:00,124122.0,114331.93945509184
17-8-2017 14:00,18598.0,4311.4262046701915
17-8-2017 15:00,20406.95,-6171.743661176359
17-8-2017 16:00,21641.33,12773.207579414608
17-8-2017 17:00,24404.17,24926.658855156405
17-8-2017 18:00,18183.83,9274.032912799863
17-8-2017 19:00,17622.73,9342.34079797499
17-8-2017 20:00,17880.92,27655.898850662357
17-8-2017 21:00,17561.77,27542.001921690877
17-8-2017 22:00,282728.15,50608.77226820489
17-8-2017 23:00,20665.88,23287.01813918921
18-8-2017 0:00,222187.95,189462.32783581354
18-8-2017 1:00,13226.75,23419.26986223486
18-8-2017 2:00,12771.72,14581.785619083355
18-8-2017 3:00,13048.33,22359.670570047107
18-8-2017 4:00,13480.98,21403.195378355464
18-8-2017 5:00,12375.5,20994.87778551018
18-8-2017 6:00,13018.17,-16979.388557996812
18-8-2017 7:00,14237.18,21028.110864501767
18-8-2017 8:00,14985.47,-33820.64360746656
18-8-2017 9:00,89491.52,-31922.859383426417
18-8-2017 10:00,133231.13,-99629.74005121327
18-8-2017 11:00,159072.07,-188302.30662619352
18-8-2017 12:00,107281.98,-66376.04416182765
18-8-2017 13:00,35140.18,448.31732330344676
18-8-2017 14:00,49267.57,12418.325000093755
18-8-2017 15:00,85356.78,37289.33066731424
18-8-2017 16:00,30786.0,1925.6233171474378
18-8-2017 17:00,29838.5,10554.361228027607
18-8-2017 18:00,23976.15,-4069.3528518244275
18-8-2017 19:00,39556.18,14753.041090817569
18-8-2017 20:00,17611.4,11242.110998926408
18-8-2017 21:00,16588.92,11562.54124259772
18-8-2017 22:00,414090.53,168541.12539154204
18-8-2017 23:00,20675.55,11120.448418408443
19-8-2017 0:00,15127.78,-30032.303192261643
19-8-2017 1:00,12706.25,12248.364594723447
19-8-2017 2:00,12830.6,4932.1285938639485
19-8-2017 3:00,12308.13,11888.428758578899
19-8-2017 4:00,12660.67,11317.048607565113
19-8-2017 5:00,12293.38,12238.328443303093
19-8-2017 6:00,131979.63,93407.47414773417
19-8-2017 7:00,14052.97,13384.89440722327
19-8-2017 8:00,14878.35,-36542.29767302516
19-8-2017 9:00,94128.75,-25591.93872473258
19-8-2017 10:00,208251.28,-13645.7447420209
19-8-2017 11:00,103713.58,-216149.61944940576
19-8-2017 12:00,83524.77,-77130.79358628507
19-8-2017 13:00,19983.43,-13115.963344136573
19-8-2017 14:00,124549.0,91552.55431567939
19-8-2017 15:00,143251.12,100031.58457178056
19-8-2017 16:00,17704.92,-4889.842313330308
19-8-2017 17:00,17376.08,3974.8319349308877
19-8-2017 18:00,64340.55,42280.50941982605
19-8-2017 19:00,18302.05,1528.9791221775595
19-8-2017 20:00,17874.7,19345.61058795049
19-8-2017 21:00,9445.08,13754.240848067748
19-8-2017 22:00,3789.37,-230490.22835675458
19-8-2017 23:00,14917.43,18243.604669797045
20-8-2017 0:00,12612.98,-19566.36540436434
20-8-2017 1:00,9516.85,25486.748230776706
20-8-2017 2:00,9966.07,21100.240559801372
20-8-2017 3:00,10286.78,30540.20602585972
20-8-2017 4:00,10703.32,32161.021003115973
20-8-2017 5:00,10581.17,33126.92735913004
20-8-2017 6:00,425093.67,408430.23420319194
20-8-2017 7:00,11119.63,32683.94439136447
20-8-2017 8:00,10881.47,-14254.236205471214
20-8-2017 9:00,13131.23,-79692.33774722986
20-8-2017 10:00,56280.65,-133145.14432832337
20-8-2017 11:00,15448.72,-259091.96238241647
20-8-2017 12:00,15825.3,-117712.50833484474
20-8-2017 13:00,14900.12,-3251.0136190442936
20-8-2017 14:00,38240.52,21693.15974043179
20-8-2017 15:00,14303.33,-12231.509697951777
20-8-2017 16:00,14130.12,8878.249598627764
20-8-2017 17:00,14066.75,18726.36642260378
20-8-2017 18:00,62749.57,59953.661710579916
20-8-2017 19:00,48247.1,53883.46341097477
20-8-2017 20:00,15317.85,40109.02267274562
20-8-2017 21:00,13954.47,38956.392525556
20-8-2017 22:00,53753.72,-162021.69045678567
20-8-2017 23:00,17321.87,36640.86214569833
21-8-2017 0:00,11561.13,-8648.776815707115
21-8-2017 1:00,10514.98,34777.73930153906
21-8-2017 2:00,10316.33,25224.59659439703
21-8-2017 3:00,10156.2,28700.58399574792
21-8-2017 4:00,10887.87,25641.100735223357
21-8-2017 5:00,10062.0,22942.79267366694
21-8-2017 6:00,10700.25,-19080.22028048676
21-8-2017 7:00,11466.3,17477.268898522503
21-8-2017 8:00,20966.73,-18429.751152747005
21-8-2017 9:00,13254.92,-92942.84512076134
21-8-2017 10:00,136711.5,-60239.98420186444
21-8-2017 11:00,84274.93,-184665.7575388702
21-8-2017 12:00,60608.22,-85259.9572430519
21-8-2017 13:00,213800.05,168899.6161327482
21-8-2017 14:00,90281.98,46236.709378232175
21-8-2017 15:00,317167.85,261121.27443171156
21-8-2017 16:00,32012.03,-4342.878942879746
21-8-2017 17:00,27787.82,-477.5832665869166
21-8-2017 18:00,14899.08,-22158.53389892781
21-8-2017 19:00,16320.52,-11699.776937209244
21-8-2017 20:00,16142.13,5647.213383839895
21-8-2017 21:00,15611.8,8304.76836826437
21-8-2017 22:00,218296.67,-26372.35051164411
21-8-2017 23:00,17243.68,10761.609546724758
22-8-2017 0:00,12283.0,-32147.430421972254
22-8-2017 1:00,10549.03,16863.3438904618
22-8-2017 2:00,10186.35,12576.061860235874
22-8-2017 3:00,10348.05,20839.396909962074
22-8-2017 4:00,10979.55,22632.511926719882
22-8-2017 5:00,10139.2,22241.83317868498
22-8-2017 6:00,10967.47,-17760.62584259241
22-8-2017 7:00,11398.23,21308.452400406197
22-8-2017 8:00,12908.97,-16012.497032144587
22-8-2017 9:00,94153.83,236.8477075460396
22-8-2017 10:00,72515.17,-105386.58717844839
22-8-2017 11:00,89833.38,-146011.45910324864
22-8-2017 12:00,14564.35,-115217.90586406543
22-8-2017 13:00,28997.22,-13877.33301530873
22-8-2017 14:00,12605.42,-29803.689070859993
22-8-2017 15:00,291877.03,235811.6812874393
22-8-2017 16:00,12013.72,-25591.069261169563
22-8-2017 17:00,34699.18,2756.0203502007716
22-8-2017 18:00,12592.38,-30085.571119696462
22-8-2017 19:00,13523.32,-20117.252805024473
22-8-2017 20:00,13939.32,-4410.2853330673315
22-8-2017 21:00,12909.47,-5285.335157330439
22-8-2017 22:00,355740.67,97589.81484380324
22-8-2017 23:00,16910.8,-5969.962863333974
23-8-2017 0:00,278732.88,213826.2704240592
23-8-2017 1:00,9921.97,-5991.585216193998
23-8-2017 2:00,9943.77,-12481.14460152245
23-8-2017 3:00,8164.12,-9831.981641663384
23-8-2017 4:00,10882.82,-9075.905380561722
23-8-2017 5:00,10006.45,-9781.426643092433
23-8-2017 6:00,9141.48,-52285.091240621485
23-8-2017 7:00,13178.27,-9334.767883442822
23-8-2017 8:00,61875.97,4270.63587304129
23-8-2017 9:00,133011.9,15747.131324183414
23-8-2017 10:00,47374.8,-144138.77853005007
23-8-2017 11:00,102666.1,-132838.37427803187
23-8-2017 12:00,57679.15,-82549.32497665251
23-8-2017 13:00,384799.52,324325.8081290262
23-8-2017 14:00,24140.12,-31637.68790380253
23-8-2017 15:00,42842.9,-23790.911651356175
23-8-2017 16:00,25285.27,-18921.444577239592
23-8-2017 17:00,184156.67,147010.14156433742
23-8-2017 18:00,22750.77,-23336.289770950687
23-8-2017 19:00,17563.02,-15617.568725048972
23-8-2017 20:00,12805.93,-3459.4724857534675
23-8-2017 21:00,12497.85,-577.1341330200667
23-8-2017 22:00,277029.25,27221.754485814643
23-8-2017 23:00,10497.05,-600.1659520158282
24-8-2017 0:00,7276.07,-44155.016547976425
24-8-2017 1:00,6705.42,9275.913448704196
24-8-2017 2:00,6815.48,7048.072297894338
24-8-2017 3:00,6203.15,13951.948757507394
24-8-2017 4:00,6321.22,15743.731399588629
24-8-2017 5:00,5930.82,16663.64780566928
24-8-2017 6:00,6180.45,-24115.09218500432
24-8-2017 7:00,7289.25,17601.606367210064
24-8-2017 8:00,8367.42,-11253.976606415228
24-8-2017 9:00,99460.1,20294.26725949205
24-8-2017 10:00,98545.0,-50353.47337265216
24-8-2017 11:00,16148.53,-168008.4487534871
24-8-2017 12:00,114829.33,9941.970800416886
24-8-2017 13:00,33291.73,-4984.36098537314
24-8-2017 14:00,40782.9,5442.617856129917
24-8-2017 15:00,18231.05,-31155.555145667407
24-8-2017 16:00,7262.02,-21720.32699143777
24-8-2017 17:00,27782.05,3493.9490591458016
24-8-2017 18:00,34111.12,-1087.7487627332303
24-8-2017 19:00,12413.78,-9773.716624576067
24-8-2017 20:00,12534.08,5121.796743083527
24-8-2017 21:00,12663.73,6738.900036061845
24-8-2017 22:00,363356.73,119183.72343681983
24-8-2017 23:00,12821.97,6060.22643251835
25-8-2017 0:00,216431.0,166288.1581174262
25-8-2017 1:00,7245.02,10936.65794865934
25-8-2017 2:00,6842.75,7194.319229986751
25-8-2017 3:00,6761.77,12541.313386972448
25-8-2017 4:00,7354.62,13268.17723513484
25-8-2017 5:00,6540.35,13925.061314035433
25-8-2017 6:00,7254.37,-26757.594065574107
25-8-2017 7:00,8129.98,15441.512908040633
25-8-2017 8:00,9147.28,-9295.163569329467
25-8-2017 9:00,9697.23,-63748.633249818435
25-8-2017 10:00,10989.13,-123247.20708396324
25-8-2017 11:00,126454.23,-29882.224521741264
25-8-2017 12:00,33744.98,-54902.23713940268
25-8-2017 13:00,11701.6,-19080.32959962656
25-8-2017 14:00,12090.92,-13117.781666756862
25-8-2017 15:00,37922.92,-124.90970576297696
25-8-2017 16:00,11561.93,-3706.966254385403
25-8-2017 17:00,11388.2,-755.9994662867939
25-8-2017 18:00,11256.43,-12972.382946248312
25-8-2017 19:00,15133.07,4816.921112672753
25-8-2017 20:00,12716.53,15832.012437204896
25-8-2017 21:00,11572.83,14559.225085275284
25-8-2017 22:00,367854.07,131163.04768280374
25-8-2017 23:00,12178.67,11686.318526878364
26-8-2017 0:00,8432.92,-38401.333092498164
26-8-2017 1:00,7210.03,14248.714057161873
26-8-2017 2:00,6528.88,9430.885254500921
26-8-2017 3:00,6512.73,12960.03459273366
26-8-2017 4:00,8145.98,13393.15713085157
26-8-2017 5:00,6257.28,12051.696365615338
26-8-2017 6:00,135243.72,98188.40308011309
26-8-2017 7:00,7971.0,11870.025958171398
26-8-2017 8:00,9132.7,-9627.226539900275
26-8-2017 9:00,10625.35,-60523.435808496026
26-8-2017 10:00,57672.32,-67251.22888635204
26-8-2017 11:00,60648.0,-75143.73442278369
26-8-2017 12:00,50823.58,-30785.755253721043
26-8-2017 13:00,12343.98,-20793.569688038355
26-8-2017 14:00,94203.13,68628.70603653842
26-8-2017 15:00,13533.43,-24320.448339336064
26-8-2017 16:00,13773.02,425.2291095298642
26-8-2017 17:00,47740.38,37957.18776784814
26-8-2017 18:00,80917.77,59885.56976250878
26-8-2017 19:00,11326.25,7117.456874898391
26-8-2017 20:00,10987.45,20876.15728900773
26-8-2017 21:00,2745.55,13458.08061221875
26-8-2017 22:00,47624.52,-180200.15627343385
26-8-2017 23:00,11593.53,21324.38373906553
27-8-2017 0:00,8665.57,-28336.82986454681
27-8-2017 1:00,7182.2,26373.030788232325
27-8-2017 2:00,6504.08,23043.458086275245
27-8-2017 3:00,6563.1,27046.93879044723
27-8-2017 4:00,8309.93,28541.336203212886
27-8-2017 5:00,6323.13,26873.531690398315
27-8-2017 6:00,110710.0,87653.28159556187
27-8-2017 7:00,7571.5,25795.641474622225
27-8-2017 8:00,8695.02,8050.904052407481
27-8-2017 9:00,9871.47,-42283.41996277444
27-8-2017 10:00,52311.53,-48338.88744282104
27-8-2017 11:00,11158.95,-90864.1962363857
27-8-2017 12:00,21951.85,-41132.21043907838
27-8-2017 13:00,11094.7,-14439.339277636984
27-8-2017 14:00,56786.05,39276.771808499
27-8-2017 15:00,17661.78,-13095.541334391732
27-8-2017 16:00,10978.45,4926.107681814701
27-8-2017 17:00,10799.7,7383.520625148798
27-8-2017 18:00,57287.5,42089.58050922773
27-8-2017 19:00,10382.6,13550.493089882042
27-8-2017 20:00,10453.68,27016.6050083647
27-8-2017 21:00,10333.33,26793.047553061388
27-8-2017 22:00,64819.85,-157997.37026942716
27-8-2017 23:00,11885.28,26100.50745784193
28-8-2017 0:00,8195.37,-26593.94958366121
28-8-2017 1:00,7121.87,28901.42163016166
28-8-2017 2:00,6753.62,25422.292086833055
28-8-2017 3:00,7212.85,28280.491214868904
28-8-2017 4:00,7694.73,27512.98056020693
28-8-2017 5:00,8381.98,27472.6147569156
28-8-2017 6:00,9482.5,-16609.739690153518
28-8-2017 7:00,8939.68,23636.449647010475
28-8-2017 8:00,8915.65,7716.489757754203
28-8-2017 9:00,34616.23,-17232.922071572197
28-8-2017 10:00,48551.6,-46531.147021367666
28-8-2017 11:00,60363.72,-26613.6021396237
28-8-2017 12:00,47050.98,-16247.87278162999
28-8-2017 13:00,24707.87,-12595.68049196816
28-8-2017 14:00,14019.43,-15430.678511811224
28-8-2017 15:00,13507.45,-30792.244889256443
28-8-2017 16:00,16367.82,-3661.603739589151
28-8-2017 17:00,57819.0,39014.23171749989
28-8-2017 18:00,26240.02,-5362.29228026374
28-8-2017 19:00,27944.78,15764.88196855496
28-8-2017 20:00,17592.25,17619.111591310648
28-8-2017 21:00,11103.68,10678.39140375147
28-8-2017 22:00,303800.48,63930.660483474945
28-8-2017 23:00,12425.88,9637.563764561797
29-8-2017 0:00,8337.15,-45154.868875784116
29-8-2017 1:00,7074.05,10659.255542035906
29-8-2017 2:00,6585.52,6733.131800289193
29-8-2017 3:00,6440.5,7574.301995142334
29-8-2017 4:00,7827.0,6843.49557974132
29-8-2017 5:00,6851.08,5197.29439526661
29-8-2017 6:00,8361.03,-38947.438494741764
29-8-2017 7:00,9098.07,3193.5324343726315
29-8-2017 8:00,9998.27,-7723.0977880783685
29-8-2017 9:00,78585.18,13721.424033810916
29-8-2017 10:00,24956.33,-75225.08760408865
29-8-2017 11:00,69853.0,-10090.838265391183
29-8-2017 12:00,19828.53,-49043.45456506632
29-8-2017 13:00,52828.55,247.80066209036886
29-8-2017 14:00,38756.28,-4291.694654457337
29-8-2017 15:00,292420.13,234771.67754281737
29-8-2017 16:00,16386.77,-15566.302865172413
29-8-2017 17:00,12527.2,-18741.829020453908
29-8-2017 18:00,12946.93,-31264.55102618561
29-8-2017 19:00,12626.65,-10226.94091974169
29-8-2017 20:00,12657.7,1701.4705967478658
29-8-2017 21:00,11625.23,1136.0579397080292
29-8-2017 22:00,248985.23,161.40209688502364
29-8-2017 23:00,13185.35,2769.5491070310745
30-8-2017 0:00,8532.13,-48337.086320773
30-8-2017 1:00,7198.85,9779.040415249488
30-8-2017 2:00,6651.65,8419.232802035724
30-8-2017 3:00,6576.67,11427.156778888297
30-8-2017 4:00,7348.25,12241.674399441792
30-8-2017 5:00,6514.7,12465.012723497173
30-8-2017 6:00,7248.78,-31199.950607901497
30-8-2017 7:00,8331.6,13065.099194076061
30-8-2017 8:00,9802.42,4409.085486497206
30-8-2017 9:00,62182.3,8878.434521403797
30-8-2017 10:00,89630.82,1068.111059166702
30-8-2017 11:00,25142.87,-41430.128526576154
30-8-2017 12:00,118073.47,61727.11258202778
30-8-2017 13:00,16377.15,-24052.19932062891
30-8-2017 14:00,14175.35,-16477.448008654566
30-8-2017 15:00,26731.25,-17595.97653133145
30-8-2017 16:00,23488.72,6272.881870943442
30-8-2017 17:00,13037.92,-4595.4616339810345
30-8-2017 18:00,12958.05,-19685.519057952908
30-8-2017 19:00,12539.73,3818.848954326906
30-8-2017 20:00,12375.42,15736.11209795922
30-8-2017 21:00,14186.32,17059.374655980504
30-8-2017 22:00,166208.6,-74481.28787342587
30-8-2017 23:00,13449.57,13092.148943941935
31-8-2017 0:00,9371.75,-36415.3445718208
31-8-2017 1:00,7052.85,18678.367315095194
31-8-2017 2:00,6673.45,15702.368663105444
31-8-2017 3:00,6609.08,16408.63925464853
31-8-2017 4:00,8140.5,15733.60469672105
31-8-2017 5:00,7863.83,14194.163520534668
31-8-2017 6:00,8572.25,-32287.64926102616
31-8-2017 7:00,9313.32,9370.77407415527
31-8-2017 8:00,10785.98,-1636.5784582107444
31-8-2017 9:00,95814.8,31046.99219543072
31-8-2017 10:00,88941.57,-14685.566571446892
31-8-2017 11:00,39466.62,-44077.978561933036
31-8-2017 12:00,92566.83,14744.356474647
31-8-2017 13:00,31823.1,-33083.27718667287
31-8-2017 14:00,34291.6,-23221.13387502627
31-8-2017 15:00,97160.18,24272.38225349549
31-8-2017 16:00,33788.32,-13190.890595889832
31-8-2017 17:00,26017.73,-22995.59472808148
31-8-2017 18:00,49113.47,-17492.760847917714
31-8-2017 19:00,37618.02,-3013.1939495187617
31-8-2017 20:00,18911.0,-9966.898198460418
31-8-2017 21:00,17351.8,-11338.877801635273
31-8-2017 22:00,451165.88,175310.94310416305
31-8-2017 23:00,14942.8,-17028.26014945931
1-9-2017 0:00,217563.1,142813.07836860738
1-9-2017 1:00,8416.15,-7595.656967019233
1-9-2017 2:00,7063.73,-9966.269031221113
1-9-2017 3:00,7251.45,-7957.774198423671
1-9-2017 4:00,7374.85,-8929.328952837386
1-9-2017 5:00,8122.65,-6923.017985601953
1-9-2017 6:00,9581.1,-50605.04857366137
1-9-2017 7:00,10996.87,-5696.273783892102
1-9-2017 8:00,11069.98,-15615.827219661289
1-9-2017 9:00,83028.28,6927.1771438249925
1-9-2017 10:00,68089.98,-43106.31123543062
1-9-2017 11:00,72926.85,-12729.449938397483
1-9-2017 12:00,40047.03,-37027.035281578836
1-9-2017 13:00,25147.88,-36754.134047064086
1-9-2017 14:00,66069.3,14434.887918752582
1-9-2017 15:00,37993.6,-25459.644647029236
1-9-2017 16:00,62032.22,28541.627906423026
1-9-2017 17:00,102341.18,66252.11114697589
1-9-2017 18:00,72672.33,17459.844331287008
1-9-2017 19:00,58909.68,32776.74811581682
1-9-2017 20:00,29735.25,16079.584474312898
1-9-2017 21:00,14710.73,1504.4065564400516
1-9-2017 22:00,221649.55,-42735.08525605879
1-9-2017 23:00,14797.9,-2564.184734173119
2-9-2017 0:00,10056.7,-47846.37033577887
2-9-2017 1:00,7597.63,8951.519177172326
2-9-2017 2:00,6796.15,7903.39577187875
2-9-2017 3:00,6730.38,9901.676917050965
2-9-2017 4:00,7806.68,10187.664037271446
2-9-2017 5:00,7010.95,10691.530287233574
2-9-2017 6:00,109400.68,67510.33503198046
2-9-2017 7:00,9117.0,10815.1144156425
2-9-2017 8:00,10797.08,2509.6832157750396
2-9-2017 9:00,13714.35,-45927.43509376648
2-9-2017 10:00,74167.87,-21674.00946827267
2-9-2017 11:00,26491.07,-43222.41126659291
2-9-2017 12:00,15279.55,-47860.63337240826
2-9-2017 13:00,15051.63,-33841.891964980154
2-9-2017 14:00,61735.03,22801.72393208529
2-9-2017 15:00,13284.67,-37092.58205092136
2-9-2017 16:00,95035.28,75493.40118244721
2-9-2017 17:00,40420.73,16987.711612664843
2-9-2017 18:00,180627.2,135811.95391804347
2-9-2017 19:00,17437.9,4078.4444056243665
2-9-2017 20:00,12721.62,11835.081188478383
2-9-2017 21:00,7724.63,6438.617541819847
2-9-2017 22:00,0.0,-257589.31440306385
2-9-2017 23:00,11174.62,2635.5924802420923
3-9-2017 0:00,17066.05,-30886.924655123796
3-9-2017 1:00,7302.12,18409.31807877675
3-9-2017 2:00,6509.07,17425.641704762973
3-9-2017 3:00,6562.57,19070.937534681514
3-9-2017 4:00,6894.92,18202.0849019077
3-9-2017 5:00,6128.9,18875.49953179335
3-9-2017 6:00,207016.87,173860.85270654334
3-9-2017 7:00,8191.48,18818.129781294985
3-9-2017 8:00,9202.37,9949.413914526063
3-9-2017 9:00,10664.23,-41969.721755749255
3-9-2017 10:00,56081.0,-33945.466813212064
3-9-2017 11:00,12978.8,-50418.37639459169
3-9-2017 12:00,12491.0,-46429.32995074704
3-9-2017 13:00,11732.5,-33381.757692918
3-9-2017 14:00,115782.32,80805.69281288382
3-9-2017 15:00,10899.07,-34661.81590986007
3-9-2017 16:00,11035.55,-2332.441319087611
3-9-2017 17:00,11392.05,-5732.7341010529235
3-9-2017 18:00,81828.78,42489.96692354558
3-9-2017 19:00,11784.52,7704.743712329855
3-9-2017 20:00,12243.22,22059.020517694134
3-9-2017 21:00,11558.73,20972.848757014777
3-9-2017 22:00,74170.02,-176997.5457054889
3-9-2017 23:00,13020.15,13777.21515400221
4-9-2017 0:00,9011.03,-27672.205900358942
4-9-2017 1:00,6826.07,28548.471660131207
4-9-2017 2:00,6234.85,27364.893923037544
4-9-2017 3:00,6425.75,28217.586043342675
4-9-2017 4:00,6852.98,26574.97526321485
4-9-2017 5:00,6243.77,26539.355282022716
4-9-2017 6:00,6843.53,-20100.876104225437
4-9-2017 7:00,8406.97,24433.755670614435
4-9-2017 8:00,9910.2,15157.602145942747
4-9-2017 9:00,44149.18,-6962.157676037263
4-9-2017 10:00,33543.67,-57103.74020742757
4-9-2017 11:00,41258.2,-23210.164362837466
4-9-2017 12:00,124289.48,61250.373839696294
4-9-2017 13:00,24884.9,-26904.12444727277
4-9-2017 14:00,24160.6,-19428.780727933627
4-9-2017 15:00,18277.8,-37151.55358561382
4-9-2017 16:00,14757.47,-9237.090757714315
4-9-2017 17:00,14355.28,-15846.527561779854
4-9-2017 18:00,14611.38,-41221.05862787879
4-9-2017 19:00,32769.93,13414.105488941677
4-9-2017 20:00,14432.17,7808.913343649008
4-9-2017 21:00,14096.85,6601.2686014789
4-9-2017 22:00,421443.65,148617.80102087752
4-9-2017 23:00,14056.28,-4440.794743924045
5-9-2017 0:00,9074.08,-45359.85031775823
5-9-2017 1:00,7460.63,11475.262746465436
5-9-2017 2:00,6408.98,10126.98432343579
5-9-2017 3:00,6323.78,10471.033411271419
5-9-2017 4:00,7046.78,8951.836162188985
5-9-2017 5:00,6299.4,10128.949267636199
5-9-2017 6:00,7278.75,-35252.31898189302
5-9-2017 7:00,8695.63,10541.392471501415
5-9-2017 8:00,11562.43,3946.146267393284
5-9-2017 9:00,86898.93,24123.309959943712
5-9-2017 10:00,142178.53,41901.90895921239
5-9-2017 11:00,64184.38,-6184.810765641272
5-9-2017 12:00,20365.1,-47443.79179983191
5-9-2017 13:00,12370.23,-43421.67042883896
5-9-2017 14:00,13320.38,-32886.96329320235
5-9-2017 15:00,51181.38,-4798.750083058705
5-9-2017 16:00,82843.13,60865.01444231267
5-9-2017 17:00,12265.95,-16905.57283878268
5-9-2017 18:00,11075.03,-45679.432450508604
5-9-2017 19:00,15736.57,-1856.8220028817886
5-9-2017 20:00,12567.22,8010.2659039387945
5-9-2017 21:00,10992.58,4010.769905635185
5-9-2017 22:00,265630.65,-12508.563087418792
5-9-2017 23:00,14585.93,-7898.917770867745
6-9-2017 0:00,9034.53,-47191.3455053312
6-9-2017 1:00,7090.47,6704.129691326125
6-9-2017 2:00,6680.97,4222.364018026128
6-9-2017 3:00,6699.93,2728.8684067219
6-9-2017 4:00,6322.08,-2404.2892533299164
6-9-2017 5:00,6542.05,-1216.3740890391928
6-9-2017 6:00,7115.28,-48737.84715442439
6-9-2017 7:00,8282.02,-4706.187256740464
6-9-2017 8:00,7495.85,-17358.802834757626
6-9-2017 9:00,198479.4,113420.59940037882
6-9-2017 10:00,226238.45,99911.54077989433
6-9-2017 11:00,200254.23,103042.08035134056
6-9-2017 12:00,27490.15,-67863.02069763243
6-9-2017 13:00,160826.52,77428.89267603116
6-9-2017 14:00,25521.73,-48953.644780368115
6-9-2017 15:00,35759.95,-47765.10060915333
6-9-2017 16:00,25908.37,-23355.46644777467
6-9-2017 17:00,27759.25,-27622.40133313834
6-9-2017 18:00,22201.17,-61728.00876768857
6-9-2017 19:00,32082.87,-7927.960892199495
6-9-2017 20:00,22017.0,-2643.1129358820253
6-9-2017 21:00,13052.52,-9372.064733432373
6-9-2017 22:00,436521.68,141175.27973449262
6-9-2017 23:00,13961.85,-18168.671484383354
7-9-2017 0:00,8764.87,-48977.27913394696
7-9-2017 1:00,7254.67,8160.684556690474
7-9-2017 2:00,6495.3,8971.067994666577
7-9-2017 3:00,6712.53,11151.794045768955
7-9-2017 4:00,7297.92,9885.26444116293
7-9-2017 5:00,6367.77,12611.471589654226
7-9-2017 6:00,7291.5,-32648.626366229902
7-9-2017 7:00,10928.42,15986.507528287795
7-9-2017 8:00,10457.52,4889.96812890593
7-9-2017 9:00,104428.35,36407.6139045475
7-9-2017 10:00,84218.08,-26040.657116998686
7-9-2017 11:00,96071.65,16932.21696943888
7-9-2017 12:00,59561.17,-15623.388875624973
7-9-2017 13:00,16124.55,-47312.06013617349
7-9-2017 14:00,20790.15,-34532.65882149139
7-9-2017 15:00,16381.17,-47414.350326088206
7-9-2017 16:00,24581.92,-4837.353358155968
7-9-2017 17:00,24614.63,-13593.50679921404
7-9-2017 18:00,16146.62,-55320.27300801466
7-9-2017 19:00,15016.18,-11520.87952488949
7-9-2017 20:00,14677.02,2059.1666606987055
7-9-2017 21:00,14844.63,2595.3208108083563
7-9-2017 22:00,343597.7,50134.599000891365
7-9-2017 23:00,14674.88,-14538.392492232735
8-9-2017 0:00,216990.97,163767.90620428248
8-9-2017 1:00,7071.2,10029.777807674858
8-9-2017 2:00,6472.7,9367.899775701888
8-9-2017 3:00,6790.3,9849.796907985707
8-9-2017 4:00,7095.32,5931.12422579369
8-9-2017 5:00,6522.32,8504.708493159
8-9-2017 6:00,7260.7,-38228.04921855061
8-9-2017 7:00,8694.38,7139.014634255313
8-9-2017 8:00,42789.12,28650.797374963127
8-9-2017 9:00,104868.42,24624.498633833908
8-9-2017 10:00,40376.42,-84478.75228726042
8-9-2017 11:00,20208.0,-72926.68118431793
8-9-2017 12:00,80558.35,-7928.9193239590895
8-9-2017 13:00,126194.95,50526.04970703317
8-9-2017 14:00,15567.68,-51517.85528145048
8-9-2017 15:00,26101.97,-47601.297536105994
8-9-2017 16:00,15229.4,-22704.572835867264
8-9-2017 17:00,14440.48,-32310.3992995151
8-9-2017 18:00,84593.4,2515.541250538532
8-9-2017 19:00,25217.48,-8276.054125595547
8-9-2017 20:00,14356.58,-4006.254177631963
8-9-2017 21:00,13336.47,-2858.7438481470235
8-9-2017 22:00,639965.63,337930.7082958092
8-9-2017 23:00,13757.3,-19327.78323984766
9-9-2017 0:00,4314.22,-47512.757965538316
9-9-2017 1:00,2923.9,8467.748130287262
9-9-2017 2:00,1957.83,9460.875208043486
9-9-2017 3:00,2034.02,11557.870001186988
9-9-2017 4:00,2229.47,8813.560821087245
9-9-2017 5:00,1973.82,15386.671735014403
9-9-2017 6:00,7010.28,-24143.366204832862
9-9-2017 7:00,9048.83,24955.687133949097
9-9-2017 8:00,11001.92,16560.45154243442
9-9-2017 9:00,10574.27,-49064.3251784721
9-9-2017 10:00,12782.67,-89279.53946212106
9-9-2017 11:00,23937.08,-41242.564805680166
9-9-2017 12:00,17507.2,-37771.60870290516
9-9-2017 13:00,118720.38,78255.96019466779
9-9-2017 14:00,12538.15,-17947.74152194173
9-9-2017 15:00,11979.12,-22343.924951616078
9-9-2017 16:00,11236.67,15001.567055969015
9-9-2017 17:00,11972.52,4942.965157091621
9-9-2017 18:00,11979.97,-34394.289946640274
9-9-2017 19:00,12167.68,16082.733405326588
9-9-2017 20:00,12145.88,30453.62470302575
9-9-2017 21:00,7116.83,25996.65989860153
9-9-2017 22:00,8650.15,-266330.2553168534
9-9-2017 23:00,11963.12,7237.951791672476
10-9-2017 0:00,11415.92,-10177.857669508503
10-9-2017 1:00,8421.2,41259.606871128955
10-9-2017 2:00,7475.23,40167.58301099304
10-9-2017 3:00,7332.07,39773.9094173749
10-9-2017 4:00,7311.07,33969.25769174611
10-9-2017 5:00,6767.63,37383.024652842345
10-9-2017 6:00,156188.78,138588.58588546465
10-9-2017 7:00,8776.45,34810.14811082986
10-9-2017 8:00,10541.33,21907.603587699934
10-9-2017 9:00,11608.93,-49007.92151078016
10-9-2017 10:00,68000.77,-40546.529554780005
10-9-2017 11:00,14779.88,-59417.25174263699
10-9-2017 12:00,14136.78,-52600.56179524206
10-9-2017 13:00,63262.07,11488.117324348103
10-9-2017 14:00,98058.12,55810.839235049265
10-9-2017 15:00,11777.75,-33373.12501420738
10-9-2017 16:00,13290.55,6699.244656160634
10-9-2017 17:00,13247.53,-3320.539071510182
10-9-2017 18:00,58505.88,1370.6137774085219
10-9-2017 19:00,14135.82,11790.089463912467
10-9-2017 20:00,13188.77,27292.955717783356
10-9-2017 21:00,13182.87,29129.75399160391
10-9-2017 22:00,53246.57,-229821.16037110824
10-9-2017 23:00,12774.38,4133.433593754318
11-9-2017 0:00,10840.72,-9929.40239076305
11-9-2017 1:00,9037.9,42366.09601312656
11-9-2017 2:00,8217.87,41899.536633538795
11-9-2017 3:00,8246.73,42011.34007159932
11-9-2017 4:00,8291.08,36032.92121888176
11-9-2017 5:00,8540.08,40831.54622693757
11-9-2017 6:00,8912.52,-7196.721368180046
11-9-2017 7:00,10417.83,37979.84174355892
11-9-2017 8:00,11444.2,23483.66028860426
11-9-2017 9:00,13006.82,-51518.47853385406
11-9-2017 10:00,37967.93,-77790.2856846095
11-9-2017 11:00,78329.75,-3406.330063168978
11-9-2017 12:00,105459.2,30946.2283824412
11-9-2017 13:00,61787.02,1101.7832718694772
11-9-2017 14:00,17107.78,-35787.29564229776
11-9-2017 15:00,32729.72,-23420.045163315783
11-9-2017 16:00,22286.7,3883.47611190693
11-9-2017 17:00,29014.43,-1271.675393752077
11-9-2017 18:00,16066.73,-58732.870541377546
11-9-2017 19:00,16132.12,-2101.547015235228
11-9-2017 20:00,38284.15,35833.79969990865
11-9-2017 21:00,14613.87,14284.894281755085
11-9-2017 22:00,359667.98,54178.02118337565
11-9-2017 23:00,19852.63,-8030.987583835093
12-9-2017 0:00,11020.78,-25244.56968009886
12-9-2017 1:00,8139.75,25838.969043002173
12-9-2017 2:00,7089.55,25841.88059992183
12-9-2017 3:00,7101.95,26470.79752562027
12-9-2017 4:00,6880.1,20187.144544993338
12-9-2017 5:00,7886.62,27727.16523881808
12-9-2017 6:00,8812.3,-18541.523545230106
12-9-2017 7:00,9847.12,27593.387775562485
12-9-2017 8:00,26690.88,29450.946711462937
12-9-2017 9:00,80709.28,1720.6420748182427
12-9-2017 10:00,50564.05,-83562.2367549954
12-9-2017 11:00,48336.03,-52698.415896560095
12-9-2017 12:00,119565.45,24915.168474962687
12-9-2017 13:00,41196.7,-43625.68581767592
12-9-2017 14:00,16225.7,-65407.220508616534
12-9-2017 15:00,16322.2,-71780.69025330093
12-9-2017 16:00,16309.35,-37724.13438341405
12-9-2017 17:00,15595.1,-53576.38548624276
12-9-2017 18:00,34040.18,-84940.10044959391
12-9-2017 19:00,19308.67,-42678.20904125531
12-9-2017 20:00,15964.25,-32254.841822280483
12-9-2017 21:00,15268.57,-30744.25965330834
12-9-2017 22:00,175304.82,-182209.04691915459
12-9-2017 23:00,14286.9,-62634.75385023825
13-9-2017 0:00,1239436.2,1157647.8862182316
13-9-2017 1:00,6437.8,-22207.053663873914
13-9-2017 2:00,5610.93,-22107.14151687632
13-9-2017 3:00,5460.35,-21888.578392625088
13-9-2017 4:00,5334.93,-28990.15637386548
13-9-2017 5:00,5408.53,-19718.624181762614
13-9-2017 6:00,6537.45,-63996.74388550241
13-9-2017 7:00,8022.43,-15346.75166752738
13-9-2017 8:00,8634.4,-28602.89798891783
13-9-2017 9:00,89986.03,-23526.027903779046
13-9-2017 10:00,55038.95,-106992.66455046607
13-9-2017 11:00,54597.07,-64450.09469181937
13-9-2017 12:00,140964.2,38255.29616911357
13-9-2017 13:00,32282.48,-50352.00998527063
13-9-2017 14:00,24399.68,-45475.96435892719
13-9-2017 15:00,35604.35,-29764.331034628187
13-9-2017 16:00,32507.3,11652.871700335272
13-9-2017 17:00,19060.83,-14286.384358832482
13-9-2017 18:00,26772.4,-55928.94780967154
13-9-2017 19:00,46561.8,27084.169767157953
13-9-2017 20:00,13727.45,11823.844437708707
13-9-2017 21:00,17308.4,19171.884449929603
13-9-2017 22:00,349530.07,34992.314059922166
13-9-2017 23:00,12232.43,-17285.765373727452
14-9-2017 0:00,9054.48,-20313.059708822417
14-9-2017 1:00,7111.07,30863.911323312197
14-9-2017 2:00,6510.47,31861.79357983466
14-9-2017 3:00,6185.18,32456.30242208553
14-9-2017 4:00,6206.42,25384.99957411512
14-9-2017 5:00,6276.95,33486.042605983566
14-9-2017 6:00,7411.08,-12831.388675960341
14-9-2017 7:00,8843.7,33999.31567904577
14-9-2017 8:00,9615.52,18189.255340213
14-9-2017 9:00,11056.9,-64917.379790818566
14-9-2017 10:00,126030.1,-5592.798744214306
14-9-2017 11:00,29499.32,-62993.67437519158
14-9-2017 12:00,100146.58,20198.788485316174
14-9-2017 13:00,13572.58,-50604.496268553055
14-9-2017 14:00,23451.57,-32947.49706266499
14-9-2017 15:00,14234.27,-41231.11740712207
14-9-2017 16:00,19889.63,4833.200185394744
14-9-2017 17:00,30494.43,396.5572691418638
14-9-2017 18:00,60096.67,-24094.546569931153
14-9-2017 19:00,19804.82,-126.19995502528036
14-9-2017 20:00,15013.05,11268.455036686893
14-9-2017 21:00,13407.82,12165.896332476957
14-9-2017 22:00,352188.37,26819.753911347085
14-9-2017 23:00,12021.95,-26725.006931829696
15-9-2017 0:00,8677.38,-27726.854577450795
15-9-2017 1:00,7141.5,22058.989181660538
15-9-2017 2:00,6324.28,21736.373360444326
15-9-2017 3:00,6146.25,21253.219733431353
15-9-2017 4:00,6157.13,12279.606795859225
15-9-2017 5:00,6337.22,20966.849673738237
15-9-2017 6:00,225755.85,192533.4558198352
15-9-2017 7:00,8798.88,20851.710210872036
15-9-2017 8:00,9822.05,4223.303753596629
15-9-2017 9:00,10831.02,-82072.40598385927
15-9-2017 10:00,147534.72,-2629.7945993242247
15-9-2017 11:00,22706.22,-86666.34307528596
15-9-2017 12:00,156612.37,61508.54442943611
15-9-2017 13:00,42694.07,-34701.47093229729
15-9-2017 14:00,31099.72,-37257.38015524374
15-9-2017 15:00,26903.18,-37852.25617683603
15-9-2017 16:00,40526.72,18316.214264855
15-9-2017 17:00,29787.02,-6179.237246038596
15-9-2017 18:00,32091.83,-58872.6332109012
15-9-2017 19:00,15758.9,-6074.539295474569
15-9-2017 20:00,17317.97,14117.704279843405
15-9-2017 21:00,17453.45,18683.72327813015
15-9-2017 22:00,300274.38,-27155.204755194645
15-9-2017 23:00,18565.98,-17447.560588971144
16-9-2017 0:00,13940.92,-14345.545126190882
16-9-2017 1:00,3400.2,25181.0757299009
16-9-2017 2:00,1442.45,23158.326200949712
16-9-2017 3:00,1530.75,22260.8544746766
16-9-2017 4:00,2198.95,12596.885817506452
16-9-2017 5:00,7467.88,25374.51943652342
16-9-2017 6:00,101936.28,70115.34390578861
16-9-2017 7:00,12265.78,24122.119227983574
16-9-2017 8:00,10270.67,1930.6475473929167
16-9-2017 9:00,91499.95,-7674.5169947872855
16-9-2017 10:00,75851.88,-82969.24547062139
16-9-2017 11:00,42585.27,-74554.95698986755
16-9-2017 12:00,44368.65,-57552.40503923112
16-9-2017 13:00,35986.93,-47435.90029802931
16-9-2017 14:00,83491.22,9219.632760989109
16-9-2017 15:00,210838.72,141689.151773061
16-9-2017 16:00,135439.8,109823.50577472564
16-9-2017 17:00,51699.7,11427.092067731595
16-9-2017 18:00,95251.27,-3110.659624380307
16-9-2017 19:00,101384.7,74838.36799010736
16-9-2017 20:00,52470.33,44817.66654757142
16-9-2017 21:00,6310.67,4474.127472151507
16-9-2017 22:00,3326.9,-332244.9519495716
16-9-2017 23:00,8663.87,-31239.838550151046
17-9-2017 0:00,14920.97,-12413.595755172748
17-9-2017 1:00,5734.2,31318.68652147369
17-9-2017 2:00,5203.95,34269.92760836181
17-9-2017 3:00,5089.03,36594.68210640279
17-9-2017 4:00,5006.07,28937.972053208876
17-9-2017 5:00,5056.05,40423.86653622083
17-9-2017 6:00,109741.23,98431.57945151132
17-9-2017 7:00,6469.6,42164.93582772143
17-9-2017 8:00,7968.8,25848.649046672563
17-9-2017 9:00,35632.53,-40436.19420814437
17-9-2017 10:00,163123.72,25438.40354773991
17-9-2017 11:00,10974.65,-83725.18492270312
17-9-2017 12:00,19679.23,-58435.362434064766
17-9-2017 13:00,10390.97,-48914.74790514016
17-9-2017 14:00,87665.73,37144.76712063071
17-9-2017 15:00,10274.27,-34083.609148845615
17-9-2017 16:00,9595.58,9280.028097580198
17-9-2017 17:00,9818.85,-5737.7388907028435
17-9-2017 18:00,59150.88,-17270.30739525263
17-9-2017 19:00,11707.25,10102.07283310754
17-9-2017 20:00,16307.45,34172.275287529104
17-9-2017 21:00,15007.17,38227.75990550088
17-9-2017 22:00,81982.97,-235453.13913752217
17-9-2017 23:00,14540.07,-4821.734737806302
18-9-2017 0:00,9932.52,6135.987156468367
18-9-2017 1:00,6506.7,52657.062319794226
18-9-2017 2:00,5876.32,53230.795488646356
18-9-2017 3:00,5542.58,52938.3076771262
18-9-2017 4:00,5311.53,42068.05769403321
18-9-2017 5:00,5679.22,52079.45695643415
18-9-2017 6:00,6663.52,3716.9822331439136
18-9-2017 7:00,9202.6,50869.343578763175
18-9-2017 8:00,11685.83,32198.54561265008
18-9-2017 9:00,55746.87,-22774.06634242022
18-9-2017 10:00,82243.58,-61834.83234243418
18-9-2017 11:00,68116.47,-33642.8277516907
18-9-2017 12:00,21867.03,-63911.904712667056
18-9-2017 13:00,13233.58,-54537.42686968332
18-9-2017 14:00,31767.2,-28697.136350823657
18-9-2017 15:00,55353.87,982.0856244880997
18-9-2017 16:00,30781.67,19849.625320590683
18-9-2017 17:00,141.73,-27517.94237729218
18-9-2017 18:00,97622.07,5420.654877409368
18-9-2017 19:00,13870.83,-1416.1971092789681
18-9-2017 20:00,12113.28,15970.554413179147
18-9-2017 21:00,19871.52,29356.78377815061
18-9-2017 22:00,373894.03,36533.457102575674
18-9-2017 23:00,11793.02,-24354.835508665194
19-9-2017 0:00,7376.63,-9477.572526346157
19-9-2017 1:00,4810.48,37220.79782576703
19-9-2017 2:00,4335.85,37962.68537869112
19-9-2017 3:00,3909.07,37468.51755971771
19-9-2017 4:00,3549.77,25693.9771373018
19-9-2017 5:00,3498.52,35368.40515898787
19-9-2017 6:00,5060.42,-13211.603222986916
19-9-2017 7:00,6966.88,32790.443216761996
19-9-2017 8:00,9183.05,12388.054190305185
19-9-2017 9:00,69357.83,-31862.2881437362
19-9-2017 10:00,40174.73,-130850.03999481862
19-9-2017 11:00,29626.73,-100051.58443805882
19-9-2017 12:00,42953.95,-71655.1729438201
19-9-2017 13:00,90645.73,-7535.49030867446
19-9-2017 14:00,74533.32,-18598.392818623208
19-9-2017 15:00,83696.85,-4191.9211204205785
19-9-2017 16:00,58983.18,13152.985405009182
19-9-2017 17:00,51632.58,-13013.65763660195
19-9-2017 18:00,22220.52,-111246.42925677754
19-9-2017 19:00,16708.2,-38347.11461849167
19-9-2017 20:00,15346.45,-21491.395187974325
19-9-2017 21:00,360769.78,328834.02295883023
19-9-2017 22:00,634242.4,248274.42108897885
19-9-2017 23:00,109222.65,26608.553905056935
20-9-2017 0:00,10012.58,-50197.70156789948
20-9-2017 1:00,7023.18,-5239.178319638246
20-9-2017 2:00,5164.67,-6306.838053586063
20-9-2017 3:00,4414.72,-7637.714347496003
20-9-2017 4:00,4198.4,-20497.06385364059
20-9-2017 5:00,4503.37,-7247.119375639668
20-9-2017 6:00,6201.72,-53455.78326571757
20-9-2017 7:00,8501.17,-4395.591865858136
20-9-2017 8:00,59327.02,25372.873253259415
20-9-2017 9:00,71292.42,-65293.54944153069
20-9-2017 10:00,208288.88,4697.914605893675
20-9-2017 11:00,109234.15,-46551.71333253145
20-9-2017 12:00,37513.42,-96670.2398674358
20-9-2017 13:00,66066.75,-47914.30918049838
20-9-2017 14:00,164001.43,58095.739992020855
20-9-2017 15:00,176339.33,80130.261039103
20-9-2017 16:00,57023.15,6981.388151379826
20-9-2017 17:00,160809.52,92521.76928279494
20-9-2017 18:00,76130.95,-62658.80930859159
20-9-2017 19:00,21007.33,-34896.46490224128
20-9-2017 20:00,22073.02,-13687.579391035193
20-9-2017 21:00,18060.8,-12280.573518846199
20-9-2017 22:00,506815.8,116162.60450273781
20-9-2017 23:00,54891.27,-28844.021317331542
21-9-2017 0:00,10666.85,-46217.276526674716
21-9-2017 1:00,6705.13,-3922.0322526827367
21-9-2017 2:00,5554.13,-5082.211143919732
21-9-2017 3:00,5466.02,-6639.147783183507
21-9-2017 4:00,4910.1,-21440.767463457087
21-9-2017 5:00,5884.22,-8525.589040048479
21-9-2017 6:00,5787.63,-58517.51094913667
21-9-2017 7:00,8253.82,-10848.876076263012
21-9-2017 8:00,10145.47,-32676.88829866742
21-9-2017 9:00,118326.33,-32814.20151233777
21-9-2017 10:00,361750.05,138924.61171189183
21-9-2017 11:00,341884.75,165843.49355658027
21-9-2017 12:00,58877.15,-96508.45772916867
21-9-2017 13:00,135783.23,851.2408233169408
21-9-2017 14:00,58899.97,-68454.46850793943
21-9-2017 15:00,395350.83,278623.0117017786
21-9-2017 16:00,36058.82,-33916.22652663497
21-9-2017 17:00,23129.48,-64104.47072923424
21-9-2017 18:00,18786.5,-140213.72579887242
21-9-2017 19:00,117636.18,46413.63754143249
21-9-2017 20:00,31158.13,-17578.101700782543
21-9-2017 21:00,17140.75,-21699.779485504885
21-9-2017 22:00,457537.65,56065.25731894099
21-9-2017 23:00,89165.98,2135.0717541505
22-9-2017 0:00,13042.35,-38730.48430015306
22-9-2017 1:00,8293.72,2914.758543996417
22-9-2017 2:00,6631.27,2270.9680398969795
22-9-2017 3:00,6456.8,1567.6385997061443
22-9-2017 4:00,5491.73,-13417.860506044075
22-9-2017 5:00,5500.73,-5414.992828435847
22-9-2017 6:00,7087.7,-58654.947447742335
22-9-2017 7:00,9268.15,-15773.586232555768
22-9-2017 8:00,78257.47,23890.557072816577
22-9-2017 9:00,16764.75,-155670.07679530387
22-9-2017 10:00,279704.22,26841.193543719914
22-9-2017 11:00,122684.33,-88478.81689048918
22-9-2017 12:00,100352.13,-95165.30498909386
22-9-2017 13:00,88306.68,-90275.2912767416
22-9-2017 14:00,111094.85,-64176.56181745508
22-9-2017 15:00,113469.05,-54014.91515078266
22-9-2017 16:00,325837.05,201922.14857443175
22-9-2017 17:00,450556.35,306082.16487721424
22-9-2017 18:00,347674.78,125882.58916872076
22-9-2017 19:00,98185.68,-35224.57271762361
22-9-2017 20:00,48213.13,-64655.160873863555
22-9-2017 21:00,22685.95,-82384.98149477967
22-9-2017 22:00,965548.55,488950.89491324563
22-9-2017 23:00,299012.82,137805.41042445163
23-9-2017 0:00,14680.67,-109436.57565409476
23-9-2017 1:00,9247.32,-68169.1801717823
23-9-2017 2:00,7387.95,-67812.08822073863
23-9-2017 3:00,6815.65,-67803.31639385098
23-9-2017 4:00,6298.27,-81945.89085707236
23-9-2017 5:00,7354.47,-65811.66314661712
23-9-2017 6:00,115066.28,-6827.019697494601
23-9-2017 7:00,10473.77,-64188.80136134772
23-9-2017 8:00,12736.85,-85825.06174955129
23-9-2017 9:00,15661.58,-194757.30997914716
23-9-2017 10:00,147309.72,-136319.98623235454
23-9-2017 11:00,357727.43,126673.97734751343
23-9-2017 12:00,371525.2,167068.19872902776
23-9-2017 13:00,244697.3,63848.99526235834
23-9-2017 14:00,191730.27,20116.9211732994
23-9-2017 15:00,18375.35,-138098.3380419621
23-9-2017 16:00,18025.9,-87871.04470200793
23-9-2017 17:00,275216.08,150279.77946729574
23-9-2017 18:00,1108674.7,905688.9704810859
23-9-2017 19:00,33159.82,-76019.40927076829
23-9-2017 20:00,21290.98,-64470.32897989385
23-9-2017 21:00,10293.85,-64212.67983343829
23-9-2017 22:00,27145.23,-422227.1212182684
23-9-2017 23:00,17086.85,-110390.73202750036
24-9-2017 0:00,13105.78,-69893.78552672412
24-9-2017 1:00,8117.88,-24701.062989659506
24-9-2017 2:00,6349.47,-19882.204166883617
24-9-2017 3:00,7777.13,-13590.536656328375
24-9-2017 4:00,5494.9,-25929.72206043171
24-9-2017 5:00,4678.08,-7645.188745714593
24-9-2017 6:00,344131.62,286120.10834325186
24-9-2017 7:00,9125.75,1813.9493717739388
24-9-2017 8:00,9853.32,-18992.81913859061
24-9-2017 9:00,10770.42,-134652.60032283058
24-9-2017 10:00,81088.13,-141259.16176143775
24-9-2017 11:00,17005.08,-152820.42276066128
24-9-2017 12:00,428508.88,285299.72950780333
24-9-2017 13:00,232905.45,113193.99127349202
24-9-2017 14:00,317285.82,205949.47604746738
24-9-2017 15:00,53490.77,-42137.93663834827
24-9-2017 16:00,14511.25,-30317.271272274636
24-9-2017 17:00,13764.57,-51882.04345603885
24-9-2017 18:00,43743.87,-103982.25993955368
24-9-2017 19:00,21372.55,-30421.181776506724
24-9-2017 20:00,19241.1,-9557.41725810687
24-9-2017 21:00,20308.6,-1747.6027958167542
24-9-2017 22:00,214825.68,-193405.3264250392
24-9-2017 23:00,28241.55,-59560.04800624629
25-9-2017 0:00,12489.25,-31416.363377684553
25-9-2017 1:00,9541.83,9114.460723886034
25-9-2017 2:00,10726.07,11074.520928147947
25-9-2017 3:00,6987.92,6301.058632124565
25-9-2017 4:00,5924.18,-11433.653203106951
25-9-2017 5:00,6217.3,2621.4340775030723
25-9-2017 6:00,8368.43,-47239.466832055536
25-9-2017 7:00,10595.25,-206.66474952733552
25-9-2017 8:00,176407.73,137073.76697957813
25-9-2017 9:00,283563.37,120152.2319778592
25-9-2017 10:00,608187.97,361358.7144910173
25-9-2017 11:00,97060.02,-100082.30195013256
25-9-2017 12:00,191945.37,18658.910342447503
25-9-2017 13:00,30353.9,-120627.05294075678
25-9-2017 14:00,190477.7,45930.84041500185
25-9-2017 15:00,71679.83,-57672.59602261905
25-9-2017 16:00,37772.75,-41637.281736166304
25-9-2017 17:00,27953.83,-71213.91987600591
25-9-2017 18:00,31413.45,-151024.7934598333
25-9-2017 19:00,51725.0,-29816.033110838194
25-9-2017 20:00,29097.1,-27032.5100938659
25-9-2017 21:00,29335.18,-18567.26280728505
25-9-2017 22:00,595824.58,156435.28842983878
25-9-2017 23:00,208804.68,94376.37318739507
26-9-2017 0:00,18402.67,-46714.74694551909
26-9-2017 1:00,16073.83,-12382.047588780464
26-9-2017 2:00,9809.48,-23796.35231237042
26-9-2017 3:00,8624.57,-32030.22072431029
26-9-2017 4:00,7314.5,-56739.9994936865
26-9-2017 5:00,7649.47,-47051.690118195824
26-9-2017 6:00,9464.7,-102641.52089729172
26-9-2017 7:00,12220.22,-60043.124165825386
26-9-2017 8:00,15220.6,-91641.87860231794
26-9-2017 9:00,281104.73,45691.06124134586
26-9-2017 10:00,245683.95,-76615.24850557107
26-9-2017 11:00,79489.83,-192930.8566004878
26-9-2017 12:00,451071.53,202772.64950436732
26-9-2017 13:00,702206.68,476273.5720497337
26-9-2017 14:00,411444.63,191257.04486473923
26-9-2017 15:00,373429.35,169175.44555277668
26-9-2017 16:00,61226.97,-92689.32729424801
26-9-2017 17:00,61142.23,-114958.1224523588
26-9-2017 18:00,61038.13,-203010.40419869465
26-9-2017 19:00,442762.53,281090.04811417166
26-9-2017 20:00,145950.75,8619.929407639342
26-9-2017 21:00,21130.65,-104603.77349611264
26-9-2017 22:00,633419.78,112771.77848776954
26-9-2017 23:00,171827.47,-17442.654535498616
27-9-2017 0:00,55732.57,-76464.5926931721
27-9-2017 1:00,7414.62,-77721.1806553715
27-9-2017 2:00,6540.32,-72185.63175529579
27-9-2017 3:00,6339.05,-67944.6780563224
27-9-2017 4:00,6659.07,-80317.17359171648
27-9-2017 5:00,7032.75,-59153.243900226356
27-9-2017 6:00,6978.32,-106270.78991650927
27-9-2017 7:00,9239.45,-53294.528110816595
27-9-2017 8:00,12206.83,-75294.38089574169
27-9-2017 9:00,679532.27,466187.5264357977
27-9-2017 10:00,358622.83,62273.716945917404
27-9-2017 11:00,639062.6,400311.94438757794
27-9-2017 12:00,31104.07,-175563.94201277482
27-9-2017 13:00,109601.8,-70805.71680832744
27-9-2017 14:00,203804.13,32317.28231365967
27-9-2017 15:00,26205.6,-124749.71339967252
27-9-2017 16:00,40968.0,-55218.847943835644
27-9-2017 17:00,225709.95,108595.77838717338
27-9-2017 18:00,77687.22,-128461.64235260946
27-9-2017 19:00,69679.92,-28641.1372378308
27-9-2017 20:00,19186.8,-52005.35994944167
27-9-2017 21:00,18981.85,-42728.185699108726
27-9-2017 22:00,498782.3,32750.84959711376
27-9-2017 23:00,45117.48,-88549.97492271254
28-9-2017 0:00,20259.15,-54035.17350180204
28-9-2017 1:00,8873.3,-28970.527408341237
28-9-2017 2:00,8216.47,-32668.393510001726
28-9-2017 3:00,5249.47,-40712.67632551688
28-9-2017 4:00,6487.47,-62471.20192731448
28-9-2017 5:00,6273.05,-49947.757813271295
28-9-2017 6:00,8092.57,-104338.7049601876
28-9-2017 7:00,10534.02,-59799.36996936325
28-9-2017 8:00,110991.0,5832.777008184523
28-9-2017 9:00,323031.23,82004.03709245031
28-9-2017 10:00,434421.1,101537.7411500914
28-9-2017 11:00,762220.73,481922.8174188138
28-9-2017 12:00,419767.15,166779.76180373793
28-9-2017 13:00,143328.62,-85411.53423628815
28-9-2017 14:00,19935.58,-202616.74271087386
28-9-2017 15:00,373047.05,169716.13127086987
28-9-2017 16:00,165279.23,15240.098545715126
28-9-2017 17:00,55288.37,-115043.37850264904
28-9-2017 18:00,491621.57,230546.59689562808
28-9-2017 19:00,31464.88,-116952.21146794595
28-9-2017 20:00,17772.0,-101350.63446490053
28-9-2017 21:00,16812.32,-83452.0869986297
28-9-2017 22:00,654518.78,152015.6757713866
28-9-2017 23:00,233580.45,75918.01391645559
29-9-2017 0:00,11613.03,-72885.55092259642
29-9-2017 1:00,9818.37,-26551.050962390393
29-9-2017 2:00,7315.78,-19256.032254701975
29-9-2017 3:00,7267.68,-11611.391773620635
29-9-2017 4:00,7482.07,-22407.947390084082
29-9-2017 5:00,6939.47,400.6559853857325
29-9-2017 6:00,8498.1,-44732.80745329048
29-9-2017 7:00,10972.55,9888.041292335314
29-9-2017 8:00,38251.6,11150.418602025748
29-9-2017 9:00,330510.9,168383.34872413648
29-9-2017 10:00,172704.07,-79263.39783575054
29-9-2017 11:00,89249.73,-104277.25690501556
29-9-2017 12:00,82881.15,-77239.38589986421
29-9-2017 13:00,217037.9,80938.47713586275
29-9-2017 14:00,27877.73,-102979.5586150693
29-9-2017 15:00,19960.23,-91198.64461802323
29-9-2017 16:00,51549.37,-6007.278858860431
29-9-2017 17:00,18727.9,-65767.02357761272
29-9-2017 18:00,20425.53,-163801.5163322905
29-9-2017 19:00,44535.82,-29483.719460349603
29-9-2017 20:00,195890.82,146050.84597121982
29-9-2017 21:00,16931.32,-22516.837145660407
29-9-2017 22:00,629763.85,172317.03259854895
29-9-2017 23:00,198688.38,80716.2229089127
30-9-2017 0:00,15707.6,-33152.65868970245
30-9-2017 1:00,10130.52,577.7188403312903
30-9-2017 2:00,8975.58,1558.666060451098
30-9-2017 3:00,7545.33,90.81354121143522
30-9-2017 4:00,222890.37,195909.96248089132
30-9-2017 5:00,6546.43,3234.096050661654
30-9-2017 6:00,125570.78,74788.2572530995
30-9-2017 7:00,10740.33,11856.209265844605
30-9-2017 8:00,12331.37,-14057.773580004476
30-9-2017 9:00,15823.0,-144211.1600400901
30-9-2017 10:00,472422.4,225103.44916473303
30-9-2017 11:00,166221.4,-16263.158860281357
30-9-2017 12:00,47553.82,-94889.4848526645
30-9-2017 13:00,16482.83,-93011.81775312853
30-9-2017 14:00,173767.77,77723.22420764907
30-9-2017 15:00,68862.28,2146.8232080535163
30-9-2017 16:00,12746.7,9097.640955660332
30-9-2017 17:00,10632.32,-11492.506988030746
30-9-2017 18:00,190714.65,74976.96654978587
30-9-2017 19:00,26869.73,33997.54820406389
30-9-2017 20:00,13636.77,54937.631610979406
30-9-2017 21:00,5973.7,67210.44476789395
30-9-2017 22:00,76905.88,-277605.16165873373
30-9-2017 23:00,40740.72,38349.16767189461
