Time,Actual,STL processed
1-8-2017 0:00,1757275.68,49868.4244022537
1-8-2017 1:00,920793.03,-370561.8703147867
1-8-2017 2:00,560651.28,-631745.2639235076
1-8-2017 3:00,409666.97,-837342.3245485998
1-8-2017 4:00,449716.08,-884894.8800181942
1-8-2017 5:00,602947.5,-919433.3732304499
1-8-2017 6:00,1246524.82,-710996.1846309258
1-8-2017 7:00,2222918.88,-523275.00526139885
1-8-2017 8:00,3305011.8,-230835.27398899244
1-8-2017 9:00,4887682.67,166420.58585412288
1-8-2017 10:00,5948653.13,-227223.65476295864
1-8-2017 11:00,8843446.87,1258800.7020476814
1-8-2017 12:00,9392775.9,2024290.078496539
1-8-2017 13:00,7826031.8,2394835.6364969276
1-8-2017 14:00,6535383.02,1332075.4948722282
1-8-2017 15:00,6075387.47,745257.7136012362
1-8-2017 16:00,5950059.8,586449.4580810843
1-8-2017 17:00,5822417.2,484671.0700146742
1-8-2017 18:00,5871536.92,650961.337317707
1-8-2017 19:00,6185366.78,942659.8875394566
1-8-2017 20:00,5829021.95,933381.5740372222
1-8-2017 21:00,5709829.3,1045180.6752582388
1-8-2017 22:00,4835101.83,394844.41049752105
1-8-2017 23:00,4244418.6,-414851.8842385104
2-8-2017 0:00,1796027.38,-796749.5431458009
2-8-2017 1:00,862903.95,-1187498.6675982801
2-8-2017 2:00,604671.1,-1224533.4657466412
2-8-2017 3:00,486326.78,-1277036.1971594766
2-8-2017 4:00,425098.67,-1307488.9724062392
2-8-2017 5:00,590750.78,-1260540.6827331465
2-8-2017 6:00,1194968.37,-1030550.5922322907
2-8-2017 7:00,2291206.72,-661115.4974325672
2-8-2017 8:00,3476146.7,-208710.6168303159
2-8-2017 9:00,4482083.92,-372632.64628997585
2-8-2017 10:00,5640155.17,-643416.10364151
2-8-2017 11:00,8768866.77,1126046.2118182825
2-8-2017 12:00,9747963.32,2338856.1388003416
2-8-2017 13:00,6233962.97,745313.4928399809
2-8-2017 14:00,5680263.37,471530.03323990945
2-8-2017 15:00,5988855.47,695443.8176568039
2-8-2017 16:00,5579817.23,294442.5574125126
2-8-2017 17:00,5378319.08,144732.935716358
2-8-2017 18:00,5174868.3,78594.9354775371
2-8-2017 19:00,6103244.03,1010081.5689960662
2-8-2017 20:00,5733547.53,1010319.4200521316
2-8-2017 21:00,5531344.23,1053393.1681420505
2-8-2017 22:00,4655757.57,415504.42350702547
2-8-2017 23:00,4081522.43,-361603.1856505573
3-8-2017 0:00,2147533.03,-237813.18336392846
3-8-2017 1:00,836043.22,-1007381.1059906776
3-8-2017 2:00,532177.08,-1094583.867117513
3-8-2017 3:00,455678.33,-1111561.0577569217
3-8-2017 4:00,387951.65,-1156916.2771013859
3-8-2017 5:00,539188.4,-1123728.0958409319
3-8-2017 6:00,1109803.32,-934838.8847367307
3-8-2017 7:00,2116390.37,-661597.2297328599
3-8-2017 8:00,3179797.15,-342019.225026811
3-8-2017 9:00,4916329.75,219348.87429751642
3-8-2017 10:00,5968354.57,-152582.61731808726
3-8-2017 11:00,9258466.95,1806938.97926124
3-8-2017 12:00,7009342.68,-211780.48075311584
3-8-2017 13:00,5738412.55,396334.1224862831
3-8-2017 14:00,6048595.65,1013879.8480713442
3-8-2017 15:00,5666581.05,564749.8313366347
3-8-2017 16:00,6135548.58,1058704.831373808
3-8-2017 17:00,5478118.07,455369.9098129603
3-8-2017 18:00,5471826.97,582916.5657973364
3-8-2017 19:00,5289051.23,404891.5179874515
3-8-2017 20:00,4897669.22,382709.2689766255
3-8-2017 21:00,4771124.78,534419.2001739158
3-8-2017 22:00,4172044.08,205046.59708249988
3-8-2017 23:00,3947406.33,-187619.55507871928
4-8-2017 0:00,1529554.37,-537702.8001802545
4-8-2017 1:00,836541.28,-663008.8120963853
4-8-2017 2:00,491105.02,-770078.7573168045
4-8-2017 3:00,390908.47,-790836.168297899
4-8-2017 4:00,414730.72,-726805.3991147429
4-8-2017 5:00,545792.9,-705632.7107204879
4-8-2017 6:00,1122782.05,-510363.6534665036
4-8-2017 7:00,1933515.85,-432012.71444491204
4-8-2017 8:00,2686540.18,-426606.1618214925
4-8-2017 9:00,4185924.97,-122881.71967992326
4-8-2017 10:00,7428928.65,1685873.5024269763
4-8-2017 11:00,6216862.82,-843315.1518875859
4-8-2017 12:00,5999020.2,-849252.0709117856
4-8-2017 13:00,4971169.12,-55562.39445858821
4-8-2017 14:00,5304822.57,596809.1603256464
4-8-2017 15:00,4890252.62,116595.68645337224
4-8-2017 16:00,5739954.37,992144.390786049
4-8-2017 17:00,5564681.72,853128.431443553
4-8-2017 18:00,5111333.33,509996.81573417503
4-8-2017 19:00,5316708.78,701616.7886789222
4-8-2017 20:00,4841893.95,575121.1716842512
4-8-2017 21:00,4688312.6,679903.6513980352
4-8-2017 22:00,4100303.93,340745.3952593524
4-8-2017 23:00,2564522.57,-1381088.164496379
5-8-2017 0:00,1677781.08,-242939.4915769552
5-8-2017 1:00,979005.97,-409508.2964261938
5-8-2017 2:00,672859.88,-516871.0993839209
5-8-2017 3:00,586391.43,-565268.7943504257
5-8-2017 4:00,565732.48,-589168.1302833743
5-8-2017 5:00,680709.07,-596487.2116747354
5-8-2017 6:00,1226503.82,-452972.19519038266
5-8-2017 7:00,2183689.77,-247771.82907048613
5-8-2017 8:00,2992337.8,-211095.83544911165
5-8-2017 9:00,3898950.75,-512082.25001981994
5-8-2017 10:00,5094305.48,-752711.2937199352
5-8-2017 11:00,6137091.37,-1005023.4384579086
5-8-2017 12:00,1.057244282E7,3632291.43397853
5-8-2017 13:00,6046863.32,884937.4680884201
5-8-2017 14:00,5267343.52,449680.00651472155
5-8-2017 15:00,5067259.78,199613.38994777808
5-8-2017 16:00,6013688.88,1186937.6830188525
5-8-2017 17:00,4799249.85,26047.706853845622
5-8-2017 18:00,4987814.37,336339.2804098483
5-8-2017 19:00,4802089.18,153483.7050683638
5-8-2017 20:00,5102948.35,816912.8010489829
5-8-2017 21:00,2193905.52,-1754195.4552608249
5-8-2017 22:00,3601328.17,-19318.788986864965
5-8-2017 23:00,3886557.83,161296.1591228037
6-8-2017 0:00,1647418.87,3630.0955230975524
6-8-2017 1:00,907918.2,-116195.22817114461
6-8-2017 2:00,694340.17,-47603.184778079856
6-8-2017 3:00,486635.55,-135635.61964189354
6-8-2017 4:00,379359.52,-166631.1266028448
6-8-2017 5:00,637093.15,5109.791002980433
6-8-2017 6:00,1181837.9,175724.30550050177
6-8-2017 7:00,1867241.4,138248.63750150567
6-8-2017 8:00,2706733.05,230123.1309036361
6-8-2017 9:00,3639084.58,-57853.169403370935
6-8-2017 10:00,4274435.23,-861011.0579345236
6-8-2017 11:00,4877680.03,-1531628.9521199306
6-8-2017 12:00,5189425.42,-1028651.8672468765
6-8-2017 13:00,4519056.72,24179.550447464455
6-8-2017 14:00,4183197.03,46416.238443591166
6-8-2017 15:00,3961041.67,-221771.54489026405
6-8-2017 16:00,3922673.52,-215906.45715303393
6-8-2017 17:00,4051281.05,-75535.65806731302
6-8-2017 18:00,4439668.6,387011.0768273077
6-8-2017 19:00,4629973.93,537732.9652728313
6-8-2017 20:00,4457092.5,682594.02630198
6-8-2017 21:00,3949951.4,422580.72312584287
6-8-2017 22:00,3549162.5,257471.92096971115
6-8-2017 23:00,3710088.25,224842.92610204266
7-8-2017 0:00,1384072.73,-133494.4848595285
7-8-2017 1:00,782704.37,-224375.81899046758
7-8-2017 2:00,456717.08,-381463.6108383015
7-8-2017 3:00,374328.62,-459235.8171911165
7-8-2017 4:00,347149.93,-527270.4367717626
7-8-2017 5:00,452426.53,-549858.1585188298
7-8-2017 6:00,973327.62,-453112.37435821677
7-8-2017 7:00,1837085.02,-361302.2948261858
7-8-2017 8:00,2931265.57,-68558.58999337722
7-8-2017 9:00,5481493.6,1246538.4195272056
7-8-2017 10:00,6248373.62,570310.4117289055
7-8-2017 11:00,6812568.8,-120196.486340045
7-8-2017 12:00,9853769.25,3099429.2065335163
7-8-2017 13:00,5202800.23,129553.41179597052
7-8-2017 14:00,4723693.97,35296.09334558435
7-8-2017 15:00,4811575.25,94013.92722847871
7-8-2017 16:00,4916392.18,259319.42204329558
7-8-2017 17:00,4237006.38,-371526.00274992455
7-8-2017 18:00,4634870.15,131491.9743536464
7-8-2017 19:00,3599593.37,-907265.1330920304
7-8-2017 20:00,2020602.82,-2134784.45669256
7-8-2017 21:00,3994272.57,175027.50993535155
7-8-2017 22:00,4344946.18,849411.5005880571
7-8-2017 23:00,3850844.2,252618.9439819823
8-8-2017 0:00,1191834.03,-372703.70310252486
8-8-2017 1:00,648465.7,-367528.51701193815
8-8-2017 2:00,484759.0,-328361.48344244994
8-8-2017 3:00,374629.92,-401685.43062604265
8-8-2017 4:00,433546.68,-353544.90177016193
8-8-2017 5:00,540421.48,-414737.9165324853
8-8-2017 6:00,1049278.37,-378393.2863711454
8-8-2017 7:00,2035424.55,-211615.34241996007
8-8-2017 8:00,3063875.78,-36773.40926834801
8-8-2017 9:00,4534809.28,135778.26932993485
8-8-2017 10:00,5359953.4,-535237.8106369977
8-8-2017 11:00,6208923.18,-970262.1754909749
8-8-2017 12:00,9655461.2,2593441.952481608
8-8-2017 13:00,5839591.47,387920.3633461371
8-8-2017 14:00,5353144.28,284436.4864832009
8-8-2017 15:00,5147624.82,37984.36561680585
8-8-2017 16:00,5337620.65,276117.222232352
8-8-2017 17:00,5555290.22,532108.1829288979
8-8-2017 18:00,5331724.28,397695.3816101281
8-8-2017 19:00,5395710.33,447352.9464725801
8-8-2017 20:00,5230018.77,619910.0764417015
8-8-2017 21:00,4706519.35,453820.1388399736
8-8-2017 22:00,4148205.48,239558.55562194344
8-8-2017 23:00,3975218.57,-12943.139402111527
9-8-2017 0:00,1535417.4,-415442.5314358887
9-8-2017 1:00,802596.77,-553845.5485593751
9-8-2017 2:00,504119.7,-610215.2336787353
9-8-2017 3:00,429303.18,-611455.8098241794
9-8-2017 4:00,383656.7,-633912.8562543457
9-8-2017 5:00,516269.25,-620819.1082967292
9-8-2017 6:00,1046784.62,-524385.2853350458
9-8-2017 7:00,1937629.42,-414304.73171281535
9-8-2017 8:00,2914072.58,-258205.51202658145
9-8-2017 9:00,4272924.68,-189347.3877755315
9-8-2017 10:00,5753594.2,-187894.1507429802
9-8-2017 11:00,9360595.18,2178673.7449771883
9-8-2017 12:00,6467656.35,-588470.5081275795
9-8-2017 13:00,5645804.62,155746.45534962649
9-8-2017 14:00,5173542.13,88947.33752226084
9-8-2017 15:00,5532957.93,423379.17415002873
9-8-2017 16:00,5250008.87,199210.58987597656
9-8-2017 17:00,5090015.67,77946.53735951614
9-8-2017 18:00,5116147.45,181759.35422758292
9-8-2017 19:00,5427763.25,474327.1644238904
9-8-2017 20:00,5177632.72,556393.5075859278
9-8-2017 21:00,4935118.73,690552.2056726138
9-8-2017 22:00,4229328.52,347517.3542087907
9-8-2017 23:00,3719207.38,-215832.54124968033
10-8-2017 0:00,1493057.4,-404628.29473046726
10-8-2017 1:00,769782.4,-524617.7138246414
10-8-2017 2:00,483167.47,-566897.7363894647
10-8-2017 3:00,439620.17,-537104.4102533739
10-8-2017 4:00,427919.73,-528699.8761421237
10-8-2017 5:00,535939.28,-540548.7955306182
10-8-2017 6:00,1029068.15,-491969.4398346413
10-8-2017 7:00,2045875.38,-266246.24016623665
10-8-2017 8:00,3070109.28,-78014.6975702527
10-8-2017 9:00,4542405.35,84356.1208664435
10-8-2017 10:00,7515075.33,1566429.1796172746
10-8-2017 11:00,7578301.53,404458.80063038366
10-8-2017 12:00,5905580.42,-1162163.8188329386
10-8-2017 13:00,5647663.33,97548.64218215924
10-8-2017 14:00,5203598.68,77287.7283155825
10-8-2017 15:00,5608450.0,468944.08736272994
10-8-2017 16:00,5353083.13,278870.2906690147
10-8-2017 17:00,5243455.73,215597.53463547025
10-8-2017 18:00,5035660.02,81228.49938629661
10-8-2017 19:00,5091504.4,120554.50234593032
10-8-2017 20:00,5145025.92,507470.19613035116
10-8-2017 21:00,4804080.32,569043.1146334684
10-8-2017 22:00,4078159.98,231188.61614309112
10-8-2017 23:00,4093814.95,226508.2714694417
11-8-2017 0:00,1523558.8,-299733.79223911883
11-8-2017 1:00,796699.15,-414029.68964006985
11-8-2017 2:00,527057.33,-436698.87598644616
11-8-2017 3:00,420839.5,-469401.19390491024
11-8-2017 4:00,407865.37,-464936.93768137274
11-8-2017 5:00,524226.87,-469442.0181648773
11-8-2017 6:00,1057985.32,-391349.4934835071
11-8-2017 7:00,2066819.92,-184565.0444631735
11-8-2017 8:00,2944201.07,-159491.00565168448
11-8-2017 9:00,4581039.07,150200.28807409946
11-8-2017 10:00,5112124.48,-817981.8595221029
11-8-2017 11:00,8930437.12,1793080.7087186323
11-8-2017 12:00,6283149.07,-765094.9351685583
11-8-2017 13:00,5439664.43,-139193.08011821192
11-8-2017 14:00,5690944.77,554427.446473354
11-8-2017 15:00,5575041.85,437314.6544372374
11-8-2017 16:00,5331278.9,265553.46182121476
11-8-2017 17:00,5365799.07,352553.4369628988
11-8-2017 18:00,5156488.77,210915.114288799
11-8-2017 19:00,5169139.52,208076.76470406866
11-8-2017 20:00,4927189.2,299217.5838031871
11-8-2017 21:00,4527506.23,355642.86461774074
11-8-2017 22:00,3609770.87,-120972.26900418429
11-8-2017 23:00,3915730.77,225289.65900199208
12-8-2017 0:00,1562505.1,-49518.163039335515
12-8-2017 1:00,925364.52,-6889.723419283517
12-8-2017 2:00,597558.97,-27157.81821943447
12-8-2017 3:00,500634.02,7534.725135327317
12-8-2017 4:00,461287.38,40886.978798932396
12-8-2017 5:00,554125.55,64791.4348100354
12-8-2017 6:00,1035301.38,132115.90606641537
12-8-2017 7:00,1787005.58,123734.81202829676
12-8-2017 8:00,2872760.27,393808.6146449088
12-8-2017 9:00,3882548.73,93889.31993185729
12-8-2017 10:00,4747233.82,-514703.3777393014
12-8-2017 11:00,5034403.53,-1382176.8259988618
12-8-2017 12:00,5206635.28,-1103158.348037844
12-8-2017 13:00,4880654.9,5565.868057066575
12-8-2017 14:00,4413499.03,12847.792116092052
12-8-2017 15:00,4294584.07,-81730.79399397504
12-8-2017 16:00,4173454.0,-110589.26552299177
12-8-2017 17:00,4229635.67,-10316.025063701905
12-8-2017 18:00,4430989.02,238441.20897964947
12-8-2017 19:00,4524876.0,303354.9709929344
12-8-2017 20:00,4235268.8,332022.47954912623
12-8-2017 21:00,1926657.9,-1522762.5446373117
12-8-2017 22:00,2817831.3,-193286.6407032148
12-8-2017 23:00,3557322.23,591271.552670361
13-8-2017 0:00,1296912.92,387811.74498383654
13-8-2017 1:00,839601.47,603261.7540251333
13-8-2017 2:00,609591.08,667140.8131714528
13-8-2017 3:00,538311.57,711367.9501996818
13-8-2017 4:00,480698.72,707501.6737035969
13-8-2017 5:00,513618.2,652827.0771368309
13-8-2017 6:00,841394.18,537973.0358957448
13-8-2017 7:00,1466192.67,374057.8597266972
13-8-2017 8:00,2249318.1,307535.39707595576
13-8-2017 9:00,3186231.37,-105223.69857287686
13-8-2017 10:00,3931138.82,-865007.8288159394
13-8-2017 11:00,4225710.68,-1729875.776072742
13-8-2017 12:00,4122506.2,-1766022.7687604604
13-8-2017 13:00,4074793.15,-439794.85196918435
13-8-2017 14:00,3579529.3,-454605.0307908985
13-8-2017 15:00,3452845.4,-557488.0413231126
13-8-2017 16:00,3336209.5,-587664.2321133204
13-8-2017 17:00,3532163.55,-390875.36053701397
13-8-2017 18:00,3893983.67,-36787.96397680137
13-8-2017 19:00,4023264.12,15166.63543390762
13-8-2017 20:00,4048873.92,309366.1992465835
13-8-2017 21:00,3549628.73,164379.48345239088
13-8-2017 22:00,2928268.57,-118780.92166425195
13-8-2017 23:00,3064962.05,-29539.96953004133
14-8-2017 0:00,1262874.9,106569.01053147577
14-8-2017 1:00,699717.27,98833.26041236846
14-8-2017 2:00,467411.47,36436.884923506994
14-8-2017 3:00,435262.85,-6647.952956445981
14-8-2017 4:00,391638.63,-125809.93819387164
14-8-2017 5:00,493520.77,-185062.02543887682
14-8-2017 6:00,878272.9,-326598.3672777978
14-8-2017 7:00,1674174.6,-402918.4936781442
14-8-2017 8:00,2580838.1,-434749.67969660927
14-8-2017 9:00,4562681.97,150910.47955667833
14-8-2017 10:00,1.375115958E7,7796735.982579617
14-8-2017 11:00,6006130.88,-1119075.9078365243
14-8-2017 12:00,6936114.22,-168311.05533507746
14-8-2017 13:00,5742802.47,-32372.94352228474
14-8-2017 14:00,5138522.63,-134110.71089958586
14-8-2017 15:00,5047884.95,-185410.46152879624
14-8-2017 16:00,4828311.53,-308265.0002741632
14-8-2017 17:00,4874522.4,-176046.32291415147
14-8-2017 18:00,4736915.2,-248093.11917039054
14-8-2017 19:00,4711197.73,-271067.35868628044
14-8-2017 20:00,2303389.07,-2331549.4859411437
14-8-2017 21:00,4517874.37,439248.4374475642
14-8-2017 22:00,3654084.15,115156.19289697381
14-8-2017 23:00,3595928.23,218628.92340861354
15-8-2017 0:00,1577160.17,320904.59083496407
15-8-2017 1:00,963968.75,432549.88472640887
15-8-2017 2:00,563385.97,364650.91777332453
15-8-2017 3:00,447923.22,398563.49815614615
15-8-2017 4:00,423278.12,455814.9145349022
15-8-2017 5:00,560005.1,498850.1017399798
15-8-2017 6:00,959053.07,428933.7344315457
15-8-2017 7:00,1659998.48,315104.74952690117
15-8-2017 8:00,2562900.52,331620.9018677147
15-8-2017 9:00,3516361.28,-115209.6814601915
15-8-2017 10:00,4201987.25,-967800.7076700367
15-8-2017 11:00,4904921.2,-1404597.6937443018
15-8-2017 12:00,4794240.57,-1498377.148552474
15-8-2017 13:00,4386810.83,-635927.9724412779
15-8-2017 14:00,3883717.15,-629071.0190972807
15-8-2017 15:00,3797505.27,-675087.7705466021
15-8-2017 16:00,3819377.0,-560880.0088090491
15-8-2017 17:00,4250918.55,-109900.30872847373
15-8-2017 18:00,4715282.82,341574.84913569735
15-8-2017 19:00,4746659.5,304076.30615536124
15-8-2017 20:00,4568197.68,399990.25329511333
15-8-2017 21:00,4073834.92,332131.6914145034
15-8-2017 22:00,3509855.67,177558.9366172203
15-8-2017 23:00,3526500.9,233124.29469354218
16-8-2017 0:00,1423796.75,108642.39509360539
16-8-2017 1:00,848670.93,133703.66610651696
16-8-2017 2:00,510137.73,-6185.31005410105
16-8-2017 3:00,434163.3,-70328.52549497923
16-8-2017 4:00,428375.68,-135477.35562473722
16-8-2017 5:00,514057.35,-227144.84758479334
16-8-2017 6:00,937575.07,-368196.99053009413
16-8-2017 7:00,1909125.88,-308362.30156178866
16-8-2017 8:00,2723243.05,-483434.72543623904
16-8-2017 9:00,3920327.23,-754677.825504303
16-8-2017 10:00,7291528.4,1013830.5161555866
16-8-2017 11:00,1.103394085E7,3584833.8439019565
16-8-2017 12:00,6708345.2,-787230.2378608505
16-8-2017 13:00,5767195.25,-517014.4663979723
16-8-2017 14:00,5607028.93,-159654.79780177958
16-8-2017 15:00,6054168.33,333873.86695571896
16-8-2017 16:00,5700689.42,70098.35361549584
16-8-2017 17:00,5796300.73,266778.8250613464
16-8-2017 18:00,5668967.98,190300.61612235522
16-8-2017 19:00,5387043.35,-87867.72579219937
16-8-2017 20:00,6007556.6,879022.1343810274
16-8-2017 21:00,5128542.52,609383.7791062822
16-8-2017 22:00,4566903.23,640328.7139976383
16-8-2017 23:00,4405888.05,712361.6979847881
17-8-2017 0:00,1601358.77,55403.08238163032
17-8-2017 1:00,931541.13,136340.03095735097
17-8-2017 2:00,493751.3,38371.95603054203
17-8-2017 3:00,319826.52,13951.395207307767
17-8-2017 4:00,334637.42,103303.7939283112
17-8-2017 5:00,374369.77,35228.52897740994
17-8-2017 6:00,607350.28,-238767.4334304668
17-8-2017 7:00,893730.85,-807878.8501766399
17-8-2017 8:00,1010302.28,-1630134.859853784
17-8-2017 9:00,1870846.57,-2232275.9622267587
17-8-2017 10:00,2365232.75,-3331389.3092994974
17-8-2017 11:00,4993373.0,-1832667.234334854
17-8-2017 12:00,6686600.05,-175609.08965465985
17-8-2017 13:00,8277995.3,2557836.3881092044
17-8-2017 14:00,6351707.25,1145847.3829068951
17-8-2017 15:00,6079807.58,915728.8148205164
17-8-2017 16:00,5545333.3,457557.8904747721
17-8-2017 17:00,5386976.78,311653.40742775844
17-8-2017 18:00,5452464.33,321491.01582746673
17-8-2017 19:00,5398158.55,173363.96566442586
17-8-2017 20:00,5306477.75,329851.54955686023
17-8-2017 21:00,5042301.8,571875.4276109915
17-8-2017 22:00,4379824.67,399144.54020574596
17-8-2017 23:00,4357329.4,517809.7581184879
18-8-2017 0:00,1659723.32,-148892.95547312964
18-8-2017 1:00,851932.5,-242962.10257826513
18-8-2017 2:00,555982.22,-245513.50951492926
18-8-2017 3:00,499164.22,-202754.698964186
18-8-2017 4:00,449241.63,-231823.04850177048
18-8-2017 5:00,559895.53,-234471.25823874166
18-8-2017 6:00,1067238.18,-251547.73190442007
18-8-2017 7:00,2066330.37,-126756.40498009697
18-8-2017 8:00,3178987.62,22402.548925038893
18-8-2017 9:00,3904312.27,-727324.1711586718
18-8-2017 10:00,6041507.57,-192442.65435879352
18-8-2017 11:00,9952782.87,2613397.860429366
18-8-2017 12:00,6738298.82,-644963.1258421917
18-8-2017 13:00,5861889.02,-397124.75998070557
18-8-2017 14:00,5854078.42,157650.17281512264
18-8-2017 15:00,6221689.83,613947.9536815034
18-8-2017 16:00,5442622.72,-50702.40987312328
18-8-2017 17:00,5399403.73,-15559.917091323063
18-8-2017 18:00,5302285.25,-120306.25103123672
18-8-2017 19:00,5351002.93,-108460.82912108721
18-8-2017 20:00,4932937.27,-222039.7611877676
18-8-2017 21:00,4518587.6,-43442.382772936486
18-8-2017 22:00,3725879.98,-259318.6254429603
18-8-2017 23:00,3977869.45,231866.77342719398
19-8-2017 0:00,1559825.08,-82018.4111210606
19-8-2017 1:00,816033.78,-68802.32443071855
19-8-2017 2:00,551685.08,-5856.40390090365
19-8-2017 3:00,434962.73,7389.277500151657
19-8-2017 4:00,451888.72,71800.87918031309
19-8-2017 5:00,557188.25,82019.0297732167
19-8-2017 6:00,1029415.15,36099.379965682514
19-8-2017 7:00,1882493.18,19782.89567644475
19-8-2017 8:00,2763719.17,-63445.041720193345
19-8-2017 9:00,4050898.97,-247386.02077503223
19-8-2017 10:00,6411874.13,518757.6686370708
19-8-2017 11:00,8528911.05,1570639.7619883586
19-8-2017 12:00,6670059.67,-323500.016495347
19-8-2017 13:00,5716851.95,-183284.0785512426
19-8-2017 14:00,5332315.8,30029.346227715258
19-8-2017 15:00,5122634.2,-57083.05996814929
19-8-2017 16:00,5042547.22,2337.6512533347122
19-8-2017 17:00,4897413.3,-44199.10470776493
19-8-2017 18:00,5005731.63,58839.69444098603
19-8-2017 19:00,4975602.88,3113.9338526139036
19-8-2017 20:00,4734106.55,76748.9112551054
19-8-2017 21:00,2546278.38,-1454688.737561462
19-8-2017 22:00,930135.57,-2430218.7830883623
19-8-2017 23:00,3148124.45,101697.7191471071
20-8-2017 0:00,1337500.82,445185.3460501181
20-8-2017 1:00,818998.17,747974.3287971658
20-8-2017 2:00,501884.73,813049.7890546853
20-8-2017 3:00,482599.83,975122.6735672797
20-8-2017 4:00,348621.02,936259.3787264144
20-8-2017 5:00,485173.7,987523.4762106892
20-8-2017 6:00,873793.53,855841.3968227943
20-8-2017 7:00,1501701.52,610833.2878814926
20-8-2017 8:00,2380716.27,516010.5457445751
20-8-2017 9:00,3215683.48,-175077.16413086513
20-8-2017 10:00,3830717.12,-1206257.4139560098
20-8-2017 11:00,4349579.85,-1771134.283891071
20-8-2017 12:00,4911263.37,-1295015.3564363942
20-8-2017 13:00,4350900.42,-844651.1612110483
20-8-2017 14:00,3889132.25,-725177.719250333
20-8-2017 15:00,3676830.62,-832899.3373098166
20-8-2017 16:00,3703448.45,-693554.876113595
20-8-2017 17:00,3769550.68,-585246.618549257
20-8-2017 18:00,4177236.45,-257118.8740435047
20-8-2017 19:00,4332761.83,-192542.074862062
20-8-2017 20:00,4520500.13,244345.29427793855
20-8-2017 21:00,3789435.58,56839.690550466534
20-8-2017 22:00,3205748.07,1271.284487184137
20-8-2017 23:00,3637960.4,645867.882408462
21-8-2017 0:00,1253117.3,288813.0630832319
21-8-2017 1:00,694521.38,426757.85472155875
21-8-2017 2:00,466013.87,446298.35754135903
21-8-2017 3:00,419115.72,443112.57800006634
21-8-2017 4:00,369316.23,347023.33947274834
21-8-2017 5:00,489591.27,305988.0757108964
21-8-2017 6:00,927777.68,135902.69860514393
21-8-2017 7:00,1796209.35,42082.166874280665
21-8-2017 8:00,2468016.32,-355146.43814041326
21-8-2017 9:00,3475823.25,-915114.7417586399
21-8-2017 10:00,7286182.05,1210861.5762567814
21-8-2017 11:00,1.019674373E7,3032312.7101131883
21-8-2017 12:00,6491218.53,-795839.4494159385
21-8-2017 13:00,5833847.9,-487754.6992204841
21-8-2017 14:00,5597906.77,-121637.43238914944
21-8-2017 15:00,5312800.05,-282728.57462338824
21-8-2017 16:00,5356092.65,-116067.2058636425
21-8-2017 17:00,5214166.42,-163664.76954349596
21-8-2017 18:00,5041462.97,-381690.9644503705
21-8-2017 19:00,4962818.27,-508130.7540457314
21-8-2017 20:00,4747849.65,-431427.4817148396
21-8-2017 21:00,4307491.23,-186558.53631847724
21-8-2017 22:00,3711455.32,-112491.75489623332
21-8-2017 23:00,3964748.42,506119.5067327628
22-8-2017 0:00,1373415.48,70729.11920120148
22-8-2017 1:00,691169.17,235739.5684938575
22-8-2017 2:00,515425.83,449370.32263898617
22-8-2017 3:00,435410.83,550889.2478068578
22-8-2017 4:00,398282.55,601492.7094673803
22-8-2017 5:00,521766.38,657369.8003600375
22-8-2017 6:00,984377.3,593464.3414370632
22-8-2017 7:00,1840664.83,567858.4983906918
22-8-2017 8:00,2737764.65,470419.59197227424
22-8-2017 9:00,3890616.4,88760.67939344468
22-8-2017 10:00,5310167.32,-139263.57906527305
22-8-2017 11:00,7873941.43,1405004.9342678934
22-8-2017 12:00,4330442.0,-2223207.9265597435
22-8-2017 13:00,4258376.95,-1354714.2172620413
22-8-2017 14:00,3829211.55,-1140629.2914279446
22-8-2017 15:00,4593610.12,-212404.4337047981
22-8-2017 16:00,4213231.93,-438353.11155003635
22-8-2017 17:00,4636081.52,63753.67747874232
22-8-2017 18:00,3652270.05,-998339.3628879362
22-8-2017 19:00,3636976.5,-1085405.964167626
22-8-2017 20:00,4078879.2,-376440.0015533692
22-8-2017 21:00,3478968.43,-331694.7565536448
22-8-2017 22:00,3098118.03,-82616.41382161621
22-8-2017 23:00,2927991.88,83351.95533935446
23-8-2017 0:00,239182.77,-497470.67948776064
23-8-2017 1:00,364015.7,420915.74235736346
23-8-2017 2:00,330237.6,710144.8811042304
23-8-2017 3:00,268086.42,758416.1517038778
23-8-2017 4:00,296124.43,798237.4753759094
23-8-2017 5:00,431439.05,804668.3977366271
23-8-2017 6:00,902098.45,674096.4199832194
23-8-2017 7:00,1781954.63,593612.0804610737
23-8-2017 8:00,2739457.52,471966.40098217037
23-8-2017 9:00,7205138.65,3332217.024984194
23-8-2017 10:00,5113250.03,-476438.0796119515
23-8-2017 11:00,5943003.18,-702481.406581101
23-8-2017 12:00,4983405.67,-1804492.2610887396
23-8-2017 13:00,4905045.38,-1009375.9591098614
23-8-2017 14:00,4845296.62,-430407.3666565614
23-8-2017 15:00,4801435.92,-309034.38001451734
23-8-2017 16:00,4767729.45,-197798.49461661465
23-8-2017 17:00,4546440.63,-321728.7383074374
23-8-2017 18:00,4415700.57,-534518.0936352164
23-8-2017 19:00,4514361.9,-502029.7518574437
23-8-2017 20:00,4281740.87,-461977.8172351611
23-8-2017 21:00,3440156.6,-617095.0770474342
23-8-2017 22:00,2865328.35,-519157.0178870307
23-8-2017 23:00,2223049.07,-768155.476368993
24-8-2017 0:00,1222794.15,371602.9246207299
24-8-2017 1:00,722062.85,698934.1502238787
24-8-2017 2:00,456382.4,778106.3847780409
24-8-2017 3:00,381655.27,830902.5320150228
24-8-2017 4:00,378032.95,851263.1709304051
24-8-2017 5:00,457755.9,805716.1666850066
24-8-2017 6:00,868235.07,605139.6620269879
24-8-2017 7:00,1563548.57,326519.0956788771
24-8-2017 8:00,2420130.65,84196.36278929608
24-8-2017 9:00,4308017.45,326845.4812558633
24-8-2017 10:00,7299775.2,1563748.491362962
24-8-2017 11:00,5828216.85,-968794.165067831
24-8-2017 12:00,6313360.03,-652661.1924148006
24-8-2017 13:00,5562324.87,-595641.5257642376
24-8-2017 14:00,5512549.23,-9572.384701227304
24-8-2017 15:00,5107246.2,-246573.92714977777
24-8-2017 16:00,2682476.2,-2534187.9650190296
24-8-2017 17:00,5008340.03,-106644.13381506503
24-8-2017 18:00,4987857.75,-226723.38648955617
24-8-2017 19:00,4746399.62,-542489.1684542601
24-8-2017 20:00,4542741.2,-481599.6486238898
24-8-2017 21:00,4309198.8,21122.697678160854
24-8-2017 22:00,3564728.42,279.6755123282783
24-8-2017 23:00,2989586.0,-116372.13836717606
25-8-2017 0:00,1595674.08,669779.5906847757
25-8-2017 1:00,911901.97,873510.8573482502
25-8-2017 2:00,614551.95,967790.78501201
25-8-2017 3:00,506550.83,1029345.5861886274
25-8-2017 4:00,478086.47,1062007.6541921408
25-8-2017 5:00,583512.4,1081266.1430199249
25-8-2017 6:00,996779.0,909141.5411365931
25-8-2017 7:00,1760096.98,720424.05156653
25-8-2017 8:00,2540156.73,417314.8888702849
25-8-2017 9:00,3258104.6,-495848.69955824735
25-8-2017 10:00,3932971.88,-1559990.702134483
25-8-2017 11:00,6074020.6,-431180.40541350003
25-8-2017 12:00,7364735.1,717860.7370136203
25-8-2017 13:00,4467888.65,-1400611.1548918136
25-8-2017 14:00,4417590.45,-782195.6484467764
25-8-2017 15:00,4959429.4,-33245.91321360413
25-8-2017 16:00,3859492.28,-968071.9675776938
25-8-2017 17:00,3846422.12,-878032.4510976151
25-8-2017 18:00,3963356.43,-881134.5407374904
25-8-2017 19:00,4135641.62,-794183.4160633455
25-8-2017 20:00,3840169.32,-836124.5506435619
25-8-2017 21:00,3454082.3,-471665.8150812732
25-8-2017 22:00,2850531.55,-336244.88542742794
25-8-2017 23:00,2541786.18,-156806.59155856026
26-8-2017 0:00,1264349.68,750354.1587015339
26-8-2017 1:00,739350.63,1131350.3087576157
26-8-2017 2:00,529782.93,1319240.7918632538
26-8-2017 3:00,448736.95,1408834.3493117886
26-8-2017 4:00,431509.82,1448928.088735715
26-8-2017 5:00,493443.7,1419169.300884449
26-8-2017 6:00,833656.6,1155027.732023574
26-8-2017 7:00,1489310.33,835916.8494793279
26-8-2017 8:00,2339258.83,573804.597224188
26-8-2017 9:00,3380103.27,-48422.15956999641
26-8-2017 10:00,4296424.75,-901350.4663001173
26-8-2017 11:00,4624358.53,-1582995.1878979085
26-8-2017 12:00,6601004.55,233228.36283274926
26-8-2017 13:00,4408463.78,-1231458.155223466
26-8-2017 14:00,3952030.32,-1007149.0209911838
26-8-2017 15:00,3762718.1,-971381.1956710708
26-8-2017 16:00,3739289.12,-822584.0441247809
26-8-2017 17:00,4260386.27,-192651.44660659693
26-8-2017 18:00,3870330.57,-718886.877449865
26-8-2017 19:00,4064960.95,-616320.8803748765
26-8-2017 20:00,3709035.47,-725435.8736036872
26-8-2017 21:00,914692.35,-2729397.0674461294
26-8-2017 22:00,2677953.73,-186264.52463757433
26-8-2017 23:00,2505370.3,184583.9283146956
27-8-2017 0:00,1267244.82,1161144.4611179647
27-8-2017 1:00,739574.4,1586812.4174098046
27-8-2017 2:00,514011.32,1793387.1088004718
27-8-2017 3:00,449918.53,1929868.8253640728
27-8-2017 4:00,423188.3,1985505.2590515628
27-8-2017 5:00,444896.67,1925852.0818450744
27-8-2017 6:00,763411.27,1636905.2933304836
27-8-2017 7:00,1280873.95,1172730.5651358818
27-8-2017 8:00,2058066.12,824826.4906456745
27-8-2017 9:00,2694628.15,-240157.6153822136
27-8-2017 10:00,3480439.47,-1260351.787134273
27-8-2017 11:00,3642188.92,-2112036.117918894
27-8-2017 12:00,3757029.47,-2182882.3497527493
27-8-2017 13:00,3626644.83,-1646770.1364778345
27-8-2017 14:00,3190499.17,-1400981.4069763962
27-8-2017 15:00,2988171.52,-1371096.8440874321
27-8-2017 16:00,3067305.23,-1123459.0291488508
27-8-2017 17:00,3327588.58,-785765.1890822968
27-8-2017 18:00,3541711.57,-761115.9896186951
27-8-2017 19:00,3648664.92,-790108.0686326022
27-8-2017 20:00,3405426.83,-830407.0789997436
27-8-2017 21:00,3052119.23,-460569.5841438051
27-8-2017 22:00,2592346.45,-206644.72007742943
27-8-2017 23:00,2341315.1,33931.030061354395
28-8-2017 0:00,1092325.97,922643.6735109081
28-8-2017 1:00,664426.28,1362321.8354661576
28-8-2017 2:00,494079.28,1525688.4945695056
28-8-2017 3:00,388017.22,1517032.2096758247
28-8-2017 4:00,380905.05,1484228.7970545297
28-8-2017 5:00,476859.65,1423526.897173407
28-8-2017 6:00,817845.02,1068317.885685687
28-8-2017 7:00,1467597.73,643934.3185213162
28-8-2017 8:00,2157476.35,110055.1284766281
28-8-2017 9:00,5565429.27,1751082.272813798
28-8-2017 10:00,4974927.82,-709085.0743614375
28-8-2017 11:00,4502073.97,-2226132.684734124
28-8-2017 12:00,8045087.93,1079025.480466268
28-8-2017 13:00,4915515.68,-1441051.9196202485
28-8-2017 14:00,4750152.52,-918933.4995422158
28-8-2017 15:00,4341987.85,-1083398.393776963
28-8-2017 16:00,4754413.85,-501868.659806496
28-8-2017 17:00,4872393.28,-261116.7258476438
28-8-2017 18:00,4638644.58,-660846.3047332428
28-8-2017 19:00,4591440.62,-811272.9084910736
28-8-2017 20:00,4343459.6,-823582.4246515762
28-8-2017 21:00,3958487.8,-375156.0147455805
28-8-2017 22:00,3264551.72,-244541.45143900719
28-8-2017 23:00,2632295.53,-259988.80613133404
29-8-2017 0:00,1314038.27,659497.9859468816
29-8-2017 1:00,729502.07,1039916.7859383198
29-8-2017 2:00,506697.07,1235539.0051271273
29-8-2017 3:00,430232.47,1336449.1211489448
29-8-2017 4:00,417343.87,1372171.5617538453
29-8-2017 5:00,501402.25,1335555.6768531543
29-8-2017 6:00,919245.48,1079748.7200473724
29-8-2017 7:00,1755067.05,859634.7089514714
29-8-2017 8:00,2525534.97,418382.81839053985
29-8-2017 9:00,3954995.05,58327.68007881194
29-8-2017 10:00,4231735.1,-1555644.4402560066
29-8-2017 11:00,5056996.58,-1762722.5679531628
29-8-2017 12:00,5583320.55,-1483809.2734549283
29-8-2017 13:00,5853672.68,-668633.305947769
29-8-2017 14:00,5306338.93,-530607.2943380349
29-8-2017 15:00,5517418.5,-72009.39474138385
29-8-2017 16:00,5316805.72,-109818.26128862752
29-8-2017 17:00,4937281.6,-387585.19830821827
29-8-2017 18:00,4805745.73,-727986.3704137574
29-8-2017 19:00,4754175.22,-915300.544129909
29-8-2017 20:00,4677997.98,-788317.661298167
29-8-2017 21:00,4042283.28,-597348.0641043824
29-8-2017 22:00,3557489.98,-262172.742636567
29-8-2017 23:00,2875231.42,-317855.7532389574
30-8-2017 0:00,1493024.93,662094.7779275645
30-8-2017 1:00,845391.98,1119730.4898857586
30-8-2017 2:00,537738.65,1281006.7767507741
30-8-2017 3:00,503566.63,1444476.3997630836
30-8-2017 4:00,469772.7,1453913.0114004235
30-8-2017 5:00,605719.2,1467243.8511705394
30-8-2017 6:00,1034885.48,1176134.6669870643
30-8-2017 7:00,1930240.15,916515.2502575014
30-8-2017 8:00,2841179.28,504177.52216293244
30-8-2017 9:00,4176404.42,-98304.37812503288
30-8-2017 10:00,5252033.12,-1088557.5312412637
30-8-2017 11:00,5615230.38,-1828529.9936805088
30-8-2017 12:00,7670410.93,-47385.719171986915
30-8-2017 13:00,6856492.92,-344317.3047886132
30-8-2017 14:00,5548592.6,-974316.7534013679
30-8-2017 15:00,5299804.8,-880574.8198802425
30-8-2017 16:00,5413370.38,-588089.6335762478
30-8-2017 17:00,5358492.32,-538950.9960687067
30-8-2017 18:00,5451775.65,-692159.254727419
30-8-2017 19:00,5041851.55,-1295313.42198738
30-8-2017 20:00,4796232.72,-1350659.5754964603
30-8-2017 21:00,4997721.85,-277964.9752791561
30-8-2017 22:00,3817319.83,-580029.9702297393
30-8-2017 23:00,3269816.87,-345074.60595555976
31-8-2017 0:00,1651772.73,550781.2870942089
31-8-2017 1:00,878460.53,992747.9089569375
31-8-2017 2:00,597839.78,1201255.6714359382
31-8-2017 3:00,480823.5,1271844.4593765177
31-8-2017 4:00,461305.78,1258704.2978633447
31-8-2017 5:00,628771.35,1234544.4271968054
31-8-2017 6:00,1176338.58,948142.5305281756
31-8-2017 7:00,2133172.18,583206.0149877444
31-8-2017 8:00,3424747.03,372189.43618233036
31-8-2017 9:00,5473178.55,274756.46739742626
31-8-2017 10:00,8010668.65,511042.70384510886
31-8-2017 11:00,7531227.88,-1202550.2309908979
31-8-2017 12:00,7257773.85,-1836818.464126763
31-8-2017 13:00,7132742.35,-1504118.7193317749
31-8-2017 14:00,7132644.53,-865192.3246316165
31-8-2017 15:00,8128788.08,537074.5963493828
31-8-2017 16:00,7407072.93,-20320.940800373442
31-8-2017 17:00,7153145.4,-167931.18741879053
31-8-2017 18:00,7048137.97,-557015.4212837648
31-8-2017 19:00,7546634.97,-308426.57108219434
31-8-2017 20:00,7268125.35,-408742.63992675766
31-8-2017 21:00,6471959.88,-258929.06050174497
31-8-2017 22:00,5664359.87,-98966.08574182726
31-8-2017 23:00,4704920.9,-89206.40046217851
1-9-2017 0:00,2469490.62,371863.9205997372
1-9-2017 1:00,1252712.15,558234.5474954955
1-9-2017 2:00,784682.52,677392.4407169782
1-9-2017 3:00,600456.98,748595.5087143257
1-9-2017 4:00,581902.82,777621.788820602
1-9-2017 5:00,805377.58,868410.9134494569
1-9-2017 6:00,1648107.02,891427.1500277203
1-9-2017 7:00,3133061.73,1015821.0591349276
1-9-2017 8:00,4504274.83,833133.5030771755
1-9-2017 9:00,6875535.77,965596.5944452444
1-9-2017 10:00,7519309.35,-811926.2926874878
1-9-2017 11:00,9145654.98,-435485.8630645806
1-9-2017 12:00,1.04297407E7,516237.1330108391
1-9-2017 13:00,7531664.32,-1919113.205894746
1-9-2017 14:00,7981997.52,-804382.4719938673
1-9-2017 15:00,8223006.65,-29406.357665177435
1-9-2017 16:00,7875906.43,-162536.9823808754
1-9-2017 17:00,7376867.42,-504067.30262869503
1-9-2017 18:00,7523604.58,-630101.3412033748
1-9-2017 19:00,7617750.77,-793650.5630437164
1-9-2017 20:00,7153401.07,-1042995.0167272063
1-9-2017 21:00,6571691.42,-531226.6237493334
1-9-2017 22:00,5415261.02,-558142.6649337616
1-9-2017 23:00,4249629.83,-495109.45430348907
2-9-2017 0:00,2366300.57,573387.869115727
2-9-2017 1:00,1261859.4,1131639.324684346
2-9-2017 2:00,818119.57,1444819.2822881378
2-9-2017 3:00,634763.85,1656388.9639820792
2-9-2017 4:00,574071.22,1756152.909347633
2-9-2017 5:00,714651.0,1869442.1494297804
2-9-2017 6:00,1328512.9,1724302.059412836
2-9-2017 7:00,2596233.95,1639126.9133255798
2-9-2017 8:00,4003175.83,1487314.20017339
2-9-2017 9:00,5402083.0,596072.32710391
2-9-2017 10:00,6674486.73,-631330.8481997573
2-9-2017 11:00,7522823.85,-1007069.7987084617
2-9-2017 12:00,7068730.5,-1723492.2280122768
2-9-2017 13:00,6520978.93,-1792917.3894890435
2-9-2017 14:00,5774841.8,-1838678.095258046
2-9-2017 15:00,5603574.58,-1337529.146452278
2-9-2017 16:00,5928690.58,-738187.9976045205
2-9-2017 17:00,5852111.83,-660880.8637738624
2-9-2017 18:00,5541101.77,-1288170.7293503676
2-9-2017 19:00,5959747.08,-1189822.3055247422
2-9-2017 20:00,5332212.45,-1620354.2063392797
2-9-2017 21:00,3224728.02,-2603484.9817283694
2-9-2017 22:00,0.0,-4653370.650776966
2-9-2017 23:00,2966559.92,-315303.96671589324
3-9-2017 0:00,1899323.12,1707988.4171408005
3-9-2017 1:00,1078002.13,2666283.6611962593
3-9-2017 2:00,689923.53,3062237.1929963455
3-9-2017 3:00,511485.87,3275601.8082008655
3-9-2017 4:00,483630.82,3378459.548639681
3-9-2017 5:00,560397.93,3370358.3596655414
3-9-2017 6:00,1050678.97,2999375.7685438115
3-9-2017 7:00,1922977.47,2363469.8227525153
3-9-2017 8:00,2972242.77,1686153.7379963063
3-9-2017 9:00,4010767.17,214019.0160745699
3-9-2017 10:00,5012407.67,-1531816.7118147393
3-9-2017 11:00,5594907.9,-2316722.3068697597
3-9-2017 12:00,5548801.62,-2724282.9059675178
3-9-2017 13:00,4853585.65,-3018528.232753603
3-9-2017 14:00,4614214.87,-2614499.8309306274
3-9-2017 15:00,4216355.1,-2294450.380385919
3-9-2017 16:00,4278805.4,-1990475.5107128476
3-9-2017 17:00,4449939.53,-1731179.9368565925
3-9-2017 18:00,4752106.5,-1850903.0134878056
3-9-2017 19:00,5175641.4,-1872368.108049096
3-9-2017 20:00,4950445.2,-1980665.7300475626
3-9-2017 21:00,4472180.88,-1446573.465322394
3-9-2017 22:00,3815977.57,-1025479.1137539377
3-9-2017 23:00,3399028.83,-70951.40778084472
4-9-2017 0:00,1779124.7,1395503.5649945457
4-9-2017 1:00,914463.25,2245319.6703461707
4-9-2017 2:00,598367.17,2558305.779151871
4-9-2017 3:00,470836.72,2637392.1906762924
4-9-2017 4:00,456297.5,2541759.6889976906
4-9-2017 5:00,600639.02,2450380.4841580335
4-9-2017 6:00,1171120.0,1964061.525122285
4-9-2017 7:00,2267827.1,1303981.2628177144
4-9-2017 8:00,3723540.9,772012.219648256
4-9-2017 9:00,6461292.48,794726.7713377038
4-9-2017 10:00,6852284.17,-1793294.916673808
4-9-2017 11:00,7660856.57,-2479325.923811705
4-9-2017 12:00,1.305441235E7,2469782.469760035
4-9-2017 13:00,1.538767572E7,5167208.059833892
4-9-2017 14:00,7285457.32,-2308041.058581897
4-9-2017 15:00,6603626.8,-2185921.9641289874
4-9-2017 16:00,6820123.22,-1720069.0718180225
4-9-2017 17:00,6779407.88,-1596429.7619483047
4-9-2017 18:00,6755819.17,-2005601.1136463555
4-9-2017 19:00,6923257.65,-2266023.913517116
4-9-2017 20:00,6781554.07,-2229091.243622068
4-9-2017 21:00,6322900.78,-1399354.0188353774
4-9-2017 22:00,5284109.95,-1070543.9702879777
4-9-2017 23:00,4175932.75,-419427.13604097534
5-9-2017 0:00,2087561.47,962238.5120150046
5-9-2017 1:00,1028536.8,2041288.0990046058
5-9-2017 2:00,678516.88,2654135.805157736
5-9-2017 3:00,518526.22,3004311.9733438715
5-9-2017 4:00,512117.98,3193457.218332161
5-9-2017 5:00,641029.65,3276021.30907692
5-9-2017 6:00,1329026.93,3051907.9135770863
5-9-2017 7:00,2620578.98,2678119.812031992
5-9-2017 8:00,4129964.32,2278750.977722034
5-9-2017 9:00,3467774.53,-1141687.1431777976
5-9-2017 10:00,5338535.83,-2320353.043010948
5-9-2017 11:00,9009749.68,-109816.85393115832
5-9-2017 12:00,6955740.48,-2530143.179389358
5-9-2017 13:00,5440237.57,-3685465.956915753
5-9-2017 14:00,5828342.05,-2653995.760030495
5-9-2017 15:00,5831097.45,-1728424.0161295752
5-9-2017 16:00,6200027.0,-1069199.091301422
5-9-2017 17:00,5297981.78,-1857865.705336973
5-9-2017 18:00,5154257.18,-2478034.792020598
5-9-2017 19:00,4758006.33,-3411768.368551272
5-9-2017 20:00,5196514.9,-2859646.0381131503
5-9-2017 21:00,4368019.43,-2476732.845004901
5-9-2017 22:00,4339503.93,-1199803.9997935486
5-9-2017 23:00,3628925.67,-115730.38758762414
6-9-2017 0:00,1852864.23,1679681.1738179326
6-9-2017 1:00,1072238.8,3075483.5084715914
6-9-2017 2:00,651065.52,3533631.906030163
6-9-2017 3:00,532679.15,3805233.807710534
6-9-2017 4:00,516965.3,3832581.9117222577
6-9-2017 5:00,645391.05,3791588.8250297746
6-9-2017 6:00,1287495.47,3342932.844977225
6-9-2017 7:00,2253786.42,2392617.453223887
6-9-2017 8:00,2816532.6,778487.4260165263
6-9-2017 9:00,5637413.85,577816.0997751746
6-9-2017 10:00,1.012552055E7,1703609.491727177
6-9-2017 11:00,7526961.23,-2529195.8044773396
6-9-2017 12:00,7143787.8,-3370880.0833589565
6-9-2017 13:00,7248012.33,-2955785.9214461204
6-9-2017 14:00,6651919.18,-2921699.1059963508
6-9-2017 15:00,6551551.55,-1992628.5272069825
6-9-2017 16:00,6559714.35,-1696293.1657187012
6-9-2017 17:00,6518665.55,-1620554.3414664292
6-9-2017 18:00,6839428.27,-1801511.5214289632
6-9-2017 19:00,7222308.48,-2023006.3714988586
6-9-2017 20:00,6474484.03,-2659723.409384002
6-9-2017 21:00,5952804.53,-1862289.7824305305
6-9-2017 22:00,5018842.82,-1386549.17357135
6-9-2017 23:00,3819090.58,-559053.9705960574
7-9-2017 0:00,1902110.38,1372887.3186449762
7-9-2017 1:00,1029184.07,2921410.40318562
7-9-2017 2:00,630982.75,3525652.934372561
7-9-2017 3:00,535869.33,3907017.35177009
7-9-2017 4:00,514090.63,3982077.7752321735
7-9-2017 5:00,724765.37,4082647.7840721235
7-9-2017 6:00,1362750.3,3633607.9524365384
7-9-2017 7:00,2715486.4,3000626.7513664234
7-9-2017 8:00,3962434.42,1984731.7621531226
7-9-2017 9:00,5225041.07,76144.05951993633
7-9-2017 10:00,8120355.35,-590125.6944958507
7-9-2017 11:00,9500759.27,-903920.6837376133
7-9-2017 12:00,8934266.2,-1907502.9437955832
7-9-2017 13:00,6615750.65,-3936540.8378449045
7-9-2017 14:00,5767216.87,-4140161.8792320117
7-9-2017 15:00,5987974.83,-2755425.3209555857
7-9-2017 16:00,6060672.18,-2368508.7545824414
7-9-2017 17:00,6823383.02,-1494002.9825295205
7-9-2017 18:00,6619067.38,-2233715.646258137
7-9-2017 19:00,5760964.55,-3771230.137606985
7-9-2017 20:00,5678492.75,-3753245.141555123
7-9-2017 21:00,5879380.1,-2175024.4899588344
7-9-2017 22:00,5712492.57,-877246.1724000042
7-9-2017 23:00,4271099.27,-108090.90360352304
8-9-2017 0:00,2226330.87,1924216.2285248106
8-9-2017 1:00,1050847.02,3314947.2915451583
8-9-2017 2:00,639252.65,3928662.8349531926
8-9-2017 3:00,549088.27,4301209.746660604
8-9-2017 4:00,508671.25,4311211.348285017
8-9-2017 5:00,710116.38,4356724.260894484
8-9-2017 6:00,1429735.18,3887912.345912941
8-9-2017 7:00,2803540.78,3101765.4377136435
8-9-2017 8:00,3938841.17,1783131.7686819984
8-9-2017 9:00,5915699.58,407270.5115723349
8-9-2017 10:00,7080073.58,-2221091.8808940565
8-9-2017 11:00,8965118.73,-2122080.205655882
8-9-2017 12:00,9680633.35,-1854114.7493730271
8-9-2017 13:00,1.155462185E7,296924.3320999723
8-9-2017 14:00,7298324.5,-3290762.604639535
8-9-2017 15:00,6820501.82,-2461101.3953915704
8-9-2017 16:00,6543897.82,-2388474.6226490857
8-9-2017 17:00,6417242.47,-2400323.609860791
8-9-2017 18:00,6738059.65,-2640576.454420765
8-9-2017 19:00,7675510.72,-2449569.5241138395
8-9-2017 20:00,5895734.47,-4131535.4711902477
8-9-2017 21:00,5277861.03,-3228235.9655976743
8-9-2017 22:00,4511473.45,-2389374.699985727
8-9-2017 23:00,3586206.95,-835172.0360145885
9-9-2017 0:00,702930.48,672400.5383545123
9-9-2017 1:00,189801.07,3035554.756888804
9-9-2017 2:00,189454.73,4248687.589552165
9-9-2017 3:00,616459.67,5289940.4726036955
9-9-2017 4:00,1491619.63,6334401.7494246755
9-9-2017 5:00,844117.68,5616870.5631522145
9-9-2017 6:00,4341920.57,7956567.252173269
9-9-2017 7:00,2603277.98,4015467.4141933434
9-9-2017 8:00,3758525.57,2657420.362691909
9-9-2017 9:00,4972474.87,371737.1072799722
9-9-2017 10:00,5829497.2,-2760516.8874628213
9-9-2017 11:00,6413042.15,-4020227.5515705077
9-9-2017 12:00,6215046.95,-4641619.462772621
9-9-2017 13:00,8418773.88,-2171515.294397538
9-9-2017 14:00,6174735.02,-3721492.3351096837
9-9-2017 15:00,4960391.38,-3483093.0635104175
9-9-2017 16:00,4950386.72,-3107101.663018829
9-9-2017 17:00,4951819.43,-2986850.979666625
9-9-2017 18:00,5297305.7,-3227107.555229424
9-9-2017 19:00,5657546.37,-3679343.323438191
9-9-2017 20:00,5237524.2,-4003201.503814335
9-9-2017 21:00,2766201.72,-4906779.628090888
9-9-2017 22:00,3075443.72,-2948974.0182912364
9-9-2017 23:00,3082848.22,-290447.993010852
10-9-2017 0:00,1672182.42,2906240.529733604
10-9-2017 1:00,1001416.0,5260170.045261755
10-9-2017 2:00,741888.98,6240635.048660362
10-9-2017 3:00,607938.55,6710812.804535931
10-9-2017 4:00,569033.87,6798435.728033388
10-9-2017 5:00,612719.4,6736701.377767129
10-9-2017 6:00,1134032.27,6008938.935678905
10-9-2017 7:00,1840629.6,4349280.65280648
10-9-2017 8:00,2912343.18,2727045.3837233856
10-9-2017 9:00,3881580.03,-12484.7595879687
10-9-2017 10:00,4673725.22,-3468377.3762043053
10-9-2017 11:00,5152063.72,-4952738.179254994
10-9-2017 12:00,5068879.87,-5497387.8375392165
10-9-2017 13:00,9305596.93,-1044250.2637093756
10-9-2017 14:00,4284625.42,-5384991.929841478
10-9-2017 15:00,4171764.0,-3939134.7973382375
10-9-2017 16:00,3934001.95,-3793418.8805448674
10-9-2017 17:00,4292518.23,-3377933.824926542
10-9-2017 18:00,4613473.85,-3733254.679789953
10-9-2017 19:00,4964652.95,-4326445.124812199
10-9-2017 20:00,4799547.43,-4462893.776785867
10-9-2017 21:00,4385892.22,-3320274.9364869487
10-9-2017 22:00,3670133.33,-2402197.1680549933
10-9-2017 23:00,2928467.97,-379130.3570207646
11-9-2017 0:00,1500339.82,2958559.378543645
11-9-2017 1:00,792842.55,5367564.843152927
11-9-2017 2:00,570045.33,6354666.989374051
11-9-2017 3:00,475061.85,6797086.430160926
11-9-2017 4:00,445261.25,6794434.212422142
11-9-2017 5:00,597508.87,6747015.454993539
11-9-2017 6:00,1076958.73,5827565.038627509
11-9-2017 7:00,2170447.73,4332144.207694045
11-9-2017 8:00,3248368.9,2476606.467860752
11-9-2017 9:00,4398250.85,-321711.6841975767
11-9-2017 10:00,5886405.63,-3370654.8635350154
11-9-2017 11:00,6654053.95,-4715448.206376266
11-9-2017 12:00,1.053195072E7,-1367385.0125901569
11-9-2017 13:00,7185513.7,-4544005.9071904365
11-9-2017 14:00,6287337.37,-4772432.0326273795
11-9-2017 15:00,6193108.83,-3198614.0431050393
11-9-2017 16:00,6300813.83,-2706597.754078667
11-9-2017 17:00,6279806.3,-2664166.090814322
11-9-2017 18:00,6296427.58,-3346035.2995984443
11-9-2017 19:00,6383026.67,-4267383.621437848
11-9-2017 20:00,6372452.85,-4248492.455012715
11-9-2017 21:00,5679990.35,-3255059.896078731
11-9-2017 22:00,4701403.33,-2473456.0659734956
11-9-2017 23:00,3496253.33,-659182.1061444469
12-9-2017 0:00,1700626.82,2610553.975280892
12-9-2017 1:00,833011.93,5140215.8514126465
12-9-2017 2:00,566781.58,6242759.442897625
12-9-2017 3:00,494195.93,6829818.681037149
12-9-2017 4:00,471117.6,6923461.748888377
12-9-2017 5:00,637614.6,6971240.205616125
12-9-2017 6:00,1297060.7,6257155.396290967
12-9-2017 7:00,2440348.28,4764063.843611356
12-9-2017 8:00,3677781.65,3003713.159342752
12-9-2017 9:00,5379492.55,622579.5238491558
12-9-2017 10:00,6017236.47,-3461045.8683779854
12-9-2017 11:00,7648915.4,-3986762.161178395
12-9-2017 12:00,9239005.07,-2890085.035490557
12-9-2017 13:00,6456447.32,-5506463.491519374
12-9-2017 14:00,6138407.77,-5122264.919259575
12-9-2017 15:00,5655518.05,-3784812.575716556
12-9-2017 16:00,5739075.37,-3273123.664627624
12-9-2017 17:00,5495681.47,-3441549.9211992505
12-9-2017 18:00,5614013.17,-4038864.6913860748
12-9-2017 19:00,5966046.12,-4753272.325540339
12-9-2017 20:00,6036245.37,-4647715.27621411
12-9-2017 21:00,5466814.27,-3445232.6992352316
12-9-2017 22:00,4295196.48,-2773873.96501131
12-9-2017 23:00,3337143.57,-501379.64394203667
13-9-2017 0:00,1222180.58,2710192.97307708
13-9-2017 1:00,742438.57,5812935.219124855
13-9-2017 2:00,449110.65,6950631.417310879
13-9-2017 3:00,312638.57,7499601.640130013
13-9-2017 4:00,328164.57,7625012.866894859
13-9-2017 5:00,443158.6,7604077.212205319
13-9-2017 6:00,1047468.1,6761628.238215266
13-9-2017 7:00,2230211.98,5160961.83999027
13-9-2017 8:00,3291847.85,3060225.280481994
13-9-2017 9:00,4189959.1,-319538.05743059283
13-9-2017 10:00,6050795.08,-3430128.274400308
13-9-2017 11:00,7315183.8,-4428659.563592945
13-9-2017 12:00,7776969.03,-4479680.90152088
13-9-2017 13:00,7627985.53,-4505514.125280358
13-9-2017 14:00,5856118.88,-5579554.614888358
13-9-2017 15:00,5577640.47,-3920533.329363757
13-9-2017 16:00,5383313.25,-3679638.6466521034
13-9-2017 17:00,5627870.82,-3391317.90149173
13-9-2017 18:00,5572355.18,-4225689.850813895
13-9-2017 19:00,5837758.65,-5129511.887016545
13-9-2017 20:00,5758684.87,-5212576.346201533
13-9-2017 21:00,5208068.55,-3937350.7681629304
13-9-2017 22:00,4439260.78,-2818067.6597436615
13-9-2017 23:00,3275908.58,-576447.2110461551
14-9-2017 0:00,918946.02,2621255.531860904
14-9-2017 1:00,629254.58,6096207.141912112
14-9-2017 2:00,534326.02,7491504.180886595
14-9-2017 3:00,548795.53,8214164.712472753
14-9-2017 4:00,649267.22,8414613.32236175
14-9-2017 5:00,799333.77,8419186.67984362
14-9-2017 6:00,1313136.9,7420651.404777363
14-9-2017 7:00,2523009.65,5707718.154539687
14-9-2017 8:00,3482069.18,3347452.3033244405
14-9-2017 9:00,4381325.13,-223375.9590991526
14-9-2017 10:00,6891252.35,-2932111.6940839263
14-9-2017 11:00,6378804.02,-5810184.692941277
14-9-2017 12:00,9245142.77,-3473226.407757469
14-9-2017 13:00,6383819.53,-6241865.853721892
14-9-2017 14:00,5893163.07,-6026545.579671978
14-9-2017 15:00,5774070.13,-4078418.6566400793
14-9-2017 16:00,5645434.58,-3752161.8743198123
14-9-2017 17:00,5566737.32,-3787939.118942806
14-9-2017 18:00,5779469.92,-4386911.358915675
14-9-2017 19:00,5853305.6,-5554706.887464945
14-9-2017 20:00,5484616.35,-5936356.07545938
14-9-2017 21:00,5318762.25,-4230732.395128148
14-9-2017 22:00,4312749.2,-3311819.020282286
14-9-2017 23:00,3336520.05,-716928.9117253032
15-9-2017 0:00,1790605.08,3511672.3093009414
15-9-2017 1:00,1053811.85,6652822.767824419
15-9-2017 2:00,715054.93,7794634.77205619
15-9-2017 3:00,634309.22,8375970.646878212
15-9-2017 4:00,611934.0,8374810.106491091
15-9-2017 5:00,702537.58,8268829.876055972
15-9-2017 6:00,1308553.8,7255400.649825115
15-9-2017 7:00,2312250.98,5155370.395012455
15-9-2017 8:00,3457804.07,2783119.439527937
15-9-2017 9:00,4438096.73,-892092.2289194278
15-9-2017 10:00,6555817.02,-4233481.930581947
15-9-2017 11:00,6513109.08,-6737729.4777666945
15-9-2017 12:00,1.08061119E7,-2983891.2981338315
15-9-2017 13:00,1.077255315E7,-2944134.1309908098
15-9-2017 14:00,1.715075448E7,4159293.1120294137
15-9-2017 15:00,5591441.15,-5191981.582118999
15-9-2017 16:00,5388269.3,-4909492.064877726
15-9-2017 17:00,5357456.62,-4877838.549344606
15-9-2017 18:00,5348012.0,-5711447.200028701
15-9-2017 19:00,5416112.83,-6936993.940985107
15-9-2017 20:00,5429467.38,-6925179.247849509
15-9-2017 21:00,4867768.38,-5418605.598624612
15-9-2017 22:00,3801248.02,-4372205.00075112
15-9-2017 23:00,3237244.98,-1047783.1857336233
16-9-2017 0:00,1456688.93,3317186.830012844
16-9-2017 1:00,272270.9,6365000.064524996
16-9-2017 2:00,1636613.75,9441242.10153047
16-9-2017 3:00,1458311.42,1.0119898857104756E7
16-9-2017 4:00,375616.4,9220643.213957924
16-9-2017 5:00,690195.15,9407141.950547166
16-9-2017 6:00,1135362.8,8245351.528093058
16-9-2017 7:00,2284821.22,6229755.493646767
16-9-2017 8:00,3379535.97,3727781.948834328
16-9-2017 9:00,4625851.65,163472.84069804754
16-9-2017 10:00,5634174.77,-4497461.411307359
16-9-2017 11:00,6089186.32,-6569604.750484647
16-9-2017 12:00,6308515.52,-6868924.71006787
16-9-2017 13:00,6198319.0,-6908444.262468601
16-9-2017 14:00,6073081.55,-6272477.6931292685
16-9-2017 15:00,7901499.93,-2078472.9771091882
16-9-2017 16:00,8048677.12,-1398136.457598105
16-9-2017 17:00,5297619.33,-4102611.183729423
16-9-2017 18:00,5697906.18,-4574376.866945293
16-9-2017 19:00,5368627.12,-6284749.172129389
16-9-2017 20:00,4929307.62,-6749617.7596843075
16-9-2017 21:00,2592308.63,-6985918.378603709
16-9-2017 22:00,1304162.98,-6137517.68474055
16-9-2017 23:00,2752503.82,-647815.5403005029
17-9-2017 0:00,1338005.35,4289852.783128223
17-9-2017 1:00,700012.48,8071145.875395145
17-9-2017 2:00,467670.85,9614800.816940404
17-9-2017 3:00,410790.5,1.0442524175033052E7
17-9-2017 4:00,295201.22,1.0505366090892604E7
17-9-2017 5:00,388133.62,1.0501393672056582E7
17-9-2017 6:00,747427.23,9228887.9809296
17-9-2017 7:00,1539021.37,6756772.044400055
17-9-2017 8:00,2557503.05,4062352.5778100714
17-9-2017 9:00,4026698.73,521879.34443916986
17-9-2017 10:00,6875772.68,-2552375.1234548287
17-9-2017 11:00,4836705.93,-7228135.710170364
17-9-2017 12:00,4937534.32,-7669364.664515376
17-9-2017 13:00,4603290.13,-7994856.155773172
17-9-2017 14:00,4084045.13,-7776204.349428039
17-9-2017 15:00,3864739.08,-5531661.682552781
17-9-2017 16:00,3796030.88,-5078997.910085199
17-9-2017 17:00,4043506.42,-4872533.727170052
17-9-2017 18:00,4596361.95,-5311330.522206794
17-9-2017 19:00,4705860.1,-6742082.580907676
17-9-2017 20:00,4477907.17,-7091305.118442212
17-9-2017 21:00,3805764.97,-5808776.972217452
17-9-2017 22:00,3005726.27,-4627097.689076171
17-9-2017 23:00,2660341.17,-956638.7819251167
18-9-2017 0:00,1221211.5,3984585.322474327
18-9-2017 1:00,685275.22,7693867.344027309
18-9-2017 2:00,476258.45,8963822.171643658
18-9-2017 3:00,447641.92,9486331.613785952
18-9-2017 4:00,407712.58,9258702.930183183
18-9-2017 5:00,508079.35,8821617.072662555
18-9-2017 6:00,964401.62,7149575.809603353
18-9-2017 7:00,2090700.07,4441785.557731207
18-9-2017 8:00,4507533.53,2557782.016104336
18-9-2017 9:00,9543570.45,1986361.7922568563
18-9-2017 10:00,1.1989198E7,-2144154.226767688
18-9-2017 11:00,1.178480263E7,-5493526.486263424
18-9-2017 12:00,1.052395287E7,-7718585.880612188
18-9-2017 13:00,1.09132238E7,-7604772.329148332
18-9-2017 14:00,9799625.43,-8226066.914218694
18-9-2017 15:00,1.580357488E7,117707.82509045675
18-9-2017 16:00,1.657648628E7,1177913.7368147848
18-9-2017 17:00,295958.43,-1.5252680621634915E7
18-9-2017 18:00,1.585745285E7,-823899.0489038453
18-9-2017 19:00,1.63442797E7,-2057963.6230839696
18-9-2017 20:00,1.56026513E7,-3038066.4025605805
18-9-2017 21:00,1.549305858E7,-1258720.1140269674
18-9-2017 22:00,1.58467116E7,1002059.1644159127
18-9-2017 23:00,1.210175775E7,1327668.6603014506
19-9-2017 0:00,7444542.22,3159230.5216950867
19-9-2017 1:00,5145397.4,5056633.857429858
19-9-2017 2:00,3119698.8,4338279.396013018
19-9-2017 3:00,2141909.03,3703535.3771007005
19-9-2017 4:00,1246232.58,2379324.071303133
19-9-2017 5:00,1550574.78,1915195.5672166143
19-9-2017 6:00,3679685.03,1628907.7843439132
19-9-2017 7:00,8368047.67,2122255.3674614057
19-9-2017 8:00,1.21405366E7,1215423.7111298814
19-9-2017 9:00,1.696279205E7,75749.24407465383
19-9-2017 10:00,1.750884265E7,-6363868.648497615
19-9-2017 11:00,2.648884435E7,-793836.6631907187
19-9-2017 12:00,2.94271055E7,1001352.7900396027
19-9-2017 13:00,3.262629815E7,3825595.9686344825
19-9-2017 14:00,2.740288137E7,-966392.0634419844
19-9-2017 15:00,2.7201009E7,1232255.4127104394
19-9-2017 16:00,2.411618218E7,-1614535.0773485824
19-9-2017 17:00,2.51279189E7,-700264.3706442416
19-9-2017 18:00,2.426613943E7,-2674161.5636264626
19-9-2017 19:00,2.558888655E7,-3091141.4287862163
19-9-2017 20:00,2.741673375E7,-1457167.7257052884
19-9-2017 21:00,2.866918238E7,1821449.5933768637
19-9-2017 22:00,2.726759073E7,2455556.306695707
19-9-2017 23:00,2.195485963E7,1471271.7208900861
20-9-2017 0:00,1.464862723E7,982969.4435778782
20-9-2017 1:00,9933901.77,409470.55368212983
20-9-2017 2:00,5427343.33,-2977373.943763301
20-9-2017 3:00,1493514.9,-6795801.093824722
20-9-2017 4:00,1414646.98,-7566244.376058571
20-9-2017 5:00,2878808.98,-7572509.103413545
20-9-2017 6:00,8155704.32,-5472356.760228567
20-9-2017 7:00,1.398542807E7,-4679853.128271937
20-9-2017 8:00,1.978458333E7,-4420495.122769412
20-9-2017 9:00,3.014731152E7,-827668.985630624
20-9-2017 10:00,4.117396622E7,2344243.093134217
20-9-2017 11:00,4.435146425E7,1399526.648801051
20-9-2017 12:00,3.589557568E7,-8810664.313832331
20-9-2017 13:00,4.664276975E7,1391330.0332886279
20-9-2017 14:00,5.430370837E7,9347040.99391415
20-9-2017 15:00,5.542249633E7,1.2865299775255628E7
20-9-2017 16:00,5.640619137E7,1.3970115250557296E7
20-9-2017 17:00,5.846845147E7,1.6348191235658735E7
20-9-2017 18:00,5.568350728E7,1.2830431530900024E7
20-9-2017 19:00,5.757420105E7,1.331865573545082E7
20-9-2017 20:00,6.514371682E7,2.10991786533816E7
20-9-2017 21:00,4.902164887E7,8078323.587058365
20-9-2017 22:00,4.348465463E7,5644001.111713119
20-9-2017 23:00,3.100750715E7,-1300016.0656538568
21-9-2017 0:00,1.650318282E7,-7721693.685170628
21-9-2017 1:00,8203674.52,-1.0060483489095297E7
21-9-2017 2:00,4331949.4,-1.1125311350967735E7
21-9-2017 3:00,3013133.08,-1.068155735057665E7
21-9-2017 4:00,2274943.48,-1.0499706775310136E7
21-9-2017 5:00,2197111.58,-1.0228997130755126E7
21-9-2017 6:00,5041654.57,-8801617.806334034
21-9-2017 7:00,1.02608648E7,-6941001.905627105
21-9-2017 8:00,1.700525492E7,-4076054.8583793715
21-9-2017 9:00,2.444997357E7,-2532665.44168026
21-9-2017 10:00,3.664809783E7,2618160.1577563286
21-9-2017 11:00,4.190263852E7,4714759.703117762
21-9-2017 12:00,4.080218317E7,2925289.353955332
21-9-2017 13:00,3.991902517E7,1664049.5282054394
21-9-2017 14:00,4.008643432E7,2326942.760136038
21-9-2017 15:00,3.67169127E7,1693211.08526963
21-9-2017 16:00,3.609813425E7,1416098.0285286717
21-9-2017 17:00,3.468551485E7,114054.58950322494
21-9-2017 18:00,3.740026473E7,1856769.340444032
21-9-2017 19:00,3.765465937E7,427532.97705983
21-9-2017 20:00,3.760045872E7,370801.2621948905
21-9-2017 21:00,4.038542535E7,5754305.101466339
21-9-2017 22:00,4.07142226E7,8675110.357509278
21-9-2017 23:00,3.16952395E7,4816304.188633248
22-9-2017 0:00,1.883703868E7,-272170.4930358045
22-9-2017 1:00,9478971.83,-4640694.681260925
22-9-2017 2:00,5129962.35,-7286291.347831883
22-9-2017 3:00,3705083.47,-8092098.627259828
22-9-2017 4:00,3666541.12,-8389625.534746107
22-9-2017 5:00,2915598.72,-1.015427822712211E7
22-9-2017 6:00,5556381.92,-1.0352299470305882E7
22-9-2017 7:00,1.149102317E7,-9278838.877949245
22-9-2017 8:00,1.980058168E7,-6369581.376056895
22-9-2017 9:00,2.90483948E7,-3940050.5342415757
22-9-2017 10:00,4.21278232E7,1113998.119595468
22-9-2017 11:00,4.695741767E7,1964399.7283802032
22-9-2017 12:00,5.239370535E7,5991434.756417438
22-9-2017 13:00,5.037361398E7,3451570.591253981
22-9-2017 14:00,5.615250517E7,9617848.73794695
22-9-2017 15:00,5.189186103E7,8120504.800329946
22-9-2017 16:00,5.588186962E7,1.2363914875003643E7
22-9-2017 17:00,6.500741245E7,2.1747732728329286E7
22-9-2017 18:00,6.07406814E7,1.662268592144759E7
22-9-2017 19:00,4.964642445E7,3916575.516606353
22-9-2017 20:00,4.941251195E7,3819532.7254236788
22-9-2017 21:00,5.24581346E7,1.0071624686709017E7
22-9-2017 22:00,4.070287613E7,1508318.2405593842
22-9-2017 23:00,3.029709965E7,-2999626.9034064934
23-9-2017 0:00,2.093141205E7,-3797901.160808604
23-9-2017 1:00,8823663.88,-9733279.936624706
23-9-2017 2:00,4753065.92,-1.1049946961184733E7
23-9-2017 3:00,3175577.17,-1.099786026372224E7
23-9-2017 4:00,4434413.67,-9023030.487251848
23-9-2017 5:00,5939280.45,-7483822.080640752
23-9-2017 6:00,6495243.25,-8778000.745511293
23-9-2017 7:00,1.195007007E7,-7276637.15558685
23-9-2017 8:00,1.956243323E7,-4175129.1831317805
23-9-2017 9:00,2.865765752E7,-1429045.0845076442
23-9-2017 10:00,4.151313595E7,3809067.6454224847
23-9-2017 11:00,4.37762933E7,2657875.5493231304
23-9-2017 12:00,4.33480119E7,1486198.9762526415
23-9-2017 13:00,4.895265395E7,6823681.4868005365
23-9-2017 14:00,4.864954957E7,7194171.163380776
23-9-2017 15:00,4.400853783E7,5738274.108138092
23-9-2017 16:00,4.13445931E7,3633771.1793513633
23-9-2017 17:00,4.348297563E7,6126240.06678956
23-9-2017 18:00,4.971579157E7,1.1562571893846847E7
23-9-2017 19:00,5.106890698E7,1.1323723669310063E7
23-9-2017 20:00,5.051044018E7,1.0989639623571131E7
23-9-2017 21:00,2.259827903E7,-1.3629254295008842E7
23-9-2017 22:00,1.452429002E7,-1.843248144523027E7
23-9-2017 23:00,2.920621553E7,2363795.623834815
24-9-2017 0:00,2.161599415E7,3617540.6088204347
24-9-2017 1:00,9351439.27,-2252296.610142842
24-9-2017 2:00,4760284.93,-3999480.3582481258
24-9-2017 3:00,2452475.08,-4627689.379451387
24-9-2017 4:00,1696011.68,-4653660.134580508
24-9-2017 5:00,2282559.53,-4278329.3791051395
24-9-2017 6:00,5143064.85,-3572913.185785275
24-9-2017 7:00,1.072375792E7,-2331576.5584158376
24-9-2017 8:00,1.634473808E7,-1625616.4055208676
24-9-2017 9:00,2.143145403E7,-3635430.0470319614
24-9-2017 10:00,3.497917442E7,1486407.202047199
24-9-2017 11:00,4.006047982E7,2501675.0841197185
24-9-2017 12:00,4.627966358E7,7426789.662997458
24-9-2017 13:00,3.263371517E7,-6975555.51595303
24-9-2017 14:00,3.025851832E7,-9132801.694695257
24-9-2017 15:00,3.063569198E7,-5890549.35277335
24-9-2017 16:00,2.60843855E7,-1.0318224200230252E7
24-9-2017 17:00,2.589098567E7,-1.0776877072040115E7
24-9-2017 18:00,3.183504878E7,-6282617.164404478
24-9-2017 19:00,6.158625198E7,2.118136148800255E7
24-9-2017 20:00,5.37891751E7,1.2981029674346734E7
24-9-2017 21:00,5.544245633E7,1.6592510346324988E7
24-9-2017 22:00,4.802593298E7,1.1103692982455298E7
24-9-2017 23:00,3.14671507E7,-546083.2250251248
25-9-2017 0:00,2.631961093E7,2005030.6827717721
25-9-2017 1:00,1.320270238E7,-6624910.253780633
25-9-2017 2:00,4839603.67,-1.4184097029873125E7
25-9-2017 3:00,3830403.88,-1.5593768924184099E7
25-9-2017 4:00,3515718.02,-1.729356108535469E7
25-9-2017 5:00,3858977.83,-1.8926816979120754E7
25-9-2017 6:00,9497898.88,-1.7267672605716176E7
25-9-2017 7:00,1.915556035E7,-1.385500067900746E7
25-9-2017 8:00,2.823627782E7,-1.1613207923778296E7
25-9-2017 9:00,5.008180637E7,2040973.7356790155
25-9-2017 10:00,6.880169712E7,1.1179036005010836E7
25-9-2017 11:00,7.825574168E7,1.556792707635887E7
25-9-2017 12:00,8.369144452E7,1.881145882828846E7
25-9-2017 13:00,7.773829495E7,1.1839485004329085E7
25-9-2017 14:00,8.785811633E7,2.19484234147539E7
25-9-2017 15:00,7.401388418E7,1.0876043688329913E7
25-9-2017 16:00,7.490169657E7,1.1678482671863452E7
25-9-2017 17:00,7.621492178E7,1.3426367125977695E7
25-9-2017 18:00,7.606417472E7,1.2491749459363826E7
25-9-2017 19:00,7.511058942E7,9874905.732086226
25-9-2017 20:00,7.487131958E7,9923970.303885065
25-9-2017 21:00,8.328711975E7,2.225366820909293E7
25-9-2017 22:00,8.015695623E7,2.2998859229376122E7
25-9-2017 23:00,5.48814841E7,4717752.113151304
26-9-2017 0:00,3.359348165E7,-6726204.918439411
26-9-2017 1:00,1.710601437E7,-1.5976541578124776E7
26-9-2017 2:00,1.062171982E7,-1.9039069797748297E7
26-9-2017 3:00,4845267.23,-2.263815437071081E7
26-9-2017 4:00,3638016.52,-2.2688298661365725E7
26-9-2017 5:00,4109261.2,-2.1750696079829335E7
26-9-2017 6:00,9403876.53,-1.805237276179616E7
26-9-2017 7:00,2.035726932E7,-1.1041505052459683E7
26-9-2017 8:00,2.972765065E7,-6225855.581607856
26-9-2017 9:00,4.409383753E7,1644332.1162314713
26-9-2017 10:00,5.844081613E7,8043678.984383628
26-9-2017 11:00,5.973196105E7,6060696.533574842
26-9-2017 12:00,6.925793558E7,1.528654015712399E7
26-9-2017 13:00,7.753511707E7,2.3536120463334687E7
26-9-2017 14:00,6.887703553E7,1.589197286810553E7
26-9-2017 15:00,5.401047385E7,4957687.908514582
26-9-2017 16:00,5.341055498E7,5317138.209275268
26-9-2017 17:00,5.067750748E7,3378772.4822170064
26-9-2017 18:00,4.932820627E7,1571643.504257083
26-9-2017 19:00,5.33522629E7,4216662.2840840295
26-9-2017 20:00,5.38920613E7,5396638.898126699
26-9-2017 21:00,5.217494197E7,7939527.112533875
26-9-2017 22:00,4.544352327E7,5421720.124206513
26-9-2017 23:00,2.787959848E7,-4671872.0935261175
27-9-2017 0:00,4513802.68,-1.7637881649399586E7
27-9-2017 1:00,855498.33,-1.3618169093748942E7
27-9-2017 2:00,2963216.4,-7790703.436434362
27-9-2017 3:00,2726312.25,-5595593.691135418
27-9-2017 4:00,1928630.23,-5019610.847199652
27-9-2017 5:00,2304235.25,-4193828.391080808
27-9-2017 6:00,5095609.33,-3077697.56373439
27-9-2017 7:00,1.098052912E7,-1302457.1553734504
27-9-2017 8:00,1.723590402E7,212131.90509339422
27-9-2017 9:00,2.491720785E7,959874.8888402656
27-9-2017 10:00,3.290726428E7,498633.1897238828
27-9-2017 11:00,4.281692517E7,6797940.733468048
27-9-2017 12:00,3.678842468E7,248883.8232637085
27-9-2017 13:00,3.60559085E7,-843593.9499999769
27-9-2017 14:00,3.786086152E7,1674280.710973788
27-9-2017 15:00,3.34359817E7,1028076.9416698478
27-9-2017 16:00,3.055203378E7,-1173516.9308402017
27-9-2017 17:00,3.080514232E7,-675402.0544690825
27-9-2017 18:00,2.986726298E7,-2651022.349583905
27-9-2017 19:00,3.04777997E7,-4048450.403929122
27-9-2017 20:00,3.159504623E7,-2845541.6330766343
27-9-2017 21:00,3.208922137E7,1074067.387624029
27-9-2017 22:00,2.824551277E7,601916.5953594893
27-9-2017 23:00,1.829294048E7,-2575295.641012013
28-9-2017 0:00,9888787.63,-1206449.5258275382
28-9-2017 1:00,3897101.67,-223589.10854858533
28-9-2017 2:00,2265600.52,1018281.771996405
28-9-2017 3:00,1502720.2,1797704.4118491113
28-9-2017 4:00,1359461.25,2100162.4300414287
28-9-2017 5:00,1459542.43,2107277.1569126174
28-9-2017 6:00,3517058.55,1883635.3597421832
28-9-2017 7:00,8085807.32,1648498.3289167136
28-9-2017 8:00,1.414060418E7,2249403.2507877126
28-9-2017 9:00,1.972247863E7,526824.3897246085
28-9-2017 10:00,2.770327352E7,-380700.39343860745
28-9-2017 11:00,4.18142169E7,9850308.518080197
28-9-2017 12:00,3.328512197E7,646876.5073440708
28-9-2017 13:00,3.165471887E7,-1350426.951243464
28-9-2017 14:00,2.82294309E7,-4038383.9399162345
28-9-2017 15:00,2.576535453E7,-2551963.28478262
28-9-2017 16:00,2.590686578E7,-1679603.6350129228
28-9-2017 17:00,2.557940908E7,-1837294.7833253052
28-9-2017 18:00,2.389054063E7,-4669382.723707905
28-9-2017 19:00,2.343644298E7,-7285842.51005365
28-9-2017 20:00,2.33205275E7,-7396082.16021969
28-9-2017 21:00,2.12438125E7,-6054146.574343357
28-9-2017 22:00,2.09796578E7,-2960933.2101365365
28-9-2017 23:00,1.570499782E7,-1327341.4947383814
29-9-2017 0:00,8708292.67,1650029.201912567
29-9-2017 1:00,4211574.07,4180445.4455546327
29-9-2017 2:00,2190680.1,4942606.944064833
29-9-2017 3:00,1382983.42,5543561.2832061015
29-9-2017 4:00,1284200.28,5718630.279753473
29-9-2017 5:00,1539028.68,5609268.837515648
29-9-2017 6:00,3241179.9,4696267.975966997
29-9-2017 7:00,7065435.47,3294358.84765644
29-9-2017 8:00,1.212620217E7,2460055.032632906
29-9-2017 9:00,1.905737483E7,1668257.8355281688
29-9-2017 10:00,2.309525933E7,-3666822.2493061237
29-9-2017 11:00,2.731485707E7,-3644363.4676369037
29-9-2017 12:00,2.775651168E7,-4078449.9665290527
29-9-2017 13:00,3.485551997E7,2548781.073291097
29-9-2017 14:00,2.763198562E7,-4010951.081296671
29-9-2017 15:00,2.510829153E7,-2510265.2979939766
29-9-2017 16:00,2.42011443E7,-2736009.761507146
29-9-2017 17:00,2.50909117E7,-1777261.0087322071
29-9-2017 18:00,2.526037458E7,-2882039.568611754
29-9-2017 19:00,2.661217997E7,-3872546.7335940246
29-9-2017 20:00,2.898969295E7,-1594897.3914146088
29-9-2017 21:00,2.194269383E7,-5195291.284838133
29-9-2017 22:00,1.785468237E7,-5905410.082720824
29-9-2017 23:00,1.534649672E7,-1337738.0541138947
30-9-2017 0:00,9049894.48,2575526.7754426524
30-9-2017 1:00,4072821.8,4994784.739659917
30-9-2017 2:00,2231703.73,6163012.910347402
30-9-2017 3:00,1425440.8,6948356.392989313
30-9-2017 4:00,1314947.37,7256420.265066998
30-9-2017 5:00,1629868.63,7707869.741810756
30-9-2017 6:00,2979581.23,6880377.543974485
30-9-2017 7:00,6754286.45,5778554.01975923
30-9-2017 8:00,1.20080275E7,5467960.829421561
30-9-2017 9:00,1.606832823E7,2087213.0085574854
30-9-2017 10:00,2.796279015E7,4824500.502348246
30-9-2017 11:00,2.357067495E7,-3381523.0755359903
30-9-2017 12:00,2.525387857E7,-2075029.5222880244
30-9-2017 13:00,2.353488218E7,-3708076.1333397105
30-9-2017 14:00,2.19016995E7,-4088381.4831219837
30-9-2017 15:00,1.951072982E7,-1718484.5209297258
30-9-2017 16:00,1.88363978E7,-1098249.629500514
30-9-2017 17:00,1.880676102E7,-279494.780018067
30-9-2017 18:00,1.98420096E7,230684.88622561935
30-9-2017 19:00,2.145940598E7,206035.57020895556
30-9-2017 20:00,1.932806835E7,-1250487.8876640387
30-9-2017 21:00,8118136.98,-8119167.06488288
30-9-2017 22:00,1.015584202E7,-1816301.2376798932
30-9-2017 23:00,1.102804805E7,7166111.981311019
