"AppInstanceId","CompInstanceId","Metric_Name","PQD"
69,NA,"UPI_APP_Cluster_COMPLETED_REQUEST_COUNT","1,0,1"
69,NA,"UPI_APP_Cluster_EXECUTE_THREAD_IDLE_COUNT","1,0,1"
69,NA,"UPI_APP_Cluster_EXECUTE_THREAD_TOTAL_COUNT","1,0,1"
69,NA,"UPI_APP_Cluster_HEAP_FREE_CURRENT","1,0,1"
69,NA,"UPI_APP_Cluster_HEAP_FREE_PERCENT","1,0,1"
69,NA,"UPI_APP_Cluster_HEAP_SIZE_CURRENT","1,0,1"
69,NA,"UPI_APP_Cluster_HOGGING_THREAD_COUNT","1,0,1"
69,NA,"UPI_APP_Cluster_OPEN_SOCKETS","1,0,1"
69,NA,"UPI_APP_Cluster_PENDING_USER_REQUEST_COUNT","1,0,1"
69,NA,"UPI_APP_Cluster_STANDBY_THREAD_COUNT","1,0,1"
69,NA,"UPI_APP_Cluster_THREAD_POOL_QUEUE_LENGTH","1,0,1"
69,NA,"UPI_APP_Cluster_THROUGHPUT","1,0,1"
69,NA,"UPI_APP_Cluster_TRANSACTIONS_ACTIVE_TOTAL_COUNT","1,0,1"
69,NA,"UPI_APP_Cluster_TRANSACTION_COMMITTED_COUNT","1,0,1"
69,NA,"UPI_APP_Cluster_TRANSACTION_ROLLEDBACK_COUNT","1,0,1"
69,NA,"UPI_APP_Cluster_TRANSACTION_TOTAL_COUNT","1,0,1"
69,NA,"UPI_DB_Cluster_BYTES_RECEIVED","1,0,1"
69,NA,"UPI_DB_Cluster_BYTES_SENT","1,0,1"
69,NA,"UPI_DB_Cluster_CACHE_HITRATIO","1,0,1"
69,NA,"UPI_DB_Cluster_CPU_USAGE","1,0,1"
69,NA,"UPI_DB_Cluster_CURRENT_LOGONS","1,0,1"
69,NA,"UPI_DB_Cluster_CURRENT_OPEN_CURSORS","1,0,1"
69,NA,"UPI_DB_Cluster_EXECUTE_COUNT","1,0,1"
69,NA,"UPI_DB_Cluster_HARD_PARSECOUNT","1,0,1"
69,NA,"UPI_DB_Cluster_LOCKS_WAITS","1,0,1"
69,NA,"UPI_DB_Cluster_LOGICAL_READS","1,0,1"
69,NA,"UPI_DB_Cluster_NUMBEROF_SESSIONS","1,0,1"
69,NA,"UPI_DB_Cluster_PHYSICAL_READS","1,0,1"
69,NA,"UPI_DB_Cluster_PHYSICAL_WRITES","1,0,1"
69,NA,"UPI_DB_Cluster_SORTS_DISK","1,0,1"
69,NA,"UPI_DB_Cluster_SORTS_ROWS","1,0,1"
69,NA,"UPI_DB_Cluster_TABLESCANS_LONG","1,0,1"
69,NA,"UPI_DB_Cluster_TABLESCANS_SHORT","1,0,1"
69,NA,"UPI_DB_Cluster_USER_CALLS","1,0,1"
69,NA,"UPI_DB_Cluster_USER_COMMITS","1,0,1"
69,NA,"UPI_DB_Cluster_USER_ROLLBACKS","1,0,1"
69,NA,"UPI_Host_All_Cluster_CPU_UTIL","1,0,1"
69,NA,"UPI_Host_All_Cluster_DISK_IOREAD","1,0,1"
69,NA,"UPI_Host_All_Cluster_DISK_IOWRITE","1,0,1"
69,NA,"UPI_Host_All_Cluster_EC_CPU_UTIL","1,0,1"
69,NA,"UPI_Host_All_Cluster_LOAD_AVERAGE","1,0,1"
69,NA,"UPI_Host_All_Cluster_MEM_UTIL","1,0,1"
69,NA,"Txn_ReqAuthDetails_AvgRespTime","1,0,1"
69,NA,"Txn_ReqAuthDetails_SlowPercentage","1,0,1"
69,NA,"Txn_ReqAuthDetails_Total","1,0,1"
69,NA,"Txn_ReqBalEnq_AvgRespTime","1,0,1"
69,NA,"Txn_ReqBalEnq_SlowPercentage","1,0,1"
69,NA,"Txn_ReqBalEnq_Total","1,0,1"
69,NA,"Txn_ReqChkTxn_AvgRespTime","1,0,1"
69,NA,"Txn_ReqChkTxn_SlowPercentage","1,0,1"
69,NA,"Txn_ReqChkTxn_Total","1,0,1"
69,NA,"Txn_ReqHbt_AvgRespTime","1,0,1"
69,NA,"Txn_ReqHbt_SlowPercentage","1,0,1"
69,NA,"Txn_ReqHbt_Total","1,0,1"
69,NA,"Txn_ReqListAccount_AvgRespTime","1,0,1"
69,NA,"Txn_ReqListAccount_SlowPercentage","1,0,1"
69,NA,"Txn_ReqListAccount_Total","1,0,1"
69,NA,"Txn_ReqOtp_AvgRespTime","1,0,1"
69,NA,"Txn_ReqOtp_SlowPercentage","1,0,1"
69,NA,"Txn_ReqOtp_Total","1,0,1"
69,NA,"Txn_ReqPay_AvgRespTime","1,0,1"
69,NA,"Txn_ReqPay_SlowPercentage","1,0,1"
69,NA,"Txn_ReqPay_Total","1,0,1"
69,NA,"Txn_ReqRegMob_AvgRespTime","1,0,1"
69,NA,"Txn_ReqRegMob_SlowPercentage","1,0,1"
69,NA,"Txn_ReqRegMob_Total","1,0,1"
69,NA,"Txn_ReqSetCre_AvgRespTime","1,0,1"
69,NA,"Txn_ReqSetCre_SlowPercentage","1,0,1"
69,NA,"Txn_ReqSetCre_Total","1,0,1"
69,NA,"Txn_ReqTxnConfirmation_AvgRespTime","1,0,1"
69,NA,"Txn_ReqTxnConfirmation_SlowPercentage","1,0,1"
69,NA,"Txn_ReqTxnConfirmation_Total","1,0,1"
69,NA,"Txn_ReqValAdd_AvgRespTime","1,0,1"
69,NA,"Txn_ReqValAdd_SlowPercentage","1,0,1"
69,NA,"Txn_ReqValAdd_Total","1,0,1"
69,NA,"Txn_RespBalEnq_AvgRespTime","1,0,1"
69,NA,"Txn_RespBalEnq_SlowPercentage","1,0,1"
69,NA,"Txn_RespBalEnq_Total","1,0,1"
69,NA,"Txn_RespHbt_AvgRespTime","1,0,1"
69,NA,"Txn_RespHbt_SlowPercentage","1,0,1"
69,NA,"Txn_RespHbt_Total","1,0,1"
69,NA,"Txn_RespListAccount_AvgRespTime","1,0,1"
69,NA,"Txn_RespListAccount_SlowPercentage","1,0,1"
69,NA,"Txn_RespListAccount_Total","1,0,1"
69,NA,"Txn_RespListKeys_AvgRespTime","1,0,1"
69,NA,"Txn_RespListKeys_SlowPercentage","1,0,1"
69,NA,"Txn_RespListKeys_Total","1,0,1"
69,NA,"Txn_RespOtp_AvgRespTime","1,0,1"
69,NA,"Txn_RespOtp_SlowPercentage","1,0,1"
69,NA,"Txn_RespOtp_Total","1,0,1"
69,NA,"Txn_RespPay_AvgRespTime","1,0,1"
69,NA,"Txn_RespPay_SlowPercentage","1,0,1"
69,NA,"Txn_RespPay_Total","1,0,1"
69,NA,"Txn_RespRegMob_AvgRespTime","1,0,1"
69,NA,"Txn_RespRegMob_SlowPercentage","1,0,1"
69,NA,"Txn_RespRegMob_Total","1,0,1"
69,NA,"Txn_RespSetCre_AvgRespTime","1,0,1"
69,NA,"Txn_RespSetCre_SlowPercentage","1,0,1"
69,NA,"Txn_RespSetCre_Total","1,0,1"
69,NA,"Txn_RespValAdd_AvgRespTime","1,0,1"
69,NA,"Txn_RespValAdd_SlowPercentage","1,0,1"
69,NA,"Txn_RespValAdd_Total","1,0,1"
69,NA,"Txn_callSetMPINOTP_AvgRespTime","1,0,1"
69,NA,"Txn_callSetMPINOTP_SlowPercentage","1,0,1"
69,NA,"Txn_callSetMPINOTP_Total","1,0,1"
69,NA,"Txn_checkVpaWeb_AvgRespTime","1,0,1"
69,NA,"Txn_checkVpaWeb_SlowPercentage","1,0,1"
69,NA,"Txn_checkVpaWeb_Total","1,0,1"
69,NA,"Txn_collectApproveConfReqWeb_AvgRespTime","1,0,1"
69,NA,"Txn_collectApproveConfReqWeb_SlowPercentage","1,0,1"
69,NA,"Txn_collectApproveConfReqWeb_Total","1,0,1"
69,NA,"Txn_collectApproveConfWeb_AvgRespTime","1,0,1"
69,NA,"Txn_collectApproveConfWeb_SlowPercentage","1,0,1"
69,NA,"Txn_collectApproveConfWeb_Total","1,0,1"
69,NA,"Txn_collectApproveWeb_AvgRespTime","1,0,1"
69,NA,"Txn_collectApproveWeb_SlowPercentage","1,0,1"
69,NA,"Txn_collectApproveWeb_Total","1,0,1"
69,NA,"Txn_getBankAccountListWeb_AvgRespTime","1,0,1"
69,NA,"Txn_getBankAccountListWeb_SlowPercentage","1,0,1"
69,NA,"Txn_getBankAccountListWeb_Total","1,0,1"
69,NA,"Txn_payTranConfWeb_AvgRespTime","1,0,1"
69,NA,"Txn_payTranConfWeb_SlowPercentage","1,0,1"
69,NA,"Txn_payTranConfWeb_Total","1,0,1"
69,NA,"Txn_setMpinConfWeb_AvgRespTime","1,0,1"
69,NA,"Txn_setMpinConfWeb_SlowPercentage","1,0,1"
69,NA,"Txn_setMpinConfWeb_Total","1,0,1"
69,NA,"Txn_viewBalanceEnquiry_AvgRespTime","1,0,1"
69,NA,"Txn_viewBalanceEnquiry_SlowPercentage","1,0,1"
69,NA,"Txn_viewBalanceEnquiry_Total","1,0,1"
