Time,Actual,STL processed,Forecasts,Upper Interval,Lower Interval,Is Anomalies
1-8-2017 0:00,1382.48,505.8847840622111,0.0,0.0,0.0,0
1-8-2017 1:00,18079.67,-1082.2539062173582,0.0,0.0,0.0,0
1-8-2017 2:00,10799.03,-5885.338769671644,0.0,0.0,0.0,0
1-8-2017 3:00,19895.8,-236.53695219230212,0.0,0.0,0.0,0
1-8-2017 4:00,14725.93,-1743.583889628222,0.0,0.0,0.0,0
1-8-2017 5:00,11935.35,-3603.373339171434,0.0,0.0,0.0,0
1-8-2017 6:00,15696.11,-3911.335695361642,0.0,0.0,0.0,0
1-8-2017 7:00,4701.68,-3675.7822236273005,0.0,0.0,0.0,0
1-8-2017 8:00,3175.44,-1880.82422809315,0.0,0.0,0.0,0
1-8-2017 9:00,3621.41,-7460.212222461336,0.0,0.0,0.0,0
1-8-2017 10:00,8611.14,-13548.480098092103,0.0,0.0,0.0,0
1-8-2017 11:00,30185.16,8252.191133704113,0.0,0.0,0.0,0
1-8-2017 12:00,39813.25,22672.5228434721,0.0,0.0,0.0,0
1-8-2017 13:00,49062.33,33907.162557007796,0.0,0.0,0.0,0
1-8-2017 14:00,19287.54,3113.4248151326065,0.0,0.0,0.0,0
1-8-2017 15:00,17520.14,5817.177895460372,0.0,0.0,0.0,0
1-8-2017 16:00,7864.83,678.5763611952643,0.0,0.0,0.0,0
1-8-2017 17:00,3843.7,-8074.133036607807,0.0,0.0,0.0,0
1-8-2017 18:00,1897.8,-8936.594660974879,0.0,0.0,0.0,0
1-8-2017 19:00,5068.73,1871.6698901260424,0.0,0.0,0.0,0
1-8-2017 20:00,2171.47,-860.0679386317352,0.0,0.0,0.0,0
1-8-2017 21:00,397.85,-2920.4476077221298,0.0,0.0,0.0,0
1-8-2017 22:00,46855.47,13713.633859484842,0.0,0.0,0.0,0
1-8-2017 23:00,48470.69,-9016.788797559664,0.0,0.0,0.0,0
2-8-2017 0:00,245.19,-4162.277855203134,0.0,0.0,0.0,0
2-8-2017 1:00,27875.68,5673.141572920624,0.0,0.0,0.0,0
2-8-2017 2:00,20107.45,650.231580291671,0.0,0.0,0.0,0
2-8-2017 3:00,20904.68,-1604.0076354848188,0.0,0.0,0.0,0
2-8-2017 4:00,24039.12,5435.850842446465,0.0,0.0,0.0,0
2-8-2017 5:00,13609.97,-4090.38139478449,0.0,0.0,0.0,0
2-8-2017 6:00,2059.83,-19790.337980350196,0.0,0.0,0.0,0
2-8-2017 7:00,2381.53,-8373.732882039021,0.0,0.0,0.0,0
2-8-2017 8:00,2507.85,-5015.4778583778025,0.0,0.0,0.0,0
2-8-2017 9:00,3614.13,-9880.628031160699,0.0,0.0,0.0,0
2-8-2017 10:00,7768.36,-16747.55806559739,0.0,0.0,0.0,0
2-8-2017 11:00,33247.22,9248.369517023104,0.0,0.0,0.0,0
2-8-2017 12:00,31667.4,12346.542023224458,0.0,0.0,0.0,0
2-8-2017 13:00,15299.99,-1983.3887040370846,0.0,0.0,0.0,0
2-8-2017 14:00,16946.75,-1240.8143554490634,0.0,0.0,0.0,0
2-8-2017 15:00,40820.53,27240.15331081205,0.0,0.0,0.0,0
2-8-2017 16:00,27719.89,18546.253067133257,0.0,0.0,0.0,0
2-8-2017 17:00,34653.14,21021.887395720074,0.0,0.0,0.0,0
2-8-2017 18:00,2455.65,-10407.548558996354,0.0,0.0,0.0,0
2-8-2017 19:00,952.8,-4353.340319976,0.0,0.0,0.0,0
2-8-2017 20:00,3324.02,-1806.5243280869618,0.0,0.0,0.0,0
2-8-2017 21:00,272.08,-5092.557335291804,0.0,0.0,0.0,0
2-8-2017 22:00,32459.9,-2827.144210500668,0.0,0.0,0.0,0
2-8-2017 23:00,59316.57,-10.105062422568153,0.0,0.0,0.0,0
3-8-2017 0:00,16140.6,9804.793639754567,0.0,0.0,0.0,0
3-8-2017 1:00,21871.62,-1569.6243610648417,0.0,0.0,0.0,0
3-8-2017 2:00,17275.95,-2952.8350302149483,0.0,0.0,0.0,0
3-8-2017 3:00,18471.27,-4213.110826593756,0.0,0.0,0.0,0
3-8-2017 4:00,12421.79,-5915.199728749287,0.0,0.0,0.0,0
3-8-2017 5:00,16901.19,-7.342072020368505,0.0,0.0,0.0,0
3-8-2017 6:00,21641.21,1055.1797946860424,0.0,0.0,0.0,0
3-8-2017 7:00,4547.57,-4525.215251805841,0.0,0.0,0.0,0
3-8-2017 8:00,3767.32,-1609.374971397452,0.0,0.0,0.0,0
3-8-2017 9:00,14900.05,3790.588200935543,0.0,0.0,0.0,0
3-8-2017 10:00,22132.3,243.25203495989626,0.0,0.0,0.0,0
3-8-2017 11:00,14716.46,-6180.368004328366,0.0,0.0,0.0,0
3-8-2017 12:00,7366.37,-8781.978674426664,0.0,0.0,0.0,0
3-8-2017 13:00,5344.22,-8635.606476483945,0.0,0.0,0.0,0
3-8-2017 14:00,5021.98,-9668.146671431212,0.0,0.0,0.0,0
3-8-2017 15:00,3618.46,-6249.321053235264,0.0,0.0,0.0,0
3-8-2017 16:00,6742.59,1250.7241310226545,0.0,0.0,0.0,0
3-8-2017 17:00,48219.84,38572.816626572,0.0,0.0,0.0,0
3-8-2017 18:00,18479.27,9313.410782078867,0.0,0.0,0.0,0
3-8-2017 19:00,337.33,-1323.2300364629991,0.0,0.0,0.0,0
3-8-2017 20:00,259.43,-1186.9429694088158,0.0,0.0,0.0,0
3-8-2017 21:00,329.62,-1812.949940002969,0.0,0.0,0.0,0
3-8-2017 22:00,41334.27,8655.669277763729,0.0,0.0,0.0,0
3-8-2017 23:00,43049.91,-13877.065333644161,0.0,0.0,0.0,0
4-8-2017 0:00,2571.96,-1968.044436255028,0.0,0.0,0.0,0
4-8-2017 1:00,24786.51,2744.1140571365504,0.0,0.0,0.0,0
4-8-2017 2:00,15362.11,-4087.2733653805535,0.0,0.0,0.0,0
4-8-2017 3:00,12788.32,-9607.371819207528,0.0,0.0,0.0,0
4-8-2017 4:00,15944.7,-2748.2160899231367,0.0,0.0,0.0,0
4-8-2017 5:00,17934.5,645.3977626866035,0.0,0.0,0.0,0
4-8-2017 6:00,17233.07,-3811.39561641392,0.0,0.0,0.0,0
4-8-2017 7:00,5403.03,-4260.036907598462,0.0,0.0,0.0,0
4-8-2017 8:00,8730.58,2677.5725296675046,0.0,0.0,0.0,0
4-8-2017 9:00,28716.32,17043.79465042105,0.0,0.0,0.0,0
4-8-2017 10:00,25143.58,2807.627242369992,0.0,0.0,0.0,0
4-8-2017 11:00,21561.07,567.0744706365203,0.0,0.0,0.0,0
4-8-2017 12:00,16410.12,109.67551370211004,0.0,0.0,0.0,0
4-8-2017 13:00,21599.2,7318.743067844402,0.0,0.0,0.0,0
4-8-2017 14:00,14440.04,-636.4092396428496,0.0,0.0,0.0,0
4-8-2017 15:00,6065.42,-4253.103238516753,0.0,0.0,0.0,0
4-8-2017 16:00,3412.86,-2840.150195326818,0.0,0.0,0.0,0
4-8-2017 17:00,11666.18,1693.3867621379377,0.0,0.0,0.0,0
4-8-2017 18:00,9996.17,350.56732282096164,0.0,0.0,0.0,0
4-8-2017 19:00,1380.55,-678.5962583302589,0.0,0.0,0.0,0
4-8-2017 20:00,502.21,-1171.241821158057,0.0,0.0,0.0,0
4-8-2017 21:00,194.01,-1886.7221549188562,0.0,0.0,0.0,0
4-8-2017 22:00,24019.29,-8460.076243953921,0.0,0.0,0.0,0
4-8-2017 23:00,46117.97,-10067.494014625143,0.0,0.0,0.0,0
5-8-2017 0:00,1857.42,-1793.9503218013251,0.0,0.0,0.0,0
5-8-2017 1:00,21093.92,146.62080050375698,0.0,0.0,0.0,0
5-8-2017 2:00,31282.92,12912.60275932216,0.0,0.0,0.0,0
5-8-2017 3:00,29952.73,8748.807782749534,0.0,0.0,0.0,0
5-8-2017 4:00,22927.85,5385.5042781763605,0.0,0.0,0.0,0
5-8-2017 5:00,9682.47,-6645.12995637265,0.0,0.0,0.0,0
5-8-2017 6:00,22007.19,1681.937135680313,0.0,0.0,0.0,0
5-8-2017 7:00,2966.1,-6274.024683236457,0.0,0.0,0.0,0
5-8-2017 8:00,2204.13,-3676.3903721524875,0.0,0.0,0.0,0
5-8-2017 9:00,5119.02,-6276.183527892828,0.0,0.0,0.0,0
5-8-2017 10:00,25820.1,3869.2135970662675,0.0,0.0,0.0,0
5-8-2017 11:00,25233.42,4965.813867973151,0.0,0.0,0.0,0
5-8-2017 12:00,33173.99,17536.592399288194,0.0,0.0,0.0,0
5-8-2017 13:00,3958.31,-9250.817068601616,0.0,0.0,0.0,0
5-8-2017 14:00,24705.34,11171.34613313948,0.0,0.0,0.0,0
5-8-2017 15:00,1400.81,-6882.859861035946,0.0,0.0,0.0,0
5-8-2017 16:00,286.62,-3685.121337145665,0.0,0.0,0.0,0
5-8-2017 17:00,339.93,-6688.10743961342,0.0,0.0,0.0,0
5-8-2017 18:00,25004.83,18378.122004397843,0.0,0.0,0.0,0
5-8-2017 19:00,314.58,1583.5981387893498,0.0,0.0,0.0,0
5-8-2017 20:00,234.57,2288.902424231652,0.0,0.0,0.0,0
5-8-2017 21:00,127.88,1851.6656236645013,0.0,0.0,0.0,0
5-8-2017 22:00,21865.42,-6884.214875812038,0.0,0.0,0.0,0
5-8-2017 23:00,52003.29,-122.34890938629178,0.0,0.0,0.0,0
6-8-2017 0:00,2137.03,2480.4244752324903,0.0,0.0,0.0,0
6-8-2017 1:00,8896.59,-8065.524789057406,0.0,0.0,0.0,0
6-8-2017 2:00,7838.47,-6778.73646441197,0.0,0.0,0.0,0
6-8-2017 3:00,3318.66,-14235.490979238726,0.0,0.0,0.0,0
6-8-2017 4:00,2988.04,-11161.776733177947,0.0,0.0,0.0,0
6-8-2017 5:00,2164.04,-10999.39186415428,0.0,0.0,0.0,0
6-8-2017 6:00,25920.22,8477.552889783601,0.0,0.0,0.0,0
6-8-2017 7:00,2241.97,-4451.132266133971,0.0,0.0,0.0,0
6-8-2017 8:00,2139.96,-1483.285890500565,0.0,0.0,0.0,0
6-8-2017 9:00,1790.38,-7706.996785711981,0.0,0.0,0.0,0
6-8-2017 10:00,25578.74,5169.142409280086,0.0,0.0,0.0,0
6-8-2017 11:00,9529.06,-9320.216740149865,0.0,0.0,0.0,0
6-8-2017 12:00,24338.95,9592.256816437448,0.0,0.0,0.0,0
6-8-2017 13:00,27549.04,14438.633419114974,0.0,0.0,0.0,0
6-8-2017 14:00,50482.33,36317.91522268386,0.0,0.0,0.0,0
6-8-2017 15:00,11281.05,1659.0903258063554,0.0,0.0,0.0,0
6-8-2017 16:00,178.96,-6084.922577003577,0.0,0.0,0.0,0
6-8-2017 17:00,161.45,-9507.52921278794,0.0,0.0,0.0,0
6-8-2017 18:00,24782.54,14576.741641167464,0.0,0.0,0.0,0
6-8-2017 19:00,214.88,-2798.209982282402,0.0,0.0,0.0,0
6-8-2017 20:00,291.93,-2548.513321954095,0.0,0.0,0.0,0
6-8-2017 21:00,152.61,-3022.3355951169833,0.0,0.0,0.0,0
6-8-2017 22:00,22578.05,-11225.791510824378,0.0,0.0,0.0,0
6-8-2017 23:00,52895.34,-4035.100813091043,0.0,0.0,0.0,0
7-8-2017 0:00,2229.46,-2377.6967424666746,0.0,0.0,0.0,0
7-8-2017 1:00,22143.27,842.0654570693041,0.0,0.0,0.0,0
7-8-2017 2:00,16980.03,-1587.2980020373743,0.0,0.0,0.0,0
7-8-2017 3:00,18126.5,-2860.070204697411,0.0,0.0,0.0,0
7-8-2017 4:00,17415.17,196.7336424181758,0.0,0.0,0.0,0
7-8-2017 5:00,22641.84,6688.410570523725,0.0,0.0,0.0,0
7-8-2017 6:00,22063.07,2055.8059418557277,0.0,0.0,0.0,0
7-8-2017 7:00,15066.17,5979.8904044465635,0.0,0.0,0.0,0
7-8-2017 8:00,4033.67,-1765.518199861399,0.0,0.0,0.0,0
7-8-2017 9:00,21126.51,9603.647371432733,0.0,0.0,0.0,0
7-8-2017 10:00,26543.49,4261.772842434382,0.0,0.0,0.0,0
7-8-2017 11:00,16492.37,-3842.08152135578,0.0,0.0,0.0,0
7-8-2017 12:00,6780.45,-9469.138733519583,0.0,0.0,0.0,0
7-8-2017 13:00,2590.01,-11788.567024220227,0.0,0.0,0.0,0
7-8-2017 14:00,341.5,-14793.517582769071,0.0,0.0,0.0,0
7-8-2017 15:00,10006.46,-267.2623462941756,0.0,0.0,0.0,0
7-8-2017 16:00,12081.37,5238.582243269428,0.0,0.0,0.0,0
7-8-2017 17:00,25022.41,15306.30633141596,0.0,0.0,0.0,0
7-8-2017 18:00,5471.05,-4839.440147436982,0.0,0.0,0.0,0
7-8-2017 19:00,1155.09,-1785.1283433436201,0.0,0.0,0.0,0
7-8-2017 20:00,4105.62,1605.9618772552822,0.0,0.0,0.0,0
7-8-2017 21:00,14024.6,11036.634026546424,0.0,0.0,0.0,0
7-8-2017 22:00,34599.29,677.0980599895247,0.0,0.0,0.0,0
7-8-2017 23:00,58675.78,1726.538854411796,0.0,0.0,0.0,0
8-8-2017 0:00,2687.86,-2233.701023576912,0.0,0.0,0.0,0
8-8-2017 1:00,15494.11,-6147.334668668978,0.0,0.0,0.0,0
8-8-2017 2:00,20766.97,1611.072780018303,0.0,0.0,0.0,0
8-8-2017 3:00,25403.82,3709.0855810710636,0.0,0.0,0.0,0
8-8-2017 4:00,20097.05,1896.9249449318777,0.0,0.0,0.0,0
8-8-2017 5:00,18910.22,2262.3539649845916,0.0,0.0,0.0,0
8-8-2017 6:00,14528.55,-5939.120013423997,0.0,0.0,0.0,0
8-8-2017 7:00,10821.61,1454.9492892423896,0.0,0.0,0.0,0
8-8-2017 8:00,6230.07,376.34092656021494,0.0,0.0,0.0,0
8-8-2017 9:00,21948.66,10690.544248116199,0.0,0.0,0.0,0
8-8-2017 10:00,31200.25,9505.463834017879,0.0,0.0,0.0,0
8-8-2017 11:00,17285.61,-1906.1479052420473,0.0,0.0,0.0,0
8-8-2017 12:00,12972.35,-1983.4480472665218,0.0,0.0,0.0,0
8-8-2017 13:00,2725.86,-10325.510798018971,0.0,0.0,0.0,0
8-8-2017 14:00,3355.29,-10356.263285359173,0.0,0.0,0.0,0
8-8-2017 15:00,7808.15,-924.5774822055027,0.0,0.0,0.0,0
8-8-2017 16:00,540.08,-4890.141314952465,0.0,0.0,0.0,0
8-8-2017 17:00,3068.62,-4839.383753823115,0.0,0.0,0.0,0
8-8-2017 18:00,1298.85,-7397.354816432486,0.0,0.0,0.0,0
8-8-2017 19:00,960.66,-323.9258261768209,0.0,0.0,0.0,0
8-8-2017 20:00,5369.98,4657.651713311756,0.0,0.0,0.0,0
8-8-2017 21:00,1438.8,361.8302728383969,0.0,0.0,0.0,0
8-8-2017 22:00,41817.78,9778.759815385525,0.0,0.0,0.0,0
8-8-2017 23:00,56468.77,1779.7562664502639,0.0,0.0,0.0,0
9-8-2017 0:00,2922.29,246.2382349006548,0.0,0.0,0.0,0
9-8-2017 1:00,29570.33,10286.498443365386,0.0,0.0,0.0,0
9-8-2017 2:00,18350.38,1431.0002349595998,0.0,0.0,0.0,0
9-8-2017 3:00,19146.44,-283.40131699604717,0.0,0.0,0.0,0
9-8-2017 4:00,17519.9,1462.787458774037,0.0,0.0,0.0,0
9-8-2017 5:00,15842.55,1261.8892041057316,0.0,0.0,0.0,0
9-8-2017 6:00,17061.52,-1441.3190809269654,0.0,0.0,0.0,0
9-8-2017 7:00,9109.6,1525.7443614489457,0.0,0.0,0.0,0
9-8-2017 8:00,2311.54,-1906.14319535482,0.0,0.0,0.0,0
9-8-2017 9:00,11624.08,2104.1724530703104,0.0,0.0,0.0,0
9-8-2017 10:00,8078.15,-11745.015509140889,0.0,0.0,0.0,0
9-8-2017 11:00,40558.82,23569.4040177695,0.0,0.0,0.0,0
9-8-2017 12:00,5316.89,-7500.167046393561,0.0,0.0,0.0,0
9-8-2017 13:00,6460.66,-4485.153040288232,0.0,0.0,0.0,0
9-8-2017 14:00,789.21,-10811.374410311353,0.0,0.0,0.0,0
9-8-2017 15:00,1247.48,-5345.896835697438,0.0,0.0,0.0,0
9-8-2017 16:00,2065.81,-1463.5528423128671,0.0,0.0,0.0,0
9-8-2017 17:00,330.27,-5457.101836101741,0.0,0.0,0.0,0
9-8-2017 18:00,1311.9,-5607.674562953467,0.0,0.0,0.0,0
9-8-2017 19:00,1466.46,1846.5018011485954,0.0,0.0,0.0,0
9-8-2017 20:00,227.26,1144.1263450930492,0.0,0.0,0.0,0
9-8-2017 21:00,170.77,780.2277381385211,0.0,0.0,0.0,0
9-8-2017 22:00,28715.54,-1761.2272946046833,0.0,0.0,0.0,0
9-8-2017 23:00,53504.76,735.1616395097662,0.0,0.0,0.0,0
10-8-2017 0:00,1120.93,258.58478920114067,0.0,0.0,0.0,0
10-8-2017 1:00,28935.5,11582.839439658605,0.0,0.0,0.0,0
10-8-2017 2:00,22864.43,7760.486162595684,0.0,0.0,0.0,0
10-8-2017 3:00,29697.78,12117.11084606757,0.0,0.0,0.0,0
10-8-2017 4:00,23133.62,8809.126374722113,0.0,0.0,0.0,0
10-8-2017 5:00,14363.66,1254.0169252336964,0.0,0.0,0.0,0
10-8-2017 6:00,2779.28,-14540.709586522216,0.0,0.0,0.0,0
10-8-2017 7:00,3881.09,-2887.759602462529,0.0,0.0,0.0,0
10-8-2017 8:00,3515.82,-219.4339514136318,0.0,0.0,0.0,0
10-8-2017 9:00,12055.43,2776.343087926878,0.0,0.0,0.0,0
10-8-2017 10:00,16943.35,-2849.365809536015,0.0,0.0,0.0,0
10-8-2017 11:00,6857.18,-10114.84840359413,0.0,0.0,0.0,0
10-8-2017 12:00,4400.8,-8806.253777034573,0.0,0.0,0.0,0
10-8-2017 13:00,3419.23,-8018.119570093584,0.0,0.0,0.0,0
10-8-2017 14:00,1546.87,-10608.196378821745,0.0,0.0,0.0,0
10-8-2017 15:00,900.84,-6286.993588769706,0.0,0.0,0.0,0
10-8-2017 16:00,30903.02,26472.375092752336,0.0,0.0,0.0,0
10-8-2017 17:00,280.27,-6347.304561178136,0.0,0.0,0.0,0
10-8-2017 18:00,319.25,-7943.223057495587,0.0,0.0,0.0,0
10-8-2017 19:00,3642.47,2408.9474410708262,0.0,0.0,0.0,0
10-8-2017 20:00,187.09,-703.7042499108811,0.0,0.0,0.0,0
10-8-2017 21:00,7922.67,6400.425993394629,0.0,0.0,0.0,0
10-8-2017 22:00,57231.61,24117.716914937522,0.0,0.0,0.0,0
10-8-2017 23:00,57395.05,1964.2388616781354,0.0,0.0,0.0,0
11-8-2017 0:00,1747.98,-2262.5362778130693,0.0,0.0,0.0,0
11-8-2017 1:00,5085.77,-15261.718872817008,0.0,0.0,0.0,0
11-8-2017 2:00,14359.98,-3818.648905991202,0.0,0.0,0.0,0
11-8-2017 3:00,27996.95,7411.210325454085,0.0,0.0,0.0,0
11-8-2017 4:00,19797.47,2387.2341553414935,0.0,0.0,0.0,0
11-8-2017 5:00,21545.03,5704.610297360745,0.0,0.0,0.0,0
11-8-2017 6:00,20794.03,1071.66234520941,0.0,0.0,0.0,0
11-8-2017 7:00,17291.92,8369.415090594925,0.0,0.0,0.0,0
11-8-2017 8:00,6143.79,538.8701691385304,0.0,0.0,0.0,0
11-8-2017 9:00,11779.91,946.4856166320278,0.0,0.0,0.0,0
11-8-2017 10:00,12151.5,-8848.987695685355,0.0,0.0,0.0,0
11-8-2017 11:00,30504.85,12868.924109685227,0.0,0.0,0.0,0
11-8-2017 12:00,7474.21,-6247.1890526354055,0.0,0.0,0.0,0
11-8-2017 13:00,15591.74,3676.51422975041,0.0,0.0,0.0,0
11-8-2017 14:00,304.85,-12253.029143073623,0.0,0.0,0.0,0
11-8-2017 15:00,200.81,-7291.802262974295,0.0,0.0,0.0,0
11-8-2017 16:00,322.62,-4581.62001870562,0.0,0.0,0.0,0
11-8-2017 17:00,3069.64,-3513.131888443695,0.0,0.0,0.0,0
11-8-2017 18:00,220.46,-8042.587709892877,0.0,0.0,0.0,0
11-8-2017 19:00,3517.61,2470.165367471889,0.0,0.0,0.0,0
11-8-2017 20:00,163.57,-277.9241141019884,0.0,0.0,0.0,0
11-8-2017 21:00,140.57,-599.1876719322972,0.0,0.0,0.0,0
11-8-2017 22:00,26917.71,-5261.893447499155,0.0,0.0,0.0,0
11-8-2017 23:00,60848.24,6984.858860471739,0.0,0.0,0.0,0
12-8-2017 0:00,1827.48,-445.33721959789,0.0,0.0,0.0,0
12-8-2017 1:00,12195.94,-6283.024161925552,0.0,0.0,0.0,0
12-8-2017 2:00,30295.16,13882.68194692666,0.0,0.0,0.0,0
12-8-2017 3:00,32266.46,13493.968624483019,0.0,0.0,0.0,0
12-8-2017 4:00,17137.57,1437.39365374097,0.0,0.0,0.0,0
12-8-2017 5:00,25195.43,10722.777265274952,0.0,0.0,0.0,0
12-8-2017 6:00,29600.83,10877.36975073524,0.0,0.0,0.0,0
12-8-2017 7:00,3927.0,-4445.132864546375,0.0,0.0,0.0,0
12-8-2017 8:00,1735.27,-3732.5464805010124,0.0,0.0,0.0,0
12-8-2017 9:00,1956.43,-8890.217259000652,0.0,0.0,0.0,0
12-8-2017 10:00,24864.79,3731.9903796813505,0.0,0.0,0.0,0
12-8-2017 11:00,2056.14,-15633.878049665489,0.0,0.0,0.0,0
12-8-2017 12:00,2782.73,-11308.863635012436,0.0,0.0,0.0,0
12-8-2017 13:00,2682.91,-9544.834938137734,0.0,0.0,0.0,0
12-8-2017 14:00,25905.46,13131.33146398642,0.0,0.0,0.0,0
12-8-2017 15:00,169.94,-7419.681226822898,0.0,0.0,0.0,0
12-8-2017 16:00,156.96,-4991.899080763529,0.0,0.0,0.0,0
12-8-2017 17:00,139.25,-6438.1183846937265,0.0,0.0,0.0,0
12-8-2017 18:00,31176.44,22605.04325034083,0.0,0.0,0.0,0
12-8-2017 19:00,7193.25,5755.733688119428,0.0,0.0,0.0,0
12-8-2017 20:00,153.13,-683.5888024311425,0.0,0.0,0.0,0
12-8-2017 21:00,85.31,-1165.1581992527572,0.0,0.0,0.0,0
12-8-2017 22:00,22172.56,-10814.622709784846,0.0,0.0,0.0,0
12-8-2017 23:00,57390.42,2903.9279215608585,0.0,0.0,0.0,0
13-8-2017 0:00,1897.27,-1277.0611369426915,0.0,0.0,0.0,0
13-8-2017 1:00,21099.75,1959.4991490259126,0.0,0.0,0.0,0
13-8-2017 2:00,20335.92,3269.182975524518,0.0,0.0,0.0,0
13-8-2017 3:00,21579.15,2308.8986748119496,0.0,0.0,0.0,0
13-8-2017 4:00,20623.3,4431.576479060432,0.0,0.0,0.0,0
13-8-2017 5:00,19589.5,4846.064641297668,0.0,0.0,0.0,0
13-8-2017 6:00,33205.11,14405.064645558114,0.0,0.0,0.0,0
13-8-2017 7:00,4908.1,-3426.0962492020954,0.0,0.0,0.0,0
13-8-2017 8:00,5470.05,189.95852153355554,0.0,0.0,0.0,0
13-8-2017 9:00,5360.42,-5213.946512135696,0.0,0.0,0.0,0
13-8-2017 10:00,24545.59,3800.864048369207,0.0,0.0,0.0,0
13-8-2017 11:00,4029.28,-12959.562644871534,0.0,0.0,0.0,0
13-8-2017 12:00,3774.21,-9697.428682421272,0.0,0.0,0.0,0
13-8-2017 13:00,3855.08,-7714.382975949546,0.0,0.0,0.0,0
13-8-2017 14:00,23618.73,11579.804796230936,0.0,0.0,0.0,0
13-8-2017 15:00,134.88,-6619.645870378893,0.0,0.0,0.0,0
13-8-2017 16:00,169.57,-4311.152227420691,0.0,0.0,0.0,0
13-8-2017 17:00,134.78,-5394.143184042043,0.0,0.0,0.0,0
13-8-2017 18:00,23523.72,15817.301688977235,0.0,0.0,0.0,0
13-8-2017 19:00,191.55,-332.4247313293781,0.0,0.0,0.0,0
13-8-2017 20:00,167.97,369.92555064432963,0.0,0.0,0.0,0
13-8-2017 21:00,134.73,-53.34588296567745,0.0,0.0,0.0,0
13-8-2017 22:00,34861.22,2778.764673739901,0.0,0.0,0.0,0
13-8-2017 23:00,43631.5,-9626.592569336675,0.0,0.0,0.0,0
14-8-2017 0:00,2495.77,410.6391959287612,0.0,0.0,0.0,0
14-8-2017 1:00,24112.88,6205.305845927071,0.0,0.0,0.0,0
14-8-2017 2:00,16389.14,465.35652580551687,0.0,0.0,0.0,0
14-8-2017 3:00,14754.75,-3312.7996174425534,0.0,0.0,0.0,0
14-8-2017 4:00,14978.5,-101.05990247009504,0.0,0.0,0.0,0
14-8-2017 5:00,16066.04,2508.994848445869,0.0,0.0,0.0,0
14-8-2017 6:00,18015.44,449.4444094819373,0.0,0.0,0.0,0
14-8-2017 7:00,15071.63,7939.467273218606,0.0,0.0,0.0,0
14-8-2017 8:00,9771.55,5696.742468620016,0.0,0.0,0.0,0
14-8-2017 9:00,12115.23,2870.085872124193,0.0,0.0,0.0,0
14-8-2017 10:00,33601.0,14340.672046795049,0.0,0.0,0.0,0
14-8-2017 11:00,1533.84,-13618.120217996555,0.0,0.0,0.0,0
14-8-2017 12:00,6721.1,-4955.494015406041,0.0,0.0,0.0,0
14-8-2017 13:00,10775.11,1146.5163386850527,0.0,0.0,0.0,0
14-8-2017 14:00,3737.61,-6176.026881055797,0.0,0.0,0.0,0
14-8-2017 15:00,856.28,-3565.5678854437947,0.0,0.0,0.0,0
14-8-2017 16:00,2693.77,486.26432086850946,0.0,0.0,0.0,0
14-8-2017 17:00,290.59,-2268.096903933606,0.0,0.0,0.0,0
14-8-2017 18:00,373.3,-4229.637408419221,0.0,0.0,0.0,0
14-8-2017 19:00,1731.73,4676.509436909455,0.0,0.0,0.0,0
14-8-2017 20:00,92.21,4204.762615127935,0.0,0.0,0.0,0
14-8-2017 21:00,151.49,4153.775600134633,0.0,0.0,0.0,0
14-8-2017 22:00,27580.64,-213.07684646870075,0.0,0.0,0.0,0
14-8-2017 23:00,37343.89,-11045.750034514138,0.0,0.0,0.0,0
15-8-2017 0:00,2547.75,5447.914483973718,0.0,0.0,0.0,0
15-8-2017 1:00,16404.16,3395.7372082508664,0.0,0.0,0.0,0
15-8-2017 2:00,15824.25,4480.274451758281,0.0,0.0,0.0,0
15-8-2017 3:00,12061.3,-1596.3138237761514,0.0,0.0,0.0,0
15-8-2017 4:00,4483.53,-6506.272112191709,0.0,0.0,0.0,0
15-8-2017 5:00,2314.49,-7550.79566671079,0.0,0.0,0.0,0
15-8-2017 6:00,2022.97,-12275.831443012863,0.0,0.0,0.0,0
15-8-2017 7:00,1946.31,-2422.919037163583,0.0,0.0,0.0,0
15-8-2017 8:00,2270.23,489.3623665193263,0.0,0.0,0.0,0
15-8-2017 9:00,3819.77,-3591.908202896253,0.0,0.0,0.0,0
15-8-2017 10:00,6586.95,-11269.163303103698,0.0,0.0,0.0,0
15-8-2017 11:00,11300.36,-2679.3280284904104,0.0,0.0,0.0,0
15-8-2017 12:00,25158.22,14027.6335251961,0.0,0.0,0.0,0
15-8-2017 13:00,21256.87,11506.470313858663,0.0,0.0,0.0,0
15-8-2017 14:00,25438.24,14773.577889148593,0.0,0.0,0.0,0
15-8-2017 15:00,9485.04,3705.918333934531,0.0,0.0,0.0,0
15-8-2017 16:00,608.59,-3829.2766064391326,0.0,0.0,0.0,0
15-8-2017 17:00,171.45,-4960.484642215399,0.0,0.0,0.0,0
15-8-2017 18:00,188.84,-7894.007066999298,0.0,0.0,0.0,0
15-8-2017 19:00,603.48,-606.2589627200978,0.0,0.0,0.0,0
15-8-2017 20:00,141.32,-498.6848949416162,0.0,0.0,0.0,0
15-8-2017 21:00,132.44,-825.7900348364055,0.0,0.0,0.0,0
15-8-2017 22:00,51571.21,18427.663309138457,0.0,0.0,0.0,0
15-8-2017 23:00,43469.93,-10177.517029988729,0.0,0.0,0.0,0
16-8-2017 0:00,1936.24,-785.1318178032398,0.0,0.0,0.0,0
16-8-2017 1:00,29781.65,11598.704317382648,0.0,0.0,0.0,0
16-8-2017 2:00,19270.83,2953.5686764562633,0.0,0.0,0.0,0
16-8-2017 3:00,19495.88,1230.595101964107,0.0,0.0,0.0,0
16-8-2017 4:00,15267.77,-88.5900833376636,0.0,0.0,0.0,0
16-8-2017 5:00,5996.13,-7953.321189659355,0.0,0.0,0.0,0
16-8-2017 6:00,3459.66,-14636.156214993518,0.0,0.0,0.0,0
16-8-2017 7:00,2920.03,-5056.062712326504,0.0,0.0,0.0,0
16-8-2017 8:00,5697.31,529.5329847403082,0.0,0.0,0.0,0
16-8-2017 9:00,20469.33,9940.307761115697,0.0,0.0,0.0,0
16-8-2017 10:00,26749.41,6068.423981877437,0.0,0.0,0.0,0
16-8-2017 11:00,30983.05,14670.042954319852,0.0,0.0,0.0,0
16-8-2017 12:00,17442.75,4083.451979428106,0.0,0.0,0.0,0
16-8-2017 13:00,1986.18,-9747.307072658059,0.0,0.0,0.0,0
16-8-2017 14:00,1146.44,-11244.20351262015,0.0,0.0,0.0,0
16-8-2017 15:00,5753.66,-1464.2574576194784,0.0,0.0,0.0,0
16-8-2017 16:00,1193.8,-4667.770316596132,0.0,0.0,0.0,0
16-8-2017 17:00,212.43,-5929.243293569718,0.0,0.0,0.0,0
16-8-2017 18:00,2681.88,-6564.034521250834,0.0,0.0,0.0,0
16-8-2017 19:00,269.33,-2012.685876031388,0.0,0.0,0.0,0
16-8-2017 20:00,1945.98,392.7193412203851,0.0,0.0,0.0,0
16-8-2017 21:00,310.68,-1459.1846981432227,0.0,0.0,0.0,0
16-8-2017 22:00,50963.82,16887.858961525413,0.0,0.0,0.0,0
16-8-2017 23:00,68019.55,13856.652431906705,0.0,0.0,0.0,0
17-8-2017 0:00,2562.1,-725.0646929453651,0.0,0.0,0.0,0
17-8-2017 1:00,19466.13,824.9875996259307,0.0,0.0,0.0,0
17-8-2017 2:00,13088.51,-3825.128179257579,0.0,0.0,0.0,0
17-8-2017 3:00,14300.4,-4535.064306230792,0.0,0.0,0.0,0
17-8-2017 4:00,12074.54,-3950.3483166442966,0.0,0.0,0.0,0
17-8-2017 5:00,17024.4,2505.6818257342948,0.0,0.0,0.0,0
17-8-2017 6:00,24148.46,5587.396351870928,0.0,0.0,0.0,0
17-8-2017 7:00,14111.43,5677.0789341942855,0.0,0.0,0.0,0
17-8-2017 8:00,16671.2,11081.956907483607,0.0,0.0,0.0,0
17-8-2017 9:00,4230.79,-6484.560987900812,0.0,0.0,0.0,0
17-8-2017 10:00,33280.64,12671.351983964525,0.0,0.0,0.0,0
17-8-2017 11:00,3148.17,-12636.029915629522,0.0,0.0,0.0,0
17-8-2017 12:00,3269.67,-9490.657988965115,0.0,0.0,0.0,0
17-8-2017 13:00,21308.64,10247.976266338697,0.0,0.0,0.0,0
17-8-2017 14:00,1457.95,-10174.535040736704,0.0,0.0,0.0,0
17-8-2017 15:00,374.44,-5969.904227382592,0.0,0.0,0.0,0
17-8-2017 16:00,571.41,-4573.254496949845,0.0,0.0,0.0,0
17-8-2017 17:00,167.77,-4914.582966261843,0.0,0.0,0.0,0
17-8-2017 18:00,216.22,-8195.253547981269,0.0,0.0,0.0,0
17-8-2017 19:00,254.94,-1173.3728984338522,0.0,0.0,0.0,0
17-8-2017 20:00,204.03,-408.03506832105995,0.0,0.0,0.0,0
17-8-2017 21:00,153.76,-850.2778427864378,0.0,0.0,0.0,0
17-8-2017 22:00,27620.12,-6087.761417555041,0.0,0.0,0.0,0
17-8-2017 23:00,70344.52,16689.69831220372,0.0,0.0,0.0,0
18-8-2017 0:00,1779.85,-1326.5486998169072,0.0,0.0,0.0,0
18-8-2017 1:00,11515.41,-7279.048598260957,0.0,0.0,0.0,0
18-8-2017 2:00,28526.42,10879.607136497652,0.0,0.0,0.0,0
18-8-2017 3:00,30144.34,10160.220108642636,0.0,0.0,0.0,0
18-8-2017 4:00,16599.0,-1114.5585501128298,0.0,0.0,0.0,0
18-8-2017 5:00,19924.73,3246.1510325954023,0.0,0.0,0.0,0
18-8-2017 6:00,18036.79,-3150.5666981678005,0.0,0.0,0.0,0
18-8-2017 7:00,9610.0,-2014.1010968618484,0.0,0.0,0.0,0
18-8-2017 8:00,3527.12,-5785.526908023763,0.0,0.0,0.0,0
18-8-2017 9:00,4564.93,-10039.269354284344,0.0,0.0,0.0,0
18-8-2017 10:00,33995.53,9354.839526250104,0.0,0.0,0.0,0
18-8-2017 11:00,21987.62,2228.545912185109,0.0,0.0,0.0,0
18-8-2017 12:00,20025.32,2959.6998979711825,0.0,0.0,0.0,0
18-8-2017 13:00,12090.52,-3136.8889112701745,0.0,0.0,0.0,0
18-8-2017 14:00,7322.01,-8327.191457394032,0.0,0.0,0.0,0
18-8-2017 15:00,39153.72,28972.767742378375,0.0,0.0,0.0,0
18-8-2017 16:00,20475.72,11402.47369028537,0.0,0.0,0.0,0
18-8-2017 17:00,753.06,-7857.682595309829,0.0,0.0,0.0,0
18-8-2017 18:00,334.34,-11772.624855012351,0.0,0.0,0.0,0
18-8-2017 19:00,2992.63,-2054.1345250817467,0.0,0.0,0.0,0
18-8-2017 20:00,151.11,-3934.1364060527194,0.0,0.0,0.0,0
18-8-2017 21:00,178.57,-4043.1927206457894,0.0,0.0,0.0,0
18-8-2017 22:00,34896.34,-1996.188334877559,0.0,0.0,0.0,0
18-8-2017 23:00,73810.92,17542.272849232744,0.0,0.0,0.0,0
19-8-2017 0:00,2345.98,-3270.7288549823643,0.0,0.0,0.0,0
19-8-2017 1:00,7799.55,-12842.452961955863,0.0,0.0,0.0,0
19-8-2017 2:00,5486.81,-13590.557731069237,0.0,0.0,0.0,0
19-8-2017 3:00,21950.72,1117.4123226798329,0.0,0.0,0.0,0
19-8-2017 4:00,16859.91,-1246.0030019316946,0.0,0.0,0.0,0
19-8-2017 5:00,15931.08,-803.0444515550444,0.0,0.0,0.0,0
19-8-2017 6:00,39331.26,18429.925088120686,0.0,0.0,0.0,0
19-8-2017 7:00,18452.29,7358.753235748009,0.0,0.0,0.0,0
19-8-2017 8:00,2778.3,-5729.436832526364,0.0,0.0,0.0,0
19-8-2017 9:00,6243.87,-7373.071994226382,0.0,0.0,0.0,0
19-8-2017 10:00,30313.15,6864.954630413911,0.0,0.0,0.0,0
19-8-2017 11:00,34378.13,16215.871137314694,0.0,0.0,0.0,0
19-8-2017 12:00,10786.1,-4665.330982340834,0.0,0.0,0.0,0
19-8-2017 13:00,1281.44,-12217.347091579279,0.0,0.0,0.0,0
19-8-2017 14:00,33292.89,19498.224887796485,0.0,0.0,0.0,0
19-8-2017 15:00,1944.49,-6225.931761464737,0.0,0.0,0.0,0
19-8-2017 16:00,1007.84,-6170.963831535408,0.0,0.0,0.0,0
19-8-2017 17:00,964.41,-5260.920543669714,0.0,0.0,0.0,0
19-8-2017 18:00,28088.91,18291.032908388763,0.0,0.0,0.0,0
19-8-2017 19:00,262.95,-2306.9096915533555,0.0,0.0,0.0,0
19-8-2017 20:00,1750.41,378.1161061359944,0.0,0.0,0.0,0
19-8-2017 21:00,450.4,-774.3720913591405,0.0,0.0,0.0,0
19-8-2017 22:00,7.27,-33826.60808782844,0.0,0.0,0.0,0
19-8-2017 23:00,67176.96,14566.366207859039,0.0,0.0,0.0,0
20-8-2017 0:00,1606.14,-220.41853132493816,0.0,0.0,0.0,0
20-8-2017 1:00,10228.97,-6349.718045510396,0.0,0.0,0.0,0
20-8-2017 2:00,6935.55,-8051.114517178265,0.0,0.0,0.0,0
20-8-2017 3:00,21327.89,4777.051419492382,0.0,0.0,0.0,0
20-8-2017 4:00,4760.28,-8995.93176965771,0.0,0.0,0.0,0
20-8-2017 5:00,16267.68,3794.211779954523,0.0,0.0,0.0,0
20-8-2017 6:00,44305.91,27580.944621636354,0.0,0.0,0.0,0
20-8-2017 7:00,12585.47,5486.991347152216,0.0,0.0,0.0,0
20-8-2017 8:00,10634.45,5970.263053332552,0.0,0.0,0.0,0
20-8-2017 9:00,2440.93,-7615.128161726399,0.0,0.0,0.0,0
20-8-2017 10:00,18140.2,-2006.887130899764,0.0,0.0,0.0,0
20-8-2017 11:00,1442.5,-13479.343840952692,0.0,0.0,0.0,0
20-8-2017 12:00,1682.31,-10976.345403969326,0.0,0.0,0.0,0
20-8-2017 13:00,2818.05,-8207.138763233146,0.0,0.0,0.0,0
20-8-2017 14:00,26424.09,14795.327791613958,0.0,0.0,0.0,0
20-8-2017 15:00,2952.3,-3329.834656709181,0.0,0.0,0.0,0
20-8-2017 16:00,149.78,-5690.4346947858085,0.0,0.0,0.0,0
20-8-2017 17:00,172.84,-4867.709993707471,0.0,0.0,0.0,0
20-8-2017 18:00,23711.77,14377.571009863752,0.0,0.0,0.0,0
20-8-2017 19:00,4751.73,2168.5873198006575,0.0,0.0,0.0,0
20-8-2017 20:00,173.1,-1621.207364097916,0.0,0.0,0.0,0
20-8-2017 21:00,116.77,-2244.5741995655208,0.0,0.0,0.0,0
20-8-2017 22:00,22452.33,-13455.057333342767,0.0,0.0,0.0,0
20-8-2017 23:00,72325.21,17241.913318851475,0.0,0.0,0.0,0
21-8-2017 0:00,3897.34,-1268.4212103717655,0.0,0.0,0.0,0
21-8-2017 1:00,6697.68,-13603.96804231339,0.0,0.0,0.0,0
21-8-2017 2:00,14357.05,-4982.1081270799605,0.0,0.0,0.0,0
21-8-2017 3:00,16332.18,-5036.308218031942,0.0,0.0,0.0,0
21-8-2017 4:00,10483.1,-8680.45118226481,0.0,0.0,0.0,0
21-8-2017 5:00,20290.62,2385.639114777201,0.0,0.0,0.0,0
21-8-2017 6:00,37086.79,14910.897006659332,0.0,0.0,0.0,0
21-8-2017 7:00,40138.34,27472.49405825793,0.0,0.0,0.0,0
21-8-2017 8:00,13171.41,2853.219287087166,0.0,0.0,0.0,0
21-8-2017 9:00,3660.8,-11814.243697087222,0.0,0.0,0.0,0
21-8-2017 10:00,33707.87,8399.706024169252,0.0,0.0,0.0,0
21-8-2017 11:00,25412.16,5786.2303814061015,0.0,0.0,0.0,0
21-8-2017 12:00,15395.22,-1897.4763407281425,0.0,0.0,0.0,0
21-8-2017 13:00,35594.56,20311.937946855724,0.0,0.0,0.0,0
21-8-2017 14:00,1079.0,-14419.106025952782,0.0,0.0,0.0,0
21-8-2017 15:00,21381.35,11648.040623535218,0.0,0.0,0.0,0
21-8-2017 16:00,444.47,-8700.833746242286,0.0,0.0,0.0,0
21-8-2017 17:00,1161.72,-6245.46248209734,0.0,0.0,0.0,0
21-8-2017 18:00,247.78,-11081.888777159409,0.0,0.0,0.0,0
21-8-2017 19:00,3423.01,-540.3053418286454,0.0,0.0,0.0,0
21-8-2017 20:00,4281.52,1790.5677081996837,0.0,0.0,0.0,0
21-8-2017 21:00,182.69,-2235.4843386217326,0.0,0.0,0.0,0
21-8-2017 22:00,26082.68,-9464.11971262109,0.0,0.0,0.0,0
21-8-2017 23:00,76509.98,22742.43219316574,0.0,0.0,0.0,0
22-8-2017 0:00,1494.28,-1867.8772290109137,0.0,0.0,0.0,0
22-8-2017 1:00,5871.86,-12157.71257173532,0.0,0.0,0.0,0
22-8-2017 2:00,6014.59,-10829.797462627208,0.0,0.0,0.0,0
22-8-2017 3:00,4366.72,-14119.924774228435,0.0,0.0,0.0,0
22-8-2017 4:00,17460.39,1441.1853175035412,0.0,0.0,0.0,0
22-8-2017 5:00,14819.13,36.801914514515374,0.0,0.0,0.0,0
22-8-2017 6:00,12183.75,-6886.4255908638725,0.0,0.0,0.0,0
22-8-2017 7:00,10095.41,421.29850486677606,0.0,0.0,0.0,0
22-8-2017 8:00,10906.64,3496.003974394227,0.0,0.0,0.0,0
22-8-2017 9:00,30485.68,17630.621045448315,0.0,0.0,0.0,0
22-8-2017 10:00,27334.36,4381.500328102273,0.0,0.0,0.0,0
22-8-2017 11:00,50464.07,33127.846623596546,0.0,0.0,0.0,0
22-8-2017 12:00,8576.88,-6878.654386687653,0.0,0.0,0.0,0
22-8-2017 13:00,3781.68,-10258.665595365625,0.0,0.0,0.0,0
22-8-2017 14:00,2744.01,-12095.22323893925,0.0,0.0,0.0,0
22-8-2017 15:00,16930.03,7302.2693652503785,0.0,0.0,0.0,0
22-8-2017 16:00,5404.5,-4460.625029957104,0.0,0.0,0.0,0
22-8-2017 17:00,241.93,-8077.226581995461,0.0,0.0,0.0,0
22-8-2017 18:00,495.41,-12505.679554940734,0.0,0.0,0.0,0
22-8-2017 19:00,798.73,-5351.265454487559,0.0,0.0,0.0,0
22-8-2017 20:00,253.87,-4870.791130803771,0.0,0.0,0.0,0
22-8-2017 21:00,187.71,-4890.419828897153,0.0,0.0,0.0,0
22-8-2017 22:00,51411.74,12956.40575625158,0.0,0.0,0.0,0
22-8-2017 23:00,75859.87,19472.952115001208,0.0,0.0,0.0,0
23-8-2017 0:00,6360.72,208.64586260162832,0.0,0.0,0.0,0
23-8-2017 1:00,28750.56,8178.9143041970965,0.0,0.0,0.0,0
23-8-2017 2:00,18301.36,-1065.1069062572096,0.0,0.0,0.0,0
23-8-2017 3:00,17954.8,-2892.2642282471643,0.0,0.0,0.0,0
23-8-2017 4:00,15040.09,-3280.8885206050363,0.0,0.0,0.0,0
23-8-2017 5:00,15230.92,-1577.8856157092123,0.0,0.0,0.0,0
23-8-2017 6:00,17193.32,-3614.281105707083,0.0,0.0,0.0,0
23-8-2017 7:00,18834.44,7619.748193376841,0.0,0.0,0.0,0
23-8-2017 8:00,19317.58,10584.000222171988,0.0,0.0,0.0,0
23-8-2017 9:00,25797.86,12323.815792933714,0.0,0.0,0.0,0
23-8-2017 10:00,21959.15,-898.4776380979365,0.0,0.0,0.0,0
23-8-2017 11:00,9293.55,-7068.025225910569,0.0,0.0,0.0,0
23-8-2017 12:00,11377.65,-2581.9039037856746,0.0,0.0,0.0,0
23-8-2017 13:00,21387.11,9527.795235497291,0.0,0.0,0.0,0
23-8-2017 14:00,2829.72,-9138.331521195601,0.0,0.0,0.0,0
23-8-2017 15:00,676.51,-5393.2744032275805,0.0,0.0,0.0,0
23-8-2017 16:00,279.29,-5554.4077623634375,0.0,0.0,0.0,0
23-8-2017 17:00,207.08,-3492.887231615705,0.0,0.0,0.0,0
23-8-2017 18:00,1553.17,-6750.048294113912,0.0,0.0,0.0,0
23-8-2017 19:00,1104.42,-51.101443056675635,0.0,0.0,0.0,0
23-8-2017 20:00,206.49,437.86018214189426,0.0,0.0,0.0,0
23-8-2017 21:00,3858.87,4213.351100226479,0.0,0.0,0.0,0
23-8-2017 22:00,25448.93,-7779.965051180479,0.0,0.0,0.0,0
23-8-2017 23:00,46512.06,-4262.30765697921,0.0,0.0,0.0,0
24-8-2017 0:00,80.19,-523.1459021003557,0.0,0.0,0.0,0
24-8-2017 1:00,20334.54,5328.952302863769,0.0,0.0,0.0,0
24-8-2017 2:00,10375.63,-3635.3092481041795,0.0,0.0,0.0,0
24-8-2017 3:00,13147.87,-2412.5306014340767,0.0,0.0,0.0,0
24-8-2017 4:00,13351.74,145.4914993906732,0.0,0.0,0.0,0
24-8-2017 5:00,24623.75,12588.082999446218,0.0,0.0,0.0,0
24-8-2017 6:00,18333.14,1970.8418121037303,0.0,0.0,0.0,0
24-8-2017 7:00,5681.72,-1507.7455708727211,0.0,0.0,0.0,0
24-8-2017 8:00,6897.69,1790.0511317764558,0.0,0.0,0.0,0
24-8-2017 9:00,16196.27,5838.368184628984,0.0,0.0,0.0,0
24-8-2017 10:00,16318.63,-3922.3985594525784,0.0,0.0,0.0,0
24-8-2017 11:00,3640.35,-10438.970629936412,0.0,0.0,0.0,0
24-8-2017 12:00,19962.04,7592.312425233287,0.0,0.0,0.0,0
24-8-2017 13:00,17109.25,6414.141675996889,0.0,0.0,0.0,0
24-8-2017 14:00,7549.58,-3674.784430295582,0.0,0.0,0.0,0
24-8-2017 15:00,2194.15,-3555.8230350294725,0.0,0.0,0.0,0
24-8-2017 16:00,1347.6,-4803.470666329551,0.0,0.0,0.0,0
24-8-2017 17:00,3065.75,-758.4894399636032,0.0,0.0,0.0,0
24-8-2017 18:00,3688.55,-5054.9199791826195,0.0,0.0,0.0,0
24-8-2017 19:00,1721.86,28.067285610992258,0.0,0.0,0.0,0
24-8-2017 20:00,209.21,-130.75612454333714,0.0,0.0,0.0,0
24-8-2017 21:00,189.41,177.51264878062648,0.0,0.0,0.0,0
24-8-2017 22:00,44273.94,10600.90058010209,0.0,0.0,0.0,0
24-8-2017 23:00,44499.1,-6204.895170960874,0.0,0.0,0.0,0
25-8-2017 0:00,2082.14,1613.7704104805234,0.0,0.0,0.0,0
25-8-2017 1:00,33054.27,18655.810287476128,0.0,0.0,0.0,0
25-8-2017 2:00,16929.19,3769.6903046573734,0.0,0.0,0.0,0
25-8-2017 3:00,16044.54,1721.5568286503567,0.0,0.0,0.0,0
25-8-2017 4:00,20916.61,9230.696844245835,0.0,0.0,0.0,0
25-8-2017 5:00,6362.17,-3863.558056758099,0.0,0.0,0.0,0
25-8-2017 6:00,2682.41,-11566.589937664405,0.0,0.0,0.0,0
25-8-2017 7:00,3465.3,-1399.7433298211054,0.0,0.0,0.0,0
25-8-2017 8:00,4039.81,1488.5087195622327,0.0,0.0,0.0,0
25-8-2017 9:00,2343.37,-5165.931933270187,0.0,0.0,0.0,0
25-8-2017 10:00,3223.97,-13865.939863991813,0.0,0.0,0.0,0
25-8-2017 11:00,16090.45,5629.965709262999,0.0,0.0,0.0,0
25-8-2017 12:00,9315.6,674.3426238873399,0.0,0.0,0.0,0
25-8-2017 13:00,1929.72,-5010.959701156174,0.0,0.0,0.0,0
25-8-2017 14:00,161.32,-7277.556844335966,0.0,0.0,0.0,0
25-8-2017 15:00,172.27,-1764.5128590595205,0.0,0.0,0.0,0
25-8-2017 16:00,147.48,-2376.0064498115717,0.0,0.0,0.0,0
25-8-2017 17:00,2136.18,1839.2631857769702,0.0,0.0,0.0,0
25-8-2017 18:00,1042.94,-4782.549116558483,0.0,0.0,0.0,0
25-8-2017 19:00,251.5,1084.3062755758838,0.0,0.0,0.0,0
25-8-2017 20:00,154.78,2014.985543673034,0.0,0.0,0.0,0
25-8-2017 21:00,558.53,2293.246371070465,0.0,0.0,0.0,0
25-8-2017 22:00,29864.84,-2797.867416045563,0.0,0.0,0.0,0
25-8-2017 23:00,43518.96,-6318.702113538673,0.0,0.0,0.0,0
26-8-2017 0:00,2187.29,1991.331493299358,0.0,0.0,0.0,0
26-8-2017 1:00,32146.96,17668.876958148056,0.0,0.0,0.0,0
26-8-2017 2:00,17342.37,3523.3624593000914,0.0,0.0,0.0,0
26-8-2017 3:00,19088.93,3668.2207764375635,0.0,0.0,0.0,0
26-8-2017 4:00,19985.6,6660.6826226253725,0.0,0.0,0.0,0
26-8-2017 5:00,4678.15,-7585.820651501697,0.0,0.0,0.0,0
26-8-2017 6:00,22565.83,5893.1048019645295,0.0,0.0,0.0,0
26-8-2017 7:00,2610.55,-5155.936571436077,0.0,0.0,0.0,0
26-8-2017 8:00,2008.53,-3901.1411473822354,0.0,0.0,0.0,0
26-8-2017 9:00,2636.94,-8368.991741204145,0.0,0.0,0.0,0
26-8-2017 10:00,27167.74,6453.196906129626,0.0,0.0,0.0,0
26-8-2017 11:00,3932.13,-10115.792112181469,0.0,0.0,0.0,0
26-8-2017 12:00,12835.32,285.7364265929791,0.0,0.0,0.0,0
26-8-2017 13:00,3388.83,-7383.3658990642025,0.0,0.0,0.0,0
26-8-2017 14:00,35869.87,24681.387496062125,0.0,0.0,0.0,0
26-8-2017 15:00,197.51,-5410.324353457644,0.0,0.0,0.0,0
26-8-2017 16:00,192.5,-6136.79232846822,0.0,0.0,0.0,0
26-8-2017 17:00,271.56,-3365.3251525513806,0.0,0.0,0.0,0
26-8-2017 18:00,24706.56,15497.85991310244,0.0,0.0,0.0,0
26-8-2017 19:00,203.51,-2172.1774363167315,0.0,0.0,0.0,0
26-8-2017 20:00,162.57,-946.0463588623988,0.0,0.0,0.0,0
26-8-2017 21:00,36.03,-820.0512399405943,0.0,0.0,0.0,0
26-8-2017 22:00,24963.97,-10194.234508043213,0.0,0.0,0.0,0
26-8-2017 23:00,44935.22,-6710.355914515561,0.0,0.0,0.0,0
27-8-2017 0:00,2631.81,865.5979551700057,0.0,0.0,0.0,0
27-8-2017 1:00,30394.6,14882.734485715138,0.0,0.0,0.0,0
27-8-2017 2:00,18779.89,4235.720948681323,0.0,0.0,0.0,0
27-8-2017 3:00,15995.89,300.30653680662726,0.0,0.0,0.0,0
27-8-2017 4:00,20925.76,7673.195691430115,0.0,0.0,0.0,0
27-8-2017 5:00,2203.63,-9789.158312305944,0.0,0.0,0.0,0
27-8-2017 6:00,27149.86,10960.90211904695,0.0,0.0,0.0,0
27-8-2017 7:00,3055.5,-4106.86959208342,0.0,0.0,0.0,0
27-8-2017 8:00,3883.19,-1281.2231498449291,0.0,0.0,0.0,0
27-8-2017 9:00,3110.71,-7001.876441498257,0.0,0.0,0.0,0
27-8-2017 10:00,22149.33,2486.476027048986,0.0,0.0,0.0,0
27-8-2017 11:00,3154.44,-9518.250339669936,0.0,0.0,0.0,0
27-8-2017 12:00,3726.18,-7482.712933587312,0.0,0.0,0.0,0
27-8-2017 13:00,2583.52,-6721.615807720585,0.0,0.0,0.0,0
27-8-2017 14:00,26961.78,17371.827577849443,0.0,0.0,0.0,0
27-8-2017 15:00,182.33,-3698.860654328965,0.0,0.0,0.0,0
27-8-2017 16:00,939.92,-3747.9235614604886,0.0,0.0,0.0,0
27-8-2017 17:00,690.66,-1033.3807600556866,0.0,0.0,0.0,0
27-8-2017 18:00,24883.14,17349.599758747067,0.0,0.0,0.0,0
27-8-2017 19:00,1049.55,329.2977529340242,0.0,0.0,0.0,0
27-8-2017 20:00,755.61,1347.6587249052063,0.0,0.0,0.0,0
27-8-2017 21:00,201.82,903.9539629309056,0.0,0.0,0.0,0
27-8-2017 22:00,25127.89,-8897.272958578778,0.0,0.0,0.0,0
27-8-2017 23:00,40071.74,-10273.685246450852,0.0,0.0,0.0,0
28-8-2017 0:00,528.91,-219.96528633821254,0.0,0.0,0.0,0
28-8-2017 1:00,7575.54,-6972.163547758861,0.0,0.0,0.0,0
28-8-2017 2:00,12391.98,-1469.0519806407574,0.0,0.0,0.0,0
28-8-2017 3:00,23362.67,8210.865020810163,0.0,0.0,0.0,0
28-8-2017 4:00,17984.58,5033.375626207115,0.0,0.0,0.0,0
28-8-2017 5:00,19159.53,7333.244481131007,0.0,0.0,0.0,0
28-8-2017 6:00,17521.89,1378.3334786395262,0.0,0.0,0.0,0
28-8-2017 7:00,3423.88,-3906.4249819516563,0.0,0.0,0.0,0
28-8-2017 8:00,2730.68,-2794.213933259567,0.0,0.0,0.0,0
28-8-2017 9:00,10481.69,-112.47450208801456,0.0,0.0,0.0,0
28-8-2017 10:00,14785.87,-5469.402791671009,0.0,0.0,0.0,0
28-8-2017 11:00,6920.68,-6290.071086141459,0.0,0.0,0.0,0
28-8-2017 12:00,25685.25,13634.57060790564,0.0,0.0,0.0,0
28-8-2017 13:00,7692.9,-2460.198861498091,0.0,0.0,0.0,0
28-8-2017 14:00,16972.52,6533.528467721269,0.0,0.0,0.0,0
28-8-2017 15:00,2729.87,-2004.7921939101416,0.0,0.0,0.0,0
28-8-2017 16:00,2588.38,-3170.694353676241,0.0,0.0,0.0,0
28-8-2017 17:00,13488.16,11027.737820706923,0.0,0.0,0.0,0
28-8-2017 18:00,198.66,-8245.492459850993,0.0,0.0,0.0,0
28-8-2017 19:00,7276.89,5689.655724851764,0.0,0.0,0.0,0
28-8-2017 20:00,2718.62,2552.271438249474,0.0,0.0,0.0,0
28-8-2017 21:00,893.69,963.5206089899093,0.0,0.0,0.0,0
28-8-2017 22:00,30361.64,-4452.721740179641,0.0,0.0,0.0,0
28-8-2017 23:00,45308.0,-5391.236683704234,0.0,0.0,0.0,0
29-8-2017 0:00,3413.67,2296.4475925826628,0.0,0.0,0.0,0
29-8-2017 1:00,7461.62,-7155.518001781073,0.0,0.0,0.0,0
29-8-2017 2:00,7172.5,-6686.903871488346,0.0,0.0,0.0,0
29-8-2017 3:00,6627.19,-8310.257997689114,0.0,0.0,0.0,0
29-8-2017 4:00,13669.14,1041.4905854246608,0.0,0.0,0.0,0
29-8-2017 5:00,17549.91,6106.580710675007,0.0,0.0,0.0,0
29-8-2017 6:00,17463.56,1776.1166860056437,0.0,0.0,0.0,0
29-8-2017 7:00,10660.8,3767.167046725972,0.0,0.0,0.0,0
29-8-2017 8:00,8814.36,3727.48827264399,0.0,0.0,0.0,0
29-8-2017 9:00,32360.02,22133.97541816216,0.0,0.0,0.0,0
29-8-2017 10:00,10412.71,-9534.253699802633,0.0,0.0,0.0,0
29-8-2017 11:00,11619.39,-1177.6639922761751,0.0,0.0,0.0,0
29-8-2017 12:00,5479.31,-6410.368080516158,0.0,0.0,0.0,0
29-8-2017 13:00,14197.93,4042.37866580586,0.0,0.0,0.0,0
29-8-2017 14:00,475.01,-10124.787250329242,0.0,0.0,0.0,0
29-8-2017 15:00,1907.53,-3149.6475304174546,0.0,0.0,0.0,0
29-8-2017 16:00,752.03,-5704.191966588368,0.0,0.0,0.0,0
29-8-2017 17:00,14429.35,11568.640524139964,0.0,0.0,0.0,0
29-8-2017 18:00,563.38,-8493.279612411803,0.0,0.0,0.0,0
29-8-2017 19:00,230.87,-1962.5810230428542,0.0,0.0,0.0,0
29-8-2017 20:00,590.37,-110.95035406822899,0.0,0.0,0.0,0
29-8-2017 21:00,536.95,218.25773996171665,0.0,0.0,0.0,0
29-8-2017 22:00,61789.36,26450.854546586765,0.0,0.0,0.0,0
29-8-2017 23:00,41414.68,-9352.0384691359,0.0,0.0,0.0,0
30-8-2017 0:00,2762.35,1691.6802809930668,0.0,0.0,0.0,0
30-8-2017 1:00,7787.17,-6663.885228504836,0.0,0.0,0.0,0
30-8-2017 2:00,8212.36,-5501.539350053003,0.0,0.0,0.0,0
30-8-2017 3:00,18978.18,4269.930566731555,0.0,0.0,0.0,0
30-8-2017 4:00,17718.93,5342.081756821988,0.0,0.0,0.0,0
30-8-2017 5:00,11945.77,839.4448760778614,0.0,0.0,0.0,0
30-8-2017 6:00,14991.07,-259.19024646829894,0.0,0.0,0.0,0
30-8-2017 7:00,10284.45,4008.1722910838835,0.0,0.0,0.0,0
30-8-2017 8:00,6070.11,1586.6979552783432,0.0,0.0,0.0,0
30-8-2017 9:00,10921.15,1369.2611248948833,0.0,0.0,0.0,0
30-8-2017 10:00,4112.79,-14838.886461923092,0.0,0.0,0.0,0
30-8-2017 11:00,10590.66,-977.1712395823324,0.0,0.0,0.0,0
30-8-2017 12:00,25256.75,14916.492082586941,0.0,0.0,0.0,0
30-8-2017 13:00,5457.65,-2889.2138467503355,0.0,0.0,0.0,0
30-8-2017 14:00,260.59,-8524.034850927921,0.0,0.0,0.0,0
30-8-2017 15:00,309.01,-2680.007439418243,0.0,0.0,0.0,0
30-8-2017 16:00,5159.82,779.0062838759841,0.0,0.0,0.0,0
30-8-2017 17:00,243.27,-790.7664341212148,0.0,0.0,0.0,0
30-8-2017 18:00,217.71,-7383.653265326422,0.0,0.0,0.0,0
30-8-2017 19:00,295.55,-458.77488593475573,0.0,0.0,0.0,0
30-8-2017 20:00,263.85,934.2175631936243,0.0,0.0,0.0,0
30-8-2017 21:00,1300.94,2228.9666043380967,0.0,0.0,0.0,0
30-8-2017 22:00,30615.66,-4651.892973009142,0.0,0.0,0.0,0
30-8-2017 23:00,47410.21,-2781.846296166126,0.0,0.0,0.0,0
31-8-2017 0:00,4206.42,3551.6938336766325,0.0,0.0,0.0,0
31-8-2017 1:00,8648.64,-5571.408910454105,0.0,0.0,0.0,0
31-8-2017 2:00,22091.55,8283.61139665817,0.0,0.0,0.0,0
31-8-2017 3:00,15291.03,267.968036929391,0.0,0.0,0.0,0
31-8-2017 4:00,15822.18,2846.7794427880854,0.0,0.0,0.0,0
31-8-2017 5:00,14897.07,2692.68712375209,0.0,0.0,0.0,0
31-8-2017 6:00,12701.38,-4132.467528968262,0.0,0.0,0.0,0
31-8-2017 7:00,3491.01,-4774.932290699151,0.0,0.0,0.0,0
31-8-2017 8:00,3003.63,-4069.5916643431665,0.0,0.0,0.0,0
31-8-2017 9:00,28514.9,15815.78432600558,0.0,0.0,0.0,0
31-8-2017 10:00,30236.33,7830.248859623131,0.0,0.0,0.0,0
31-8-2017 11:00,12847.79,-2568.819813933089,0.0,0.0,0.0,0
31-8-2017 12:00,4241.83,-10255.318492065842,1217.71,16284.64,-13849.22,0
31-8-2017 13:00,14510.72,2168.4216316372476,-614.73,14453.74,-15683.19,0
31-8-2017 14:00,4639.65,-8231.735731883165,1959.06,17024.73,-13106.6,0
31-8-2017 15:00,11930.2,5009.59809992406,-373.81,14689.5,-15437.11,0
31-8-2017 16:00,15074.26,6671.666329178121,2237.22,17303.47,-12829.03,0
31-8-2017 17:00,7329.82,2406.042442157748,2707.51,17779.21,-12364.19,0
31-8-2017 18:00,668.22,-10813.487043998537,1079.79,16145.87,-13986.3,0
31-8-2017 19:00,5944.82,1675.206634740356,-8.63,15049.43,-15066.69,0
31-8-2017 20:00,6799.51,4268.376373346995,1473.93,16522.19,-13574.34,0
31-8-2017 21:00,6935.15,5030.705934378175,1401.53,16441.03,-13637.96,0
31-8-2017 22:00,55983.54,17202.13796298324,1516.28,16547.63,-13515.08,0
31-8-2017 23:00,44522.33,-8185.477677683484,3885.47,18943.4,-11172.45,0
1-9-2017 0:00,2348.16,-486.64817820234384,95.43,15142.37,-14951.51,0
1-9-2017 1:00,11029.42,-5144.307449920623,806.06,15839.98,-14227.85,0
1-9-2017 2:00,12851.97,-2823.3520071026123,-163.92,14864.17,-15192.02,0
1-9-2017 3:00,13596.66,-3103.217936299443,409.91,15428.8,-14608.98,0
1-9-2017 4:00,12290.41,-2234.0035378119937,-65.15,14946.45,-15076.75,0
1-9-2017 5:00,7276.83,-6345.788229410374,-879.51,14131.23,-15890.25,0
1-9-2017 6:00,8014.38,-10092.94934657543,-1094.02,13915.64,-16103.68,0
1-9-2017 7:00,7189.07,-2126.05924039823,-2015.78,13000.56,-17032.12,0
1-9-2017 8:00,5133.26,-2958.9214846895557,-681.42,14323.58,-15686.42,0
1-9-2017 9:00,10260.25,-3443.483937490737,-1159.7,13834.53,-16153.94,0
1-9-2017 10:00,33852.72,10706.617025466123,-2040.3,12951.24,-17031.84,1
1-9-2017 11:00,20226.03,4246.798764916695,1827.04,16839.55,-13185.47,0
1-9-2017 12:00,19732.37,4936.262395385695,512.58,15519.91,-14494.75,0
1-9-2017 13:00,21985.93,9532.966630745512,446.59,15448.03,-14554.85,0
1-9-2017 14:00,6295.6,-6750.939033501368,1573.62,16583.83,-13436.6,0
1-9-2017 15:00,22089.75,15176.00927721976,-835.35,14165.85,-15836.54,0
1-9-2017 16:00,17346.05,8886.960071050018,2889.2,17925.03,-12146.62,0
1-9-2017 17:00,10180.02,4927.678374819217,1952.5,16992.35,-13087.36,0
1-9-2017 18:00,1264.29,-10940.690406475405,939.24,15966.0,-14087.53,0
1-9-2017 19:00,1697.72,-3334.218068576547,-179.23,14834.58,-15193.05,0
1-9-2017 20:00,1093.82,-2289.957680678912,259.71,15261.46,-14742.04,0
1-9-2017 21:00,1073.7,-1434.716119919307,2.03,14995.17,-14991.11,0
1-9-2017 22:00,46088.83,5901.718994479772,-24.08,14960.73,-15008.89,0
1-9-2017 23:00,45434.62,-7801.1574838549805,1113.27,16085.39,-13858.85,0
2-9-2017 0:00,1907.7,-1239.7671348937456,-114.28,14873.58,-15102.13,0
2-9-2017 1:00,7809.13,-8422.130376441519,-99.78,14881.28,-15080.85,0
2-9-2017 2:00,8014.58,-7603.25724015972,-1087.17,13894.76,-16069.09,0
2-9-2017 3:00,2953.48,-13469.623181066549,-805.53,14174.75,-15785.81,0
2-9-2017 4:00,5639.22,-8451.893232192295,-855.06,15081.14,-16791.26,0
2-9-2017 5:00,14057.33,639.8150315865314,-622.18,15309.05,-16553.41,0
2-9-2017 6:00,37281.31,19164.86277791636,-396.55,14596.29,-15389.39,1
2-9-2017 7:00,19741.65,10282.723079941252,2408.33,17430.75,-12614.09,0
2-9-2017 8:00,20216.62,11651.893292942206,736.79,16726.4,-15252.82,0
2-9-2017 9:00,5526.97,-8919.977467917597,948.34,16942.65,-15045.98,0
2-9-2017 10:00,33516.94,9607.210059469875,-1319.64,14694.72,-17334.01,0
2-9-2017 11:00,2731.07,-14119.397652981454,1160.6,17188.65,-14867.45,0
2-9-2017 12:00,645.43,-15043.2615788194,-1075.41,14962.75,-17113.56,0
2-9-2017 13:00,3525.25,-9514.919401951542,-1147.88,14906.82,-17202.58,0
2-9-2017 14:00,37415.25,23834.100462926428,-504.41,15545.61,-16554.43,1
2-9-2017 15:00,5706.29,-1442.962917587225,3825.56,18979.72,-11328.59,0
2-9-2017 16:00,35454.45,26813.574270670535,-1301.66,13850.45,-16453.77,1
2-9-2017 17:00,6002.42,701.1593482041499,166.15,16239.6,-15907.29,0
2-9-2017 18:00,33672.81,21429.135854746022,2421.88,18495.97,-13652.21,0
2-9-2017 19:00,9345.0,4640.251434779688,-1466.49,14641.42,-17574.39,0
2-9-2017 20:00,620.22,-2121.7529450568436,3787.22,19884.28,-12309.85,0
2-9-2017 21:00,395.33,-1156.8050038678266,-4764.29,11349.56,-20878.15,0
2-9-2017 22:00,0.0,-39966.76242297375,2141.77,18247.67,-13964.12,0
2-9-2017 23:00,42668.77,-9403.115358275552,-6301.72,10085.97,-22689.42,0
3-9-2017 0:00,2121.3,418.8402208667776,-93.6,16281.1,-16468.29,0
3-9-2017 1:00,11928.65,-2386.7836705653426,692.68,17056.7,-15671.34,0
3-9-2017 2:00,3132.49,-10238.80952087461,-795.41,15558.21,-17149.02,0
3-9-2017 3:00,3142.84,-10598.742153546295,34.76,16380.73,-16311.21,0
3-9-2017 4:00,16645.2,5607.826665659912,-1243.82,15093.77,-17581.42,0
3-9-2017 5:00,15680.74,5574.314944469197,987.31,17320.88,-15346.26,0
3-9-2017 6:00,37509.63,22975.598613947168,536.89,16864.66,-15790.88,0
3-9-2017 7:00,16255.24,10729.596171472997,2071.22,18437.39,-14294.94,0
3-9-2017 8:00,2428.62,-2046.024098580514,1038.4,17397.05,-15320.26,0
3-9-2017 9:00,2872.15,-7874.61082809232,-1037.92,15315.97,-17391.8,0
3-9-2017 10:00,27111.57,6762.385603132383,-901.71,15452.3,-17255.72,0
3-9-2017 11:00,2732.35,-10784.409221814225,441.99,16794.57,-15910.59,0
3-9-2017 12:00,2596.45,-9899.108364552496,234.73,16579.11,-16109.64,0
3-9-2017 13:00,3215.5,-6624.980655425839,-1493.09,14846.89,-17833.07,0
3-9-2017 14:00,26028.68,15400.992329327739,345.65,16675.7,-15984.4,0
3-9-2017 15:00,419.09,-3776.4251516699305,1046.95,17391.94,-15298.05,0
3-9-2017 16:00,288.78,-5643.453978233899,613.28,16951.0,-15724.43,0
3-9-2017 17:00,307.62,-2352.0043610727644,-1894.79,14443.08,-18232.66,0
3-9-2017 18:00,31858.83,22067.14519916873,655.31,16982.53,-15671.91,1
3-9-2017 19:00,352.74,-1734.0082127996848,1800.37,18189.12,-14588.38,0
3-9-2017 20:00,480.44,471.2104054927404,1167.32,17547.84,-15213.2,0
3-9-2017 21:00,1017.62,2056.156673746913,-1621.06,14749.53,-17991.64,0
3-9-2017 22:00,26899.92,-11668.65133222826,1563.41,17925.04,-14798.21,0
3-9-2017 23:00,51808.54,1621.8412221386461,-1707.04,14651.57,-18065.66,0
4-9-2017 0:00,2466.27,2473.5639780978017,1675.34,18068.01,-14717.32,0
4-9-2017 1:00,11552.46,-1307.461748636375,-133.54,16249.41,-16516.49,0
4-9-2017 2:00,15018.49,2708.352229045575,-135.45,16237.52,-16508.41,0
4-9-2017 3:00,10931.63,-2038.8682808086705,443.53,16809.34,-15922.27,0
4-9-2017 4:00,7014.17,-3604.9617766882257,147.12,16503.56,-16209.33,0
4-9-2017 5:00,3034.55,-6764.7287343512035,-983.13,15372.9,-17339.16,0
4-9-2017 6:00,2274.91,-12049.094393227813,-919.18,15434.36,-17272.71,0
4-9-2017 7:00,2103.73,-3229.4648317037736,-1641.11,14732.28,-18014.5,0
4-9-2017 8:00,3110.81,-1383.030836314476,-770.76,15592.5,-17134.03,0
4-9-2017 9:00,20628.4,9813.590604074248,594.13,16947.67,-15759.4,0
4-9-2017 10:00,23764.94,3549.1100776887124,755.2,17114.19,-15603.79,0
4-9-2017 11:00,25778.12,12508.922278799353,1153.48,17506.0,-15199.05,0
4-9-2017 12:00,17418.14,5370.612057713295,1184.54,17567.6,-15198.53,0
4-9-2017 13:00,20771.97,11329.736689310683,1724.7,18102.63,-14653.23,0
4-9-2017 14:00,1673.2,-8858.805815848202,-163.67,16211.39,-16538.74,0
4-9-2017 15:00,4612.11,456.21399288204157,-377.37,16021.91,-16776.65,0
4-9-2017 16:00,5773.89,-420.1664148266209,-1843.87,14546.25,-18234.0,0
4-9-2017 17:00,342.28,-2904.8979222579383,1214.46,17597.12,-15168.19,0
4-9-2017 18:00,454.98,-10372.630972536803,-1998.19,14384.62,-18381.0,0
4-9-2017 19:00,334.19,-2881.248383356102,18.6,16401.77,-16364.56,0
4-9-2017 20:00,341.52,-940.4317737835318,-1134.61,15238.78,-17508.0,0
4-9-2017 21:00,288.01,490.3152194750801,1284.39,17649.24,-15080.47,0
4-9-2017 22:00,32259.46,-7759.401496697432,-681.48,15673.77,-17036.72,0
4-9-2017 23:00,45900.95,-4670.621575989904,886.73,17232.83,-15459.37,0
5-9-2017 0:00,2019.6,2045.010233457997,-21.27,16322.54,-16365.09,0
5-9-2017 1:00,26821.0,14336.218682602555,627.01,16961.2,-15707.17,0
5-9-2017 2:00,19800.86,8082.778499456521,1058.0,17409.09,-15293.09,0
5-9-2017 3:00,17155.65,5098.396123600505,1721.19,18066.43,-14624.05,0
5-9-2017 4:00,24856.8,15409.151254354523,-284.8,16051.56,-16621.15,0
5-9-2017 5:00,3294.13,-5506.641292195018,1368.98,17701.8,-14963.84,0
5-9-2017 6:00,2813.79,-10670.706631840512,-1480.03,14864.11,-17824.16,0
5-9-2017 7:00,3519.42,-1053.8446894939734,-2130.38,14233.23,-18494.0,0
5-9-2017 8:00,3794.71,-212.8460518375814,-740.01,15614.48,-17094.5,0
5-9-2017 9:00,12934.13,2312.415303836551,-38.33,16306.35,-16383.01,0
5-9-2017 10:00,2525.84,-17539.879507739657,-412.68,15922.57,-16747.93,0
5-9-2017 11:00,13092.33,-156.9376081522023,-1654.46,14708.5,-18017.43,0
5-9-2017 12:00,9772.73,-2298.786235166499,-205.24,16155.32,-16565.8,0
5-9-2017 13:00,13942.34,4669.0816776545635,1312.86,17663.84,-15038.12,0
5-9-2017 14:00,3108.63,-7314.219958663841,-614.59,15728.64,-16957.81,0
5-9-2017 15:00,4130.74,270.68349854725784,389.66,16729.03,-15949.72,0
5-9-2017 16:00,5768.92,-187.84932986752938,-1060.56,15270.0,-17391.13,0
5-9-2017 17:00,3598.72,313.8199490311363,1309.09,17628.84,-15010.65,0
5-9-2017 18:00,1386.73,-9876.25380084565,-946.66,15362.83,-17256.15,0
5-9-2017 19:00,1605.34,-2087.278369594027,501.6,16803.24,-15800.04,0
5-9-2017 20:00,749.24,-1102.966927819496,-641.7,15651.91,-16935.3,0
5-9-2017 21:00,1744.56,1152.7991009728266,1551.67,17839.26,-14735.92,0
5-9-2017 22:00,61760.34,19673.44660966241,-365.37,15913.52,-16644.25,1
5-9-2017 23:00,49532.5,-2701.5931682299997,3821.15,20196.71,-12554.42,0
6-9-2017 0:00,3032.04,1163.8054522918246,1050.35,17435.36,-15334.66,0
6-9-2017 1:00,17944.49,3575.0485156544037,-1049.67,15326.37,-17425.72,0
6-9-2017 2:00,20836.88,7185.416146854968,887.96,17254.76,-15478.85,0
6-9-2017 3:00,23329.32,9335.259883461467,205.63,16563.55,-16152.29,0
6-9-2017 4:00,16960.32,5522.324484090386,1335.86,17689.63,-15017.92,0
6-9-2017 5:00,10591.36,-141.76796530520733,-663.67,15684.68,-17012.02,0
6-9-2017 6:00,3711.43,-11678.111481176431,-634.14,15706.39,-16974.68,0
6-9-2017 7:00,3223.68,-3026.10892848211,-1693.91,14666.76,-18054.58,0
6-9-2017 8:00,5761.59,4.48088679574721,-1507.08,14847.83,-17861.99,0
6-9-2017 9:00,18448.26,6060.414423664715,254.57,16600.12,-16090.98,0
6-9-2017 10:00,24063.1,2437.391542470048,-399.68,15936.7,-16736.06,0
6-9-2017 11:00,13658.71,-900.1165001616391,579.46,16908.16,-15749.24,0
6-9-2017 12:00,5285.33,-7607.560917296159,-446.88,15872.55,-16766.3,0
6-9-2017 13:00,10621.4,865.350288082449,-761.89,15558.01,-17081.78,0
6-9-2017 14:00,1622.11,-9200.994915563624,-836.58,15474.74,-17147.89,0
6-9-2017 15:00,1973.52,-1875.4212266745635,-713.89,15599.01,-17026.79,0
6-9-2017 16:00,733.88,-5058.737813767981,-1065.5,15237.02,-17368.02,0
6-9-2017 17:00,3365.6,257.1009225766247,25.48,16322.05,-16271.09,0
6-9-2017 18:00,6772.73,-4516.773460473837,-781.46,15508.45,-17071.38,0
6-9-2017 19:00,7355.61,4082.0519166801514,878.46,17157.76,-15400.84,0
6-9-2017 20:00,1664.81,524.4466651879211,126.05,16400.79,-16148.69,0
6-9-2017 21:00,1078.26,1509.9044464948984,1214.37,17481.15,-15052.41,0
6-9-2017 22:00,34608.42,-7481.091184439902,-456.13,15801.45,-16713.71,0
6-9-2017 23:00,44955.41,-6423.606905377659,665.29,16913.41,-15582.82,0
7-9-2017 0:00,2387.5,1853.173884095655,-3.08,16242.98,-16249.14,0
7-9-2017 1:00,27795.97,14748.038201221658,863.87,17101.43,-15373.69,0
7-9-2017 2:00,21218.0,8817.94028631423,1096.86,17346.13,-15152.41,0
7-9-2017 3:00,20334.79,7567.326774928657,1757.73,18000.06,-14484.6,0
7-9-2017 4:00,20347.08,10060.365670156083,-5.14,16228.73,-16239.01,0
7-9-2017 5:00,3700.82,-6216.988043816458,936.33,17160.6,-15287.94,0
7-9-2017 6:00,3989.24,-10951.621097644296,-1441.81,14782.52,-17666.15,0
7-9-2017 7:00,5429.22,-537.5542253231561,-989.63,15232.2,-17211.47,0
7-9-2017 8:00,5172.19,-769.1195231448,-578.46,15633.2,-16790.12,0
7-9-2017 9:00,10398.0,-2590.456116403164,251.53,16453.64,-15950.58,0
7-9-2017 10:00,12349.79,-10070.294373697001,-968.82,15227.99,-17165.64,0
7-9-2017 11:00,25017.68,9515.000334971446,-633.8,15558.05,-16825.66,0
7-9-2017 12:00,14589.53,841.0628212359788,1217.67,17424.1,-14988.76,0
7-9-2017 13:00,6409.27,-4030.868907462913,1094.57,17292.21,-15103.07,0
7-9-2017 14:00,1190.06,-10401.693905071701,-1645.97,14549.74,-17841.68,0
7-9-2017 15:00,2567.75,-1805.566211139725,-483.57,15708.48,-16675.61,0
7-9-2017 16:00,32560.81,26229.886105069025,-726.11,15456.51,-16908.74,1
7-9-2017 17:00,3131.05,-773.81463255364,3043.03,19274.0,-13187.94,0
7-9-2017 18:00,3479.09,-9080.00858019097,-157.21,16071.53,-16385.96,0
7-9-2017 19:00,5651.65,1283.9040561939,-1756.87,14468.64,-17982.38,0
7-9-2017 20:00,967.52,-1244.4205752365779,859.36,17076.94,-15358.21,0
7-9-2017 21:00,2526.84,2048.59336218498,-493.54,15715.6,-16702.68,0
7-9-2017 22:00,31674.93,-12500.257422778854,228.67,16428.89,-15971.55,0
7-9-2017 23:00,48115.69,-4641.071101166597,-711.92,15484.22,-16908.07,0
8-9-2017 0:00,2718.48,1135.4798428535396,422.78,16612.23,-15766.66,0
8-9-2017 1:00,10345.0,-3427.129839589901,425.69,16606.49,-15755.1,0
8-9-2017 2:00,24085.89,11228.401446061813,-1065.72,15110.77,-17242.21,0
8-9-2017 3:00,13810.8,897.9754333513029,1278.12,17458.41,-14902.17,0
8-9-2017 4:00,10669.79,499.37674252454053,258.93,16431.02,-15913.15,0
8-9-2017 5:00,14366.32,4544.498888638078,-1049.52,15118.48,-17217.52,0
8-9-2017 6:00,15360.22,464.3534215166528,810.4,16976.14,-15355.34,0
8-9-2017 7:00,8695.7,2923.959567241971,359.98,16517.89,-15797.92,0
8-9-2017 8:00,17574.93,11677.14411009818,-175.0,15974.57,-16324.57,0
8-9-2017 9:00,19639.89,6211.5786472617,1081.37,17231.95,-15069.21,0
8-9-2017 10:00,10610.92,-12509.740764485474,220.22,16362.09,-15921.65,0
8-9-2017 11:00,9725.81,-6693.8790828710535,-1389.99,14758.62,-17538.6,0
8-9-2017 12:00,8405.91,-6238.2454715616295,-628.73,15512.92,-16770.37,0
8-9-2017 13:00,24300.37,13047.95438237529,-208.01,15927.34,-16343.37,0
8-9-2017 14:00,1425.0,-11151.665892482895,963.71,17105.61,-15178.19,0
8-9-2017 15:00,2345.78,-2856.2496767946886,-382.92,15762.98,-16528.82,0
8-9-2017 16:00,3785.67,-3475.9739405704677,-1308.8,14828.83,-17446.42,0
8-9-2017 17:00,1317.67,-3512.032318459698,167.03,16304.45,-15970.38,0
8-9-2017 18:00,7447.58,-6245.6439969832145,-1362.93,14769.64,-17495.5,0
8-9-2017 19:00,9288.22,4225.697732333227,1041.41,17165.58,-15082.76,0
8-9-2017 20:00,1274.59,-1345.5744453348052,-97.74,16020.84,-16216.31,0
8-9-2017 21:00,1380.77,842.855809015984,937.7,17047.76,-15172.36,0
8-9-2017 22:00,67583.05,22359.28003083777,-709.91,15391.48,-16811.3,1
8-9-2017 23:00,46872.49,-6038.051444185319,3601.42,19787.78,-12584.94,0
9-9-2017 0:00,2079.24,858.3998151963133,445.14,16627.65,-15737.37,0
9-9-2017 1:00,15924.2,2671.4369128229173,-1401.75,14774.94,-17578.44,0
9-9-2017 2:00,13583.89,1345.268178673261,486.19,16654.91,-15682.52,0
9-9-2017 3:00,9271.43,-2877.7295557227044,-1115.49,15048.63,-17279.61,0
9-9-2017 4:00,7343.02,-1969.3350529641702,-193.7,15964.42,-16351.82,0
9-9-2017 5:00,11549.85,2715.6692270112,-1321.66,14836.66,-17479.98,0
9-9-2017 6:00,17339.27,3529.9476203719314,381.75,16533.37,-15769.88,0
9-9-2017 7:00,16494.73,12109.46931327717,616.2,16760.39,-15528.0,0
9-9-2017 8:00,13296.88,8783.959970586984,687.37,16827.91,-15453.16,0
9-9-2017 9:00,4964.12,-6854.9098428095995,499.88,16631.7,-15631.94,0
9-9-2017 10:00,4744.47,-16319.835889992108,-1591.79,14552.63,-17736.21,0
9-9-2017 11:00,3794.69,-10077.282716413712,-1488.19,14658.84,-17635.22,0
9-9-2017 12:00,4203.84,-7163.483461041395,-637.83,15503.48,-16779.14,0
9-9-2017 13:00,34047.76,26404.871233912287,-443.7,15688.81,-16576.21,1
9-9-2017 14:00,3194.75,-5695.7410598143615,2363.31,18542.89,-13816.27,0
9-9-2017 15:00,1582.08,471.70693601101993,233.3,16408.48,-15941.88,0
9-9-2017 16:00,1697.27,-1325.4406493683364,-1269.41,14897.15,-17435.97,0
9-9-2017 17:00,2525.05,1612.212602795964,270.88,16434.27,-15892.5,0
9-9-2017 18:00,2025.62,-8287.977536293629,-1129.55,15024.91,-17284.0,0
9-9-2017 19:00,1849.7,278.2025562744948,854.31,17000.21,-15291.59,0
9-9-2017 20:00,1615.52,2444.9821026890113,-961.81,15175.48,-17099.1,0
9-9-2017 21:00,1151.31,3961.7589305881593,1423.84,17556.01,-14708.33,0
9-9-2017 22:00,423.81,-42890.331584185304,-327.13,15796.86,-16451.12,0
9-9-2017 23:00,47893.26,-2662.6705992246043,-2765.7,13479.12,-19010.53,0
10-9-2017 0:00,3374.69,4574.581232137636,-222.07,16066.77,-16510.91,0
10-9-2017 1:00,11040.4,-47.80411091633505,3135.41,19423.71,-13152.89,0
10-9-2017 2:00,14578.08,4190.137914382023,-1835.89,14443.76,-18115.53,0
10-9-2017 3:00,12033.86,1466.799237549989,2392.08,18669.4,-13885.24,0
10-9-2017 4:00,12840.34,4791.097713143205,-840.76,15429.16,-17110.68,0
10-9-2017 5:00,21845.75,13557.455394620683,1665.51,17929.52,-14598.5,0
10-9-2017 6:00,32758.35,18747.008916103856,464.57,16742.19,-15813.04,0
10-9-2017 7:00,2723.85,-2410.3025761706995,3244.73,19556.16,-13066.71,0
10-9-2017 8:00,4036.63,-2073.6045367670013,-1360.46,14953.55,-17674.48,0
10-9-2017 9:00,3028.98,-11320.663241266524,-352.82,15954.64,-16660.29,0
10-9-2017 10:00,36223.96,11918.399535572798,-1002.26,15309.49,-17314.02,1
10-9-2017 11:00,5612.04,-12167.540339427656,1438.2,17787.22,-14910.82,0
10-9-2017 12:00,6088.87,-9614.659980535278,588.29,16939.73,-15763.15,0
10-9-2017 13:00,19374.28,7290.726839542274,-2315.67,14032.14,-18663.48,0
10-9-2017 14:00,37673.78,23982.119811054283,1507.7,17848.31,-14832.9,1
10-9-2017 15:00,1321.24,-4621.973128876043,1442.56,17834.74,-14949.63,0
10-9-2017 16:00,1093.98,-7051.446751751866,-815.67,15686.03,-17317.37,0
10-9-2017 17:00,1050.92,-4990.0196809354,-1139.49,15378.28,-17657.26,0
10-9-2017 18:00,26565.78,10903.523908007559,-532.87,15982.84,-17048.59,0
10-9-2017 19:00,1364.71,-5127.365447574011,1121.25,17649.61,-15407.11,0
10-9-2017 20:00,1050.28,-2765.5519884783116,-832.88,15698.66,-17364.41,0
10-9-2017 21:00,1910.49,709.4083076783918,-337.96,16186.81,-16862.73,0
10-9-2017 22:00,27149.14,-20880.240048981133,-295.99,16221.49,-16813.48,0
10-9-2017 23:00,50190.51,-3900.649709327441,-924.82,15597.07,-17446.72,0
11-9-2017 0:00,5177.64,3643.449588724612,470.24,16990.1,-16049.61,0
11-9-2017 1:00,13986.44,891.0648338305255,-80.79,16430.45,-16592.03,0
11-9-2017 2:00,19678.59,7952.680647417348,-225.35,16277.73,-16728.43,0
11-9-2017 3:00,28931.72,17741.194056989698,193.38,16687.84,-16301.08,0
11-9-2017 4:00,18747.16,10738.549534258043,1061.47,17566.11,-15443.17,0
11-9-2017 5:00,23270.56,15365.816122889326,-99.14,16397.19,-16595.46,0
11-9-2017 6:00,3102.95,-10212.59972185337,632.38,17126.16,-15861.4,0
11-9-2017 7:00,3320.18,-604.9088936560311,-1272.19,15240.37,-17784.76,0
11-9-2017 8:00,6204.13,1514.68203349324,-333.71,16172.49,-16839.91,0
11-9-2017 9:00,5135.02,-7766.770096433327,-224.78,16274.08,-16723.64,0
11-9-2017 10:00,14621.95,-7986.033029896276,-618.21,15877.87,-17114.3,0
11-9-2017 11:00,5712.02,-10075.9704877997,-131.64,16356.49,-16619.78,0
11-9-2017 12:00,11766.05,-1414.1235597113646,-213.3,16267.25,-16693.85,0
11-9-2017 13:00,7592.06,-1492.805521354001,363.62,16838.42,-16111.18,0
11-9-2017 14:00,1613.06,-8860.628191447393,-592.21,15881.08,-17065.5,0
11-9-2017 15:00,1221.39,-955.7329739774923,-367.76,16098.89,-16834.41,0
11-9-2017 16:00,7843.81,3754.3860436513514,267.04,16726.69,-16192.6,0
11-9-2017 17:00,1420.15,-736.0742566040572,169.76,16621.25,-16281.74,0
11-9-2017 18:00,14652.04,2488.0418706474175,143.6,16587.37,-16300.17,0
11-9-2017 19:00,4029.35,1297.7092230966537,651.44,17093.68,-15790.8,0
11-9-2017 20:00,3648.88,3702.862751054032,209.25,16643.89,-16225.39,0
11-9-2017 21:00,7687.45,10093.722668524024,410.82,16839.98,-16018.35,0
11-9-2017 22:00,40962.24,-5059.725706359835,608.68,17035.1,-15817.74,0
11-9-2017 23:00,47808.54,-3991.4281883514122,498.32,16920.03,-15923.4,0
12-9-2017 0:00,1697.67,2359.586400052185,318.18,16749.3,-16112.93,0
12-9-2017 1:00,5061.14,-6197.768898054599,-172.05,16251.34,-16595.43,0
12-9-2017 2:00,5347.4,-4959.390427551885,-706.77,15716.91,-17130.45,0
12-9-2017 3:00,5795.86,-4347.59606294773,-659.8,15764.66,-17084.27,0
12-9-2017 4:00,5223.21,-2160.7945247235984,-367.2,16052.24,-16786.63,0
12-9-2017 5:00,15054.63,7539.2435472468005,-426.66,15987.09,-16840.4,0
12-9-2017 6:00,16396.25,3204.130912463552,606.49,17017.4,-15804.41,0
12-9-2017 7:00,10263.47,6396.911044789527,479.33,16887.19,-15928.53,0
12-9-2017 8:00,9075.44,4078.0718433411184,443.9,16847.64,-15959.83,0
12-9-2017 9:00,4874.46,-8775.937561520685,169.55,16565.7,-16226.59,0
12-9-2017 10:00,9908.38,-13666.24430822737,-478.71,15912.56,-16869.97,0
12-9-2017 11:00,18555.0,1626.622548024783,-380.3,16005.99,-16766.59,0
12-9-2017 12:00,40416.02,26159.46794236761,920.21,17311.49,-15471.08,1
12-9-2017 13:00,24031.72,13572.54851243053,2356.77,18820.04,-14106.51,0
12-9-2017 14:00,470.69,-11931.278485842524,37.85,16492.52,-16416.81,0
12-9-2017 15:00,4420.86,90.3162024533467,-1149.38,15315.71,-17614.47,0
12-9-2017 16:00,7308.54,582.3528320502792,-1.97,16455.29,-16459.23,0
12-9-2017 17:00,1464.08,-3636.424755914366,-507.39,15946.88,-16961.66,0
12-9-2017 18:00,2997.63,-12633.33600699173,-379.14,16071.83,-16830.11,0
12-9-2017 19:00,1397.51,-4675.140974755108,-797.42,15655.23,-17250.07,0
12-9-2017 20:00,862.61,-2451.256406179473,-223.87,16221.65,-16669.4,0
12-9-2017 21:00,761.45,209.1233218344205,-75.52,16362.19,-16513.23,0
12-9-2017 22:00,37429.44,-12479.331283443324,-144.7,16285.52,-16574.91,0
12-9-2017 23:00,48858.96,-5872.302799249759,159.97,16582.96,-16263.01,0
13-9-2017 0:00,8041.86,6352.5536774906195,424.73,16847.11,-15997.65,0
13-9-2017 1:00,15820.66,2529.6669837339996,300.73,16716.58,-16115.11,0
13-9-2017 2:00,18579.43,6508.239952783511,78.03,16486.28,-16330.23,0
13-9-2017 3:00,29303.71,17701.558700925023,157.81,16558.33,-16242.72,0
13-9-2017 4:00,19109.88,10552.749692046687,1125.77,17534.41,-15282.87,0
13-9-2017 5:00,14665.63,5871.626569794484,-22.36,16378.74,-16423.46,0
13-9-2017 6:00,3411.04,-11179.64024900807,-216.2,16177.93,-16610.33,0
13-9-2017 7:00,3747.02,-1432.763673676016,-1115.38,15285.63,-17516.4,0
13-9-2017 8:00,4115.3,-2420.847398093134,-332.53,16062.0,-16727.05,0
13-9-2017 9:00,14499.92,-797.7618081942892,-425.96,15963.2,-16815.12,0
13-9-2017 10:00,14362.67,-10790.03330683006,267.58,16650.23,-16115.08,0
13-9-2017 11:00,20496.05,2166.392613473621,-230.66,16145.32,-16606.64,0
13-9-2017 12:00,53871.96,38605.32103347854,791.47,17166.92,-15583.98,1
13-9-2017 13:00,3399.61,-7578.284074834389,3029.83,19504.98,-13445.32,0
13-9-2017 14:00,1098.25,-11619.132380423354,-2381.47,13090.91,-17853.85,0
13-9-2017 15:00,732.25,-3369.3167115420983,-96.55,15363.09,-15556.19,0
13-9-2017 16:00,2224.93,-3974.2735768191687,-75.31,15377.94,-15528.55,0
13-9-2017 17:00,4685.74,136.59073143805108,-1289.55,14165.83,-16744.93,0
13-9-2017 18:00,2237.77,-13070.074064494638,63.02,15511.55,-15385.51,0
13-9-2017 19:00,3014.9,-2261.407899216465,-1844.55,13608.61,-17297.72,0
13-9-2017 20:00,475.97,-1747.2902663788318,-650.97,14795.8,-16097.74,0
13-9-2017 21:00,596.12,1435.179894369674,-1004.95,14434.92,-16444.81,0
13-9-2017 22:00,32192.37,-17387.15895241099,-1103.91,14329.0,-16536.82,0
13-9-2017 23:00,49275.43,-4327.67292049215,-1498.23,13928.85,-16925.31,0
14-9-2017 0:00,2405.5,2358.4694017568,82.89,15518.7,-15352.91,0
14-9-2017 1:00,16778.51,4967.524893993592,-1197.13,14230.82,-16625.07,0
14-9-2017 2:00,28784.87,17979.965943233154,444.69,16924.49,-16035.11,0
14-9-2017 3:00,29723.48,19211.91265655528,1114.31,17601.92,-15373.3,0
14-9-2017 4:00,9704.99,2042.570535223529,985.86,17476.21,-15504.49,0
14-9-2017 5:00,3701.37,-4895.245973624378,-795.57,14637.29,-16228.43,0
14-9-2017 6:00,3688.99,-11416.079168819342,-1202.78,14225.19,-16630.76,0
14-9-2017 7:00,4247.85,-1952.8419154916173,-1292.22,14132.26,-16716.7,0
14-9-2017 8:00,3968.51,-4405.955927887846,-6.01,16474.86,-16486.88,0
14-9-2017 9:00,3882.87,-13995.2598150943,-200.88,16272.95,-16674.7,0
14-9-2017 10:00,28696.16,398.58056095633583,-443.68,16024.53,-16911.89,0
14-9-2017 11:00,12688.32,-9243.047828072959,1966.58,17384.68,-13451.52,0
14-9-2017 12:00,29552.55,10441.760244209541,-266.24,15144.53,-15677.01,0
14-9-2017 13:00,1232.62,-13646.762149441058,832.04,17306.4,-15642.32,0
14-9-2017 14:00,6342.96,-10621.30336930776,-1390.84,15102.19,-17883.86,0
14-9-2017 15:00,11544.94,3192.181673197065,175.94,16661.39,-16309.51,0
14-9-2017 16:00,75097.6,64396.51253381223,1503.9,16924.47,-13916.68,1
14-9-2017 17:00,1203.31,-8211.122705809974,5173.2,21968.33,-11621.93,0
14-9-2017 18:00,24727.82,3938.687509300733,-63.0,15716.65,-15842.65,0
14-9-2017 19:00,4808.48,-5863.661056277811,537.57,17355.4,-16280.26,0
14-9-2017 20:00,994.63,-6717.966223076453,-879.93,15942.5,-17702.36,0
14-9-2017 21:00,500.71,-3878.7851163722007,-787.66,16036.72,-17612.03,0
14-9-2017 22:00,61075.17,5184.949248377168,-826.38,16000.32,-17653.08,0
14-9-2017 23:00,49708.6,-9436.269718945743,1233.99,18075.23,-15607.25,0
15-9-2017 0:00,3010.83,-2093.8440981552594,-584.87,16258.66,-17428.4,0
15-9-2017 1:00,17388.2,1393.6887636317115,-817.57,16029.01,-17664.16,0
15-9-2017 2:00,17311.43,3145.6630766180824,-378.11,16462.72,-17218.94,0
15-9-2017 3:00,15499.87,2488.122938677583,-655.43,16184.35,-17495.21,0
15-9-2017 4:00,13584.7,4262.626057272888,-642.94,16195.17,-17481.05,0
15-9-2017 5:00,24246.16,14856.596638807263,-430.51,16400.5,-17261.52,0
15-9-2017 6:00,13924.34,-1121.422455802116,559.04,17387.08,-16268.99,0
15-9-2017 7:00,6557.06,1473.1949425536332,-240.47,16579.29,-17060.23,0
15-9-2017 8:00,3323.53,-3187.4798907893473,-344.32,16468.03,-17156.66,0
15-9-2017 9:00,3610.96,-12248.819514181128,-591.73,16215.21,-17398.66,0
15-9-2017 10:00,20317.88,-5628.75119848147,-648.23,16151.74,-17448.2,0
15-9-2017 11:00,8529.22,-10611.007831881125,253.89,17045.6,-16537.82,0
15-9-2017 12:00,35537.35,19872.28595764158,-295.57,16488.98,-17080.13,0
15-9-2017 13:00,2312.64,-8888.324026382234,1115.03,17908.04,-15677.98,0
15-9-2017 14:00,13022.44,-318.76846556221244,-1024.5,15775.89,-17824.89,0
15-9-2017 15:00,9736.79,5292.805645530636,654.53,17454.5,-16145.45,0
15-9-2017 16:00,347.14,-6405.8360729974975,477.56,17273.56,-16318.44,0
15-9-2017 17:00,200.72,-5552.636236670804,-1238.25,15577.93,-18054.44,0
15-9-2017 18:00,457.32,-17210.376386688375,187.78,16996.55,-16620.98,0
15-9-2017 19:00,901.7,-6487.185059295319,-463.0,16342.03,-17268.04,0
15-9-2017 20:00,5430.14,983.6615980980896,235.64,17033.76,-16562.48,0
15-9-2017 21:00,262.39,-1058.5159117235853,672.19,17469.8,-16125.42,0
15-9-2017 22:00,57676.44,3274.362102074163,155.0,16945.28,-16635.28,1
15-9-2017 23:00,51503.29,-5862.821426972199,1585.34,18405.62,-15234.93,0
16-9-2017 0:00,3685.58,365.477929878145,456.46,17284.95,-16372.03,0
16-9-2017 1:00,27674.55,12740.972074554571,-37.36,16783.07,-16857.79,0
16-9-2017 2:00,15773.62,1893.6935646270322,944.13,17769.24,-15880.99,0
16-9-2017 3:00,16109.6,2646.620488763194,-380.54,16439.64,-17200.71,0
16-9-2017 4:00,16407.11,5876.5727606248365,-171.74,16641.93,-16985.41,0
16-9-2017 5:00,19353.17,7884.687123277385,66.41,16872.39,-16739.57,0
16-9-2017 6:00,29270.06,11260.468819989492,241.76,17040.36,-16556.83,0
16-9-2017 7:00,8010.37,-716.966945890832,1054.73,17864.26,-15754.8,0
16-9-2017 8:00,3828.77,-7316.245909444679,-404.94,16400.08,-17209.96,0
16-9-2017 9:00,24432.41,3812.5605028691934,-610.9,16192.75,-17414.56,0
16-9-2017 10:00,37239.0,6583.938530108844,715.09,17519.13,-16088.95,0
16-9-2017 11:00,5704.01,-17985.41457577019,3916.11,19670.2,-11837.98,0
16-9-2017 12:00,5709.62,-14131.013297116313,90.92,15844.25,-15662.41,0
16-9-2017 13:00,4223.77,-10302.445442244461,-1765.9,14013.95,-17545.76,0
16-9-2017 14:00,43971.16,27866.96232853116,-891.81,14892.85,-16676.47,1
16-9-2017 15:00,36522.16,30218.530937480893,6078.16,21930.97,-9774.66,0
16-9-2017 16:00,11034.75,3079.092069078335,5136.53,21028.72,-10755.67,0
16-9-2017 17:00,9776.52,3296.504900037633,-324.53,15570.89,-16219.94,0
16-9-2017 18:00,32557.26,14386.322303575482,2173.67,18059.97,-13712.62,0
16-9-2017 19:00,1755.4,-5211.848557376154,4148.32,20048.3,-11751.65,0
16-9-2017 20:00,262.21,-3016.712157106993,-157.37,15741.59,-16056.32,0
16-9-2017 21:00,198.58,763.0848435052067,141.34,16033.48,-15750.8,0
16-9-2017 22:00,8.36,-53153.370366688876,-493.23,15397.79,-16384.25,0
16-9-2017 23:00,46712.76,-8197.00533049885,-7863.8,8217.01,-23944.61,0
17-9-2017 0:00,1920.07,1987.5108893711458,-681.46,15400.36,-16763.28,0
17-9-2017 1:00,8653.61,-2164.1078933052922,-2798.01,13276.84,-18872.87,0
17-9-2017 2:00,8617.7,-469.5034363890554,-3286.26,12788.19,-19360.72,0
17-9-2017 3:00,2923.86,-5031.513660418561,-3578.63,12494.37,-19651.64,0
17-9-2017 4:00,2044.53,-2283.6764455328994,-4602.5,11482.15,-20687.14,0
17-9-2017 5:00,1979.35,-3341.0809893713667,-4331.36,11752.53,-20415.25,0
17-9-2017 6:00,22089.42,10159.148811053008,-4520.54,11558.72,-20599.79,1
17-9-2017 7:00,2458.0,-53.48280667259496,-820.23,15251.48,-16891.93,0
17-9-2017 8:00,13003.39,7899.871411953496,-3197.87,12860.84,-19256.58,0
17-9-2017 9:00,19585.22,3981.264955655877,-800.63,15259.66,-16860.92,0
17-9-2017 10:00,52650.34,26163.273790118383,-377.33,15687.6,-16442.27,1
17-9-2017 11:00,4352.3,-15909.434692557177,4555.64,20723.99,-11612.71,0
17-9-2017 12:00,4788.35,-12150.504829089268,-1749.51,14413.12,-17912.14,0
17-9-2017 13:00,2893.79,-9220.390086037554,-2476.8,13679.28,-18632.89,0
17-9-2017 14:00,30526.6,16056.638943977858,-1382.67,14764.78,-17530.12,1
17-9-2017 15:00,285.24,-4820.8688999313035,3092.2,19269.06,-13084.66,0
17-9-2017 16:00,202.01,-7239.225868924089,-1438.8,14735.66,-17613.26,0
17-9-2017 17:00,2076.78,-4187.028649068468,-2020.96,14155.14,-18197.06,0
17-9-2017 18:00,51655.06,33149.50770228852,246.41,16414.4,-15921.59,1
17-9-2017 19:00,15360.45,8209.22604725591,7038.42,23307.13,-9230.28,0
17-9-2017 20:00,11233.72,7742.503584664542,2527.97,18800.69,-13744.76,0
17-9-2017 21:00,169.01,810.340790398528,3510.67,19780.19,-12758.86,0
17-9-2017 22:00,30919.98,-23238.721949099465,1609.06,17863.84,-14645.72,0
17-9-2017 23:00,54528.08,-591.3926529851797,843.74,17083.14,-15395.66,0
18-9-2017 0:00,2773.69,3133.8861245923945,3386.61,19635.01,-12861.79,0
18-9-2017 1:00,3076.69,-7257.873557461517,1097.49,17339.87,-15144.88,0
18-9-2017 2:00,4778.56,-3686.5441057261196,-780.93,15467.84,-17029.7,0
18-9-2017 3:00,6732.55,-423.7594499459028,-1262.52,14996.34,-17521.38,0
18-9-2017 4:00,7717.54,4345.204735939171,-1351.16,14913.7,-17616.02,0
18-9-2017 5:00,5473.37,1336.0166889834945,-1203.6,15058.61,-17465.82,0
18-9-2017 6:00,4231.67,-6302.77000350604,-1946.53,14315.69,-18208.76,0
18-9-2017 7:00,2141.47,1443.8379302968897,-2324.75,13937.33,-18586.83,0
18-9-2017 8:00,4450.29,1267.750734476731,-1632.72,14622.04,-17887.48,0
18-9-2017 9:00,10104.23,-3601.6699120545727,-1807.89,14436.48,-18052.27,0
18-9-2017 10:00,16057.33,-8376.9015919914,-1620.5,14612.62,-17853.62,0
18-9-2017 11:00,26273.41,8326.883226914319,-2422.71,13802.93,-18648.35,1
18-9-2017 12:00,5917.22,-8229.659646425927,1931.66,18178.53,-14315.21,0
18-9-2017 13:00,3859.86,-5587.943300062954,-3719.37,12535.15,-19973.9,0
18-9-2017 14:00,7552.17,-4665.068295676348,-1596.14,14652.36,-17844.63,0
18-9-2017 15:00,17033.52,14107.562122686988,-1955.99,14285.29,-18197.27,0
18-9-2017 16:00,11427.72,5847.678888279808,1058.59,17307.0,-15189.82,0
18-9-2017 17:00,0.0,-5190.473047518518,-1241.11,15000.97,-17483.2,0
18-9-2017 18:00,1568.18,-16904.501292892655,-706.79,15530.24,-16943.83,0
18-9-2017 19:00,3862.95,-3594.4213384385966,-2950.41,13292.35,-19193.18,0
18-9-2017 20:00,12765.42,8450.079739677152,-142.46,16095.37,-16380.29,0
18-9-2017 21:00,11544.49,11007.594011674872,1526.18,17767.59,-14715.23,0
18-9-2017 22:00,52265.83,-4788.152189519105,1898.21,18145.1,-14348.68,0
18-9-2017 23:00,53989.02,-3881.7245658726024,3442.98,19712.39,-12826.44,0
19-9-2017 0:00,2938.04,406.1708370204942,2551.58,18824.45,-13721.3,0
19-9-2017 1:00,4955.02,-8412.824568162008,1575.48,17837.22,-14686.26,0
19-9-2017 2:00,22805.29,11114.23505464143,342.12,16591.7,-15907.46,0
19-9-2017 3:00,16606.48,6069.569766480254,2928.85,19174.44,-13316.74,0
19-9-2017 4:00,14928.93,8001.141137230454,1715.12,17953.55,-14523.31,0
19-9-2017 5:00,10654.73,2726.9277132505795,2107.78,18337.6,-14122.05,0
19-9-2017 6:00,16192.86,1618.5226539401447,1149.57,17371.23,-15072.09,0
19-9-2017 7:00,11623.39,6841.643024069917,2013.65,18227.47,-14200.18,0
19-9-2017 8:00,11430.33,3808.567298601818,2211.69,18420.21,-13996.83,0
19-9-2017 9:00,42529.4,24119.852417175294,1761.44,17963.27,-14440.4,1
19-9-2017 10:00,3495.35,-25729.271422302223,6294.65,22548.75,-9959.44,0
19-9-2017 11:00,14129.53,-8586.534946956568,-2519.54,13777.95,-18817.04,0
19-9-2017 12:00,14195.46,-4485.7122022463245,2016.32,18304.84,-14272.2,0
19-9-2017 13:00,23022.51,9375.895867235773,-452.29,15837.25,-16741.83,0
19-9-2017 14:00,894.53,-15474.093034198566,2676.7,18967.0,-13613.59,0
19-9-2017 15:00,5116.12,-1572.7142337548794,-2169.15,14140.72,-18479.02,0
19-9-2017 16:00,5261.82,-3938.942000287434,-400.26,15906.09,-16706.61,0
19-9-2017 17:00,5609.7,-2999.438618596105,-2157.91,14155.19,-18471.01,0
19-9-2017 18:00,2989.32,-18952.576987557768,-265.42,16040.33,-16571.18,0
19-9-2017 19:00,5287.21,-4988.413582796395,-3300.4,13020.77,-19621.57,0
19-9-2017 20:00,570.11,-6091.477123152883,-983.87,15330.11,-17297.85,0
19-9-2017 21:00,4436.51,1987.4715381878996,-2112.7,14194.45,-18419.85,0
19-9-2017 22:00,91842.45,31947.58701887607,-1035.39,15261.95,-17332.72,1
19-9-2017 23:00,54875.59,-4903.711886367084,7918.38,24408.65,-8571.89,0
20-9-2017 0:00,604.43,-3170.1375960237256,413.72,16911.69,-16084.25,0
20-9-2017 1:00,29975.51,15417.22935326031,146.03,16629.11,-16337.04,0
20-9-2017 2:00,26462.36,13595.692611559181,3458.29,19961.27,-13044.69,0
20-9-2017 3:00,31045.74,19370.48009206552,1992.08,18492.59,-14508.43,0
20-9-2017 4:00,8162.03,139.70037669320664,3552.73,20061.18,-12955.72,0
20-9-2017 5:00,3321.76,-5969.151294011277,172.16,16670.71,-16326.4,0
20-9-2017 6:00,3165.88,-13059.496226561389,-378.88,16113.27,-16871.03,0
20-9-2017 7:00,3045.54,-3428.51916029723,-1060.53,15434.63,-17555.68,0
20-9-2017 8:00,9370.01,-316.21944207749766,-294.18,16198.78,-16787.14,0
20-9-2017 9:00,22181.58,1539.0415329226125,87.36,16574.63,-16399.9,0
20-9-2017 10:00,10537.83,-20917.277862412768,784.52,17264.04,-15695.0,0
20-9-2017 11:00,44490.86,19674.532079087785,-2137.26,14356.56,-18631.08,1
20-9-2017 12:00,10527.89,-9859.94182730809,5389.38,21933.44,-11154.69,0
20-9-2017 13:00,4044.6,-10940.747934674737,-2033.19,14527.49,-18593.87,0
20-9-2017 14:00,5684.83,-11989.10533348228,-1028.25,15530.57,-17587.06,0
20-9-2017 15:00,10181.47,2615.2556221095765,-1587.16,14972.88,-18147.2,0
20-9-2017 16:00,13242.95,3357.273371371608,-508.88,16044.36,-17062.12,0
20-9-2017 17:00,25090.07,15378.441266825703,-1303.08,15244.98,-17851.13,1
20-9-2017 18:00,6080.4,-17615.04478067652,2472.22,19038.48,-14094.04,0
20-9-2017 19:00,11929.81,-12.498689324078441,-2787.78,13785.23,-19360.8,0
20-9-2017 20:00,5526.73,-2905.346187445937,334.0,16904.1,-16236.1,0
20-9-2017 21:00,662.91,-3613.618589353695,-1034.92,15528.25,-17598.08,0
20-9-2017 22:00,96968.39,33723.07776393822,-1441.36,15115.93,-17998.65,1
20-9-2017 23:00,57398.43,-5292.8343241201,7728.65,24456.17,-8998.86,0
21-9-2017 0:00,2275.25,-4199.7879606830065,862.15,17591.05,-15866.74,0
21-9-2017 1:00,12207.14,-4911.796880419108,528.2,17241.99,-16185.59,0
21-9-2017 2:00,18009.89,2684.9417898884967,185.73,16888.69,-16517.24,0
21-9-2017 3:00,15370.07,1361.3438155756558,377.54,17071.34,-16316.27,0
21-9-2017 4:00,9598.57,-625.9835805976763,-10.18,16677.81,-16698.17,0
21-9-2017 5:00,10728.14,-791.8199410549423,-201.39,16480.7,-16883.49,0
21-9-2017 6:00,11314.08,-7186.531189872905,-74.09,16602.31,-16750.5,0
21-9-2017 7:00,15981.09,7432.1930942696745,-242.4,16428.28,-16913.08,0
21-9-2017 8:00,16627.79,4736.23877792128,1478.76,18144.14,-15186.63,0
21-9-2017 9:00,33249.81,9885.619527854888,1063.86,17722.96,-15595.24,0
21-9-2017 10:00,46876.51,12354.419225281697,2554.75,19215.99,-14106.5,0
21-9-2017 11:00,29138.66,1037.7372815571907,4417.4,21105.13,-12270.34,0
21-9-2017 12:00,13139.77,-10486.88862732475,2408.61,19093.66,-14276.44,0
21-9-2017 13:00,13759.76,-4590.515916585877,-306.01,16372.17,-16984.19,0
21-9-2017 14:00,6806.8,-14692.668817812357,928.24,17595.87,-15739.39,0
21-9-2017 15:00,1896.02,-9561.822712118066,-1033.91,15635.0,-17702.81,0
21-9-2017 16:00,29111.34,15032.49940146284,-1636.69,15038.0,-18311.39,0
21-9-2017 17:00,1097.57,-12741.082919813845,1567.46,18239.9,-15104.97,0
21-9-2017 18:00,3393.96,-24595.85137635017,-2142.99,14536.24,-18822.22,0
21-9-2017 19:00,15277.46,-388.5980649873309,-2903.77,13789.51,-19597.04,0
21-9-2017 20:00,6912.83,-4863.044987455229,36.11,16722.22,-16650.01,0
21-9-2017 21:00,646.4,-6021.726199857341,-1450.45,15228.49,-18129.38,0
21-9-2017 22:00,111975.76,45825.135512223285,-1939.33,14735.75,-18614.41,1
21-9-2017 23:00,70962.26,6813.414727534768,8800.22,25666.73,-8066.3,0
22-9-2017 0:00,8078.32,1366.437650250573,2419.74,19309.8,-14470.32,0
22-9-2017 1:00,25966.25,8832.362943218173,1218.96,18094.6,-15656.68,0
22-9-2017 2:00,19649.88,4494.437107258367,2458.0,19327.45,-14411.46,0
22-9-2017 3:00,22921.93,9289.60375985019,469.79,17327.64,-16388.06,0
22-9-2017 4:00,19688.92,10054.125469004008,1345.83,18193.69,-15502.03,0
22-9-2017 5:00,27859.21,15904.955792118351,1364.19,18203.73,-15475.34,0
22-9-2017 6:00,5653.55,-14324.770399643065,2727.85,19565.35,-14109.65,0
22-9-2017 7:00,5388.26,-5435.158627331119,-1256.06,15587.58,-18099.69,0
22-9-2017 8:00,7892.23,-7401.536707956708,-372.89,16468.96,-17214.74,0
22-9-2017 9:00,5655.86,-22183.58981272492,-1010.63,15833.12,-17854.38,0
22-9-2017 10:00,12047.87,-27851.520817467754,-3354.17,13520.31,-20228.65,0
22-9-2017 11:00,5156.06,-29096.48444134913,-3157.91,13736.01,-20051.84,0
22-9-2017 12:00,9976.24,-20312.982147648963,-3985.51,12930.16,-20901.18,0
22-9-2017 13:00,3148.97,-22114.25772082105,-3603.07,13317.22,-20523.35,0
22-9-2017 14:00,6878.05,-22119.26322648295,-3855.26,13064.18,-20774.71,0
22-9-2017 15:00,12434.68,-6711.38907270271,-3305.15,13604.01,-20214.32,0
22-9-2017 16:00,17328.99,-4863.899696819408,-2073.78,14822.01,-18969.58,0
22-9-2017 17:00,107027.7,83996.18096654395,-2660.11,14224.21,-19544.44,1
22-9-2017 18:00,21578.28,-16916.696697655658,15305.1,32846.32,-2236.12,0
22-9-2017 19:00,54079.16,27333.597035088394,-753.01,16801.97,-18307.98,1
22-9-2017 20:00,65919.21,42298.823889645275,-1919.47,16780.1,-20619.04,1
22-9-2017 21:00,38703.61,19014.343241876937,3001.53,21846.44,-15843.38,0
22-9-2017 22:00,99401.83,17587.519687874417,607.66,19439.57,-18224.25,0
22-9-2017 23:00,84146.3,3652.669581683833,2274.41,21045.79,-16496.96,0
23-9-2017 0:00,7547.61,-16417.151561193525,-1021.9,17737.49,-19781.28,0
23-9-2017 1:00,28963.1,-5625.770241206774,-1812.23,17001.48,-20625.93,0
23-9-2017 2:00,26210.85,-6639.118769118537,-2885.86,15939.14,-21710.85,0
23-9-2017 3:00,17958.57,-13585.385675306585,-1078.77,17765.12,-19922.65,0
23-9-2017 4:00,17205.7,-10551.363046510152,-3704.52,15184.49,-22593.53,0
23-9-2017 5:00,23198.55,-5540.356313306078,-1516.94,17379.84,-20413.73,0
23-9-2017 6:00,66998.83,31554.112278507186,-1800.97,17096.43,-20698.38,1
23-9-2017 7:00,21774.33,-2950.6287344933808,3132.29,22102.08,-15837.51,0
23-9-2017 8:00,4672.23,-23289.100852878037,-321.83,18658.46,-19302.12,0
23-9-2017 9:00,11072.95,-27747.997893467298,-4175.18,14849.3,-23199.65,0
23-9-2017 10:00,59672.93,10649.110318501007,-2042.51,16997.03,-21082.04,0
23-9-2017 11:00,44972.72,3580.534933343519,977.85,20042.33,-18086.63,0
23-9-2017 12:00,56863.36,21682.665348506573,2151.91,21210.61,-16906.79,0
23-9-2017 13:00,43993.71,15478.537930097584,322.15,19390.35,-18746.04,0
23-9-2017 14:00,72135.97,41191.736258674326,2277.64,21343.1,-16787.83,1
23-9-2017 15:00,4186.66,-15206.79510078543,2228.59,21352.28,-16895.11,0
23-9-2017 16:00,6279.78,-14696.402023925673,-1249.63,17952.48,-20451.73,0
23-9-2017 17:00,23858.81,3371.40552983847,-6012.78,13245.08,-25270.63,0
23-9-2017 18:00,91317.42,56460.48256373633,772.86,20026.87,-18481.15,1
23-9-2017 19:00,6449.51,-14826.12937637766,4986.12,24513.35,-14541.1,0
23-9-2017 20:00,5258.42,-11250.82483903526,-2768.54,16840.76,-22377.84,0
23-9-2017 21:00,4172.57,-6382.296693030083,-4100.77,14362.2,-22563.74,0
23-9-2017 22:00,5706.91,-66415.65728397603,-1190.56,18456.69,-20837.81,0
23-9-2017 23:00,56357.61,-11925.48848252896,-5781.91,14148.96,-25712.78,0
24-9-2017 0:00,5153.66,-4308.775461859739,577.77,20513.23,-19357.69,0
24-9-2017 1:00,10859.31,-8093.869236586976,146.66,20074.43,-19781.12,0
24-9-2017 2:00,19041.86,2923.5084218161537,-240.82,19678.6,-20160.23,0
24-9-2017 3:00,27078.68,13384.706835115081,437.25,20351.34,-19476.84,0
24-9-2017 4:00,22775.6,13993.349261820978,1269.81,21192.19,-18652.56,0
24-9-2017 5:00,10761.89,196.532210028774,1221.26,21151.52,-18708.99,0
24-9-2017 6:00,45806.61,27714.81539033068,67.35,19988.9,-19854.19,1
24-9-2017 7:00,4009.92,-3936.138603068417,3231.25,23171.31,-16708.81,0
24-9-2017 8:00,4414.59,-7672.744954298156,-285.46,19695.08,-20266.01,0
24-9-2017 9:00,4774.14,-19922.85382320884,-54.17,19919.13,-20027.47,0
24-9-2017 10:00,43433.51,6954.605712970235,242.72,20165.81,-19680.37,0
24-9-2017 11:00,6546.91,-23751.67932596372,1980.24,21972.83,-18012.34,0
24-9-2017 12:00,26370.35,1095.3113181618428,604.03,20548.94,-19340.87,0
24-9-2017 13:00,13508.1,-5767.417383177701,-790.85,19150.72,-20732.41,0
24-9-2017 14:00,63011.84,40306.75534194401,2090.56,22025.32,-17844.19,1
24-9-2017 15:00,7285.76,-4474.540968449379,2778.55,22810.23,-17253.13,0
24-9-2017 16:00,3677.69,-10506.77362830682,2039.47,22065.91,-17986.97,0
24-9-2017 17:00,4168.22,-10443.888719021881,-1221.91,18874.13,-21317.95,0
24-9-2017 18:00,36732.73,6601.183478093455,495.89,20535.84,-19544.07,0
24-9-2017 19:00,17095.65,133.45633024144263,1125.74,21229.27,-18977.78,0
24-9-2017 20:00,7057.26,-5741.150984510627,99.05,20194.8,-19996.7,0
24-9-2017 21:00,5410.03,-2207.389375847004,-603.12,19489.41,-20695.65,0
24-9-2017 22:00,86658.48,15234.05766514856,-263.2,19822.73,-20349.14,0
24-9-2017 23:00,62213.44,-5649.369956881757,1908.35,22019.25,-18202.55,0
25-9-2017 0:00,5935.46,-3611.538103781022,-83.47,20020.35,-20187.29,0
25-9-2017 1:00,24692.32,5051.004006990595,-410.79,19685.84,-20507.42,0
25-9-2017 2:00,21652.57,4205.068831921468,197.62,20287.25,-19892.01,0
25-9-2017 3:00,14397.58,-1244.116455079784,-375.5,19707.52,-20458.53,0
25-9-2017 4:00,6085.14,-5256.943250251581,-774.21,19306.36,-20854.78,0
25-9-2017 5:00,13308.29,-79.02757537175421,-861.62,19215.7,-20938.95,0
25-9-2017 6:00,20448.65,-746.5932949128837,-140.01,19929.33,-20209.35,0
25-9-2017 7:00,14848.98,3764.5862429578046,-20.06,20041.4,-20081.52,0
25-9-2017 8:00,15083.92,-507.51782944870865,489.84,20546.18,-19566.5,0
25-9-2017 9:00,42158.88,13894.756587753625,346.26,20396.24,-19703.72,0
25-9-2017 10:00,31849.88,-8088.177437422099,1774.5,21846.06,-18297.05,0
25-9-2017 11:00,29460.33,-4061.717015698083,-340.69,19724.91,-20406.29,0
25-9-2017 12:00,32897.06,4897.638971824428,382.03,20440.9,-19676.83,0
25-9-2017 13:00,10688.38,-11067.739979749089,190.74,20242.12,-19860.64,0
25-9-2017 14:00,29974.47,4698.058174614194,-877.6,19172.36,-20927.56,0
25-9-2017 15:00,14793.51,765.6679459837396,99.19,20141.3,-19942.91,0
25-9-2017 16:00,24261.55,7877.887665255101,-60.06,19974.5,-20094.62,0
25-9-2017 17:00,8416.15,-8923.010488985365,149.83,20177.04,-19877.38,0
25-9-2017 18:00,12898.74,-20721.19354769875,-1328.36,18709.41,-21366.14,0
25-9-2017 19:00,18112.75,-2361.222884606923,-1292.34,18752.96,-21337.64,0
25-9-2017 20:00,25725.59,9201.3409672284,261.91,20300.52,-19776.71,0
25-9-2017 21:00,13218.65,1271.7601545213438,885.71,20923.73,-19152.31,0
25-9-2017 22:00,107692.67,29869.188370660704,109.26,20140.09,-19921.57,1
25-9-2017 23:00,49777.26,-24592.75213164473,3038.78,23135.39,-17057.82,0
26-9-2017 0:00,17745.06,1355.7220970897943,-1462.37,18664.39,-21589.12,0
26-9-2017 1:00,6511.84,-20922.254468449028,406.61,20528.82,-19715.6,0
26-9-2017 2:00,7735.42,-18492.73703879972,448.41,20515.34,-19618.52,0
26-9-2017 3:00,11114.05,-14273.74058791044,-3771.52,16305.16,-23848.21,0
26-9-2017 4:00,20270.36,-1776.8412567528503,685.63,20755.44,-19384.18,0
26-9-2017 5:00,29397.64,4215.661192445812,-721.69,19343.39,-20786.77,0
26-9-2017 6:00,31157.54,-2941.2693792915306,2393.63,22463.86,-17676.6,0
26-9-2017 7:00,12993.76,-11856.536046768768,2.71,20066.77,-20061.36,0
26-9-2017 8:00,38510.92,7960.362423030245,514.2,20571.36,-19542.96,0
26-9-2017 9:00,64794.28,20497.084844584242,1574.78,21656.18,-18506.63,1
26-9-2017 10:00,83878.93,27004.83677649447,4278.73,24413.12,-15855.65,1
26-9-2017 11:00,83977.52,32744.1921773172,3398.46,23576.16,-16779.24,1
26-9-2017 12:00,37875.35,-8347.216973322596,4613.07,24840.63,-15614.49,0
26-9-2017 13:00,67075.92,27105.44797900117,-1641.24,18609.15,-21891.64,0
26-9-2017 14:00,34956.54,-8859.934283262715,813.67,21084.33,-19457.0,0
26-9-2017 15:00,30919.84,-1579.2642759989758,-182.92,20124.77,-20490.61,0
26-9-2017 16:00,12506.5,-22515.029072021254,-3930.06,16378.71,-24238.82,0
26-9-2017 17:00,6245.39,-28962.320747813872,-1221.07,19138.87,-21581.01,0
26-9-2017 18:00,100057.31,49104.660479617254,-6639.42,13800.83,-27079.67,1
26-9-2017 19:00,54736.19,18203.351135954545,5263.16,25863.97,-15337.65,0
26-9-2017 20:00,14766.69,-16733.241663321103,1526.42,22118.35,-19065.5,0
26-9-2017 21:00,13624.47,-11619.650182177043,-4318.85,16338.21,-24975.92,0
26-9-2017 22:00,109953.16,19045.06234813504,-2131.13,18536.38,-22798.64,0
26-9-2017 23:00,115417.86,30137.292104583394,1022.09,21744.89,-19700.71,1
27-9-2017 0:00,23863.75,-1474.8043724499803,2256.85,23010.72,-18497.03,0
27-9-2017 1:00,15337.72,-19947.941963361587,-1691.4,19072.99,-22455.78,0
27-9-2017 2:00,20031.0,-12965.680606253605,-2611.76,18187.88,-23411.4,0
27-9-2017 3:00,16664.03,-14411.498388043852,-1999.0,18810.14,-22808.15,0
27-9-2017 4:00,4377.59,-22260.414966165597,-1934.83,18881.11,-22750.77,0
27-9-2017 5:00,9586.97,-19733.886452458908,-2263.66,18561.56,-23088.87,0
27-9-2017 6:00,13838.17,-23986.96650944954,-1480.97,19337.81,-22299.75,0
27-9-2017 7:00,18984.62,-8881.197875445607,-1237.42,19573.69,-22048.53,0
27-9-2017 8:00,23191.67,-10019.567439285249,676.21,21482.0,-20129.59,0
27-9-2017 9:00,60064.4,13493.242097601862,710.07,21511.13,-20090.99,1
27-9-2017 10:00,40806.32,-17785.554089236124,2927.32,23722.44,-17867.8,0
27-9-2017 11:00,106637.73,54385.50459467394,-118.01,20725.75,-20961.78,1
27-9-2017 12:00,65189.67,18973.839489946207,5663.97,26710.32,-15382.39,0
27-9-2017 13:00,45311.29,5856.612343418805,5381.35,26429.22,-15666.51,0
27-9-2017 14:00,39669.58,-3471.3521513459127,-2316.51,18721.39,-23354.42,0
27-9-2017 15:00,35147.82,3919.0180868937314,1618.71,22650.35,-19412.94,0
27-9-2017 16:00,46723.47,13341.449589277385,-1580.36,19441.89,-22602.62,0
27-9-2017 17:00,46771.19,13035.680747268772,2413.5,23431.65,-18604.65,0
27-9-2017 18:00,56975.2,7099.155094197478,-432.7,20574.48,-21439.89,0
27-9-2017 19:00,70115.47,35054.420774403,475.92,21472.95,-20521.11,0
27-9-2017 20:00,35560.85,5727.335033551659,1531.17,22537.96,-19475.61,0
27-9-2017 21:00,37724.15,15018.889815425508,171.43,21176.87,-20834.01,0
27-9-2017 22:00,69193.63,-19864.699830560785,-1928.7,19066.09,-22923.49,0
27-9-2017 23:00,66375.45,-15697.807699418088,-2255.42,18808.37,-23319.22,0
28-9-2017 0:00,6650.68,-14283.2948479285,-4421.35,16673.56,-25516.27,0
28-9-2017 1:00,28932.0,-554.8302861446064,-945.33,20158.07,-22048.72,0
28-9-2017 2:00,15908.79,-9909.411823509643,-2493.21,18603.21,-23589.63,0
28-9-2017 3:00,7932.18,-14587.480659911125,-736.13,20364.54,-21836.81,0
28-9-2017 4:00,9523.68,-7165.037978654975,-4147.92,16964.56,-25260.4,0
28-9-2017 5:00,24135.32,5764.942391332239,-340.08,20759.19,-21439.34,0
28-9-2017 6:00,11253.79,-14659.051359139186,-397.48,20691.81,-21486.77,0
28-9-2017 7:00,6220.69,-8472.83147346292,-655.07,20428.27,-21738.4,0
28-9-2017 8:00,7621.01,-11513.893120750039,-1469.38,19602.32,-22541.08,0
28-9-2017 9:00,19817.28,-13195.6465555736,611.61,21670.9,-20447.69,0
28-9-2017 10:00,27341.84,-18040.463724957168,-1121.02,19926.57,-22168.6,0
28-9-2017 11:00,85990.31,46741.69537824287,535.18,21570.4,-20500.03,1
28-9-2017 12:00,40688.58,7597.151455629813,5649.95,26848.33,-15548.44,0
28-9-2017 13:00,40961.82,13915.807887240604,3280.46,24472.44,-17911.52,0
28-9-2017 14:00,10192.27,-21605.04316303558,-276.43,20921.42,-21474.28,0
28-9-2017 15:00,29196.56,8681.342983169336,779.81,21987.82,-20428.21,0
28-9-2017 16:00,10362.54,-13161.450421306567,-1025.28,20188.7,-22239.25,0
28-9-2017 17:00,20492.08,-4666.830057071289,2454.62,23663.37,-18754.12,0
28-9-2017 18:00,13087.53,-29721.636218185122,-2905.1,18294.94,-24105.15,0
28-9-2017 19:00,11898.54,-16814.52962586697,853.93,22065.81,-20357.94,0
28-9-2017 20:00,9933.68,-14471.312420049584,-3591.99,17616.12,-24800.1,0
28-9-2017 21:00,5608.16,-12431.832443731568,2523.13,23724.2,-18677.94,0
28-9-2017 22:00,160804.97,74087.15490596811,-1611.32,19581.63,-22804.26,1
28-9-2017 23:00,89925.4,9914.538583789537,9774.1,31359.35,-11811.15,0
29-9-2017 0:00,50379.35,31069.379935786383,4231.83,25801.64,-17337.97,0
29-9-2017 1:00,57012.57,28533.02119701302,-310.33,21279.08,-21899.73,0
29-9-2017 2:00,23317.91,-2124.3386880778125,5362.2,26961.57,-16237.17,0
29-9-2017 3:00,20848.68,-1928.6140323432883,-3826.35,17792.19,-25444.89,0
29-9-2017 4:00,10397.93,-7165.943585248293,-1232.08,20386.67,-22850.84,0
29-9-2017 5:00,6726.31,-12828.87689753253,-2631.34,18998.51,-24261.19,0
29-9-2017 6:00,14357.7,-13088.979880036717,-2911.02,18739.3,-24561.33,0
29-9-2017 7:00,17996.39,1718.2037474183162,-2445.89,19211.41,-24103.18,0
29-9-2017 8:00,28475.5,7349.142506790155,-307.76,21341.04,-21956.55,0
29-9-2017 9:00,57655.73,23498.64314993199,445.24,22087.05,-21196.56,0
29-9-2017 10:00,31660.69,-13849.034163843258,1680.36,23326.17,-19965.46,0
29-9-2017 11:00,22773.35,-15443.243803199344,-1579.87,20083.17,-23242.91,0
29-9-2017 12:00,28553.64,-2019.5757055438116,-4564.72,17136.34,-26265.77,0
29-9-2017 13:00,30824.03,7816.270977652293,-709.66,20982.41,-22401.73,0
29-9-2017 14:00,10847.52,-15740.809954688226,86.17,21770.06,-21597.73,0
29-9-2017 15:00,15206.1,1505.6087729290812,-1920.94,19771.39,-23613.28,0
29-9-2017 16:00,9204.18,-6124.863966713743,-918.17,20763.65,-22599.99,0
29-9-2017 17:00,6150.51,-11020.923040506219,83.45,21753.45,-21586.55,0
29-9-2017 18:00,8275.3,-26982.148353934226,-2168.43,19494.21,-23831.06,0
29-9-2017 19:00,6122.35,-14683.946765601786,-1475.59,20186.97,-23138.15,0
29-9-2017 20:00,37026.19,20682.46747078599,-1465.81,20187.98,-23119.6,1
29-9-2017 21:00,8927.02,-1669.8250752952881,4410.65,26125.46,-17304.17,0
29-9-2017 22:00,69570.26,-11884.047272180735,1473.01,23181.9,-20235.88,0
29-9-2017 23:00,98951.5,24071.14141004831,-1497.67,20204.23,-23199.58,1
30-9-2017 0:00,5838.03,-8634.715279718665,5217.54,27034.36,-16599.27,0
30-9-2017 1:00,22413.72,-2275.130042578876,1137.38,22947.69,-20672.93,0
30-9-2017 2:00,11208.61,-11504.070998925079,-777.56,21027.42,-22582.54,0
30-9-2017 3:00,8527.23,-12583.885574584132,1578.62,23375.89,-20218.65,0
30-9-2017 4:00,7415.49,-9529.551376037292,-1542.29,20247.52,-23332.1,0
30-9-2017 5:00,6612.67,-13307.122880182102,1414.56,23197.63,-20368.52,0
30-9-2017 6:00,60740.45,31906.350395691836,-752.13,21022.52,-22526.78,1
30-9-2017 7:00,33411.59,15021.36045951421,5109.03,26980.51,-16762.44,0
30-9-2017 8:00,50443.81,26124.82232013358,3372.52,25241.2,-18496.15,0
30-9-2017 9:00,40051.82,1377.8560538497768,1708.16,23589.71,-20173.4,0
30-9-2017 10:00,131287.82,80106.41531524113,1175.47,23047.57,-20696.64,1
30-9-2017 11:00,16624.89,-28275.486347112834,5963.88,28098.35,-16170.6,0
30-9-2017 12:00,20631.29,-17311.05950963046,660.71,22968.01,-21646.58,0
30-9-2017 13:00,11624.02,-19141.111733767022,-9487.72,12867.84,-31843.28,0
30-9-2017 14:00,58265.3,23182.048292910134,1945.02,24312.26,-20422.22,0
30-9-2017 15:00,12833.72,-9664.229556978156,-2847.83,19520.09,-25215.75,0
30-9-2017 16:00,14224.61,-10429.947089963796,2449.84,24827.04,-19927.35,0
30-9-2017 17:00,17098.44,-9141.350999598442,-6280.79,16110.67,-28672.25,0
30-9-2017 18:00,82583.11,38286.169136844954,1122.05,23508.26,-21264.16,1
30-9-2017 19:00,17290.76,-11735.333472048886,791.22,23226.94,-21644.51,0
30-9-2017 20:00,5582.84,-18361.541398331312,1657.8,24113.72,-20798.11,0
30-9-2017 21:00,5861.69,-11089.694307942886,-6991.63,15493.63,-29476.88,0
30-9-2017 22:00,45535.72,-42588.485159884476,1329.59,23803.26,-21144.08,0
30-9-2017 23:00,117583.86,37764.87941828114,-6163.63,16412.23,-28739.5,1
