Time,Actual,STL processed,Forecasts,Upper Interval,Lower Interval,Is Anomalies
1-8-2017 0:00,49.23,-2.757835245612519,0.0,0.0,0.0,0
1-8-2017 1:00,50.0,0.7659631335056574,0.0,0.0,0.0,0
1-8-2017 2:00,50.0,0.3760399520252946,0.0,0.0,0.0,0
1-8-2017 3:00,50.0,0.2021854639043852,0.0,0.0,0.0,0
1-8-2017 4:00,50.0,-0.30062346094717185,0.0,0.0,0.0,0
1-8-2017 5:00,50.0,-0.5147543139916237,0.0,0.0,0.0,0
1-8-2017 6:00,50.0,-0.47167070736797,0.0,0.0,0.0,0
1-8-2017 7:00,49.6,-0.8015853691563564,0.0,0.0,0.0,0
1-8-2017 8:00,51.0,1.3040411804050862,0.0,0.0,0.0,0
1-8-2017 9:00,52.22,1.796142094215007,0.0,0.0,0.0,0
1-8-2017 10:00,53.68,1.7938698229418364,0.0,0.0,0.0,0
1-8-2017 11:00,51.58,-0.982031196166183,0.0,0.0,0.0,0
1-8-2017 12:00,55.23,0.957672942198613,0.0,0.0,0.0,0
1-8-2017 13:00,56.53,1.4139620766690655,0.0,0.0,0.0,0
1-8-2017 14:00,56.8,1.02451268247696,0.0,0.0,0.0,0
1-8-2017 15:00,57.7,1.5989968662581475,0.0,0.0,0.0,0
1-8-2017 16:00,56.85,-1.5016807311941207,0.0,0.0,0.0,0
1-8-2017 17:00,56.32,-3.113050551074963,0.0,0.0,0.0,0
1-8-2017 18:00,56.28,-3.0826388844211934,0.0,0.0,0.0,0
1-8-2017 19:00,57.0,0.440717581008073,0.0,0.0,0.0,0
1-8-2017 20:00,57.15,1.6341440333926016,0.0,0.0,0.0,0
1-8-2017 21:00,57.22,1.4754747676840125,0.0,0.0,0.0,0
1-8-2017 22:00,56.95,-0.3606230346162178,0.0,0.0,0.0,0
1-8-2017 23:00,56.52,-1.5718331943761967,0.0,0.0,0.0,0
2-8-2017 0:00,57.0,-2.3826986537367674,0.0,0.0,0.0,0
2-8-2017 1:00,57.0,-0.0864168957003173,0.0,0.0,0.0,0
2-8-2017 2:00,57.0,-0.8171639695788002,0.0,0.0,0.0,0
2-8-2017 3:00,57.0,-1.3445592411649443,0.0,0.0,0.0,0
2-8-2017 4:00,57.0,-2.1876818904445585,0.0,0.0,0.0,0
2-8-2017 5:00,57.0,-2.894707269179655,0.0,0.0,0.0,0
2-8-2017 6:00,57.0,-3.3570005190433747,0.0,0.0,0.0,0
2-8-2017 7:00,57.4,-3.398540294976705,0.0,0.0,0.0,0
2-8-2017 8:00,58.0,-2.605660583868797,0.0,0.0,0.0,0
2-8-2017 9:00,57.62,-4.21112409951639,0.0,0.0,0.0,0
2-8-2017 10:00,56.48,-7.315005722178569,0.0,0.0,0.0,0
2-8-2017 11:00,64.68,-0.3133917330446394,0.0,0.0,0.0,0
2-8-2017 12:00,74.28,7.081691463964688,0.0,0.0,0.0,0
2-8-2017 13:00,74.38,5.8153432298926475,0.0,0.0,0.0,0
2-8-2017 14:00,75.35,5.611422127377011,0.0,0.0,0.0,0
2-8-2017 15:00,75.33,4.74080254312679,0.0,0.0,0.0,0
2-8-2017 16:00,75.88,2.562805037985484,0.0,0.0,0.0,0
2-8-2017 17:00,76.22,1.3811072359609255,0.0,0.0,0.0,0
2-8-2017 18:00,71.5,-3.7547979677841568,0.0,0.0,0.0,0
2-8-2017 19:00,70.82,-2.173187659817131,0.0,0.0,0.0,0
2-8-2017 20:00,76.77,4.312450269899713,0.0,0.0,0.0,0
2-8-2017 21:00,76.9,4.176571446237588,0.0,0.0,0.0,0
2-8-2017 22:00,74.88,0.5690695262050838,0.0,0.0,0.0,0
2-8-2017 23:00,74.18,-1.0329779893001358,0.0,0.0,0.0,0
3-8-2017 0:00,76.8,0.27688045401842487,0.0,0.0,0.0,0
3-8-2017 1:00,77.0,3.175682090400457,0.0,0.0,0.0,0
3-8-2017 2:00,76.23,2.194147623551146,0.0,0.0,0.0,0
3-8-2017 3:00,75.0,0.9432480679270441,0.0,0.0,0.0,0
3-8-2017 4:00,75.0,0.6198430259741627,0.0,0.0,0.0,0
3-8-2017 5:00,75.0,0.7477753334332391,0.0,0.0,0.0,0
3-8-2017 6:00,75.12,1.2279574389669534,0.0,0.0,0.0,0
3-8-2017 7:00,76.07,2.552643134689461,0.0,0.0,0.0,0
3-8-2017 8:00,76.2,3.6906265931446427,0.0,0.0,0.0,0
3-8-2017 9:00,76.7,3.9783282668045956,0.0,0.0,0.0,0
3-8-2017 10:00,76.0,2.3235658393612653,0.0,0.0,0.0,0
3-8-2017 11:00,75.33,1.443423383344964,0.0,0.0,0.0,0
3-8-2017 12:00,74.77,-0.30538581439331836,0.0,0.0,0.0,0
3-8-2017 13:00,74.63,-0.8054121719029581,0.0,0.0,0.0,0
3-8-2017 14:00,74.13,-1.464845737637262,0.0,0.0,0.0,0
3-8-2017 15:00,73.9,-1.541609844814019,0.0,0.0,0.0,0
3-8-2017 16:00,73.2,-3.917958573790216,0.0,0.0,0.0,0
3-8-2017 17:00,75.98,-1.7394224201785846,0.0,0.0,0.0,0
3-8-2017 18:00,75.95,-1.3110825565426438,0.0,0.0,0.0,0
3-8-2017 19:00,74.48,0.29935512183229207,0.0,0.0,0.0,0
3-8-2017 20:00,69.12,-3.6722219432484735,0.0,0.0,0.0,0
3-8-2017 21:00,71.68,-0.6808655808471258,0.0,0.0,0.0,0
3-8-2017 22:00,70.2,-3.035317212809261,0.0,0.0,0.0,0
3-8-2017 23:00,72.03,-1.4937476782571224,0.0,0.0,0.0,0
4-8-2017 0:00,74.0,-0.11871092645679937,0.0,0.0,0.0,0
4-8-2017 1:00,74.0,2.8466142346679106,0.0,0.0,0.0,0
4-8-2017 2:00,74.72,3.7382960212448637,0.0,0.0,0.0,0
4-8-2017 3:00,72.5,1.8678958279799076,0.0,0.0,0.0,0
4-8-2017 4:00,75.0,4.428214380448637,0.0,0.0,0.0,0
4-8-2017 5:00,75.0,5.196491247936535,0.0,0.0,0.0,0
4-8-2017 6:00,72.95,4.134535582702327,0.0,0.0,0.0,0
4-8-2017 7:00,71.03,3.2108345513135106,0.0,0.0,0.0,0
4-8-2017 8:00,64.65,-1.5406904416512504,0.0,0.0,0.0,0
4-8-2017 9:00,66.77,1.7589500724982372,0.0,0.0,0.0,0
4-8-2017 10:00,74.75,10.172080644422437,0.0,0.0,0.0,0
4-8-2017 11:00,68.93,5.508955547404611,0.0,0.0,0.0,0
4-8-2017 12:00,67.87,4.6550277590674085,0.0,0.0,0.0,0
4-8-2017 13:00,65.82,4.562544261595889,0.0,0.0,0.0,0
4-8-2017 14:00,68.4,9.308819216118657,0.0,0.0,0.0,0
4-8-2017 15:00,66.6,9.97713156949105,0.0,0.0,0.0,0
4-8-2017 16:00,73.52,17.583652600155716,0.0,0.0,0.0,0
4-8-2017 17:00,71.75,18.04959075500706,0.0,0.0,0.0,0
4-8-2017 18:00,69.1,18.64934373162759,0.0,0.0,0.0,0
4-8-2017 19:00,40.12,-4.514223173986068,0.0,0.0,0.0,0
4-8-2017 20:00,26.73,-13.745847188260893,0.0,0.0,0.0,0
4-8-2017 21:00,32.92,-4.281916342672069,0.0,0.0,0.0,0
4-8-2017 22:00,34.45,-0.7679783894398398,0.0,0.0,0.0,0
4-8-2017 23:00,39.58,6.832547492293621,0.0,0.0,0.0,0
5-8-2017 0:00,46.58,16.098101849699688,0.0,0.0,0.0,0
5-8-2017 1:00,3.05,-22.185554399722562,0.0,0.0,0.0,0
5-8-2017 2:00,3.8,-18.866161295008993,0.0,0.0,0.0,0
5-8-2017 3:00,3.8,-16.131567061204443,0.0,0.0,0.0,0
5-8-2017 4:00,3.93,-13.543029849603766,0.0,0.0,0.0,0
5-8-2017 5:00,3.8,-11.746778752558015,0.0,0.0,0.0,0
5-8-2017 6:00,3.0,-10.413242519031105,0.0,0.0,0.0,0
5-8-2017 7:00,2.9,-8.377700608002247,0.0,0.0,0.0,0
5-8-2017 8:00,3.27,-5.241104382857941,0.0,0.0,0.0,0
5-8-2017 9:00,3.88,-4.0937087660290015,0.0,0.0,0.0,0
5-8-2017 10:00,3.15,-5.036868932547332,0.0,0.0,0.0,0
5-8-2017 11:00,5.67,-2.0271604083767594,0.0,0.0,0.0,0
5-8-2017 12:00,5.08,-3.0503905251229586,0.0,0.0,0.0,0
5-8-2017 13:00,5.92,-2.6331135155961576,0.0,0.0,0.0,0
5-8-2017 14:00,8.43,-0.32891239385615734,0.0,0.0,0.0,0
5-8-2017 15:00,7.97,-0.7033059329743727,0.0,0.0,0.0,0
5-8-2017 16:00,10.37,0.048302504291307,0.0,0.0,0.0,0
5-8-2017 17:00,8.7,-2.65998395532036,0.0,0.0,0.0,0
5-8-2017 18:00,9.3,-2.1304444814179853,0.0,0.0,0.0,0
5-8-2017 19:00,9.08,0.09035741327704727,0.0,0.0,0.0,0
5-8-2017 20:00,10.63,2.4570598341054186,0.0,0.0,0.0,0
5-8-2017 21:00,5.13,-3.0428161855321036,0.0,0.0,0.0,0
5-8-2017 22:00,10.63,1.1831300044806596,0.0,0.0,0.0,0
5-8-2017 23:00,11.0,0.6662308849816547,0.0,0.0,0.0,0
6-8-2017 0:00,11.0,-0.3240785004203559,0.0,0.0,0.0,0
6-8-2017 1:00,11.0,1.9880892283999856,0.0,0.0,0.0,0
6-8-2017 2:00,11.0,1.739999040039736,0.0,0.0,0.0,0
6-8-2017 3:00,11.0,1.644393089703339,0.0,0.0,0.0,0
6-8-2017 4:00,11.0,1.2859543492255359,0.0,0.0,0.0,0
6-8-2017 5:00,11.0,1.2435532202989954,0.0,0.0,0.0,0
6-8-2017 6:00,11.0,1.3959548970568818,0.0,0.0,0.0,0
6-8-2017 7:00,11.0,1.5441132949732808,0.0,0.0,0.0,0
6-8-2017 8:00,11.0,2.322204282696532,0.0,0.0,0.0,0
6-8-2017 9:00,11.0,1.9549640442337708,0.0,0.0,0.0,0
6-8-2017 10:00,11.0,0.8331221813017553,0.0,0.0,0.0,0
6-8-2017 11:00,11.0,0.3932733686895755,0.0,0.0,0.0,0
6-8-2017 12:00,11.0,-0.9416500344367709,0.0,0.0,0.0,0
6-8-2017 13:00,11.0,-1.5190582579826941,0.0,0.0,0.0,0
6-8-2017 14:00,11.0,-1.8713767090964826,0.0,0.0,0.0,0
6-8-2017 15:00,11.0,-1.9429218807763604,0.0,0.0,0.0,0
6-8-2017 16:00,11.68,-3.020671776980688,0.0,0.0,0.0,0
6-8-2017 17:00,12.0,-3.5501950306458205,0.0,0.0,0.0,0
6-8-2017 18:00,12.0,-3.477881239052058,0.0,0.0,0.0,0
6-8-2017 19:00,12.0,-0.9497227236387964,0.0,0.0,0.0,0
6-8-2017 20:00,12.12,0.10829395270232212,0.0,0.0,0.0,0
6-8-2017 21:00,14.0,2.1245562214609066,0.0,0.0,0.0,0
6-8-2017 22:00,14.0,1.0024558018766552,0.0,0.0,0.0,0
6-8-2017 23:00,14.0,0.16807683476762492,0.0,0.0,0.0,0
7-8-2017 0:00,14.0,-0.6681511398200097,0.0,0.0,0.0,0
7-8-2017 1:00,14.0,1.525708365537863,0.0,0.0,0.0,0
7-8-2017 2:00,14.0,1.2760026823987332,0.0,0.0,0.0,0
7-8-2017 3:00,14.0,1.1660643462163343,0.0,0.0,0.0,0
7-8-2017 4:00,14.0,0.8065174519549867,0.0,0.0,0.0,0
7-8-2017 5:00,14.0,0.5867900764407032,0.0,0.0,0.0,0
7-8-2017 6:00,14.0,0.549383175814107,0.0,0.0,0.0,0
7-8-2017 7:00,14.0,0.5014840400025911,0.0,0.0,0.0,0
7-8-2017 8:00,14.0,1.0823957696893345,0.0,0.0,0.0,0
7-8-2017 9:00,14.0,0.3017057900085831,0.0,0.0,0.0,0
7-8-2017 10:00,13.3,-1.9376316552634076,0.0,0.0,0.0,0
7-8-2017 11:00,14.98,-1.1358516905846265,0.0,0.0,0.0,0
7-8-2017 12:00,15.73,-2.1312822660174096,0.0,0.0,0.0,0
7-8-2017 13:00,15.73,-3.3641527856571827,0.0,0.0,0.0,0
7-8-2017 14:00,15.2,-4.893767872645885,0.0,0.0,0.0,0
7-8-2017 15:00,15.73,-5.093241739908553,0.0,0.0,0.0,0
7-8-2017 16:00,16.0,-7.1911268703929,0.0,0.0,0.0,0
7-8-2017 17:00,15.47,-9.245893830012486,0.0,0.0,0.0,0
7-8-2017 18:00,16.0,-9.364812632628315,0.0,0.0,0.0,0
7-8-2017 19:00,19.53,-4.083305685111505,0.0,0.0,0.0,0
7-8-2017 20:00,28.15,4.732017058127671,0.0,0.0,0.0,0
7-8-2017 21:00,30.05,6.155883623408375,0.0,0.0,0.0,0
7-8-2017 22:00,32.15,6.537196752266304,0.0,0.0,0.0,0
7-8-2017 23:00,31.83,4.686798095586457,0.0,0.0,0.0,0
8-8-2017 0:00,32.23,3.6561116898523984,0.0,0.0,0.0,0
8-8-2017 1:00,32.45,5.390134481049845,0.0,0.0,0.0,0
8-8-2017 2:00,33.87,5.997284812433868,0.0,0.0,0.0,0
8-8-2017 3:00,34.67,6.11148559970751,0.0,0.0,0.0,0
8-8-2017 4:00,33.87,4.389284592792556,0.0,0.0,0.0,0
8-8-2017 5:00,30.48,0.5449308168043743,0.0,0.0,0.0,0
8-8-2017 6:00,30.48,0.26041518490713855,0.0,0.0,0.0,0
8-8-2017 7:00,30.48,-0.04086059461400282,0.0,0.0,0.0,0
8-8-2017 8:00,29.45,-0.7444472329454825,0.0,0.0,0.0,0
8-8-2017 9:00,29.62,-0.9511444896436352,0.0,0.0,0.0,0
8-8-2017 10:00,31.65,-0.060547478845357716,0.0,0.0,0.0,0
8-8-2017 11:00,31.0,-1.2097086984653664,0.0,0.0,0.0,0
8-8-2017 12:00,31.85,-1.6982164077943338,0.0,0.0,0.0,0
8-8-2017 13:00,35.52,1.4754263670409884,0.0,0.0,0.0,0
8-8-2017 14:00,36.67,2.3704902347463275,0.0,0.0,0.0,0
8-8-2017 15:00,36.13,1.8350632624698235,0.0,0.0,0.0,0
8-8-2017 16:00,35.42,-0.46097283487801377,0.0,0.0,0.0,0
8-8-2017 17:00,34.22,-2.4418282253213803,0.0,0.0,0.0,0
8-8-2017 18:00,35.67,-0.9428243470161348,0.0,0.0,0.0,0
8-8-2017 19:00,35.23,1.011204178097735,0.0,0.0,0.0,0
8-8-2017 20:00,35.0,1.6530061337284963,0.0,0.0,0.0,0
8-8-2017 21:00,35.0,1.8965861355574916,0.0,0.0,0.0,0
8-8-2017 22:00,35.0,0.9134494324048674,0.0,0.0,0.0,0
8-8-2017 23:00,31.8,-3.1808322942985576,0.0,0.0,0.0,0
9-8-2017 0:00,31.92,-3.7618418047391273,0.0,0.0,0.0,0
9-8-2017 1:00,33.15,-0.5298234439087963,0.0,0.0,0.0,0
9-8-2017 2:00,34.0,0.09363411560329382,0.0,0.0,0.0,0
9-8-2017 3:00,34.0,-0.014716999123116636,0.0,0.0,0.0,0
9-8-2017 4:00,34.0,-0.34825639582962964,0.0,0.0,0.0,0
9-8-2017 5:00,34.0,-0.6428946035874645,0.0,0.0,0.0,0
9-8-2017 6:00,34.0,-0.7826819241611034,0.0,0.0,0.0,0
9-8-2017 7:00,34.0,-0.9455804138147457,0.0,0.0,0.0,0
9-8-2017 8:00,34.22,-0.262154981831209,0.0,0.0,0.0,0
9-8-2017 9:00,35.0,-0.15254147773799787,0.0,0.0,0.0,0
9-8-2017 10:00,35.23,-1.357586956278567,0.0,0.0,0.0,0
9-8-2017 11:00,36.9,-0.5103353111709765,0.0,0.0,0.0,0
9-8-2017 12:00,34.87,-4.165577171026783,0.0,0.0,0.0,0
9-8-2017 13:00,36.02,-3.967724575112669,0.0,0.0,0.0,0
9-8-2017 14:00,36.28,-4.414046594965349,0.0,0.0,0.0,0
9-8-2017 15:00,40.55,-0.6019137278581042,0.0,0.0,0.0,0
9-8-2017 16:00,45.42,2.269092182656948,0.0,0.0,0.0,0
9-8-2017 17:00,45.87,1.5779559125955984,0.0,0.0,0.0,0
9-8-2017 18:00,46.27,1.613441827580239,0.0,0.0,0.0,0
9-8-2017 19:00,44.73,2.00672187927033,0.0,0.0,0.0,0
9-8-2017 20:00,46.68,4.397869095529025,0.0,0.0,0.0,0
9-8-2017 21:00,46.6,4.2846833507146584,0.0,0.0,0.0,0
9-8-2017 22:00,46.08,2.5300321192898636,0.0,0.0,0.0,0
9-8-2017 23:00,45.23,0.44169500953037755,0.0,0.0,0.0,0
10-8-2017 0:00,45.0,-0.7436409813593912,0.0,0.0,0.0,0
10-8-2017 1:00,45.0,0.9968694595274243,0.0,0.0,0.0,0
10-8-2017 2:00,45.0,0.6071307575911646,0.0,0.0,0.0,0
10-8-2017 3:00,45.0,0.3267242512883115,0.0,0.0,0.0,0
10-8-2017 4:00,45.0,-0.16768407367811733,0.0,0.0,0.0,0
10-8-2017 5:00,45.0,-0.42783970658120296,0.0,0.0,0.0,0
10-8-2017 6:00,45.0,-0.5481317092068423,0.0,0.0,0.0,0
10-8-2017 7:00,45.0,-0.6979083233678551,0.0,0.0,0.0,0
10-8-2017 8:00,44.88,-0.3427262354441609,0.0,0.0,0.0,0
10-8-2017 9:00,45.37,-0.3468542362562843,0.0,0.0,0.0,0
10-8-2017 10:00,45.5,-1.4776074336294158,0.0,0.0,0.0,0
10-8-2017 11:00,46.8,-0.8540081532879427,0.0,0.0,0.0,0
10-8-2017 12:00,46.03,-3.066049393164299,0.0,0.0,0.0,0
10-8-2017 13:00,45.73,-4.130935425683148,0.0,0.0,0.0,0
10-8-2017 14:00,46.82,-3.555591782605582,0.0,0.0,0.0,0
10-8-2017 15:00,52.48,1.8271524743736691,0.0,0.0,0.0,0
10-8-2017 16:00,54.53,2.1082609445096736,0.0,0.0,0.0,0
10-8-2017 17:00,54.03,0.6498158267309293,0.0,0.0,0.0,0
10-8-2017 18:00,54.07,0.4547558102955378,0.0,0.0,0.0,0
10-8-2017 19:00,54.05,2.4502747373978906,0.0,0.0,0.0,0
10-8-2017 20:00,54.93,3.883754563120533,0.0,0.0,0.0,0
10-8-2017 21:00,55.85,4.929818497010579,0.0,0.0,0.0,0
10-8-2017 22:00,55.88,3.9096839420088756,0.0,0.0,0.0,0
10-8-2017 23:00,52.75,-0.3666773461114161,0.0,0.0,0.0,0
11-8-2017 0:00,52.0,-1.890308612755156,0.0,0.0,0.0,0
11-8-2017 1:00,52.0,-0.04725743164696894,0.0,0.0,0.0,0
11-8-2017 2:00,52.0,-0.23614373486670104,0.0,0.0,0.0,0
11-8-2017 3:00,52.0,-0.32455697258114213,0.0,0.0,0.0,0
11-8-2017 4:00,52.0,-0.6157807752826798,0.0,0.0,0.0,0
11-8-2017 5:00,52.0,-0.618924994405063,0.0,0.0,0.0,0
11-8-2017 6:00,52.0,-0.4971928401567709,0.0,0.0,0.0,0
11-8-2017 7:00,52.42,0.008682992552650148,0.0,0.0,0.0,0
11-8-2017 8:00,53.42,1.7181523077942984,0.0,0.0,0.0,0
11-8-2017 9:00,54.38,2.4143261672940923,0.0,0.0,0.0,0
11-8-2017 10:00,53.92,0.9219088853089801,0.0,0.0,0.0,0
11-8-2017 11:00,53.03,-0.44410056489506644,0.0,0.0,0.0,0
11-8-2017 12:00,52.7,-1.9788975505713964,0.0,0.0,0.0,0
11-8-2017 13:00,54.3,-1.0478025694305941,0.0,0.0,0.0,0
11-8-2017 14:00,54.12,-1.6420736213301694,0.0,0.0,0.0,0
11-8-2017 15:00,54.1,-1.8499983323862637,0.0,0.0,0.0,0
11-8-2017 16:00,54.28,-3.3000676605366905,0.0,0.0,0.0,0
11-8-2017 17:00,55.18,-3.3038962602572752,0.0,0.0,0.0,0
11-8-2017 18:00,55.42,-3.297576842337122,0.0,0.0,0.0,0
11-8-2017 19:00,54.23,-2.5178936740469524,0.0,0.0,0.0,0
11-8-2017 20:00,58.0,1.78984412691522,0.0,0.0,0.0,0
11-8-2017 21:00,59.22,3.1210307374090434,0.0,0.0,0.0,0
11-8-2017 22:00,59.6,2.461285856729795,0.0,0.0,0.0,0
11-8-2017 23:00,59.15,0.7827733881480654,0.0,0.0,0.0,0
12-8-2017 0:00,59.0,-0.13328015635027413,0.0,0.0,0.0,0
12-8-2017 1:00,59.0,1.5527226053278298,0.0,0.0,0.0,0
12-8-2017 2:00,59.0,1.3050995411731776,0.0,0.0,0.0,0
12-8-2017 3:00,59.0,1.1490904123957222,0.0,0.0,0.0,0
12-8-2017 4:00,59.0,0.801461972307635,0.0,0.0,0.0,0
12-8-2017 5:00,59.0,1.2057710065979137,0.0,0.0,0.0,0
12-8-2017 6:00,59.0,1.7199691573521108,0.0,0.0,0.0,0
12-8-2017 7:00,59.0,2.19193927656395,0.0,0.0,0.0,0
12-8-2017 8:00,60.07,4.3561376587555145,0.0,0.0,0.0,0
12-8-2017 9:00,61.0,6.387304877120265,0.0,0.0,0.0,0
12-8-2017 10:00,61.27,6.987915009076218,0.0,0.0,0.0,0
12-8-2017 11:00,61.38,7.9569883268796815,0.0,0.0,0.0,0
12-8-2017 12:00,61.35,8.09412709395643,0.0,0.0,0.0,0
12-8-2017 13:00,61.98,9.972043240246407,0.0,0.0,0.0,0
12-8-2017 14:00,61.25,10.748997644859223,0.0,0.0,0.0,0
12-8-2017 15:00,52.93,4.151244117257271,0.0,0.0,0.0,0
12-8-2017 16:00,56.65,8.200837142309936,0.0,0.0,0.0,0
12-8-2017 17:00,59.35,12.061518874338425,0.0,0.0,0.0,0
12-8-2017 18:00,60.0,14.489111540305025,0.0,0.0,0.0,0
12-8-2017 19:00,49.05,7.472852763473931,0.0,0.0,0.0,0
12-8-2017 20:00,21.87,-17.17525764663348,0.0,0.0,0.0,0
12-8-2017 21:00,11.38,-25.529218229364098,0.0,0.0,0.0,0
12-8-2017 22:00,21.93,-13.968843305549143,0.0,0.0,0.0,0
12-8-2017 23:00,24.0,-11.169776824420538,0.0,0.0,0.0,0
13-8-2017 0:00,24.0,-9.888522516601707,0.0,0.0,0.0,0
13-8-2017 1:00,24.0,-6.699892649209165,0.0,0.0,0.0,0
13-8-2017 2:00,24.0,-5.3465769491542225,0.0,0.0,0.0,0
13-8-2017 3:00,24.0,-3.910506443850185,0.0,0.0,0.0,0
13-8-2017 4:00,23.6,-3.0548639961803126,0.0,0.0,0.0,0
13-8-2017 5:00,24.0,-1.8547552976548367,0.0,0.0,0.0,0
13-8-2017 6:00,24.0,-0.959744739572205,0.0,0.0,0.0,0
13-8-2017 7:00,24.0,-0.11333392303545153,0.0,0.0,0.0,0
13-8-2017 8:00,24.0,1.353939936928569,0.0,0.0,0.0,0
13-8-2017 9:00,24.0,1.4429189418614925,0.0,0.0,0.0,0
13-8-2017 10:00,24.0,0.75937491546172,0.0,0.0,0.0,0
13-8-2017 11:00,24.0,0.5763494289759201,0.0,0.0,0.0,0
13-8-2017 12:00,24.0,-0.2617576234910395,0.0,0.0,0.0,0
13-8-2017 13:00,24.0,-0.6313930589433134,0.0,0.0,0.0,0
13-8-2017 14:00,24.0,-0.7375859447095543,0.0,0.0,0.0,0
13-8-2017 15:00,24.0,-0.6395410357487954,0.0,0.0,0.0,0
13-8-2017 16:00,24.0,-1.8846584043844743,0.0,0.0,0.0,0
13-8-2017 17:00,24.0,-2.448322848125251,0.0,0.0,0.0,0
13-8-2017 18:00,24.0,-2.4483134416305496,0.0,0.0,0.0,0
13-8-2017 19:00,24.0,-0.3393706711012534,0.0,0.0,0.0,0
13-8-2017 20:00,24.0,0.3978142002034275,0.0,0.0,0.0,0
13-8-2017 21:00,24.0,0.6687376917323355,0.0,0.0,0.0,0
13-8-2017 22:00,24.0,-0.16073631247451559,0.0,0.0,0.0,0
13-8-2017 23:00,24.0,-1.3640596141516177,0.0,0.0,0.0,0
14-8-2017 0:00,24.0,-1.92546618653164,0.0,0.0,0.0,0
14-8-2017 1:00,24.0,-0.8756854810935693,0.0,0.0,0.0,0
14-8-2017 2:00,24.0,-1.562907284497932,0.0,0.0,0.0,0
14-8-2017 3:00,24.0,-2.176233412781297,0.0,0.0,0.0,0
14-8-2017 4:00,24.0,-2.9587963450223747,0.0,0.0,0.0,0
14-8-2017 5:00,24.0,-4.11601925965854,0.0,0.0,0.0,0
14-8-2017 6:00,24.0,-5.193327571644311,0.0,0.0,0.0,0
14-8-2017 7:00,24.0,-6.325607335179463,0.0,0.0,0.0,0
14-8-2017 8:00,24.0,-6.83838927483983,0.0,0.0,0.0,0
14-8-2017 9:00,24.0,-8.32307276823131,0.0,0.0,0.0,0
14-8-2017 10:00,29.32,-5.26224523787938,0.0,0.0,0.0,0
14-8-2017 11:00,31.95,-4.418843813547021,0.0,0.0,0.0,0
14-8-2017 12:00,33.02,-5.7536709704502655,0.0,0.0,0.0,0
14-8-2017 13:00,35.35,-5.246132902777838,0.0,0.0,0.0,0
14-8-2017 14:00,40.48,-1.6707479940561782,0.0,0.0,0.0,0
14-8-2017 15:00,42.95,-0.5621795636657296,0.0,0.0,0.0,0
14-8-2017 16:00,56.38,10.212718623133789,0.0,0.0,0.0,0
14-8-2017 17:00,59.57,11.564197083818662,0.0,0.0,0.0,0
14-8-2017 18:00,58.57,9.236112311036393,0.0,0.0,0.0,0
14-8-2017 19:00,59.33,10.72974866244963,0.0,0.0,0.0,0
14-8-2017 20:00,59.1,9.891720848689964,0.0,0.0,0.0,0
14-8-2017 21:00,56.63,6.9399004748027835,0.0,0.0,0.0,0
14-8-2017 22:00,57.13,5.882954811060017,0.0,0.0,0.0,0
14-8-2017 23:00,55.8,2.5296189950631103,0.0,0.0,0.0,0
15-8-2017 0:00,54.0,-0.5620711890298651,0.0,0.0,0.0,0
15-8-2017 1:00,54.0,0.6442222272983358,0.0,0.0,0.0,0
15-8-2017 2:00,54.0,0.21182479327928405,0.0,0.0,0.0,0
15-8-2017 3:00,54.0,-0.1555360957468821,0.0,0.0,0.0,0
15-8-2017 4:00,54.0,-0.6809439663918226,0.0,0.0,0.0,0
15-8-2017 5:00,54.0,-0.6032317960426354,0.0,0.0,0.0,0
15-8-2017 6:00,54.0,-0.46059227994980745,0.0,0.0,0.0,0
15-8-2017 7:00,54.0,-0.3793063364098046,0.0,0.0,0.0,0
15-8-2017 8:00,54.87,1.1901122114524867,0.0,0.0,0.0,0
15-8-2017 9:00,55.72,2.1175663039366768,0.0,0.0,0.0,0
15-8-2017 10:00,56.0,1.6985507463322023,0.0,0.0,0.0,0
15-8-2017 11:00,56.02,1.4641644367745954,0.0,0.0,0.0,0
15-8-2017 12:00,54.95,-0.44159746927305576,0.0,0.0,0.0,0
15-8-2017 13:00,55.48,-0.2632370124913166,0.0,0.0,0.0,0
15-8-2017 14:00,56.28,0.4573745767028612,0.0,0.0,0.0,0
15-8-2017 15:00,55.48,-0.23988458549241898,0.0,0.0,0.0,0
15-8-2017 16:00,56.0,-0.8613329231716591,0.0,0.0,0.0,0
15-8-2017 17:00,56.15,-1.2296540047596523,0.0,0.0,0.0,0
15-8-2017 18:00,57.27,-0.1707754035174034,0.0,0.0,0.0,0
15-8-2017 19:00,52.03,-3.457394979710493,0.0,0.0,0.0,0
15-8-2017 20:00,51.4,-3.4455849870248088,0.0,0.0,0.0,0
15-8-2017 21:00,55.78,1.367837372478327,0.0,0.0,0.0,0
15-8-2017 22:00,56.85,1.8214020069711694,0.0,0.0,0.0,0
15-8-2017 23:00,56.87,0.666035634425981,0.0,0.0,0.0,0
16-8-2017 0:00,56.53,-0.03676684721558132,0.0,0.0,0.0,0
16-8-2017 1:00,55.05,-0.0796674236156889,0.0,0.0,0.0,0
16-8-2017 2:00,54.0,-1.2423321723912224,0.0,0.0,0.0,0
16-8-2017 3:00,54.0,-1.2965969131438584,0.0,0.0,0.0,0
16-8-2017 4:00,54.0,-1.4983078334769218,0.0,0.0,0.0,0
16-8-2017 5:00,54.0,-1.5031158348117586,0.0,0.0,0.0,0
16-8-2017 6:00,54.63,-0.8296542288346984,0.0,0.0,0.0,0
16-8-2017 7:00,55.0,-0.4813159576265136,0.0,0.0,0.0,0
16-8-2017 8:00,56.63,1.7478237153546345,0.0,0.0,0.0,0
16-8-2017 9:00,57.25,2.3597214034129763,0.0,0.0,0.0,0
16-8-2017 10:00,60.57,4.891403151048593,0.0,0.0,0.0,0
16-8-2017 11:00,59.25,3.190589547512552,0.0,0.0,0.0,0
16-8-2017 12:00,59.37,2.3959359635773154,0.0,0.0,0.0,0
16-8-2017 13:00,57.32,-0.12192248247614401,0.0,0.0,0.0,0
16-8-2017 14:00,57.65,0.01839525580232504,0.0,0.0,0.0,0
16-8-2017 15:00,56.62,-1.0360993210824105,0.0,0.0,0.0,0
16-8-2017 16:00,56.82,-2.054115105514491,0.0,0.0,0.0,0
16-8-2017 17:00,56.58,-2.525678744920633,0.0,0.0,0.0,0
16-8-2017 18:00,58.27,-0.6692393513573904,0.0,0.0,0.0,0
16-8-2017 19:00,57.1,0.30190753565780426,0.0,0.0,0.0,0
16-8-2017 20:00,52.42,-3.515009041072183,0.0,0.0,0.0,0
16-8-2017 21:00,55.78,1.369603554785023,0.0,0.0,0.0,0
16-8-2017 22:00,56.3,2.3924709364936803,0.0,0.0,0.0,0
16-8-2017 23:00,57.95,3.8992742372326106,0.0,0.0,0.0,0
17-8-2017 0:00,60.25,6.948542846720244,0.0,0.0,0.0,0
17-8-2017 1:00,59.0,8.502245745955491,0.0,0.0,0.0,0
17-8-2017 2:00,59.0,9.845111150787133,0.0,0.0,0.0,0
17-8-2017 3:00,59.55,11.78974002667168,0.0,0.0,0.0,0
17-8-2017 4:00,62.2,15.697517048044816,0.0,0.0,0.0,0
17-8-2017 5:00,62.38,17.166120551739283,0.0,0.0,0.0,0
17-8-2017 6:00,60.08,16.186335924313866,0.0,0.0,0.0,0
17-8-2017 7:00,55.08,12.437646262863524,0.0,0.0,0.0,0
17-8-2017 8:00,27.43,-13.337573199363206,0.0,0.0,0.0,0
17-8-2017 9:00,13.67,-25.9446482570157,0.0,0.0,0.0,0
17-8-2017 10:00,13.43,-25.815700555064993,0.0,0.0,0.0,0
17-8-2017 11:00,20.68,-17.826372803504448,0.0,0.0,0.0,0
17-8-2017 12:00,31.18,-7.073349416252267,0.0,0.0,0.0,0
17-8-2017 13:00,31.53,-6.241625707563919,0.0,0.0,0.0,0
17-8-2017 14:00,24.63,-12.375800762624145,0.0,0.0,0.0,0
17-8-2017 15:00,27.85,-8.241729696621302,0.0,0.0,0.0,0
17-8-2017 16:00,29.1,-7.220521107614619,0.0,0.0,0.0,0
17-8-2017 17:00,33.32,-3.229174605832629,0.0,0.0,0.0,0
17-8-2017 18:00,35.33,-1.1090217209420814,0.0,0.0,0.0,0
17-8-2017 19:00,36.12,1.7260431731532293,0.0,0.0,0.0,0
17-8-2017 20:00,38.83,5.236551570879364,0.0,0.0,0.0,0
17-8-2017 21:00,39.05,5.585329834561222,0.0,0.0,0.0,0
17-8-2017 22:00,38.58,4.2504811702444485,0.0,0.0,0.0,0
17-8-2017 23:00,38.17,2.2424353510262165,0.0,0.0,0.0,0
18-8-2017 0:00,38.93,2.376756258401791,0.0,0.0,0.0,0
18-8-2017 1:00,38.97,3.428218730129707,0.0,0.0,0.0,0
18-8-2017 2:00,36.0,0.0977703854258607,0.0,0.0,0.0,0
18-8-2017 3:00,36.0,-0.2175510251950854,0.0,0.0,0.0,0
18-8-2017 4:00,36.0,-0.6591274424425393,0.0,0.0,0.0,0
18-8-2017 5:00,36.0,-0.6872440017114911,0.0,0.0,0.0,0
18-8-2017 6:00,36.0,-0.7004064305320767,0.0,0.0,0.0,0
18-8-2017 7:00,37.42,0.6337451703863906,0.0,0.0,0.0,0
18-8-2017 8:00,38.02,1.7740357679791074,0.0,0.0,0.0,0
18-8-2017 9:00,37.88,1.803376410156936,0.0,0.0,0.0,0
18-8-2017 10:00,38.72,2.024978652329821,0.0,0.0,0.0,0
18-8-2017 11:00,37.72,0.7398363448940231,0.0,0.0,0.0,0
18-8-2017 12:00,37.75,0.04592528924069228,0.0,0.0,0.0,0
18-8-2017 13:00,38.2,0.17185037594786934,0.0,0.0,0.0,0
18-8-2017 14:00,37.83,-0.23219824917403287,0.0,0.0,0.0,0
18-8-2017 15:00,38.3,0.3350576829933871,0.0,0.0,0.0,0
18-8-2017 16:00,37.77,-1.1898901312841303,0.0,0.0,0.0,0
18-8-2017 17:00,37.05,-2.3150426897573197,0.0,0.0,0.0,0
18-8-2017 18:00,37.93,-1.5605855149827903,0.0,0.0,0.0,0
18-8-2017 19:00,36.57,-1.1510118152507047,0.0,0.0,0.0,0
18-8-2017 20:00,37.3,0.1375123554882407,0.0,0.0,0.0,0
18-8-2017 21:00,37.18,0.6154079945169002,0.0,0.0,0.0,0
18-8-2017 22:00,36.93,-0.0022050083031928125,0.0,0.0,0.0,0
18-8-2017 23:00,37.05,-1.0701482399564455,0.0,0.0,0.0,0
19-8-2017 0:00,37.75,-0.505823327170809,0.0,0.0,0.0,0
19-8-2017 1:00,38.0,1.0530607753549432,0.0,0.0,0.0,0
19-8-2017 2:00,38.0,1.078960739420772,0.0,0.0,0.0,0
19-8-2017 3:00,38.0,1.143351100599503,0.0,0.0,0.0,0
19-8-2017 4:00,38.0,1.0920833030366381,0.0,0.0,0.0,0
19-8-2017 5:00,38.0,1.2286631915883746,0.0,0.0,0.0,0
19-8-2017 6:00,37.57,0.9335394721567312,0.0,0.0,0.0,0
19-8-2017 7:00,36.0,-0.5780511537718667,0.0,0.0,0.0,0
19-8-2017 8:00,36.0,0.10916601442441731,0.0,0.0,0.0,0
19-8-2017 9:00,36.0,0.5122009582333291,0.0,0.0,0.0,0
19-8-2017 10:00,37.33,1.4537363424291314,0.0,0.0,0.0,0
19-8-2017 11:00,35.13,-0.8385974222022483,0.0,0.0,0.0,0
19-8-2017 12:00,35.42,-1.0321643189603336,0.0,0.0,0.0,0
19-8-2017 13:00,36.97,0.41663753048736396,0.0,0.0,0.0,0
19-8-2017 14:00,38.23,1.871390720025488,0.0,0.0,0.0,0
19-8-2017 15:00,38.52,2.4705069030791975,0.0,0.0,0.0,0
19-8-2017 16:00,38.17,1.3880780702391604,0.0,0.0,0.0,0
19-8-2017 17:00,39.38,2.319609571626394,0.0,0.0,0.0,0
19-8-2017 18:00,40.45,3.331554156400493,0.0,0.0,0.0,0
19-8-2017 19:00,39.23,3.908819781884951,0.0,0.0,0.0,0
19-8-2017 20:00,38.95,4.248542845752304,0.0,0.0,0.0,0
19-8-2017 21:00,22.05,-12.048676104207239,0.0,0.0,0.0,0
19-8-2017 22:00,12.03,-22.40328540986563,0.0,0.0,0.0,0
19-8-2017 23:00,35.27,-0.4053580182888936,0.0,0.0,0.0,0
20-8-2017 0:00,34.55,-1.2352610644281867,0.0,0.0,0.0,0
20-8-2017 1:00,35.68,1.1121511369293131,0.0,0.0,0.0,0
20-8-2017 2:00,35.47,0.9255058777987131,0.0,0.0,0.0,0
20-8-2017 3:00,37.37,2.880714478811022,0.0,0.0,0.0,0
20-8-2017 4:00,34.2,-0.3391382310333455,0.0,0.0,0.0,0
20-8-2017 5:00,36.1,1.5335198750721375,0.0,0.0,0.0,0
20-8-2017 6:00,36.73,2.1178166347624625,0.0,0.0,0.0,0
20-8-2017 7:00,34.83,0.09186555171981325,0.0,0.0,0.0,0
20-8-2017 8:00,36.1,1.8673910602527144,0.0,0.0,0.0,0
20-8-2017 9:00,36.75,2.5267380659994885,0.0,0.0,0.0,0
20-8-2017 10:00,35.13,0.12082435252499835,0.0,0.0,0.0,0
20-8-2017 11:00,36.6,1.0639168910047943,0.0,0.0,0.0,0
20-8-2017 12:00,35.2,-1.2066880865512672,0.0,0.0,0.0,0
20-8-2017 13:00,38.62,1.7928079997245092,0.0,0.0,0.0,0
20-8-2017 14:00,38.67,1.7241804780102115,0.0,0.0,0.0,0
20-8-2017 15:00,35.02,-1.9470256139622393,0.0,0.0,0.0,0
20-8-2017 16:00,35.0,-2.979117991277242,0.0,0.0,0.0,0
20-8-2017 17:00,36.47,-1.9111514721453702,0.0,0.0,0.0,0
20-8-2017 18:00,35.93,-2.691968519487453,0.0,0.0,0.0,0
20-8-2017 19:00,36.67,-0.37726001036634926,0.0,0.0,0.0,0
20-8-2017 20:00,38.72,2.1034129045136325,0.0,0.0,0.0,0
20-8-2017 21:00,38.82,2.7541591933351484,0.0,0.0,0.0,0
20-8-2017 22:00,38.0,1.575633412607722,0.0,0.0,0.0,0
20-8-2017 23:00,38.13,0.35251125518370685,0.0,0.0,0.0,0
21-8-2017 0:00,37.0,-0.9185399221112505,0.0,0.0,0.0,0
21-8-2017 1:00,37.0,0.3002976865307332,0.0,0.0,0.0,0
21-8-2017 2:00,37.0,0.41400451265644733,0.0,0.0,0.0,0
21-8-2017 3:00,36.38,-0.06707133804492571,0.0,0.0,0.0,0
21-8-2017 4:00,37.0,0.5973883482819318,0.0,0.0,0.0,0
21-8-2017 5:00,37.0,0.9099473760133776,0.0,0.0,0.0,0
21-8-2017 6:00,37.0,1.1874873188979151,0.0,0.0,0.0,0
21-8-2017 7:00,37.0,1.3809984828134603,0.0,0.0,0.0,0
21-8-2017 8:00,37.28,2.488655035755194,0.0,0.0,0.0,0
21-8-2017 9:00,38.68,4.432080833568399,0.0,0.0,0.0,0
21-8-2017 10:00,38.53,4.026484752552186,0.0,0.0,0.0,0
21-8-2017 11:00,37.53,2.9927703242717456,0.0,0.0,0.0,0
21-8-2017 12:00,37.38,2.51289399604628,0.0,0.0,0.0,0
21-8-2017 13:00,35.27,0.3717989146698457,0.0,0.0,0.0,0
21-8-2017 14:00,29.5,-5.121494722777186,0.0,0.0,0.0,0
21-8-2017 15:00,31.83,-2.434308494256097,0.0,0.0,0.0,0
21-8-2017 16:00,31.13,-3.7173475802019524,0.0,0.0,0.0,0
21-8-2017 17:00,31.32,-3.590799156261003,0.0,0.0,0.0,0
21-8-2017 18:00,31.47,-3.4022309486548465,0.0,0.0,0.0,0
21-8-2017 19:00,29.7,-3.3579228274890127,0.0,0.0,0.0,0
21-8-2017 20:00,30.32,-2.0341433331882577,0.0,0.0,0.0,0
21-8-2017 21:00,32.12,0.5276648865861517,0.0,0.0,0.0,0
21-8-2017 22:00,33.2,1.4883409896620776,0.0,0.0,0.0,0
21-8-2017 23:00,33.63,0.717287642109703,0.0,0.0,0.0,0
22-8-2017 0:00,32.4,-0.4217933074685334,0.0,0.0,0.0,0
22-8-2017 1:00,32.0,0.2194712586276566,0.0,0.0,0.0,0
22-8-2017 2:00,32.0,0.2445317201794026,0.0,0.0,0.0,0
22-8-2017 3:00,32.0,0.28817296793408076,0.0,0.0,0.0,0
22-8-2017 4:00,31.27,-0.48202335655465944,0.0,0.0,0.0,0
22-8-2017 5:00,31.0,-0.7539341585254711,0.0,0.0,0.0,0
22-8-2017 6:00,31.0,-0.807521783774952,0.0,0.0,0.0,0
22-8-2017 7:00,31.0,-0.9489006092126715,0.0,0.0,0.0,0
22-8-2017 8:00,31.03,-0.42346524817354947,0.0,0.0,0.0,0
22-8-2017 9:00,32.73,1.5040543394546617,0.0,0.0,0.0,0
22-8-2017 10:00,32.63,0.8287914724335437,0.0,0.0,0.0,0
22-8-2017 11:00,31.85,-0.34171434107031473,0.0,0.0,0.0,0
22-8-2017 12:00,32.5,-0.3308464384283667,0.0,0.0,0.0,0
22-8-2017 13:00,34.05,0.8465058694810779,0.0,0.0,0.0,0
22-8-2017 14:00,32.85,-0.41241532676055925,0.0,0.0,0.0,0
22-8-2017 15:00,32.48,-0.7777982208078242,0.0,0.0,0.0,0
22-8-2017 16:00,34.0,-0.1427803076134353,0.0,0.0,0.0,0
22-8-2017 17:00,34.05,-0.4731011269173564,0.0,0.0,0.0,0
22-8-2017 18:00,33.83,-1.0305988124169119,0.0,0.0,0.0,0
22-8-2017 19:00,33.43,-0.032191071302953844,0.0,0.0,0.0,0
22-8-2017 20:00,34.13,0.98919501032195,0.0,0.0,0.0,0
22-8-2017 21:00,33.8,1.2583539582753076,0.0,0.0,0.0,0
22-8-2017 22:00,33.92,1.1244569983977186,0.0,0.0,0.0,0
22-8-2017 23:00,33.28,-0.9383024860398947,0.0,0.0,0.0,0
23-8-2017 0:00,33.48,-0.8034309069760894,0.0,0.0,0.0,0
23-8-2017 1:00,34.1,0.940115973500987,0.0,0.0,0.0,0
23-8-2017 2:00,34.12,1.156031794307438,0.0,0.0,0.0,0
23-8-2017 3:00,34.05,1.2960916184872175,0.0,0.0,0.0,0
23-8-2017 4:00,34.02,1.4019035087887985,0.0,0.0,0.0,0
23-8-2017 5:00,33.85,1.6402608732170947,0.0,0.0,0.0,0
23-8-2017 6:00,33.43,1.560699026130088,0.0,0.0,0.0,0
23-8-2017 7:00,34.17,2.5534787823837597,0.0,0.0,0.0,0
23-8-2017 8:00,34.33,3.6095334561957735,0.0,0.0,0.0,0
23-8-2017 9:00,32.53,2.5257568471101806,0.0,0.0,0.0,0
23-8-2017 10:00,34.45,4.354409353427233,0.0,0.0,0.0,0
23-8-2017 11:00,32.57,2.520959668811841,0.0,0.0,0.0,0
23-8-2017 12:00,32.27,2.0662624960083953,0.0,0.0,0.0,0
23-8-2017 13:00,28.52,-1.6571189669137354,0.0,0.0,0.0,0
23-8-2017 14:00,25.22,-4.604209020213336,0.0,0.0,0.0,0
23-8-2017 15:00,26.23,-3.2054472451238247,0.0,0.0,0.0,0
23-8-2017 16:00,27.52,-2.35683071123189,0.0,0.0,0.0,0
23-8-2017 17:00,25.38,-4.529346594792486,0.0,0.0,0.0,0
23-8-2017 18:00,24.95,-5.006634954632435,0.0,0.0,0.0,0
23-8-2017 19:00,25.37,-2.939147249161781,0.0,0.0,0.0,0
23-8-2017 20:00,25.07,-2.634121803017038,0.0,0.0,0.0,0
23-8-2017 21:00,25.37,-1.5849697775813745,0.0,0.0,0.0,0
23-8-2017 22:00,24.73,-2.3019090845227126,0.0,0.0,0.0,0
23-8-2017 23:00,27.65,-0.7196959729625299,0.0,0.0,0.0,0
24-8-2017 0:00,28.7,0.4252249996034898,0.0,0.0,0.0,0
24-8-2017 1:00,28.37,1.0271858023611138,0.0,0.0,0.0,0
24-8-2017 2:00,28.67,1.4200885903219422,0.0,0.0,0.0,0
24-8-2017 3:00,28.7,1.5526985988264919,0.0,0.0,0.0,0
24-8-2017 4:00,28.73,1.620691610482769,0.0,0.0,0.0,0
24-8-2017 5:00,28.93,1.9235237134289171,0.0,0.0,0.0,0
24-8-2017 6:00,28.7,1.7121942166231534,0.0,0.0,0.0,0
24-8-2017 7:00,28.97,1.9133602890744932,0.0,0.0,0.0,0
24-8-2017 8:00,28.6,2.1242620101656904,0.0,0.0,0.0,0
24-8-2017 9:00,28.92,2.8262028185240844,0.0,0.0,0.0,0
24-8-2017 10:00,27.43,0.9057849876089392,0.0,0.0,0.0,0
24-8-2017 11:00,28.07,1.2064057213116648,0.0,0.0,0.0,0
24-8-2017 12:00,27.98,0.6231577624924505,0.0,0.0,0.0,0
24-8-2017 13:00,26.8,-0.8887545676203565,0.0,0.0,0.0,0
24-8-2017 14:00,26.68,-1.0018105743370214,0.0,0.0,0.0,0
24-8-2017 15:00,22.52,-5.146701226469844,0.0,0.0,0.0,0
24-8-2017 16:00,14.83,-13.592313536757672,0.0,0.0,0.0,0
24-8-2017 17:00,27.48,-1.2581791233553048,0.0,0.0,0.0,0
24-8-2017 18:00,29.05,-0.07641279631600284,0.0,0.0,0.0,0
24-8-2017 19:00,25.67,-2.191028926624284,0.0,0.0,0.0,0
24-8-2017 20:00,27.2,-0.40354791609532725,0.0,0.0,0.0,0
24-8-2017 21:00,27.35,0.2807815382303751,0.0,0.0,0.0,0
24-8-2017 22:00,28.68,1.3459638250512356,0.0,0.0,0.0,0
24-8-2017 23:00,30.27,1.3183134734351398,0.0,0.0,0.0,0
25-8-2017 0:00,30.32,1.2584477803292877,0.0,0.0,0.0,0
25-8-2017 1:00,31.88,3.49411297368696,0.0,0.0,0.0,0
25-8-2017 2:00,32.0,3.539293197121662,0.0,0.0,0.0,0
25-8-2017 3:00,30.1,1.569743858270492,0.0,0.0,0.0,0
25-8-2017 4:00,30.0,1.3452028316903366,0.0,0.0,0.0,0
25-8-2017 5:00,30.0,1.3556391725630128,0.0,0.0,0.0,0
25-8-2017 6:00,30.0,1.2656715254471393,0.0,0.0,0.0,0
25-8-2017 7:00,29.88,0.9683520898194402,0.0,0.0,0.0,0
25-8-2017 8:00,29.72,1.2872290339130998,0.0,0.0,0.0,0
25-8-2017 9:00,30.8,2.8167544922313326,0.0,0.0,0.0,0
25-8-2017 10:00,30.63,2.279133510858056,0.0,0.0,0.0,0
25-8-2017 11:00,25.93,-2.7443081503470523,0.0,0.0,0.0,0
25-8-2017 12:00,24.58,-4.524239708407979,0.0,0.0,0.0,0
25-8-2017 13:00,28.08,-1.298174062139747,0.0,0.0,0.0,0
25-8-2017 14:00,26.78,-2.5206871787017455,0.0,0.0,0.0,0
25-8-2017 15:00,25.93,-3.3127214144851855,0.0,0.0,0.0,0
25-8-2017 16:00,28.88,-1.016053725381056,0.0,0.0,0.0,0
25-8-2017 17:00,29.83,-0.3282436975516809,0.0,0.0,0.0,0
25-8-2017 18:00,29.22,-1.330397366169077,0.0,0.0,0.0,0
25-8-2017 19:00,28.78,-0.5500920147922344,0.0,0.0,0.0,0
25-8-2017 20:00,28.37,-0.7131301224150093,0.0,0.0,0.0,0
25-8-2017 21:00,29.52,0.9854090670115241,0.0,0.0,0.0,0
25-8-2017 22:00,29.53,0.7717452538053777,0.0,0.0,0.0,0
25-8-2017 23:00,30.57,0.14326374522380547,0.0,0.0,0.0,0
26-8-2017 0:00,31.0,0.4876436926568779,0.0,0.0,0.0,0
26-8-2017 1:00,31.0,1.1009024222684403,0.0,0.0,0.0,0
26-8-2017 2:00,31.0,1.0522492268308525,0.0,0.0,0.0,0
26-8-2017 3:00,31.0,1.004429686277792,0.0,0.0,0.0,0
26-8-2017 4:00,31.0,0.9112437671150424,0.0,0.0,0.0,0
26-8-2017 5:00,31.0,1.0426506897398191,0.0,0.0,0.0,0
26-8-2017 6:00,31.0,1.0574112361394299,0.0,0.0,0.0,0
26-8-2017 7:00,31.0,0.9849726362582629,0.0,0.0,0.0,0
26-8-2017 8:00,31.0,1.575191147179968,0.0,0.0,0.0,0
26-8-2017 9:00,30.7,1.9314474109069977,0.0,0.0,0.0,0
26-8-2017 10:00,30.02,1.085769434524554,0.0,0.0,0.0,0
26-8-2017 11:00,30.38,1.277411533860576,0.0,0.0,0.0,0
26-8-2017 12:00,29.37,0.03994253200690423,0.0,0.0,0.0,0
26-8-2017 13:00,29.2,-0.26339177494380905,0.0,0.0,0.0,0
26-8-2017 14:00,29.0,-0.23273993095113354,0.0,0.0,0.0,0
26-8-2017 15:00,30.25,1.200704320014836,0.0,0.0,0.0,0
26-8-2017 16:00,30.08,0.5622740789109422,0.0,0.0,0.0,0
26-8-2017 17:00,30.95,1.3151605693181452,0.0,0.0,0.0,0
26-8-2017 18:00,28.33,-1.609512246805135,0.0,0.0,0.0,0
26-8-2017 19:00,28.93,0.2571154344076447,0.0,0.0,0.0,0
26-8-2017 20:00,27.08,-1.2650409432160536,0.0,0.0,0.0,0
26-8-2017 21:00,7.73,-19.960800899171332,0.0,0.0,0.0,0
26-8-2017 22:00,28.97,1.1881803071128658,0.0,0.0,0.0,0
26-8-2017 23:00,29.37,-0.039641238916843236,0.0,0.0,0.0,0
27-8-2017 0:00,30.0,0.6204754685725078,0.0,0.0,0.0,0
27-8-2017 1:00,30.0,1.1648209168223858,0.0,0.0,0.0,0
27-8-2017 2:00,30.0,1.135827484896943,0.0,0.0,0.0,0
27-8-2017 3:00,30.0,1.103230925026427,0.0,0.0,0.0,0
27-8-2017 4:00,30.0,1.0348932956655084,0.0,0.0,0.0,0
27-8-2017 5:00,30.0,0.9734354444101712,0.0,0.0,0.0,0
27-8-2017 6:00,30.0,0.7790888286930375,0.0,0.0,0.0,0
27-8-2017 7:00,30.0,0.4976957089261873,0.0,0.0,0.0,0
27-8-2017 8:00,30.0,0.8854204310437197,0.0,0.0,0.0,0
27-8-2017 9:00,30.0,1.3199874442360482,0.0,0.0,0.0,0
27-8-2017 10:00,30.5,1.4278324169009196,0.0,0.0,0.0,0
27-8-2017 11:00,30.85,1.3361382208345702,0.0,0.0,0.0,0
27-8-2017 12:00,30.62,0.6527117192446461,0.0,0.0,0.0,0
27-8-2017 13:00,31.62,1.4322024920691554,0.0,0.0,0.0,0
27-8-2017 14:00,29.88,-0.1517556703893277,0.0,0.0,0.0,0
27-8-2017 15:00,29.95,-6.078996797924674E-4,0.0,0.0,0.0,0
27-8-2017 16:00,30.0,-0.4619110379975382,0.0,0.0,0.0,0
27-8-2017 17:00,29.7,-0.8061263261956775,0.0,0.0,0.0,0
27-8-2017 18:00,29.3,-1.4954965310080048,0.0,0.0,0.0,0
27-8-2017 19:00,30.05,0.4952752388575341,0.0,0.0,0.0,0
27-8-2017 20:00,30.88,1.66182235004975,0.0,0.0,0.0,0
27-8-2017 21:00,31.23,2.8074807083186606,0.0,0.0,0.0,0
27-8-2017 22:00,30.65,2.3048243936991994,0.0,0.0,0.0,0
27-8-2017 23:00,28.47,-1.4266197301726393,0.0,0.0,0.0,0
28-8-2017 0:00,27.77,-1.945048803021006,0.0,0.0,0.0,0
28-8-2017 1:00,28.0,-1.04702727684694,0.0,0.0,0.0,0
28-8-2017 2:00,28.0,-0.8637715859743764,0.0,0.0,0.0,0
28-8-2017 3:00,28.0,-0.68855580587649,0.0,0.0,0.0,0
28-8-2017 4:00,28.0,-0.539455786149702,0.0,0.0,0.0,0
28-8-2017 5:00,28.0,-0.34743732470652944,0.0,0.0,0.0,0
28-8-2017 6:00,28.0,-0.3045500159617802,0.0,0.0,0.0,0
28-8-2017 7:00,28.0,-0.3485565690356829,0.0,0.0,0.0,0
28-8-2017 8:00,28.62,0.9030154508563015,0.0,0.0,0.0,0
28-8-2017 9:00,30.0,2.9078043657825603,0.0,0.0,0.0,0
28-8-2017 10:00,28.52,1.2210834397633867,0.0,0.0,0.0,0
28-8-2017 11:00,23.85,-3.752035899436706,0.0,0.0,0.0,0
28-8-2017 12:00,28.73,0.8604912515057528,0.0,0.0,0.0,0
28-8-2017 13:00,28.0,-0.18736875160539057,0.0,0.0,0.0,0
28-8-2017 14:00,28.18,0.06388722377409195,0.0,0.0,0.0,0
28-8-2017 15:00,26.67,-1.4774373414836823,0.0,0.0,0.0,0
28-8-2017 16:00,26.75,-1.9617577575147145,0.0,0.0,0.0,0
28-8-2017 17:00,26.57,-2.330550925182852,0.0,0.0,0.0,0
28-8-2017 18:00,27.02,-2.3720946195488963,0.0,0.0,0.0,0
28-8-2017 19:00,27.0,-1.3945339522703435,0.0,0.0,0.0,0
28-8-2017 20:00,27.32,-0.9466385435019653,0.0,0.0,0.0,0
28-8-2017 21:00,28.0,0.36818646197656335,0.0,0.0,0.0,0
28-8-2017 22:00,29.65,1.9618794592708326,0.0,0.0,0.0,0
28-8-2017 23:00,31.08,1.6147995903742505,0.0,0.0,0.0,0
29-8-2017 0:00,30.0,0.5658115700055504,0.0,0.0,0.0,0
29-8-2017 1:00,30.0,0.9619398543555349,0.0,0.0,0.0,0
29-8-2017 2:00,30.0,0.9618753482778359,0.0,0.0,0.0,0
29-8-2017 3:00,30.0,0.9493341485958666,0.0,0.0,0.0,0
29-8-2017 4:00,30.0,0.9205909465994075,0.0,0.0,0.0,0
29-8-2017 5:00,30.62,1.5878086694139277,0.0,0.0,0.0,0
29-8-2017 6:00,31.0,1.8496528512934027,0.0,0.0,0.0,0
29-8-2017 7:00,30.95,1.5948640295568488,0.0,0.0,0.0,0
29-8-2017 8:00,31.5,2.622114511867693,0.0,0.0,0.0,0
29-8-2017 9:00,22.33,-5.885571346752581,0.0,0.0,0.0,0
29-8-2017 10:00,26.97,-1.4196657691583923,0.0,0.0,0.0,0
29-8-2017 11:00,27.1,-1.6070178491948148,0.0,0.0,0.0,0
29-8-2017 12:00,30.62,1.6786553565774298,0.0,0.0,0.0,0
29-8-2017 13:00,29.97,0.8234855664434662,0.0,0.0,0.0,0
29-8-2017 14:00,30.67,1.7199966685737529,0.0,0.0,0.0,0
29-8-2017 15:00,28.2,-0.6837592437384963,0.0,0.0,0.0,0
29-8-2017 16:00,28.0,-1.2914421872979425,0.0,0.0,0.0,0
29-8-2017 17:00,27.85,-1.5110240495844174,0.0,0.0,0.0,0
29-8-2017 18:00,27.87,-1.9209520486525058,0.0,0.0,0.0,0
29-8-2017 19:00,27.57,-1.2032996249764771,0.0,0.0,0.0,0
29-8-2017 20:00,29.8,1.2092469403525286,0.0,0.0,0.0,0
29-8-2017 21:00,30.0,2.0748033521205222,0.0,0.0,0.0,0
29-8-2017 22:00,29.83,1.9058386100604423,0.0,0.0,0.0,0
29-8-2017 23:00,28.63,-1.1058840551289641,0.0,0.0,0.0,0
30-8-2017 0:00,29.0,-0.920020840276198,0.0,0.0,0.0,0
30-8-2017 1:00,29.0,-0.45533704454402724,0.0,0.0,0.0,0
30-8-2017 2:00,29.0,-0.48246223060092674,0.0,0.0,0.0,0
30-8-2017 3:00,29.0,-0.39325802255064346,0.0,0.0,0.0,0
30-8-2017 4:00,29.0,-0.39645496135269553,0.0,0.0,0.0,0
30-8-2017 5:00,29.0,-0.3370071222402089,0.0,0.0,0.0,0
30-8-2017 6:00,29.0,-0.5009251318670884,0.0,0.0,0.0,0
30-8-2017 7:00,29.52,-0.23810431233599516,0.0,0.0,0.0,0
30-8-2017 8:00,30.0,0.7442115021507512,0.0,0.0,0.0,0
30-8-2017 9:00,29.2,0.7538946986194262,0.0,0.0,0.0,0
30-8-2017 10:00,29.0,0.5394225641265891,0.0,0.0,0.0,0
30-8-2017 11:00,29.17,0.34994409943858074,0.0,0.0,0.0,0
30-8-2017 12:00,30.83,1.895581474853362,0.0,0.0,0.0,0
30-8-2017 13:00,30.73,1.5383149860578236,0.0,0.0,0.0,0
30-8-2017 14:00,30.45,1.408797150133985,0.0,0.0,0.0,0
30-8-2017 15:00,29.5,0.34853227755486316,0.0,0.0,0.0,0
30-8-2017 16:00,28.25,-1.32331826759971,0.0,0.0,0.0,0
30-8-2017 17:00,27.4,-2.082633931907985,0.0,0.0,0.0,0
30-8-2017 18:00,29.18,-0.5986028917876283,0.0,0.0,0.0,0
30-8-2017 19:00,29.0,0.132233622839248,0.0,0.0,0.0,0
30-8-2017 20:00,28.8,0.12843433409824456,0.0,0.0,0.0,0
30-8-2017 21:00,30.98,3.085663503686419,0.0,0.0,0.0,0
30-8-2017 22:00,30.98,3.1895961215729614,0.0,0.0,0.0,0
30-8-2017 23:00,28.75,-0.7127377426227781,0.0,0.0,0.0,0
31-8-2017 0:00,29.0,-0.7520625083973869,0.0,0.0,0.0,0
31-8-2017 1:00,29.0,-0.06510341498278649,0.0,0.0,0.0,0
31-8-2017 2:00,27.27,-1.6955694947186544,0.0,0.0,0.0,0
31-8-2017 3:00,27.0,-1.6209000926358819,0.0,0.0,0.0,0
31-8-2017 4:00,27.0,-1.4445903047305961,0.0,0.0,0.0,0
31-8-2017 5:00,27.0,-1.1317459409357333,0.0,0.0,0.0,0
31-8-2017 6:00,27.0,-1.100259733684556,0.0,0.0,0.0,0
31-8-2017 7:00,27.8,-0.36858457918354404,0.0,0.0,0.0,0
31-8-2017 8:00,29.0,1.6000412611813672,0.0,0.0,0.0,0
31-8-2017 9:00,28.73,2.431412994783983,0.0,0.0,0.0,0
31-8-2017 10:00,28.17,2.1607670147061597,0.0,0.0,0.0,0
31-8-2017 11:00,29.33,3.0633660318685934,0.0,0.0,0.0,0
31-8-2017 12:00,29.22,3.1031714434279642,2.18,8.15,-3.8,0
31-8-2017 13:00,29.0,2.4120545544068506,0.5,6.47,-5.47,0
31-8-2017 14:00,29.17,2.5247540788648912,0.88,6.85,-5.09,0
31-8-2017 15:00,22.55,-4.543773455545111,1.59,7.55,-4.37,0
31-8-2017 16:00,20.37,-7.321868592163867,-2.25,3.72,-8.22,0
31-8-2017 17:00,22.57,-5.250689739418867,-1.44,4.52,-7.41,0
31-8-2017 18:00,23.17,-5.192471341034995,-0.45,5.51,-6.41,0
31-8-2017 19:00,19.9,-8.038466922999596,-0.11,5.85,-6.06,0
31-8-2017 20:00,23.33,-4.77862825335292,-2.35,3.61,-8.31,0
31-8-2017 21:00,23.25,-4.430558519056763,0.07,6.02,-5.88,0
31-8-2017 22:00,27.75,-0.1846555450198224,0.78,6.73,-5.17,0
31-8-2017 23:00,31.95,2.0214723879818877,1.9,7.85,-4.05,0
1-9-2017 0:00,33.07,2.286032637783684,3.77,9.72,-2.19,0
1-9-2017 1:00,34.68,4.169253106587945,3.4,9.35,-2.55,0
1-9-2017 2:00,34.27,3.3494322108803374,3.57,9.51,-2.38,0
1-9-2017 3:00,35.0,4.043552884702827,2.72,8.66,-3.22,0
1-9-2017 4:00,35.0,3.7633793628849936,2.87,8.8,-3.07,0
1-9-2017 5:00,32.6,1.2397093093225102,2.16,8.09,-3.77,0
1-9-2017 6:00,32.0,0.17668879141201188,-0.0,5.93,-5.93,0
1-9-2017 7:00,33.82,1.4273223041700724,-0.22,5.7,-6.15,0
1-9-2017 8:00,32.8,0.7523621937002751,0.55,6.47,-5.37,0
1-9-2017 9:00,33.42,2.610703367532704,-1.2,4.72,-7.12,0
1-9-2017 10:00,30.9,0.5291667915261584,0.35,6.27,-5.57,0
1-9-2017 11:00,32.52,1.8391265401953376,-1.96,3.96,-7.87,0
1-9-2017 12:00,34.07,3.6483832375555636,0.38,6.29,-5.53,0
1-9-2017 13:00,32.88,2.356215414954537,-0.2,5.7,-6.11,0
1-9-2017 14:00,34.0,3.7939317664401173,-0.87,5.03,-6.78,0
1-9-2017 15:00,33.28,2.8699410368448994,0.47,6.37,-5.43,0
1-9-2017 16:00,34.22,3.6184007754076184,0.93,6.83,-4.97,0
1-9-2017 17:00,23.7,-6.433883128000122,2.1,7.99,-3.8,0
1-9-2017 18:00,27.7,-2.405434644558742,-6.15,-0.21,-12.08,0
1-9-2017 19:00,29.43,0.07778040367917427,-0.96,4.98,-6.89,0
1-9-2017 20:00,26.25,-2.822700241492484,-0.68,5.25,-6.61,0
1-9-2017 21:00,28.2,-0.028204276612623147,-3.96,1.98,-9.89,0
1-9-2017 22:00,27.6,-0.47474528054954845,-0.43,5.5,-6.37,0
1-9-2017 23:00,27.38,-2.244569884474661,-3.41,2.53,-9.35,0
2-9-2017 0:00,27.0,-3.2805389532207307,-2.87,3.06,-8.81,0
2-9-2017 1:00,27.0,-2.6678900416201223,-2.69,3.25,-8.62,0
2-9-2017 2:00,27.0,-2.8338986858927875,-2.57,3.36,-8.5,0
2-9-2017 3:00,27.0,-2.4971596729238854,-1.67,4.25,-7.6,0
2-9-2017 4:00,27.0,-2.480649437058151,-1.24,4.68,-7.16,0
2-9-2017 5:00,27.0,-2.5309306432881833,-0.75,5.16,-6.67,0
2-9-2017 6:00,27.08,-2.8985546216705522,-0.23,5.68,-6.15,0
2-9-2017 7:00,28.37,-2.1690594859656436,0.1,6.01,-5.81,0
2-9-2017 8:00,29.87,-0.23770228258034365,0.76,6.66,-5.15,0
2-9-2017 9:00,31.03,2.132925462224314,1.39,7.29,-4.51,0
2-9-2017 10:00,30.05,1.5758154210314856,2.66,8.56,-3.24,0
2-9-2017 11:00,30.8,1.798453031949819,1.8,7.7,-4.09,0
2-9-2017 12:00,30.93,2.1324781458533266,2.76,8.65,-3.13,0
2-9-2017 13:00,30.47,1.038100507691908,1.44,7.33,-4.45,0
2-9-2017 14:00,32.43,2.7896748042245534,1.57,7.45,-4.32,0
2-9-2017 15:00,35.87,5.369061997463639,2.9,8.79,-2.98,0
2-9-2017 16:00,35.2,4.012917729227365,5.67,11.57,-0.23,0
2-9-2017 17:00,35.03,3.876051558649543,4.41,10.3,-1.48,0
2-9-2017 18:00,33.32,1.733610616131081,4.22,10.11,-1.67,0
2-9-2017 19:00,34.6,3.064916783554171,1.64,7.52,-4.24,0
2-9-2017 20:00,35.5,3.6629973125468354,2.25,8.13,-3.63,0
2-9-2017 21:00,24.57,-6.78632636895383,1.2,7.07,-4.67,0
2-9-2017 22:00,0.0,-31.57555722782886,-5.63,0.27,-11.53,0
2-9-2017 23:00,35.0,1.5384197543549831,-20.91,-14.75,-27.08,1
3-9-2017 0:00,35.88,1.181675490096815,6.89,13.28,0.5,0
3-9-2017 1:00,36.0,1.870070552685334,0.79,7.17,-5.59,0
3-9-2017 2:00,36.0,1.5641918680391882,1.41,7.79,-4.97,0
3-9-2017 3:00,36.0,1.8898669283460663,1.15,7.53,-5.23,0
3-9-2017 4:00,36.0,1.8193786300869377,0.92,7.29,-5.45,0
3-9-2017 5:00,36.0,1.7663655188187235,0.72,7.09,-5.65,0
3-9-2017 6:00,36.05,1.3080173275938307,0.68,7.04,-5.69,0
3-9-2017 7:00,36.05,0.6802533338749441,0.49,6.85,-5.87,0
3-9-2017 8:00,35.0,0.07180709874470637,-0.17,6.19,-6.53,0
3-9-2017 9:00,35.72,2.15744141891804,-1.29,5.06,-7.65,0
3-9-2017 10:00,36.42,3.4474779169353624,-0.17,6.18,-6.52,0
3-9-2017 11:00,37.12,3.58551339449928,0.37,6.71,-5.98,0
3-9-2017 12:00,36.48,3.2770269293425187,0.81,7.16,-5.53,0
3-9-2017 13:00,35.6,2.0493337669045175,-0.52,5.82,-6.86,0
3-9-2017 14:00,34.43,0.9636602997680228,-0.45,5.89,-6.78,0
3-9-2017 15:00,32.88,-1.2846802928747678,-1.15,5.18,-7.48,0
3-9-2017 16:00,35.08,0.5534657233737477,-1.01,5.32,-7.34,0
3-9-2017 17:00,31.88,-1.9899018651585578,1.18,7.5,-5.15,0
3-9-2017 18:00,31.08,-2.625151384421251,-0.67,5.65,-6.99,0
3-9-2017 19:00,34.53,1.2323267514026028,-0.97,5.35,-7.29,0
3-9-2017 20:00,38.15,5.027049303775193,0.94,7.26,-5.38,0
3-9-2017 21:00,38.83,6.6023574183442975,1.77,8.09,-4.55,0
3-9-2017 22:00,34.55,2.5088881469814623,3.11,9.42,-3.21,0
3-9-2017 23:00,33.38,-0.1048818422754465,1.05,7.36,-5.26,0
4-9-2017 0:00,30.58,-3.943949859595424,-3.65,2.68,-9.97,0
4-9-2017 1:00,30.0,-3.6398715358856144,-4.11,2.22,-10.44,0
4-9-2017 2:00,30.27,-3.455683150771872,-4.12,2.2,-10.45,0
4-9-2017 3:00,29.0,-4.051134932993648,-3.11,3.21,-9.43,0
4-9-2017 4:00,29.0,-3.84868465524427,-3.41,2.9,-9.73,0
4-9-2017 5:00,29.0,-3.6624043879219776,-2.6,3.71,-8.92,0
4-9-2017 6:00,29.23,-3.7594515083606694,-1.96,4.35,-8.27,0
4-9-2017 7:00,30.0,-3.44244934787465,-1.34,4.96,-7.65,0
4-9-2017 8:00,31.57,-1.1786737378917387,-0.92,5.38,-7.22,0
4-9-2017 9:00,33.45,2.384284281107135,0.01,6.3,-6.29,0
4-9-2017 10:00,31.97,1.8237844417914673,1.52,7.81,-4.78,0
4-9-2017 11:00,33.45,2.8695349094578653,0.69,6.98,-5.6,0
4-9-2017 12:00,33.92,3.9608539886976892,2.04,8.33,-4.25,0
4-9-2017 13:00,32.32,1.768638503786356,1.46,7.74,-4.83,0
4-9-2017 14:00,29.92,-0.7854895252160077,0.97,7.25,-5.31,0
4-9-2017 15:00,30.43,-1.3427647019374263,-0.22,6.06,-6.5,0
4-9-2017 16:00,34.53,2.1884676000535777,1.37,7.65,-4.91,0
4-9-2017 17:00,33.42,1.5561675109198347,3.97,10.25,-2.32,0
4-9-2017 18:00,31.88,-0.02432166773406408,3.18,9.46,-3.1,0
4-9-2017 19:00,33.58,1.6368953441369456,1.79,8.06,-4.49,0
4-9-2017 20:00,33.45,1.355826827535843,2.08,8.35,-4.19,0
4-9-2017 21:00,34.43,3.078348467456344,0.51,6.78,-5.75,0
4-9-2017 22:00,33.77,2.443191465153795,2.43,8.69,-3.84,0
4-9-2017 23:00,32.03,-0.8657748139957917,2.81,9.08,-3.46,0
5-9-2017 0:00,31.88,-2.42461590282948,-2.41,3.86,-8.69,0
5-9-2017 1:00,32.0,-1.4186005225637857,-1.18,5.09,-7.45,0
5-9-2017 2:00,32.0,-1.5980912722555658,-1.55,4.71,-7.82,0
5-9-2017 3:00,32.0,-0.8884161015714014,-1.3,4.96,-7.56,0
5-9-2017 4:00,32.0,-0.7268658372493633,-1.11,5.15,-7.37,0
5-9-2017 5:00,30.75,-1.5822473000969843,-1.06,5.19,-7.32,0
5-9-2017 6:00,29.8,-2.708948458509912,-1.57,4.68,-7.82,0
5-9-2017 7:00,31.13,-1.6882464086813194,-1.85,4.4,-8.1,0
5-9-2017 8:00,32.2,0.29668478155241473,-1.21,5.03,-7.46,0
5-9-2017 9:00,29.03,-0.409868821839126,-1.07,5.17,-7.31,0
5-9-2017 10:00,28.67,0.9421753243311564,-2.73,3.51,-8.97,0
5-9-2017 11:00,32.97,5.398721104918927,-1.6,4.63,-7.84,0
5-9-2017 12:00,33.75,7.552926051374264,1.16,7.39,-5.08,0
5-9-2017 13:00,30.08,4.1768821692303,0.62,6.85,-5.61,0
5-9-2017 14:00,34.68,9.514993503602767,-0.83,5.4,-7.06,0
5-9-2017 15:00,34.32,8.84947766804342,2.75,8.98,-3.48,0
5-9-2017 16:00,28.88,3.764549986817851,2.25,8.48,-3.98,0
5-9-2017 17:00,29.2,5.599012953031693,-1.06,5.17,-7.29,0
5-9-2017 18:00,29.78,7.148979670935635,1.12,7.35,-5.11,0
5-9-2017 19:00,18.4,-3.5002625927714455,1.02,7.24,-5.21,0
5-9-2017 20:00,18.38,-2.7813203299714893,-6.53,-0.26,-12.79,0
5-9-2017 21:00,24.78,5.09691477738026,-4.73,1.53,-10.98,0
5-9-2017 22:00,18.28,-0.6512529642287284,0.57,6.82,-5.69,0
5-9-2017 23:00,8.72,-11.016738541637695,-2.52,3.74,-8.78,0
6-9-2017 0:00,10.13,-10.552052202713119,-9.68,-3.36,-16.0,0
6-9-2017 1:00,10.77,-8.41411517228364,-5.23,1.08,-11.54,0
6-9-2017 2:00,10.88,-8.100857355379173,-4.79,1.51,-11.1,0
6-9-2017 3:00,11.0,-6.626563024529714,-3.28,3.02,-9.58,0
6-9-2017 4:00,10.77,-6.247087902794993,-2.16,4.14,-8.45,0
6-9-2017 5:00,10.65,-6.022975612351605,-1.4,4.89,-7.69,0
6-9-2017 6:00,11.0,-5.99604715665332,-0.38,5.9,-6.66,0
6-9-2017 7:00,10.38,-7.108078673279044,0.53,6.81,-5.75,0
6-9-2017 8:00,12.13,-4.548124213636202,0.09,6.37,-6.18,0
6-9-2017 9:00,13.53,-1.3431923733294333,1.35,7.63,-4.92,0
6-9-2017 10:00,19.92,6.138918960374827,2.73,9.0,-3.54,1
6-9-2017 11:00,18.55,4.092111886562673,6.96,13.26,0.67,0
6-9-2017 12:00,19.9,6.170797800118976,4.27,10.56,-2.02,0
6-9-2017 13:00,19.65,4.864274432153792,5.02,11.31,-1.27,0
6-9-2017 14:00,20.88,5.446585663833272,5.09,11.38,-1.2,0
6-9-2017 15:00,19.07,1.8086956562422074,5.05,11.34,-1.23,0
6-9-2017 16:00,15.88,-2.3883262126881206,3.96,10.24,-2.32,0
6-9-2017 17:00,17.0,-0.9464860752448274,2.31,8.59,-3.96,0
6-9-2017 18:00,16.92,-1.1959760372416213,3.84,10.12,-2.43,0
6-9-2017 19:00,17.75,-1.1875869208163152,2.72,8.99,-3.55,0
6-9-2017 20:00,20.77,1.1798895682522144,3.19,9.45,-3.08,0
6-9-2017 21:00,21.5,2.56353876362072,3.23,9.5,-3.03,0
6-9-2017 22:00,21.67,2.3384416535788155,2.94,9.19,-3.32,0
6-9-2017 23:00,21.03,-0.06385194040890951,4.36,10.62,-1.9,0
7-9-2017 0:00,21.32,-1.990754173812654,0.85,7.11,-5.4,0
7-9-2017 1:00,22.0,-0.3619463766832496,1.09,7.34,-5.16,0
7-9-2017 2:00,22.0,-0.9369908766463979,0.41,6.66,-5.84,0
7-9-2017 3:00,22.0,-0.09912826909550532,-0.01,6.23,-6.25,0
7-9-2017 4:00,22.02,-0.18295412469815986,-0.33,5.9,-6.57,0
7-9-2017 5:00,21.0,-1.1150742148565733,-0.67,5.56,-6.91,0
7-9-2017 6:00,21.0,-1.790242278939882,-1.3,4.94,-7.53,0
7-9-2017 7:00,21.0,-2.670866691909641,-1.33,4.9,-7.56,0
7-9-2017 8:00,21.0,-2.1717482927474165,-1.96,4.27,-8.18,0
7-9-2017 9:00,21.9,0.9321836193482262,-2.64,3.58,-8.87,0
7-9-2017 10:00,23.45,4.011789399981861,-1.67,4.55,-7.89,0
7-9-2017 11:00,23.62,3.7290567311651692,-1.06,5.16,-7.28,0
7-9-2017 12:00,21.5,2.749650871217849,-1.33,4.89,-7.54,0
7-9-2017 13:00,21.13,1.8039513961295626,-2.93,3.28,-9.15,0
7-9-2017 14:00,21.52,1.9917659038141693,-1.55,4.66,-7.76,0
7-9-2017 15:00,20.87,-0.17719489711048908,-1.76,4.44,-7.97,0
7-9-2017 16:00,21.03,-0.5549421703383715,-1.01,5.19,-7.22,0
7-9-2017 17:00,22.52,1.869869604116161,0.03,6.23,-6.16,0
7-9-2017 18:00,23.4,3.24651742800042,1.6,7.8,-4.59,0
7-9-2017 19:00,22.33,1.6082346633523024,1.63,7.82,-4.56,0
7-9-2017 20:00,21.62,0.6599421174836095,0.99,7.18,-5.2,0
7-9-2017 21:00,23.93,4.129444414138863,-0.53,5.66,-6.72,0
7-9-2017 22:00,21.93,1.9179719030204119,1.17,7.35,-5.01,0
7-9-2017 23:00,19.32,-2.0805757401897083,1.39,7.57,-4.79,0
8-9-2017 0:00,19.98,-3.5785125785654017,-1.78,4.37,-7.93,0
8-9-2017 1:00,19.6,-2.7875938227906083,-0.54,5.6,-6.69,0
8-9-2017 2:00,18.0,-4.969700447675912,-1.35,4.79,-7.5,0
8-9-2017 3:00,18.0,-3.8770293714781268,-1.88,4.26,-8.02,0
8-9-2017 4:00,18.0,-3.922874729264816,-1.36,4.78,-7.5,0
8-9-2017 5:00,18.0,-3.860111990329422,-1.21,4.93,-7.34,0
8-9-2017 6:00,18.0,-4.656261364498707,-0.68,5.45,-6.81,0
8-9-2017 7:00,19.15,-4.544352444169391,-0.61,5.52,-6.74,0
8-9-2017 8:00,19.63,-3.6449438758446675,-0.21,5.91,-6.33,0
8-9-2017 9:00,20.53,-0.4016292361980085,-0.66,5.46,-6.78,0
8-9-2017 10:00,20.23,1.0058551534921563,0.16,6.27,-5.96,0
8-9-2017 11:00,19.23,-0.48241894820191433,-0.45,5.67,-6.56,0
8-9-2017 12:00,20.43,2.010467580474291,-0.99,5.12,-7.1,0
8-9-2017 13:00,25.78,7.025625902571328,-0.13,5.98,-6.24,0
8-9-2017 14:00,25.72,6.968977590569487,3.75,9.86,-2.37,0
8-9-2017 15:00,26.82,6.618979900619657,1.94,8.05,-4.17,0
8-9-2017 16:00,28.33,7.820541127402642,3.4,9.52,-2.71,0
8-9-2017 17:00,28.08,9.194437853489251,4.13,10.25,-1.98,0
8-9-2017 18:00,28.33,10.683336777875414,3.59,9.7,-2.52,0
8-9-2017 19:00,22.95,5.064495446774721,2.99,9.09,-3.12,0
8-9-2017 20:00,23.13,5.496547180589641,-0.6,5.51,-6.71,0
8-9-2017 21:00,27.75,12.235445176816345,-0.81,5.29,-6.92,0
8-9-2017 22:00,28.0,12.911139862906037,1.5,7.6,-4.61,0
8-9-2017 23:00,27.72,12.069880768758223,2.55,8.65,-3.55,0
9-9-2017 0:00,6.38,-10.915548076304727,0.51,6.61,-5.59,0
9-9-2017 1:00,0.0,-14.986559149386846,-12.17,-5.95,-18.38,0
9-9-2017 2:00,0.0,-14.659768686696605,-11.51,-5.28,-17.73,0
9-9-2017 3:00,0.0,-12.396329929354227,-9.55,-3.33,-15.78,0
9-9-2017 4:00,0.0,-11.468235576827254,-8.01,-1.79,-14.23,0
9-9-2017 5:00,0.0,-10.346607904033526,-6.49,-0.27,-12.71,0
9-9-2017 6:00,3.03,-7.149756483524275,-4.74,1.47,-10.95,0
9-9-2017 7:00,6.0,-4.291332125131365,-1.68,4.53,-7.88,0
9-9-2017 8:00,5.42,-3.4476512828796197,0.06,6.26,-6.14,0
9-9-2017 9:00,5.65,-0.19133070257807816,-0.6,5.59,-6.8,0
9-9-2017 10:00,5.62,2.2076555092724925,0.53,6.72,-5.65,0
9-9-2017 11:00,6.8,3.4074631878049146,0.79,6.98,-5.39,0
9-9-2017 12:00,6.08,4.676265318208521,2.02,8.2,-4.16,0
9-9-2017 13:00,6.0,3.8312122126761032,1.52,7.7,-4.65,0
9-9-2017 14:00,5.0,2.369031856173045,2.34,8.52,-3.83,0
9-9-2017 15:00,5.0,0.3169280523832638,1.48,7.65,-4.69,0
9-9-2017 16:00,5.88,0.4467285543623447,2.64,8.81,-3.53,0
9-9-2017 17:00,6.43,1.8969231207714197,3.67,9.84,-2.5,0
9-9-2017 18:00,5.83,1.8652860343498592,4.27,10.44,-1.9,0
9-9-2017 19:00,5.2,-0.08690097451303114,3.36,9.53,-2.8,0
9-9-2017 20:00,5.98,0.022707927675884143,3.61,9.77,-2.55,0
9-9-2017 21:00,3.5,-1.0808409788772577,2.7,8.86,-3.46,0
9-9-2017 22:00,4.13,-1.089821697930713,0.15,6.3,-6.01,0
9-9-2017 23:00,5.0,-1.6556348453675147,2.92,9.07,-3.24,0
10-9-2017 0:00,5.0,-4.490398299469012,1.54,7.7,-4.61,0
10-9-2017 1:00,5.38,-2.6783202200199256,3.27,9.43,-2.89,0
10-9-2017 2:00,6.0,-2.837613688366023,2.64,8.8,-3.51,0
10-9-2017 3:00,6.0,-1.418388268490932,2.56,8.71,-3.59,0
10-9-2017 4:00,6.0,-1.531335224262179,1.88,8.03,-4.27,0
10-9-2017 5:00,6.0,-1.3308916578987224,1.35,7.5,-4.79,0
10-9-2017 6:00,6.48,-1.7010884829995332,1.14,7.28,-5.0,0
10-9-2017 7:00,8.0,-1.3461977268316305,0.66,6.8,-5.47,0
10-9-2017 8:00,6.87,-2.0282936509414693,0.5,6.63,-5.64,0
10-9-2017 9:00,7.0,0.6992713118437246,-1.25,4.88,-7.38,0
10-9-2017 10:00,8.2,3.937997787683468,-0.99,5.14,-7.12,0
10-9-2017 11:00,9.03,4.184125688271151,-0.6,5.53,-6.72,0
10-9-2017 12:00,7.37,4.097081862230926,-0.55,5.57,-6.67,0
10-9-2017 13:00,7.0,2.7492094460351435,-1.87,4.25,-7.99,0
10-9-2017 14:00,7.0,2.038889161996959,-1.42,4.7,-7.53,0
10-9-2017 15:00,7.15,-0.24792863866667858,-1.67,4.45,-7.78,0
10-9-2017 16:00,7.0,-1.3724967445254137,-0.84,5.27,-6.95,0
10-9-2017 17:00,7.0,-0.3867588461567433,-0.54,5.57,-6.65,0
10-9-2017 18:00,7.0,0.3203135482511055,-0.02,6.09,-6.13,0
10-9-2017 19:00,8.78,0.5040263532631464,-0.15,5.96,-6.25,0
10-9-2017 20:00,9.0,-0.05956208453680922,1.66,7.76,-4.45,0
10-9-2017 21:00,9.0,1.4982689909502742,0.22,6.32,-5.88,0
10-9-2017 22:00,9.0,0.7184397515737402,-0.09,6.01,-6.18,0
10-9-2017 23:00,9.22,-0.4481005643319822,1.58,7.68,-4.51,0
11-9-2017 0:00,10.0,-2.768371742651957,0.39,6.48,-5.71,0
11-9-2017 1:00,10.0,-1.1609236097197009,2.69,8.78,-3.41,0
11-9-2017 2:00,10.0,-1.9940201081501732,1.89,7.98,-4.2,0
11-9-2017 3:00,10.0,-0.36672712479040825,1.63,7.72,-4.46,0
11-9-2017 4:00,10.0,-0.46843448790791165,1.24,7.33,-4.84,0
11-9-2017 5:00,10.0,-0.17507846518246595,0.85,6.93,-5.23,0
11-9-2017 6:00,10.0,-1.0282269731010807,0.76,6.84,-5.32,0
11-9-2017 7:00,10.0,-2.232773256365925,0.04,6.12,-6.03,0
11-9-2017 8:00,10.0,-1.7465493840450872,-0.96,5.11,-7.03,0
11-9-2017 9:00,10.0,1.0584705861527333,-1.46,4.61,-7.53,0
11-9-2017 10:00,9.72,3.0631479509106256,-1.57,4.49,-7.64,0
11-9-2017 11:00,8.08,0.8718066984825459,-2.01,4.06,-8.07,0
11-9-2017 12:00,6.85,1.4351275409274624,-3.12,2.94,-9.19,0
11-9-2017 13:00,7.0,0.4992868704621234,-3.23,2.84,-9.29,0
11-9-2017 14:00,7.32,-0.03432228471738341,-2.4,3.66,-8.46,0
11-9-2017 15:00,9.35,-0.7210030258610711,-2.27,3.79,-8.33,0
11-9-2017 16:00,8.95,-2.215089542522719,-0.23,5.83,-6.28,0
11-9-2017 17:00,9.17,-1.0588748232137402,-0.35,5.7,-6.4,0
11-9-2017 18:00,10.0,0.481840541004237,0.51,6.56,-5.54,0
11-9-2017 19:00,9.07,-2.453618816433174,0.87,6.91,-5.18,0
11-9-2017 20:00,11.05,-1.5054765705463886,0.66,6.7,-5.38,0
11-9-2017 21:00,13.65,2.557289672861579,1.11,7.15,-4.93,0
11-9-2017 22:00,14.93,2.6401518957304084,1.87,7.9,-4.17,0
11-9-2017 23:00,13.23,-0.67357560607579,3.72,9.76,-2.32,0
12-9-2017 0:00,14.88,-2.6658145260458017,1.09,7.13,-4.94,0
12-9-2017 1:00,16.0,-0.19730083783865382,3.88,9.93,-2.16,0
12-9-2017 2:00,16.0,-1.5185048645617734,3.36,9.4,-2.68,0
12-9-2017 3:00,16.0,-0.11744881592560574,2.7,8.74,-3.34,0
12-9-2017 4:00,16.0,-0.6422528130089518,2.09,8.13,-3.94,0
12-9-2017 5:00,16.0,-0.6488913186547229,1.45,7.48,-4.58,0
12-9-2017 6:00,15.18,-2.717898494124345,1.11,7.14,-4.91,0
12-9-2017 7:00,15.68,-3.85481802774102,-0.27,5.76,-6.29,0
12-9-2017 8:00,16.0,-3.4032105699085893,-0.87,5.16,-6.89,0
12-9-2017 9:00,15.78,-0.6835085345620122,-1.42,4.6,-7.44,0
12-9-2017 10:00,15.52,1.5143320691302655,-1.82,4.2,-7.84,0
12-9-2017 11:00,16.67,2.0727340137026538,-2.24,3.78,-8.25,0
12-9-2017 12:00,18.17,5.513631874648951,-1.59,4.42,-7.6,0
12-9-2017 13:00,19.43,5.976710415277868,-0.74,5.27,-6.75,0
12-9-2017 14:00,20.0,5.946699854320851,-0.1,5.91,-6.1,0
12-9-2017 15:00,20.67,4.01704363806093,-0.42,5.58,-6.43,0
12-9-2017 16:00,21.73,4.260346929152771,0.07,6.07,-5.93,0
12-9-2017 17:00,22.0,6.116109149836721,0.85,6.85,-5.14,0
12-9-2017 18:00,21.82,7.349538164299489,0.96,6.96,-5.03,0
12-9-2017 19:00,17.65,1.464010934928556,0.41,6.4,-5.58,0
12-9-2017 20:00,18.07,1.3029881550180136,-1.83,4.17,-7.82,0
12-9-2017 21:00,18.25,3.630955988764013,-1.83,4.16,-7.82,0
12-9-2017 22:00,19.62,4.166825631050905,-2.32,3.67,-8.3,0
12-9-2017 23:00,22.15,5.63622690051692,0.25,6.23,-5.74,0
13-9-2017 0:00,10.32,-9.597099009089355,0.89,6.87,-5.1,0
13-9-2017 1:00,7.0,-11.062811430192607,-5.47,0.53,-11.48,0
13-9-2017 2:00,7.83,-11.29445295281936,-5.0,1.01,-11.0,0
13-9-2017 3:00,8.37,-8.817276600484472,-3.62,2.38,-9.62,0
13-9-2017 4:00,10.0,-7.3877287423564155,-2.72,3.27,-8.72,0
13-9-2017 5:00,10.0,-7.195016647863394,-1.21,4.78,-7.2,0
13-9-2017 6:00,10.0,-8.344323883266654,-0.86,5.13,-6.84,0
13-9-2017 7:00,10.0,-9.91871296047972,-0.7,5.29,-6.68,0
13-9-2017 8:00,10.0,-9.650589743109364,-1.07,4.91,-7.05,0
13-9-2017 9:00,10.05,-6.727335388088855,-1.03,4.95,-7.01,0
13-9-2017 10:00,18.22,3.8732353333054697,-0.69,5.29,-6.67,0
13-9-2017 11:00,24.33,9.154040439052082,4.5,10.49,-1.49,0
13-9-2017 12:00,23.97,10.687643911667838,6.35,12.34,0.35,0
13-9-2017 13:00,25.88,11.019133190024686,4.81,10.8,-1.18,0
13-9-2017 14:00,26.22,9.940423578640612,5.58,11.57,-0.42,0
13-9-2017 15:00,26.3,6.465843920380745,4.17,10.17,-1.82,0
13-9-2017 16:00,25.43,3.9763595877370754,3.66,9.65,-2.33,0
13-9-2017 17:00,25.73,5.151473936890081,2.62,8.6,-3.36,0
13-9-2017 18:00,25.6,5.782684691940396,2.64,8.62,-3.34,0
13-9-2017 19:00,20.65,-1.9487008309981206,1.63,7.61,-4.34,0
13-9-2017 20:00,20.33,-3.7539811637472695,-1.18,4.79,-7.16,0
13-9-2017 21:00,15.78,-6.329594963707397,-1.91,4.06,-7.88,0
13-9-2017 22:00,20.93,-2.5819438045074996,-5.55,0.43,-11.54,0
13-9-2017 23:00,25.5,0.5698691985610367,0.07,6.05,-5.92,0
14-9-2017 0:00,26.02,-2.9684017546297774,0.92,6.91,-5.06,0
14-9-2017 1:00,25.47,-1.4991655069688221,2.66,8.65,-3.33,0
14-9-2017 2:00,25.0,-3.1120697474245986,1.46,7.45,-4.52,0
14-9-2017 3:00,25.0,-0.9795983133163801,0.68,6.66,-5.3,0
14-9-2017 4:00,25.07,-1.126557778128852,0.28,6.26,-5.7,0
14-9-2017 5:00,26.25,0.5799709408944622,-0.22,5.76,-6.19,0
14-9-2017 6:00,26.0,-0.585170330050925,0.45,6.42,-5.53,0
14-9-2017 7:00,26.77,-1.1925911220546332,-0.49,5.49,-6.46,0
14-9-2017 8:00,26.47,-0.9535143163405984,-0.76,5.21,-6.72,0
14-9-2017 9:00,25.0,1.457063504545438,-1.57,4.39,-7.54,0
14-9-2017 10:00,24.98,4.914120538052568,-2.47,3.49,-8.44,0
14-9-2017 11:00,25.0,4.941084999384152,-2.91,3.05,-8.88,0
14-9-2017 12:00,24.97,7.831150278080113,-3.18,2.78,-9.15,0
14-9-2017 13:00,26.22,8.825791643162791,-2.59,3.37,-8.55,0
14-9-2017 14:00,25.98,8.453124330349564,-1.59,4.37,-7.55,0
14-9-2017 15:00,25.62,5.688362579087649,-2.02,3.94,-7.97,0
14-9-2017 16:00,26.2,5.95085100618115,-1.7,4.25,-7.65,0
14-9-2017 17:00,26.08,8.220478047891955,-0.63,5.32,-6.58,0
14-9-2017 18:00,23.1,7.574631107618558,-0.36,5.59,-6.3,0
14-9-2017 19:00,24.58,7.432570534672269,-2.11,3.84,-8.06,0
14-9-2017 20:00,12.15,-5.1617841073556665,0.79,6.73,-5.16,0
14-9-2017 21:00,6.7,-7.346155414462361,-8.25,-2.26,-14.24,0
14-9-2017 22:00,8.55,-6.001879483658794,-8.43,-2.44,-14.43,0
14-9-2017 23:00,7.1,-7.762811492297076,-4.78,1.21,-10.76,0
15-9-2017 0:00,7.0,-11.11118423438176,-5.7,0.29,-11.69,0
15-9-2017 1:00,7.0,-8.273814907583349,-1.9,4.08,-7.89,0
15-9-2017 2:00,7.5,-8.344797455494902,-1.14,4.84,-7.12,0
15-9-2017 3:00,8.0,-4.863846529240106,0.0,5.98,-5.97,0
15-9-2017 4:00,7.98,-4.464127792712246,0.87,6.84,-5.1,0
15-9-2017 5:00,7.98,-3.7369064638187917,1.16,7.13,-4.81,0
15-9-2017 6:00,8.0,-4.531005784966467,1.72,7.69,-4.25,0
15-9-2017 7:00,8.0,-5.844582821721036,1.87,7.83,-4.1,0
15-9-2017 8:00,8.0,-5.167676957623545,1.47,7.43,-4.5,0
15-9-2017 9:00,8.17,-1.44213584391413,1.44,7.4,-4.52,0
15-9-2017 10:00,9.13,2.709047450694136,1.76,7.72,-4.2,0
15-9-2017 11:00,9.38,2.4698112165990267,1.66,7.61,-4.3,0
15-9-2017 12:00,12.05,7.753978250363529,1.25,7.2,-4.7,0
15-9-2017 13:00,13.8,8.470268079420197,3.26,9.21,-2.69,0
15-9-2017 14:00,11.07,4.792139442425981,3.43,9.38,-2.52,0
15-9-2017 15:00,12.02,2.385691975410179,0.96,6.9,-4.99,0
15-9-2017 16:00,12.0,1.2486495394890156,2.09,8.04,-3.86,0
15-9-2017 17:00,10.53,1.6342374221741807,1.86,7.8,-4.08,0
15-9-2017 18:00,14.02,6.982780934993631,1.1,7.04,-4.84,0
15-9-2017 19:00,14.53,4.981493460456136,3.51,9.45,-2.44,0
15-9-2017 20:00,13.45,3.00951265756596,3.55,9.48,-2.39,0
15-9-2017 21:00,13.4,5.908070303540663,2.48,8.42,-3.45,0
15-9-2017 22:00,13.02,4.310657466175863,2.05,7.99,-3.88,0
15-9-2017 23:00,13.18,3.6586669060587322,1.63,7.56,-4.3,0
16-9-2017 0:00,14.0,0.43187883530814375,0.84,6.77,-5.09,0
16-9-2017 1:00,1.67,-9.280828576064147,2.86,8.79,-3.07,0
16-9-2017 2:00,0.0,-11.98809924873963,-5.65,0.31,-11.61,0
16-9-2017 3:00,0.0,-9.196878647646411,-4.16,1.79,-10.12,0
16-9-2017 4:00,0.0,-9.178691527086375,-3.91,2.04,-9.87,0
16-9-2017 5:00,3.37,-5.107776749551762,-3.42,2.54,-9.37,0
16-9-2017 6:00,3.87,-5.547833282130706,-0.66,5.29,-6.61,0
16-9-2017 7:00,3.07,-7.824565724865115,-0.81,5.13,-6.76,0
16-9-2017 8:00,3.03,-7.276829963613148,-1.61,4.34,-7.55,0
16-9-2017 9:00,6.53,-0.01820864722815596,-1.42,4.52,-7.36,0
16-9-2017 10:00,10.82,7.705217818333437,1.11,7.05,-4.83,0
16-9-2017 11:00,9.28,5.707897798663824,2.49,8.43,-3.45,0
16-9-2017 12:00,8.02,7.28428349734906,0.32,6.25,-5.62,0
16-9-2017 13:00,5.35,3.1392177008769107,-0.01,5.93,-5.94,0
16-9-2017 14:00,7.5,3.8626236501988895,-1.76,4.17,-7.7,0
16-9-2017 15:00,9.47,1.8614863779263935,0.36,6.3,-5.57,0
16-9-2017 16:00,9.82,0.6319089894877532,1.23,7.16,-4.7,0
16-9-2017 17:00,8.73,0.8656333506012075,1.53,7.46,-4.4,0
16-9-2017 18:00,8.2,1.7207429539674326,1.13,7.05,-4.8,0
16-9-2017 19:00,10.28,0.40240421529265546,0.75,6.68,-5.17,0
16-9-2017 20:00,10.57,-0.925027111005825,2.83,8.75,-3.1,0
16-9-2017 21:00,6.77,-2.072603239568373,2.49,8.42,-3.43,0
16-9-2017 22:00,5.4,-5.350767572720182,-0.29,5.63,-6.21,0
16-9-2017 23:00,12.22,0.1771205880651916,-0.24,5.68,-6.16,0
17-9-2017 0:00,12.0,-4.867145538969951,3.62,9.55,-2.3,0
17-9-2017 1:00,14.12,-0.40902921358047806,3.46,9.38,-2.46,0
17-9-2017 2:00,15.0,-1.0916875360874307,5.38,11.31,-0.55,0
17-9-2017 3:00,16.02,2.470703214776675,4.3,10.23,-1.62,0
17-9-2017 4:00,14.05,0.05825919430135329,3.92,9.84,-2.0,0
17-9-2017 5:00,13.0,-0.5636995666145257,1.41,7.33,-4.51,0
17-9-2017 6:00,13.0,-1.8762802977163844,0.25,6.17,-5.66,0
17-9-2017 7:00,14.25,-2.5127351335222805,-0.28,5.63,-6.2,0
17-9-2017 8:00,15.72,-0.790736462207482,-0.41,5.5,-6.32,0
17-9-2017 9:00,15.22,2.6321519582352675,-0.33,5.58,-6.24,0
17-9-2017 10:00,10.07,1.1190084961323716,-1.49,4.41,-7.4,0
17-9-2017 11:00,11.12,1.7047915922704409,-5.77,0.15,-11.69,0
17-9-2017 12:00,13.3,6.904582857258596,-4.08,1.84,-9.99,0
17-9-2017 13:00,14.02,6.489056275292986,-2.6,3.31,-8.52,0
17-9-2017 14:00,13.73,5.074891650966521,-2.31,3.6,-8.22,0
17-9-2017 15:00,12.0,-0.4600405865273096,-2.58,3.33,-8.49,0
17-9-2017 16:00,12.0,-1.7212580874480672,-3.48,2.42,-9.39,0
17-9-2017 17:00,13.47,1.6250264941489352,-2.46,3.45,-8.36,0
17-9-2017 18:00,14.1,4.251125930117201,-0.71,5.19,-6.61,0
17-9-2017 19:00,12.63,-0.4198403306396017,-0.43,5.47,-6.32,0
17-9-2017 20:00,12.0,-2.3082984382911302,-0.65,5.24,-6.55,0
17-9-2017 21:00,12.0,0.8108162596422233,-0.3,5.6,-6.19,0
17-9-2017 22:00,12.0,-1.0252749682634423,0.13,6.02,-5.75,0
17-9-2017 23:00,12.05,-1.984683485542412,0.61,6.49,-5.28,0
18-9-2017 0:00,12.53,-6.343603067828953,-0.17,5.72,-6.05,0
18-9-2017 1:00,13.0,-3.2680200221721076,1.99,7.88,-3.89,0
18-9-2017 2:00,13.0,-4.809423011004917,2.71,8.6,-3.17,0
18-9-2017 3:00,13.0,-1.9692191268643189,2.16,8.04,-3.72,0
18-9-2017 4:00,13.0,-2.3256513048693925,1.79,7.67,-4.1,0
18-9-2017 5:00,13.0,-1.862785716158104,1.53,7.41,-4.35,0
18-9-2017 6:00,13.0,-3.2401927577052216,1.1,6.97,-4.78,0
18-9-2017 7:00,13.0,-5.228672098504951,0.69,6.57,-5.18,0
18-9-2017 8:00,13.5,-4.504712629049671,-0.1,5.77,-5.97,0
18-9-2017 9:00,14.97,0.8104566237694364,-0.3,5.57,-6.17,0
18-9-2017 10:00,14.48,3.9187569623206553,0.19,6.05,-5.68,0
18-9-2017 11:00,14.55,3.275656902585002,-1.07,4.8,-6.93,0
18-9-2017 12:00,16.85,8.536867462194675,-1.33,4.53,-7.19,0
18-9-2017 13:00,17.62,7.659599656501737,0.09,5.95,-5.77,0
18-9-2017 14:00,17.98,6.346584020292955,-0.06,5.8,-5.92,0
18-9-2017 15:00,15.0,-1.123423620656082,-0.19,5.67,-6.04,0
18-9-2017 16:00,15.58,-2.3375565608298974,-2.24,3.61,-8.1,0
18-9-2017 17:00,0.32,-16.09519620677503,-0.91,4.95,-6.76,0
18-9-2017 18:00,18.67,3.9354086137695994,-10.26,-4.35,-16.16,1
18-9-2017 19:00,20.28,1.6153521225644312,4.8,10.76,-1.16,0
18-9-2017 20:00,21.13,0.639404525193509,2.78,8.74,-3.17,0
18-9-2017 21:00,18.87,1.3359107640318122,3.6,9.56,-2.35,0
18-9-2017 22:00,21.28,1.3526400123610003,1.67,7.63,-4.28,0
18-9-2017 23:00,22.42,1.136682188006393,3.51,9.47,-2.45,0
19-9-2017 0:00,23.45,-3.316143478542841,2.5,8.45,-3.45,0
19-9-2017 1:00,22.98,-1.450285530510179,3.98,9.94,-1.97,0
19-9-2017 2:00,24.28,-2.207625003560402,3.48,9.43,-2.47,0
19-9-2017 3:00,21.97,-1.9167998040348593,3.41,9.36,-2.54,0
19-9-2017 4:00,22.23,-2.4643486983059155,0.88,6.83,-5.07,0
19-9-2017 5:00,22.93,-1.650853214807011,0.92,6.86,-5.03,0
19-9-2017 6:00,25.42,-0.9872810216389389,0.6,6.55,-5.34,0
19-9-2017 7:00,24.43,-4.4519477492754405,1.43,7.37,-4.51,0
19-9-2017 8:00,23.72,-5.350190363522618,-0.63,5.31,-6.56,0
19-9-2017 9:00,23.7,-1.5665740414846887,-1.63,4.31,-7.56,0
19-9-2017 10:00,25.35,3.679323854376012,-2.09,3.84,-8.03,0
19-9-2017 11:00,26.08,3.4834943954220137,-1.6,4.33,-7.53,0
19-9-2017 12:00,23.03,3.3722780063085764,-1.92,4.01,-7.85,0
19-9-2017 13:00,23.98,2.3802638341521956,-4.08,1.86,-10.01,0
19-9-2017 14:00,27.72,4.115392043324988,-2.9,3.03,-8.83,0
19-9-2017 15:00,30.35,1.7873038561846428,-0.79,5.14,-6.72,0
19-9-2017 16:00,30.4,-0.27282950035388254,0.48,6.41,-5.44,0
19-9-2017 17:00,32.17,2.8384264702729816,0.14,6.06,-5.78,0
19-9-2017 18:00,33.33,5.5763565195080815,2.6,8.53,-3.32,0
19-9-2017 19:00,30.88,-1.3200747526786465,0.83,6.75,-5.09,0
19-9-2017 20:00,28.5,-5.880796390302148,-0.31,5.61,-6.23,0
19-9-2017 21:00,30.53,-0.7430657236370237,-1.31,4.61,-7.22,0
19-9-2017 22:00,30.65,-3.259810795042469,0.57,6.48,-5.35,0
19-9-2017 23:00,31.4,-3.8986127224421843,0.19,6.1,-5.72,0
20-9-2017 0:00,38.6,-2.546612169152816,-0.11,5.8,-6.02,1
20-9-2017 1:00,40.72,1.9508760695834226,5.36,11.28,-0.57,0
20-9-2017 2:00,42.3,1.256199401955321,5.41,11.34,-0.52,0
20-9-2017 3:00,41.57,3.201543538556173,4.91,10.84,-1.02,0
20-9-2017 4:00,42.28,2.957427037045804,3.25,9.17,-2.67,0
20-9-2017 5:00,42.28,2.3600322179688575,2.84,8.76,-3.08,0
20-9-2017 6:00,42.95,0.38834171783705784,1.6,7.52,-4.31,0
20-9-2017 7:00,40.82,-5.066199828519558,0.93,6.85,-4.98,0
20-9-2017 8:00,37.15,-9.688447553151512,-1.56,4.35,-7.47,0
20-9-2017 9:00,34.95,-9.907638893471017,-4.26,1.66,-10.17,0
20-9-2017 10:00,29.12,-13.92664905005924,-5.41,0.5,-11.33,0
20-9-2017 11:00,32.85,-13.13968448564134,-8.99,-3.05,-14.92,0
20-9-2017 12:00,34.83,-10.03142570861332,-5.33,0.6,-11.27,0
20-9-2017 13:00,29.37,-20.678190460958106,-4.07,1.86,-10.0,0
20-9-2017 14:00,39.37,-15.958853240462503,-7.41,-1.47,-13.35,0
20-9-2017 15:00,44.65,-19.06783107393955,0.2,6.15,-5.74,0
20-9-2017 16:00,62.98,-6.11540967688893,2.06,8.0,-3.89,1
20-9-2017 17:00,66.7,-4.829867350602186,12.91,18.93,6.89,0
20-9-2017 18:00,67.82,-5.8450914174555635,12.27,18.3,6.24,0
20-9-2017 19:00,62.2,-20.061749669369583,9.02,15.04,3.0,0
20-9-2017 20:00,78.67,-9.744459489913453,4.46,10.47,-1.56,1
20-9-2017 21:00,88.03,-0.7879775093376793,14.75,20.85,8.64,1
20-9-2017 22:00,94.22,-1.1621959915372173,15.67,21.8,9.55,1
20-9-2017 23:00,111.52,11.045254995651817,15.6,21.73,9.47,1
21-9-2017 0:00,133.03,22.67219387509917,22.04,28.25,15.83,1
21-9-2017 1:00,138.68,28.525129353222127,30.15,36.47,23.82,0
21-9-2017 2:00,141.32,26.456932439699244,25.53,31.84,19.22,0
21-9-2017 3:00,141.58,27.250612462058584,20.15,26.43,13.87,0
21-9-2017 4:00,144.98,27.333815976302347,14.06,20.31,7.82,0
21-9-2017 5:00,133.05,15.031726256647573,10.67,16.9,4.44,0
21-9-2017 6:00,143.02,22.48096846521389,-3.19,3.05,-9.43,0
21-9-2017 7:00,139.77,15.992779978493047,1.47,7.71,-4.77,0
21-9-2017 8:00,141.52,16.962755021832194,-6.15,0.1,-12.4,0
21-9-2017 9:00,132.8,13.479935778287157,-7.33,-1.08,-13.58,0
21-9-2017 10:00,123.25,9.035184750469696,-15.89,-9.59,-22.2,0
21-9-2017 11:00,115.63,1.5341105194792135,-22.33,-15.97,-28.7,0
21-9-2017 12:00,119.48,9.78101164386841,-27.18,-20.74,-33.61,0
21-9-2017 13:00,115.63,5.610393467589958,-22.29,-15.87,-28.71,0
21-9-2017 14:00,93.33,-17.135163144336815,-24.12,-17.67,-30.56,0
21-9-2017 15:00,107.82,-6.354133467895835,-38.83,-32.18,-45.48,1
21-9-2017 16:00,106.08,-8.628329772450968,-21.11,-14.52,-27.69,0
21-9-2017 17:00,102.87,-8.832231244183518,-22.71,-16.11,-29.31,0
21-9-2017 18:00,107.28,-1.0543395808045375,-19.6,-13.02,-26.17,0
21-9-2017 19:00,104.33,-7.535015881453731,-14.27,-7.73,-20.82,0
21-9-2017 20:00,96.45,-16.323504953925763,-12.16,-5.63,-18.68,0
21-9-2017 21:00,85.58,-22.33133970155258,-14.55,-8.03,-21.08,0
21-9-2017 22:00,78.37,-31.256134006391505,-17.46,-10.93,-23.99,0
21-9-2017 23:00,91.63,-18.01553251645899,-16.87,-10.35,-23.39,1
22-9-2017 0:00,119.17,4.383242277301079,-4.38,2.13,-10.89,1
22-9-2017 1:00,122.58,12.099399301507844,14.75,21.38,8.13,0
22-9-2017 2:00,124.58,13.235456448787374,14.44,21.07,7.81,0
22-9-2017 3:00,125.88,19.20524666360224,15.15,21.79,8.52,0
22-9-2017 4:00,125.73,19.653540792719795,15.36,22.0,8.71,0
22-9-2017 5:00,123.9,19.624966076792333,13.74,20.38,7.1,0
22-9-2017 6:00,125.1,20.373350898361977,12.13,18.77,5.49,0
22-9-2017 7:00,122.82,16.88972492390144,10.57,17.2,3.94,0
22-9-2017 8:00,121.02,16.43013218783622,7.67,14.29,1.04,0
22-9-2017 9:00,107.83,8.712884940510136,5.16,11.77,-1.46,0
22-9-2017 10:00,94.43,0.6915929897705126,-4.29,2.34,-10.92,0
22-9-2017 11:00,81.43,-12.148320088321341,-11.03,-4.38,-17.68,0
22-9-2017 12:00,65.33,-23.60357666826397,-17.55,-10.86,-24.24,0
22-9-2017 13:00,76.2,-14.227592731203586,-25.34,-18.57,-32.1,1
22-9-2017 14:00,80.52,-11.557587638280324,-11.01,-4.25,-17.76,0
22-9-2017 15:00,75.72,-21.426094914648786,-7.02,-0.27,-13.76,0
22-9-2017 16:00,74.33,-24.546453383537212,-10.76,-4.0,-17.51,0
22-9-2017 17:00,75.73,-21.35282238073549,-9.2,-2.45,-15.96,0
22-9-2017 18:00,79.4,-15.464838714570561,-4.14,2.6,-10.89,0
22-9-2017 19:00,77.22,-22.76255679140131,-1.78,4.96,-8.53,0
22-9-2017 20:00,72.02,-30.27984884324796,-0.45,6.29,-7.19,0
22-9-2017 21:00,90.78,-7.613442070253583,-2.37,4.37,-9.11,1
22-9-2017 22:00,104.33,2.84974605109187,13.58,20.4,6.75,1
22-9-2017 23:00,113.42,10.772056292591685,20.2,27.07,13.33,0
23-9-2017 0:00,131.82,22.55122524948824,20.72,27.62,13.83,1
23-9-2017 1:00,130.67,24.712709821569817,28.12,35.07,21.17,0
23-9-2017 2:00,135.85,27.77512703144268,21.89,28.82,14.96,0
23-9-2017 3:00,128.88,24.51313344050409,22.39,29.33,15.45,0
23-9-2017 4:00,131.85,26.898624186286398,13.1,20.01,6.18,0
23-9-2017 5:00,137.97,34.355908202820444,13.32,20.23,6.4,0
23-9-2017 6:00,129.98,25.34577936612753,15.16,22.08,8.24,0
23-9-2017 7:00,137.85,31.40905963266148,3.71,10.62,-3.19,0
23-9-2017 8:00,133.12,27.502242845926105,8.76,15.67,1.84,0
23-9-2017 9:00,80.4,-19.078656331791592,1.01,7.92,-5.9,0
23-9-2017 10:00,30.42,-62.97571313206396,-35.77,-28.4,-43.15,0
23-9-2017 11:00,91.12,-1.643688983867719,-61.67,-53.91,-69.42,1
23-9-2017 12:00,51.88,-35.56032719475268,3.15,11.21,-4.91,0
23-9-2017 13:00,78.4,-9.91308884722082,-33.16,-24.7,-41.63,1
23-9-2017 14:00,86.1,-3.272869752314847,-11.26,-2.78,-19.74,0
23-9-2017 15:00,83.18,-10.826261684360134,-3.92,4.55,-12.39,0
23-9-2017 16:00,87.3,-7.8381300204492135,-5.94,2.53,-14.42,0
23-9-2017 17:00,85.47,-7.858270723344091,-2.43,6.03,-10.9,0
23-9-2017 18:00,84.77,-6.261499234624097,-1.04,7.42,-9.5,0
23-9-2017 19:00,78.03,-18.477563267867296,-1.59,6.86,-10.04,0
23-9-2017 20:00,89.02,-9.984962479319435,-2.69,5.75,-11.14,1
23-9-2017 21:00,49.35,-46.8527578793612,6.15,14.61,-2.32,0
23-9-2017 22:00,41.23,-59.580031025488694,-16.68,-8.02,-25.34,0
23-9-2017 23:00,123.5,20.225544273921045,-17.61,-8.95,-26.27,1
24-9-2017 0:00,148.33,36.80666370029678,31.77,41.16,22.37,1
24-9-2017 1:00,133.58,23.606459470738045,32.86,42.31,23.42,0
24-9-2017 2:00,126.0,11.888220393689096,22.17,31.59,12.75,0
24-9-2017 3:00,124.83,12.697426647481919,15.63,25.03,6.24,0
24-9-2017 4:00,112.2,-2.46690233958617,13.59,22.98,4.2,0
24-9-2017 5:00,121.87,6.315969920592337,2.76,12.14,-6.63,0
24-9-2017 6:00,132.68,13.777056936819903,9.63,19.02,0.23,0
24-9-2017 7:00,144.58,21.506972955531282,11.53,20.92,2.14,1
24-9-2017 8:00,123.68,-0.8473383706913467,15.16,24.56,5.75,0
24-9-2017 9:00,107.15,-12.158868801834117,-2.12,7.31,-11.55,0
24-9-2017 10:00,123.97,9.861330225327322,-5.65,3.79,-15.08,1
24-9-2017 11:00,119.93,5.338312276778154,8.42,17.91,-1.06,0
24-9-2017 12:00,117.43,7.253313111917365,-3.36,6.14,-12.85,0
24-9-2017 13:00,116.22,6.846672660000351,0.04,9.53,-9.46,0
24-9-2017 14:00,114.88,6.091972546968705,-5.41,4.09,-14.9,0
24-9-2017 15:00,138.75,26.818562749326247,-6.06,3.43,-15.55,1
24-9-2017 16:00,133.17,21.760051336116177,7.03,16.56,-2.5,0
24-9-2017 17:00,125.77,20.506689547476554,-2.16,7.38,-11.69,0
24-9-2017 18:00,116.17,17.60279947870343,-3.96,5.57,-13.5,0
24-9-2017 19:00,124.22,24.13894010899962,-11.44,-1.88,-21.01,0
24-9-2017 20:00,114.87,16.431984357893853,-2.82,6.74,-12.38,0
24-9-2017 21:00,154.97,65.29945757552613,-10.7,-1.12,-20.29,1
24-9-2017 22:00,152.2,63.47119395263594,16.91,26.69,7.13,0
24-9-2017 23:00,42.9,-42.52049489933417,7.49,17.26,-2.29,0
25-9-2017 0:00,37.52,-50.70795421276906,-61.69,-50.42,-72.96,0
25-9-2017 1:00,46.2,-34.60694029427276,-40.31,-29.04,-51.57,0
25-9-2017 2:00,49.6,-29.732928708548116,-38.36,-27.08,-49.64,0
25-9-2017 3:00,51.43,-20.019615660328533,-28.85,-17.6,-40.1,0
25-9-2017 4:00,50.23,-18.070857430551634,-21.68,-10.45,-32.9,0
25-9-2017 5:00,48.2,-16.884779527660278,-16.03,-4.83,-27.23,0
25-9-2017 6:00,47.17,-17.264859259443888,-11.95,-0.77,-23.13,0
25-9-2017 7:00,46.4,-18.24069008948667,-8.12,3.04,-19.28,0
25-9-2017 8:00,38.42,-23.62487855612813,-4.6,6.55,-15.74,0
25-9-2017 9:00,34.0,-23.001491163745456,-3.3,7.82,-14.43,0
25-9-2017 10:00,26.8,-25.138487232199708,4.7,15.82,-6.42,0
25-9-2017 11:00,28.95,-23.84099820054375,5.15,16.26,-5.97,0
25-9-2017 12:00,41.98,-6.558809242429838,7.33,18.44,-3.78,1
25-9-2017 13:00,38.23,-15.161890125137987,21.47,32.67,10.27,0
25-9-2017 14:00,39.92,-18.574071077449545,13.09,24.28,1.91,1
25-9-2017 15:00,83.27,15.789939627968565,18.17,29.38,6.96,1
25-9-2017 16:00,72.67,0.03222772246225247,41.51,52.97,30.06,0
25-9-2017 17:00,56.17,-18.031020872981138,22.25,33.66,10.85,0
25-9-2017 18:00,49.5,-25.65223822030636,17.74,29.13,6.35,0
25-9-2017 19:00,78.33,-6.420541678869057,10.7,22.06,-0.67,1
25-9-2017 20:00,63.97,-27.043702722026765,29.79,41.28,18.3,0
25-9-2017 21:00,109.45,20.08767517750475,9.35,20.81,-2.1,1
25-9-2017 22:00,100.2,4.247091648943368,39.55,51.3,27.8,0
25-9-2017 23:00,122.0,22.04680921668492,17.51,29.19,5.83,1
26-9-2017 0:00,140.78,30.37944173453093,31.36,43.15,19.57,0
26-9-2017 1:00,124.47,16.3327306237328,26.65,38.41,14.89,0
26-9-2017 2:00,134.02,21.94004969488155,11.0,22.72,-0.72,0
26-9-2017 3:00,137.17,27.848526360178397,13.92,25.63,2.22,0
26-9-2017 4:00,128.87,17.351474127352148,8.46,20.14,-3.23,0
26-9-2017 5:00,136.2,24.853867298799344,-0.12,11.55,-11.8,0
26-9-2017 6:00,144.02,30.17573044484763,1.83,13.5,-9.84,0
26-9-2017 7:00,146.02,28.787282120800555,0.57,12.23,-11.09,0
26-9-2017 8:00,135.0,17.266345868490063,-2.49,9.16,-14.15,0
26-9-2017 9:00,134.27,21.919650623679246,-9.44,2.22,-21.11,0
26-9-2017 10:00,125.92,19.01044499259021,-4.72,6.94,-16.38,0
26-9-2017 11:00,82.12,-25.496573462567824,-9.67,2.0,-21.33,0
26-9-2017 12:00,54.93,-48.082210848498335,-38.06,-26.08,-50.03,0
26-9-2017 13:00,64.43,-40.345650449417334,-42.23,-30.16,-54.3,0
26-9-2017 14:00,69.33,-37.48923052842849,-32.99,-20.93,-45.05,0
26-9-2017 15:00,82.53,-30.371717607369533,-27.75,-15.71,-39.78,0
26-9-2017 16:00,89.3,-25.69260379878982,-20.21,-8.2,-32.22,0
26-9-2017 17:00,95.93,-16.87623008503003,-12.76,-0.77,-24.75,0
26-9-2017 18:00,106.22,-3.7252655949004065,-3.78,8.19,-15.76,0
26-9-2017 19:00,130.02,13.8514249511408,3.02,14.98,-8.95,1
26-9-2017 20:00,131.77,12.891496709393948,16.81,28.82,4.8,0
26-9-2017 21:00,133.53,18.214773817646858,14.88,26.9,2.85,0
26-9-2017 22:00,132.2,11.789781105836667,11.67,23.68,-0.34,0
26-9-2017 23:00,125.23,2.53881581571234,11.04,23.05,-0.97,0
27-9-2017 0:00,133.78,1.998709102108279,3.61,15.61,-8.4,0
27-9-2017 1:00,133.12,3.046737881619805,4.58,16.58,-7.42,0
27-9-2017 2:00,135.92,1.0716965845637532,4.52,16.51,-7.48,0
27-9-2017 3:00,137.52,4.913438392859831,4.47,16.46,-7.51,0
27-9-2017 4:00,138.0,2.4409113453309033,4.68,16.66,-7.31,0
27-9-2017 5:00,138.32,1.2499133926205843,4.71,16.69,-7.27,0
27-9-2017 6:00,137.0,-4.361974161578189,2.76,14.74,-9.21,0
27-9-2017 7:00,137.65,-8.931454255543457,-0.38,11.59,-12.35,0
27-9-2017 8:00,133.5,-15.31640476201271,-1.28,10.68,-13.25,0
27-9-2017 9:00,132.67,-13.33860238509942,-1.96,10.0,-13.91,0
27-9-2017 10:00,130.55,-12.55359875973781,2.28,14.23,-9.68,0
27-9-2017 11:00,142.25,-4.343860547532017,2.6,14.55,-9.35,0
27-9-2017 12:00,143.22,-1.3350106572952996,8.61,20.57,-3.36,0
27-9-2017 13:00,141.5,-8.319894848914686,9.22,21.19,-2.75,0
27-9-2017 14:00,151.28,-4.115537931838304,3.25,15.21,-8.71,0
27-9-2017 15:00,152.45,-12.73073602436537,8.18,20.15,-3.79,0
27-9-2017 16:00,154.73,-16.06822895030507,-1.04,10.94,-13.01,0
27-9-2017 17:00,152.87,-18.534539385456668,1.18,13.15,-10.79,0
27-9-2017 18:00,141.35,-29.906987247870603,-0.43,11.54,-12.39,0
27-9-2017 19:00,190.42,9.741437162070241,-9.18,2.8,-21.15,1
27-9-2017 20:00,226.7,40.31206829303798,20.94,33.07,8.81,1
27-9-2017 21:00,227.62,43.63203351350114,32.49,44.75,20.23,0
27-9-2017 22:00,227.5,36.80318856838542,20.34,32.57,8.11,0
27-9-2017 23:00,197.07,2.727566829112618,18.74,30.96,6.52,0
28-9-2017 0:00,219.73,14.560950322809163,-7.94,4.35,-20.23,0
28-9-2017 1:00,218.6,15.643898065427692,5.02,17.32,-7.28,0
28-9-2017 2:00,224.28,16.776675472964257,-2.13,10.17,-14.42,0
28-9-2017 3:00,191.65,-13.068138502943157,-0.32,11.97,-12.61,0
28-9-2017 4:00,200.75,-6.615924315812606,-24.17,-11.75,-36.58,0
28-9-2017 5:00,197.03,-9.45102153883488,-10.75,1.66,-23.15,0
28-9-2017 6:00,205.2,-3.287367939435086,-17.79,-5.36,-30.22,0
28-9-2017 7:00,217.53,6.071427770043584,-11.05,1.37,-23.47,0
28-9-2017 8:00,233.32,21.97177058277768,-5.65,6.76,-18.07,0
28-9-2017 9:00,227.75,24.077820723667486,5.61,18.04,-6.82,0
28-9-2017 10:00,203.12,7.260769230348586,2.7,15.13,-9.72,0
28-9-2017 11:00,200.68,5.99099973478701,-9.52,2.93,-21.97,0
28-9-2017 12:00,198.5,10.728072526059833,-8.62,3.82,-21.07,0
28-9-2017 13:00,201.17,13.654166888788865,-6.26,6.17,-18.7,0
28-9-2017 14:00,201.88,14.278883947001589,-6.5,5.93,-18.93,0
28-9-2017 15:00,206.02,13.953397985937357,-6.53,5.89,-18.96,0
28-9-2017 16:00,207.62,15.431674396663055,-8.5,3.93,-20.92,0
28-9-2017 17:00,206.93,19.862625629506624,-6.16,6.26,-18.57,0
28-9-2017 18:00,165.05,-16.063288768544282,-4.15,8.26,-16.56,0
28-9-2017 19:00,165.85,-19.36322176302002,-29.77,-17.2,-42.35,0
28-9-2017 20:00,175.45,-9.952122527653813,-23.61,-11.03,-36.19,0
28-9-2017 21:00,177.05,-0.7764094347554646,-16.02,-3.45,-28.58,0
28-9-2017 22:00,169.68,-10.130061643618802,-16.14,-3.58,-28.71,0
28-9-2017 23:00,167.27,-11.211294862482077,-15.34,-2.77,-27.91,0
29-9-2017 0:00,171.65,-13.055376191927024,-11.4,1.16,-23.95,0
29-9-2017 1:00,166.13,-13.327030533514659,-12.41,0.14,-24.96,0
29-9-2017 2:00,163.17,-18.07595546869871,-9.46,3.08,-22.0,0
29-9-2017 3:00,157.23,-18.15684627612285,-9.19,3.35,-21.72,0
29-9-2017 4:00,169.1,-6.09940764097766,-6.33,6.2,-18.85,0
29-9-2017 5:00,157.23,-17.210102603712215,4.9,17.43,-7.63,0
29-9-2017 6:00,157.23,-19.452406320114164,-3.24,9.3,-15.77,0
29-9-2017 7:00,163.17,-16.756831271896715,0.7,13.22,-11.83,0
29-9-2017 8:00,175.07,-4.922691604664465,4.41,16.93,-8.12,1
29-9-2017 9:00,179.17,4.801968524893056,14.95,27.5,2.39,1
29-9-2017 10:00,178.2,9.633224393126596,20.59,33.17,8.01,1
29-9-2017 11:00,176.78,7.124309670030584,23.25,35.87,10.64,0
29-9-2017 12:00,172.53,7.749967842572374,19.3,31.9,6.69,0
29-9-2017 13:00,171.83,4.735588738312686,19.17,31.78,6.56,0
29-9-2017 14:00,175.83,6.049213916324504,14.0,26.6,1.4,0
29-9-2017 15:00,173.22,-3.7980119346140953,14.17,26.77,1.57,0
29-9-2017 16:00,197.42,17.68458293234613,4.12,16.7,-8.47,1
29-9-2017 17:00,196.52,19.610573616762082,19.71,32.35,7.06,0
29-9-2017 18:00,196.5,23.328970466651384,13.11,25.73,0.48,0
29-9-2017 19:00,194.7,14.7284617505899,14.08,26.71,1.45,0
29-9-2017 20:00,194.2,11.53781077318527,3.05,15.66,-9.57,0
29-9-2017 21:00,197.48,20.32214653449114,0.83,13.44,-11.78,0
29-9-2017 22:00,192.87,11.206568265572116,-2.65,9.95,-15.25,0
29-9-2017 23:00,148.02,-34.58739522918975,-5.1,7.49,-17.7,0
30-9-2017 0:00,177.77,-13.706060178084272,-32.46,-19.68,-45.24,0
30-9-2017 1:00,159.88,-27.963510807322905,-10.64,2.14,-23.42,0
30-9-2017 2:00,176.6,-14.925332288672422,-23.68,-10.85,-36.51,0
30-9-2017 3:00,162.52,-24.723494131058004,-7.83,4.99,-20.66,0
30-9-2017 4:00,168.98,-19.892018602915613,-15.43,-2.59,-28.28,0
30-9-2017 5:00,167.4,-21.661893636623518,-7.02,5.81,-19.85,0
30-9-2017 6:00,168.93,-23.43373700008837,-6.93,5.9,-19.75,0
30-9-2017 7:00,175.92,-20.78496463923392,-4.96,7.85,-17.78,0
30-9-2017 8:00,190.37,-7.400610143605235,-0.59,12.22,-13.41,1
30-9-2017 9:00,193.92,1.4041771287944869,10.05,22.88,-2.78,0
30-9-2017 10:00,203.5,16.45524906667069,14.8,27.65,1.96,1
30-9-2017 11:00,206.88,18.16869782413042,23.93,36.83,11.04,0
30-9-2017 12:00,205.47,21.274450086031493,21.23,34.13,8.34,0
30-9-2017 13:00,204.25,16.488943841480477,21.47,34.38,8.56,0
30-9-2017 14:00,212.58,20.850823465988924,15.17,28.07,2.28,0
30-9-2017 15:00,217.47,17.051204051873327,16.9,29.8,3.99,0
30-9-2017 16:00,217.52,13.107460545768191,10.9,23.8,-1.99,0
30-9-2017 17:00,217.85,14.819615487745153,6.78,19.66,-6.11,0
30-9-2017 18:00,217.7,17.043448391563402,6.53,19.41,-6.34,0
30-9-2017 19:00,220.33,11.023479235996007,5.86,18.72,-7.01,0
30-9-2017 20:00,227.38,13.732193327900461,-0.43,12.43,-13.29,0
30-9-2017 21:00,109.13,-99.93590719233309,1.07,13.92,-11.79,0
30-9-2017 22:00,181.63,-33.3144847555744,-76.36,-62.18,-90.54,1
30-9-2017 23:00,253.1,36.087748239498495,-13.09,1.22,-27.4,1
