Time,Actual,STL processed,Forecasts,Upper Interval,Lower Interval,Is Anomalies
1-8-2017 0:00,14.73,-0.8529440943777242,0.0,0.0,0.0,0
1-8-2017 1:00,13.57,-1.1707489752223612,0.0,0.0,0.0,0
1-8-2017 2:00,13.08,-1.5019137280321004,0.0,0.0,0.0,0
1-8-2017 3:00,12.65,-1.8088609235444064,0.0,0.0,0.0,0
1-8-2017 4:00,12.82,-1.6187423105538326,0.0,0.0,0.0,0
1-8-2017 5:00,13.15,-1.4857208465255685,0.0,0.0,0.0,0
1-8-2017 6:00,13.95,-1.1442920590200245,0.0,0.0,0.0,0
1-8-2017 7:00,14.97,-0.7186902840897051,0.0,0.0,0.0,0
1-8-2017 8:00,15.58,-0.5699410977818236,0.0,0.0,0.0,0
1-8-2017 9:00,17.38,1.2058736955089309,0.0,0.0,0.0,0
1-8-2017 10:00,18.38,4.688803318610276,0.0,0.0,0.0,0
1-8-2017 11:00,19.28,6.0840636504314,0.0,0.0,0.0,0
1-8-2017 12:00,18.92,4.2750055680818235,0.0,0.0,0.0,0
1-8-2017 13:00,19.1,0.7362703187924566,0.0,0.0,0.0,0
1-8-2017 14:00,18.18,0.3061554855956814,0.0,0.0,0.0,0
1-8-2017 15:00,18.3,0.7046311988807865,0.0,0.0,0.0,0
1-8-2017 16:00,18.1,-0.0896385984883814,0.0,0.0,0.0,0
1-8-2017 17:00,18.27,0.12343916178501502,0.0,0.0,0.0,0
1-8-2017 18:00,17.93,-0.268863678635757,0.0,0.0,0.0,0
1-8-2017 19:00,17.55,-1.1876680640300776,0.0,0.0,0.0,0
1-8-2017 20:00,17.43,-0.08714479855677837,0.0,0.0,0.0,0
1-8-2017 21:00,17.25,0.9261643796954964,0.0,0.0,0.0,0
1-8-2017 22:00,17.25,0.14766226911113378,0.0,0.0,0.0,0
1-8-2017 23:00,16.02,-0.7197488608897107,0.0,0.0,0.0,0
2-8-2017 0:00,14.63,-1.5987822106112048,0.0,0.0,0.0,0
2-8-2017 1:00,13.48,-1.8876743015668414,0.0,0.0,0.0,0
2-8-2017 2:00,13.03,-2.1528785338156187,0.0,0.0,0.0,0
2-8-2017 3:00,12.97,-2.0727817894231393,0.0,0.0,0.0,0
2-8-2017 4:00,12.78,-2.2224689560586413,0.0,0.0,0.0,0
2-8-2017 5:00,13.15,-2.10482585894788,0.0,0.0,0.0,0
2-8-2017 6:00,14.02,-1.7526204556668983,0.0,0.0,0.0,0
2-8-2017 7:00,15.03,-1.4024329476150452,0.0,0.0,0.0,0
2-8-2017 8:00,15.88,-1.077568142574318,0.0,0.0,0.0,0
2-8-2017 9:00,16.77,-0.3034851343920302,0.0,0.0,0.0,0
2-8-2017 10:00,18.97,4.138361246731382,0.0,0.0,0.0,0
2-8-2017 11:00,19.95,5.486752209562475,0.0,0.0,0.0,0
2-8-2017 12:00,21.38,5.487761736528348,0.0,0.0,0.0,0
2-8-2017 13:00,20.2,0.8154124387405695,0.0,0.0,0.0,0
2-8-2017 14:00,19.37,0.4924649409037407,0.0,0.0,0.0,0
2-8-2017 15:00,19.22,0.6426616315332794,0.0,0.0,0.0,0
2-8-2017 16:00,18.7,-0.4166400333407303,0.0,0.0,0.0,0
2-8-2017 17:00,18.28,-0.7392553104633031,0.0,0.0,0.0,0
2-8-2017 18:00,20.12,1.1076074450395659,0.0,0.0,0.0,0
2-8-2017 19:00,21.32,1.8290964663181306,0.0,0.0,0.0,0
2-8-2017 20:00,18.38,0.14934711575597248,0.0,0.0,0.0,0
2-8-2017 21:00,17.85,0.8981270874082554,0.0,0.0,0.0,0
2-8-2017 22:00,17.5,-0.1308482152485233,0.0,0.0,0.0,0
2-8-2017 23:00,17.6,0.3662041548296493,0.0,0.0,0.0,0
3-8-2017 0:00,15.4,-1.215194514294133,0.0,0.0,0.0,0
3-8-2017 1:00,13.55,-2.119279253720155,0.0,0.0,0.0,0
3-8-2017 2:00,13.0,-2.392628403767352,0.0,0.0,0.0,0
3-8-2017 3:00,12.8,-2.3695931578294687,0.0,0.0,0.0,0
3-8-2017 4:00,12.48,-2.563187206460846,0.0,0.0,0.0,0
3-8-2017 5:00,12.92,-2.2834654755955555,0.0,0.0,0.0,0
3-8-2017 6:00,13.62,-2.013026455867106,0.0,0.0,0.0,0
3-8-2017 7:00,14.68,-1.5307904883741106,0.0,0.0,0.0,0
3-8-2017 8:00,15.7,-0.9523473382809282,0.0,0.0,0.0,0
3-8-2017 9:00,17.17,0.4414671525495173,0.0,0.0,0.0,0
3-8-2017 10:00,18.28,3.6836948690643894,0.0,0.0,0.0,0
3-8-2017 11:00,18.72,4.49668104027484,0.0,0.0,0.0,0
3-8-2017 12:00,19.53,4.029222753925552,0.0,0.0,0.0,0
3-8-2017 13:00,19.02,0.27175569159192037,0.0,0.0,0.0,0
3-8-2017 14:00,18.62,0.4144718130676246,0.0,0.0,0.0,0
3-8-2017 15:00,18.62,0.7548857649941674,0.0,0.0,0.0,0
3-8-2017 16:00,20.97,2.639079524887027,0.0,0.0,0.0,0
3-8-2017 17:00,17.95,-0.27236173536836006,0.0,0.0,0.0,0
3-8-2017 18:00,18.93,0.7305336703213072,0.0,0.0,0.0,0
3-8-2017 19:00,18.15,-0.5107958395405596,0.0,0.0,0.0,0
3-8-2017 20:00,16.02,-1.3839297439514961,0.0,0.0,0.0,0
3-8-2017 21:00,16.4,0.31964657938431884,0.0,0.0,0.0,0
3-8-2017 22:00,16.85,0.1495301883579323,0.0,0.0,0.0,0
3-8-2017 23:00,15.27,-1.0396218377821,0.0,0.0,0.0,0
4-8-2017 0:00,14.48,-1.1440537226053689,0.0,0.0,0.0,0
4-8-2017 1:00,13.47,-1.1807742129591414,0.0,0.0,0.0,0
4-8-2017 2:00,12.78,-1.5597113832621279,0.0,0.0,0.0,0
4-8-2017 3:00,12.13,-1.9611807382362123,0.0,0.0,0.0,0
4-8-2017 4:00,12.48,-1.4561250386134557,0.0,0.0,0.0,0
4-8-2017 5:00,12.98,-1.126689599765637,0.0,0.0,0.0,0
4-8-2017 6:00,13.78,-0.7703818893617278,0.0,0.0,0.0,0
4-8-2017 7:00,14.18,-0.9684630504525025,0.0,0.0,0.0,0
4-8-2017 8:00,14.2,-1.4088071433317761,0.0,0.0,0.0,0
4-8-2017 9:00,15.02,-0.7318980338366803,0.0,0.0,0.0,0
4-8-2017 10:00,18.07,4.234073928125053,0.0,0.0,0.0,0
4-8-2017 11:00,17.28,3.7150182177702824,0.0,0.0,0.0,0
4-8-2017 12:00,17.52,2.7224550281612316,0.0,0.0,0.0,0
4-8-2017 13:00,16.57,-1.2443758051458929,0.0,0.0,0.0,0
4-8-2017 14:00,16.93,-0.3202420707853264,0.0,0.0,0.0,0
4-8-2017 15:00,16.22,-0.6638568639894302,0.0,0.0,0.0,0
4-8-2017 16:00,18.88,1.5895863142426485,0.0,0.0,0.0,0
4-8-2017 17:00,18.67,1.5339817515514529,0.0,0.0,0.0,0
4-8-2017 18:00,17.6,0.5375724881249102,0.0,0.0,0.0,0
4-8-2017 19:00,19.25,1.7780871278196066,0.0,0.0,0.0,0
4-8-2017 20:00,15.88,-0.30376864974310713,0.0,0.0,0.0,0
4-8-2017 21:00,15.9,1.0771671692165885,0.0,0.0,0.0,0
4-8-2017 22:00,15.47,0.07847283376093195,0.0,0.0,0.0,0
4-8-2017 23:00,14.63,-0.3843204446569448,0.0,0.0,0.0,0
5-8-2017 0:00,16.4,2.130777598760641,0.0,0.0,0.0,0
5-8-2017 1:00,10.72,-2.5746540768432684,0.0,0.0,0.0,0
5-8-2017 2:00,10.65,-2.3252547017244307,0.0,0.0,0.0,0
5-8-2017 3:00,10.25,-2.477304091932865,0.0,0.0,0.0,0
5-8-2017 4:00,10.47,-2.09967407837836,0.0,0.0,0.0,0
5-8-2017 5:00,10.53,-2.1822300072834615,0.0,0.0,0.0,0
5-8-2017 6:00,11.4,-1.7317586819395334,0.0,0.0,0.0,0
5-8-2017 7:00,12.4,-1.3118620473495266,0.0,0.0,0.0,0
5-8-2017 8:00,12.53,-1.6226984589367053,0.0,0.0,0.0,0
5-8-2017 9:00,13.15,-1.178699637938589,0.0,0.0,0.0,0
5-8-2017 10:00,14.02,1.425011662308373,0.0,0.0,0.0,0
5-8-2017 11:00,16.93,4.537909163226741,0.0,0.0,0.0,0
5-8-2017 12:00,17.83,4.284236163196294,0.0,0.0,0.0,0
5-8-2017 13:00,16.67,0.22106347579323327,0.0,0.0,0.0,0
5-8-2017 14:00,16.28,0.29963673991622386,0.0,0.0,0.0,0
5-8-2017 15:00,15.72,0.015015118459027477,0.0,0.0,0.0,0
5-8-2017 16:00,16.52,0.3507296319078801,0.0,0.0,0.0,0
5-8-2017 17:00,16.02,-0.1552677160086855,0.0,0.0,0.0,0
5-8-2017 18:00,16.0,-0.25721113134097884,0.0,0.0,0.0,0
5-8-2017 19:00,18.68,1.858918175120733,0.0,0.0,0.0,0
5-8-2017 20:00,16.5,0.7921110416166854,0.0,0.0,0.0,0
5-8-2017 21:00,7.75,-6.710977707455793,0.0,0.0,0.0,0
5-8-2017 22:00,15.07,-0.059634050996780985,0.0,0.0,0.0,0
5-8-2017 23:00,14.75,-0.16745264534856297,0.0,0.0,0.0,0
6-8-2017 0:00,14.13,-0.134208737346178,0.0,0.0,0.0,0
6-8-2017 1:00,13.22,-0.17018603285241163,0.0,0.0,0.0,0
6-8-2017 2:00,12.85,-0.31428454696392905,0.0,0.0,0.0,0
6-8-2017 3:00,12.55,-0.4687484070589001,0.0,0.0,0.0,0
6-8-2017 4:00,12.33,-0.6303785142248337,0.0,0.0,0.0,0
6-8-2017 5:00,12.73,-0.48412565596487234,0.0,0.0,0.0,0
6-8-2017 6:00,13.52,-0.22869056076294747,0.0,0.0,0.0,0
6-8-2017 7:00,14.22,-0.23001597557417774,0.0,0.0,0.0,0
6-8-2017 8:00,15.03,0.019455449048718876,0.0,0.0,0.0,0
6-8-2017 9:00,15.57,0.2705531054156989,0.0,0.0,0.0,0
6-8-2017 10:00,16.13,2.302012867813735,0.0,0.0,0.0,0
6-8-2017 11:00,17.1,3.3268727038710875,0.0,0.0,0.0,0
6-8-2017 12:00,17.27,2.3420990172850953,0.0,0.0,0.0,0
6-8-2017 13:00,16.6,-0.9914790709142007,0.0,0.0,0.0,0
6-8-2017 14:00,17.13,0.03747017627092397,0.0,0.0,0.0,0
6-8-2017 15:00,16.68,-0.10222182013965053,0.0,0.0,0.0,0
6-8-2017 16:00,16.57,-0.6082995181743129,0.0,0.0,0.0,0
6-8-2017 17:00,16.63,-0.4826205743709373,0.0,0.0,0.0,0
6-8-2017 18:00,16.83,-0.2880290646636805,0.0,0.0,0.0,0
6-8-2017 19:00,16.92,-0.6842160144896443,0.0,0.0,0.0,0
6-8-2017 20:00,16.72,0.2860945730102813,0.0,0.0,0.0,0
6-8-2017 21:00,16.48,1.351009396237112,0.0,0.0,0.0,0
6-8-2017 22:00,15.87,0.14441918494228112,0.0,0.0,0.0,0
6-8-2017 23:00,14.97,-0.536396585011925,0.0,0.0,0.0,0
7-8-2017 0:00,13.98,-0.792978672093259,0.0,0.0,0.0,0
7-8-2017 1:00,13.13,-0.7644078073883467,0.0,0.0,0.0,0
7-8-2017 2:00,12.92,-0.7369104306167582,0.0,0.0,0.0,0
7-8-2017 3:00,12.48,-1.0286949804848025,0.0,0.0,0.0,0
7-8-2017 4:00,12.22,-1.2244914282577053,0.0,0.0,0.0,0
7-8-2017 5:00,12.6,-1.142226551672719,0.0,0.0,0.0,0
7-8-2017 6:00,13.37,-0.95462445545283,0.0,0.0,0.0,0
7-8-2017 7:00,14.4,-0.679968688505328,0.0,0.0,0.0,0
7-8-2017 8:00,15.3,-0.3929861965123891,0.0,0.0,0.0,0
7-8-2017 9:00,16.23,0.14591734617935792,0.0,0.0,0.0,0
7-8-2017 10:00,16.63,1.7658326216843676,0.0,0.0,0.0,0
7-8-2017 11:00,18.12,3.173361843836606,0.0,0.0,0.0,0
7-8-2017 12:00,17.98,1.88819452165097,0.0,0.0,0.0,0
7-8-2017 13:00,17.5,-1.0909368262660735,0.0,0.0,0.0,0
7-8-2017 14:00,16.37,-1.7667594549403276,0.0,0.0,0.0,0
7-8-2017 15:00,16.97,-0.8966696852258043,0.0,0.0,0.0,0
7-8-2017 16:00,17.87,-0.39969105538959937,0.0,0.0,0.0,0
7-8-2017 17:00,16.13,-2.0707578644748246,0.0,0.0,0.0,0
7-8-2017 18:00,17.7,-0.49805347433655633,0.0,0.0,0.0,0
7-8-2017 19:00,21.63,2.955003236273722,0.0,0.0,0.0,0
7-8-2017 20:00,25.4,7.883991461501559,0.0,0.0,0.0,0
7-8-2017 21:00,20.22,4.049338574753698,0.0,0.0,0.0,0
7-8-2017 22:00,16.77,0.05719968630412353,0.0,0.0,0.0,0
7-8-2017 23:00,15.47,-1.034228068653407,0.0,0.0,0.0,0
8-8-2017 0:00,13.92,-1.7882509602193615,0.0,0.0,0.0,0
8-8-2017 1:00,13.12,-1.6799376420206524,0.0,0.0,0.0,0
8-8-2017 2:00,12.85,-1.675650081083301,0.0,0.0,0.0,0
8-8-2017 3:00,12.72,-1.629561027441758,0.0,0.0,0.0,0
8-8-2017 4:00,12.57,-1.6843761489147546,0.0,0.0,0.0,0
8-8-2017 5:00,12.8,-1.6459849862969538,0.0,0.0,0.0,0
8-8-2017 6:00,13.27,-1.6561016213513113,0.0,0.0,0.0,0
8-8-2017 7:00,14.37,-1.2153575231116616,0.0,0.0,0.0,0
8-8-2017 8:00,14.77,-1.3307568142152615,0.0,0.0,0.0,0
8-8-2017 9:00,15.3,-1.1147668820309597,0.0,0.0,0.0,0
8-8-2017 10:00,17.38,2.112913492084111,0.0,0.0,0.0,0
8-8-2017 11:00,18.55,3.242421685834323,0.0,0.0,0.0,0
8-8-2017 12:00,19.42,3.1561703135521313,0.0,0.0,0.0,0
8-8-2017 13:00,18.68,0.16120568927106405,0.0,0.0,0.0,0
8-8-2017 14:00,17.63,-0.39966883190884417,0.0,0.0,0.0,0
8-8-2017 15:00,17.77,0.04992268728451421,0.0,0.0,0.0,0
8-8-2017 16:00,19.28,1.2297529337378954,0.0,0.0,0.0,0
8-8-2017 17:00,18.15,0.1729998051397459,0.0,0.0,0.0,0
8-8-2017 18:00,18.97,1.0048765090847027,0.0,0.0,0.0,0
8-8-2017 19:00,18.1,-0.3316840108983019,0.0,0.0,0.0,0
8-8-2017 20:00,17.4,0.1171209610278936,0.0,0.0,0.0,0
8-8-2017 21:00,16.83,0.9220965098066856,0.0,0.0,0.0,0
8-8-2017 22:00,16.33,-0.07629782086752712,0.0,0.0,0.0,0
8-8-2017 23:00,15.8,-0.4190443258982768,0.0,0.0,0.0,0
9-8-2017 0:00,14.23,-1.122998834949442,0.0,0.0,0.0,0
9-8-2017 1:00,13.3,-1.1415715741672727,0.0,0.0,0.0,0
9-8-2017 2:00,12.9,-1.2629567746173898,0.0,0.0,0.0,0
9-8-2017 3:00,12.73,-1.2616252482409323,0.0,0.0,0.0,0
9-8-2017 4:00,12.6,-1.3002575909397418,0.0,0.0,0.0,0
9-8-2017 5:00,12.97,-1.180546029494538,0.0,0.0,0.0,0
9-8-2017 6:00,13.6,-1.0941987377741178,0.0,0.0,0.0,0
9-8-2017 7:00,14.27,-1.1534485140047703,0.0,0.0,0.0,0
9-8-2017 8:00,15.48,-0.5263492080048238,0.0,0.0,0.0,0
9-8-2017 9:00,16.32,-0.13476486340619687,0.0,0.0,0.0,0
9-8-2017 10:00,17.68,2.0363778730248825,0.0,0.0,0.0,0
9-8-2017 11:00,19.0,3.1433622011812794,0.0,0.0,0.0,0
9-8-2017 12:00,19.45,2.660453618116005,0.0,0.0,0.0,0
9-8-2017 13:00,18.77,-0.012930247918180982,0.0,0.0,0.0,0
9-8-2017 14:00,19.02,0.6870588431204396,0.0,0.0,0.0,0
9-8-2017 15:00,18.38,0.32611488696058544,0.0,0.0,0.0,0
9-8-2017 16:00,17.93,-0.454016975449246,0.0,0.0,0.0,0
9-8-2017 17:00,17.97,-0.35405219369051366,0.0,0.0,0.0,0
9-8-2017 18:00,17.95,-0.3848729084734934,0.0,0.0,0.0,0
9-8-2017 19:00,18.2,-0.6257913827928565,0.0,0.0,0.0,0
9-8-2017 20:00,18.0,0.28115342056126025,0.0,0.0,0.0,0
9-8-2017 21:00,17.97,1.639830144756175,0.0,0.0,0.0,0
9-8-2017 22:00,16.78,-0.02594714679174359,0.0,0.0,0.0,0
9-8-2017 23:00,16.12,-0.534779323658082,0.0,0.0,0.0,0
10-8-2017 0:00,14.82,-0.9353782375804425,0.0,0.0,0.0,0
10-8-2017 1:00,14.03,-0.827210863336413,0.0,0.0,0.0,0
10-8-2017 2:00,13.8,-0.790642654295592,0.0,0.0,0.0,0
10-8-2017 3:00,13.5,-0.9404424843058123,0.0,0.0,0.0,0
10-8-2017 4:00,13.77,-0.5993079737062494,0.0,0.0,0.0,0
10-8-2017 5:00,14.13,-0.5022074983143376,0.0,0.0,0.0,0
10-8-2017 6:00,14.38,-0.8133277646998316,0.0,0.0,0.0,0
10-8-2017 7:00,15.03,-0.9165059545846983,0.0,0.0,0.0,0
10-8-2017 8:00,16.18,-0.37084259066512004,0.0,0.0,0.0,0
10-8-2017 9:00,16.7,-0.34441906751576923,0.0,0.0,0.0,0
10-8-2017 10:00,18.42,1.9394610562732169,0.0,0.0,0.0,0
10-8-2017 11:00,19.78,3.0031965438776993,0.0,0.0,0.0,0
10-8-2017 12:00,19.85,2.252905775071241,0.0,0.0,0.0,0
10-8-2017 13:00,18.58,-0.6887902372920784,0.0,0.0,0.0,0
10-8-2017 14:00,20.05,1.2521695613890813,0.0,0.0,0.0,0
10-8-2017 15:00,20.2,1.7107972253000128,0.0,0.0,0.0,0
10-8-2017 16:00,18.2,-0.5591215486046472,0.0,0.0,0.0,0
10-8-2017 17:00,17.8,-0.8570656039044806,0.0,0.0,0.0,0
10-8-2017 18:00,17.82,-0.8152104848308532,0.0,0.0,0.0,0
10-8-2017 19:00,18.67,-0.42507006264229474,0.0,0.0,0.0,0
10-8-2017 20:00,17.77,-0.20456857701598707,0.0,0.0,0.0,0
10-8-2017 21:00,16.88,0.368385618166176,0.0,0.0,0.0,0
10-8-2017 22:00,16.88,-0.02418830350936574,0.0,0.0,0.0,0
10-8-2017 23:00,16.08,-0.6485198214652108,0.0,0.0,0.0,0
11-8-2017 0:00,15.08,-0.6551768095126818,0.0,0.0,0.0,0
11-8-2017 1:00,14.3,-0.49244332150915326,0.0,0.0,0.0,0
11-8-2017 2:00,14.23,-0.2500957026797721,0.0,0.0,0.0,0
11-8-2017 3:00,14.13,-0.1632008887790306,0.0,0.0,0.0,0
11-8-2017 4:00,14.07,-0.11447578959423765,0.0,0.0,0.0,0
11-8-2017 5:00,14.1,-0.346297639224872,0.0,0.0,0.0,0
11-8-2017 6:00,14.47,-0.5411967026855358,0.0,0.0,0.0,0
11-8-2017 7:00,15.22,-0.5546165771294334,0.0,0.0,0.0,0
11-8-2017 8:00,15.7,-0.6867024261950512,0.0,0.0,0.0,0
11-8-2017 9:00,16.8,-0.14677415209398958,0.0,0.0,0.0,0
11-8-2017 10:00,17.88,1.2285083431687838,0.0,0.0,0.0,0
11-8-2017 11:00,18.5,1.4476599743372383,0.0,0.0,0.0,0
11-8-2017 12:00,19.33,1.5486520039054845,0.0,0.0,0.0,0
11-8-2017 13:00,18.75,-0.4002929371666397,0.0,0.0,0.0,0
11-8-2017 14:00,17.72,-0.9572992132226403,0.0,0.0,0.0,0
11-8-2017 15:00,18.12,-0.2380367116206088,0.0,0.0,0.0,0
11-8-2017 16:00,19.93,1.3433208206002156,0.0,0.0,0.0,0
11-8-2017 17:00,19.98,1.508860352865792,0.0,0.0,0.0,0
11-8-2017 18:00,17.92,-0.5252162695799889,0.0,0.0,0.0,0
11-8-2017 19:00,18.67,-0.23262452625953145,0.0,0.0,0.0,0
11-8-2017 20:00,17.58,-0.21717393373705818,0.0,0.0,0.0,0
11-8-2017 21:00,16.8,0.5075164707259852,0.0,0.0,0.0,0
11-8-2017 22:00,16.38,-0.2543953427835568,0.0,0.0,0.0,0
11-8-2017 23:00,16.12,-0.34676746353528287,0.0,0.0,0.0,0
12-8-2017 0:00,14.63,-0.7820237874142464,0.0,0.0,0.0,0
12-8-2017 1:00,14.22,-0.19209835578991985,0.0,0.0,0.0,0
12-8-2017 2:00,14.1,0.05865450268933259,0.0,0.0,0.0,0
12-8-2017 3:00,13.92,0.1148697903623308,0.0,0.0,0.0,0
12-8-2017 4:00,13.85,0.2038113079936501,0.0,0.0,0.0,0
12-8-2017 5:00,13.93,0.10686371873148914,0.0,0.0,0.0,0
12-8-2017 6:00,14.32,0.01198244358667111,0.0,0.0,0.0,0
12-8-2017 7:00,15.08,0.08211746997474734,0.0,0.0,0.0,0
12-8-2017 8:00,15.78,0.24607899331495275,0.0,0.0,0.0,0
12-8-2017 9:00,16.4,0.3161094918661167,0.0,0.0,0.0,0
12-8-2017 10:00,16.97,0.9893918321010773,0.0,0.0,0.0,0
12-8-2017 11:00,17.62,1.2105570803319043,0.0,0.0,0.0,0
12-8-2017 12:00,17.32,0.34942938177324834,0.0,0.0,0.0,0
12-8-2017 13:00,17.6,-0.42008737240653815,0.0,0.0,0.0,0
12-8-2017 14:00,17.07,-0.45838260759854776,0.0,0.0,0.0,0
12-8-2017 15:00,16.02,-1.161808152704264,0.0,0.0,0.0,0
12-8-2017 16:00,17.1,-0.2524971987568083,0.0,0.0,0.0,0
12-8-2017 17:00,16.92,-0.317360241449375,0.0,0.0,0.0,0
12-8-2017 18:00,17.05,-0.1712547679381231,0.0,0.0,0.0,0
12-8-2017 19:00,18.3,0.6099021339906816,0.0,0.0,0.0,0
12-8-2017 20:00,16.6,-0.013584329114225469,0.0,0.0,0.0,0
12-8-2017 21:00,8.18,-6.928026862641326,0.0,0.0,0.0,0
12-8-2017 22:00,14.98,-0.4601457152558748,0.0,0.0,0.0,0
12-8-2017 23:00,15.3,-0.021427586074500127,0.0,0.0,0.0,0
13-8-2017 0:00,14.8,0.5538476069440321,0.0,0.0,0.0,0
13-8-2017 1:00,14.52,1.2277076414802117,0.0,0.0,0.0,0
13-8-2017 2:00,14.28,1.313608398900394,0.0,0.0,0.0,0
13-8-2017 3:00,14.15,1.365886819636703,0.0,0.0,0.0,0
13-8-2017 4:00,13.87,1.1917874150056065,0.0,0.0,0.0,0
13-8-2017 5:00,14.12,1.1670982927700049,0.0,0.0,0.0,0
13-8-2017 6:00,14.32,0.7796190125991203,0.0,0.0,0.0,0
13-8-2017 7:00,14.82,0.48069314647725747,0.0,0.0,0.0,0
13-8-2017 8:00,15.32,0.3380862488813694,0.0,0.0,0.0,0
13-8-2017 9:00,15.8,0.10440169201171656,0.0,0.0,0.0,0
13-8-2017 10:00,16.48,0.5218665973479322,0.0,0.0,0.0,0
13-8-2017 11:00,16.55,-0.038771817229804384,0.0,0.0,0.0,0
13-8-2017 12:00,16.57,-0.5858365237862859,0.0,0.0,0.0,0
13-8-2017 13:00,16.38,-1.5723381023618614,0.0,0.0,0.0,0
13-8-2017 14:00,16.4,-1.1083353079780007,0.0,0.0,0.0,0
13-8-2017 15:00,16.17,-1.030861911079592,0.0,0.0,0.0,0
13-8-2017 16:00,16.08,-1.3000105466936311,0.0,0.0,0.0,0
13-8-2017 17:00,16.32,-0.962663144197144,0.0,0.0,0.0,0
13-8-2017 18:00,16.57,-0.7237625545816595,0.0,0.0,0.0,0
13-8-2017 19:00,16.3,-1.491427473897316,0.0,0.0,0.0,0
13-8-2017 20:00,17.43,0.668762027517591,0.0,0.0,0.0,0
13-8-2017 21:00,16.28,0.9742422950574934,0.0,0.0,0.0,0
13-8-2017 22:00,16.67,0.9909721423950746,0.0,0.0,0.0,0
13-8-2017 23:00,15.63,-0.030163739433307413,0.0,0.0,0.0,0
14-8-2017 0:00,14.52,-0.09530129046013869,0.0,0.0,0.0,0
14-8-2017 1:00,14.17,0.4002837040453713,0.0,0.0,0.0,0
14-8-2017 2:00,14.03,0.47912271746395163,0.0,0.0,0.0,0
14-8-2017 3:00,13.87,0.3852546283210394,0.0,0.0,0.0,0
14-8-2017 4:00,13.75,0.255904658485008,0.0,0.0,0.0,0
14-8-2017 5:00,14.0,0.15516199255450758,0.0,0.0,0.0,0
14-8-2017 6:00,14.2,-0.3132273033638988,0.0,0.0,0.0,0
14-8-2017 7:00,14.8,-0.5995260727171523,0.0,0.0,0.0,0
14-8-2017 8:00,15.62,-0.5070134019705925,0.0,0.0,0.0,0
14-8-2017 9:00,16.57,-0.34795587122645344,0.0,0.0,0.0,0
14-8-2017 10:00,18.47,1.010148742245633,0.0,0.0,0.0,0
14-8-2017 11:00,18.58,0.3741638078939573,0.0,0.0,0.0,0
14-8-2017 12:00,20.52,1.827619236374261,0.0,0.0,0.0,0
14-8-2017 13:00,19.15,-0.048569113425990906,0.0,0.0,0.0,0
14-8-2017 14:00,18.82,0.05502976370484447,0.0,0.0,0.0,0
14-8-2017 15:00,19.42,0.9607001557784933,0.0,0.0,0.0,0
14-8-2017 16:00,18.8,0.19038521603397385,0.0,0.0,0.0,0
14-8-2017 17:00,18.52,0.06116862827800773,0.0,0.0,0.0,0
14-8-2017 18:00,18.98,0.5540898985562208,0.0,0.0,0.0,0
14-8-2017 19:00,19.22,0.3388052720751382,0.0,0.0,0.0,0
14-8-2017 20:00,14.43,-3.396127147911118,0.0,0.0,0.0,0
14-8-2017 21:00,17.37,1.1680171242038355,0.0,0.0,0.0,0
14-8-2017 22:00,16.75,0.35228035912772526,0.0,0.0,0.0,0
14-8-2017 23:00,16.05,-0.21002484607623018,0.0,0.0,0.0,0
15-8-2017 0:00,15.08,0.053109546485757164,0.0,0.0,0.0,0
15-8-2017 1:00,14.42,0.43486495372292566,0.0,0.0,0.0,0
15-8-2017 2:00,13.97,0.4010876759022324,0.0,0.0,0.0,0
15-8-2017 3:00,13.8,0.4855185296424409,0.0,0.0,0.0,0
15-8-2017 4:00,13.65,0.5153067933881914,0.0,0.0,0.0,0
15-8-2017 5:00,13.87,0.5036527147988998,0.0,0.0,0.0,0
15-8-2017 6:00,14.23,0.3094955341690735,0.0,0.0,0.0,0
15-8-2017 7:00,14.8,0.10096505456479576,0.0,0.0,0.0,0
15-8-2017 8:00,15.45,0.1337384866341722,0.0,0.0,0.0,0
15-8-2017 9:00,16.05,-0.08711025218288349,0.0,0.0,0.0,0
15-8-2017 10:00,16.67,-0.24096840026984978,0.0,0.0,0.0,0
15-8-2017 11:00,17.45,-0.2749023240904016,0.0,0.0,0.0,0
15-8-2017 12:00,17.22,-0.8635292302682398,0.0,0.0,0.0,0
15-8-2017 13:00,16.6,-1.6992577042718242,0.0,0.0,0.0,0
15-8-2017 14:00,16.95,-0.925916097372669,0.0,0.0,0.0,0
15-8-2017 15:00,16.55,-1.0219020631024467,0.0,0.0,0.0,0
15-8-2017 16:00,16.57,-1.1231384126918957,0.0,0.0,0.0,0
15-8-2017 17:00,16.58,-0.9956590808396637,0.0,0.0,0.0,0
15-8-2017 18:00,17.42,-0.16545722003806596,0.0,0.0,0.0,0
15-8-2017 19:00,17.52,-0.5650035266792539,0.0,0.0,0.0,0
15-8-2017 20:00,16.85,-0.24169984106133313,0.0,0.0,0.0,0
15-8-2017 21:00,17.2,1.6454611804100203,0.0,0.0,0.0,0
15-8-2017 22:00,16.88,1.051727225891863,0.0,0.0,0.0,0
15-8-2017 23:00,16.15,0.3227221202839736,0.0,0.0,0.0,0
16-8-2017 0:00,14.73,0.0943013650269684,0.0,0.0,0.0,0
16-8-2017 1:00,14.27,0.5249820904075193,0.0,0.0,0.0,0
16-8-2017 2:00,13.77,0.2871621367816708,0.0,0.0,0.0,0
16-8-2017 3:00,13.78,0.3877800466482597,0.0,0.0,0.0,0
16-8-2017 4:00,13.6,0.22291760183609455,0.0,0.0,0.0,0
16-8-2017 5:00,14.03,0.27746055918492374,0.0,0.0,0.0,0
16-8-2017 6:00,14.3,-0.15602555226636383,0.0,0.0,0.0,0
16-8-2017 7:00,15.1,-0.2906433336615848,0.0,0.0,0.0,0
16-8-2017 8:00,15.53,-0.6306620783351882,0.0,0.0,0.0,0
16-8-2017 9:00,16.52,-0.6352302822001832,0.0,0.0,0.0,0
16-8-2017 10:00,18.77,0.3907911183964181,0.0,0.0,0.0,0
16-8-2017 11:00,19.65,0.2436353932158397,0.0,0.0,0.0,0
16-8-2017 12:00,19.27,-0.4385682616857096,0.0,0.0,0.0,0
16-8-2017 13:00,19.33,-0.2153685608595275,0.0,0.0,0.0,0
16-8-2017 14:00,18.42,-0.754635431720942,0.0,0.0,0.0,0
16-8-2017 15:00,19.08,0.17267046357037685,0.0,0.0,0.0,0
16-8-2017 16:00,18.57,-0.4679250592514137,0.0,0.0,0.0,0
16-8-2017 17:00,19.47,0.48583366834401076,0.0,0.0,0.0,0
16-8-2017 18:00,19.35,0.2690086037130648,0.0,0.0,0.0,0
16-8-2017 19:00,20.58,0.906353954711637,0.0,0.0,0.0,0
16-8-2017 20:00,18.6,-0.18892414302798954,0.0,0.0,0.0,0
16-8-2017 21:00,17.47,0.10323179272083394,0.0,0.0,0.0,0
16-8-2017 22:00,17.37,-0.3849260609102103,0.0,0.0,0.0,0
16-8-2017 23:00,17.22,-0.6998090953125491,0.0,0.0,0.0,0
17-8-2017 0:00,15.1,-1.727010025942473,0.0,0.0,0.0,0
17-8-2017 1:00,14.55,-1.4984064672425248,0.0,0.0,0.0,0
17-8-2017 2:00,14.2,-1.7012715814975152,0.0,0.0,0.0,0
17-8-2017 3:00,14.0,-1.9354691003285325,0.0,0.0,0.0,0
17-8-2017 4:00,14.05,-1.9960276783477369,0.0,0.0,0.0,0
17-8-2017 5:00,14.35,-2.1279219973262293,0.0,0.0,0.0,0
17-8-2017 6:00,16.42,-0.8233713518644095,0.0,0.0,0.0,0
17-8-2017 7:00,18.78,0.5332960212927134,0.0,0.0,0.0,0
17-8-2017 8:00,18.27,-0.8121424437806049,0.0,0.0,0.0,0
17-8-2017 9:00,28.05,7.859428502129692,0.0,0.0,0.0,0
17-8-2017 10:00,31.83,10.025235782073963,0.0,0.0,0.0,0
17-8-2017 11:00,29.5,6.514764586197472,0.0,0.0,0.0,0
17-8-2017 12:00,21.17,-2.0011094867636707,0.0,0.0,0.0,0
17-8-2017 13:00,20.48,-2.0611579576584695,0.0,0.0,0.0,0
17-8-2017 14:00,24.03,1.8947903471687937,0.0,0.0,0.0,0
17-8-2017 15:00,20.6,-1.216788243069523,0.0,0.0,0.0,0
17-8-2017 16:00,22.97,1.1011694261095961,0.0,0.0,0.0,0
17-8-2017 17:00,22.92,1.3745144698275098,0.0,0.0,0.0,0
17-8-2017 18:00,19.57,-1.8260305998566793,0.0,0.0,0.0,0
17-8-2017 19:00,19.38,-2.3684354546533015,0.0,0.0,0.0,0
17-8-2017 20:00,19.1,-1.5389371991854475,0.0,0.0,0.0,0
17-8-2017 21:00,18.48,-0.2779971816329798,0.0,0.0,0.0,0
17-8-2017 22:00,18.63,-0.056786120408190754,0.0,0.0,0.0,0
17-8-2017 23:00,17.68,-0.7637542696362516,0.0,0.0,0.0,0
18-8-2017 0:00,16.2,-0.6759425616703858,0.0,0.0,0.0,0
18-8-2017 1:00,15.47,-0.31400905246499633,0.0,0.0,0.0,0
18-8-2017 2:00,15.03,-0.2965122101630939,0.0,0.0,0.0,0
18-8-2017 3:00,15.1,0.03988195949431628,0.0,0.0,0.0,0
18-8-2017 4:00,14.88,0.009027508378874671,0.0,0.0,0.0,0
18-8-2017 5:00,14.92,-0.26195247507729746,0.0,0.0,0.0,0
18-8-2017 6:00,15.57,-0.2620134608527458,0.0,0.0,0.0,0
18-8-2017 7:00,16.48,-0.2467131746258744,0.0,0.0,0.0,0
18-8-2017 8:00,17.23,-0.22022360158149112,0.0,0.0,0.0,0
18-8-2017 9:00,17.95,-0.6744009315709825,0.0,0.0,0.0,0
18-8-2017 10:00,19.95,-0.6306961121345083,0.0,0.0,0.0,0
18-8-2017 11:00,21.4,-0.466371118562396,0.0,0.0,0.0,0
18-8-2017 12:00,21.42,-0.46780394943861836,0.0,0.0,0.0,0
18-8-2017 13:00,21.68,0.7971572307458992,0.0,0.0,0.0,0
18-8-2017 14:00,21.3,0.7665785340621234,0.0,0.0,0.0,0
18-8-2017 15:00,19.97,-0.28562671890555436,0.0,0.0,0.0,0
18-8-2017 16:00,20.62,0.29914196507477797,0.0,0.0,0.0,0
18-8-2017 17:00,20.22,0.09289295135633324,0.0,0.0,0.0,0
18-8-2017 18:00,19.83,-0.3005524969399396,0.0,0.0,0.0,0
18-8-2017 19:00,20.57,-0.07188793109060043,0.0,0.0,0.0,0
18-8-2017 20:00,19.22,-0.48679369597410016,0.0,0.0,0.0,0
18-8-2017 21:00,18.18,0.21416582422956765,0.0,0.0,0.0,0
18-8-2017 22:00,18.55,0.5159812211577481,0.0,0.0,0.0,0
18-8-2017 23:00,17.72,-0.261836622048488,0.0,0.0,0.0,0
19-8-2017 0:00,16.97,0.4322231453607337,0.0,0.0,0.0,0
19-8-2017 1:00,16.12,0.6225726345700444,0.0,0.0,0.0,0
19-8-2017 2:00,15.78,0.6855174629273257,0.0,0.0,0.0,0
19-8-2017 3:00,15.52,0.6275893505716539,0.0,0.0,0.0,0
19-8-2017 4:00,15.45,0.6815250558584651,0.0,0.0,0.0,0
19-8-2017 5:00,15.43,0.40031627090449007,0.0,0.0,0.0,0
19-8-2017 6:00,15.98,0.34450051687166194,0.0,0.0,0.0,0
19-8-2017 7:00,16.57,0.07729057914816195,0.0,0.0,0.0,0
19-8-2017 8:00,17.38,0.2045650532901213,0.0,0.0,0.0,0
19-8-2017 9:00,17.9,-0.397093118630643,0.0,0.0,0.0,0
19-8-2017 10:00,19.45,-1.0272233257334697,0.0,0.0,0.0,0
19-8-2017 11:00,23.48,1.730165291255755,0.0,0.0,0.0,0
19-8-2017 12:00,21.67,0.18144113643295512,0.0,0.0,0.0,0
19-8-2017 13:00,20.35,0.42072612937585774,0.0,0.0,0.0,0
19-8-2017 14:00,19.48,0.022934592860117675,0.0,0.0,0.0,0
19-8-2017 15:00,19.93,0.889416838842159,0.0,0.0,0.0,0
19-8-2017 16:00,19.45,0.5103106993027744,0.0,0.0,0.0,0
19-8-2017 17:00,19.08,0.4416711935953863,0.0,0.0,0.0,0
19-8-2017 18:00,19.53,0.9725289321344412,0.0,0.0,0.0,0
19-8-2017 19:00,19.25,0.25946648407714434,0.0,0.0,0.0,0
19-8-2017 20:00,18.82,0.8273602642897053,0.0,0.0,0.0,0
19-8-2017 21:00,10.62,-5.526324140025771,0.0,0.0,0.0,0
19-8-2017 22:00,5.6,-10.508567834564548,0.0,0.0,0.0,0
19-8-2017 23:00,16.05,0.04810120108070848,0.0,0.0,0.0,0
20-8-2017 0:00,15.23,0.7937456007629429,0.0,0.0,0.0,0
20-8-2017 1:00,14.88,1.5123300490439178,0.0,0.0,0.0,0
20-8-2017 2:00,14.57,1.6305418425243232,0.0,0.0,0.0,0
20-8-2017 3:00,15.23,2.508110427223315,0.0,0.0,0.0,0
20-8-2017 4:00,13.78,1.1966552679801161,0.0,0.0,0.0,0
20-8-2017 5:00,14.73,1.7639189527094103,0.0,0.0,0.0,0
20-8-2017 6:00,15.42,1.7210497016002684,0.0,0.0,0.0,0
20-8-2017 7:00,15.25,0.5600308111074668,0.0,0.0,0.0,0
20-8-2017 8:00,15.83,0.3267914575280777,0.0,0.0,0.0,0
20-8-2017 9:00,16.77,-0.1917140628473497,0.0,0.0,0.0,0
20-8-2017 10:00,16.58,-3.1750458030128694,0.0,0.0,0.0,0
20-8-2017 11:00,18.28,-3.1239600691299163,0.0,0.0,0.0,0
20-8-2017 12:00,23.68,2.430657945577323,0.0,0.0,0.0,0
20-8-2017 13:00,18.78,-0.679765081372306,0.0,0.0,0.0,0
20-8-2017 14:00,18.37,-0.8188012903709172,0.0,0.0,0.0,0
20-8-2017 15:00,18.23,-0.727663378090071,0.0,0.0,0.0,0
20-8-2017 16:00,17.77,-1.2446761738000909,0.0,0.0,0.0,0
20-8-2017 17:00,17.77,-1.0608639701630835,0.0,0.0,0.0,0
20-8-2017 18:00,18.07,-0.8208608434553604,0.0,0.0,0.0,0
20-8-2017 19:00,18.27,-1.2008081040859437,0.0,0.0,0.0,0
20-8-2017 20:00,18.42,-0.21527257744398653,0.0,0.0,0.0,0
20-8-2017 21:00,18.12,1.2315765174090636,0.0,0.0,0.0,0
20-8-2017 22:00,17.5,0.5504511550909967,0.0,0.0,0.0,0
20-8-2017 23:00,17.45,0.45678449327540704,0.0,0.0,0.0,0
21-8-2017 0:00,16.2,0.6891909489183234,0.0,0.0,0.0,0
21-8-2017 1:00,16.07,1.523564773017359,0.0,0.0,0.0,0
21-8-2017 2:00,15.58,1.3545979483672888,0.0,0.0,0.0,0
21-8-2017 3:00,15.3,1.1752176468673383,0.0,0.0,0.0,0
21-8-2017 4:00,15.37,1.265926039840533,0.0,0.0,0.0,0
21-8-2017 5:00,15.72,1.2010891984995347,0.0,0.0,0.0,0
21-8-2017 6:00,15.95,0.6605934545605123,0.0,0.0,0.0,0
21-8-2017 7:00,16.48,0.15519261554485198,0.0,0.0,0.0,0
21-8-2017 8:00,17.08,-0.09913356150945063,0.0,0.0,0.0,0
21-8-2017 9:00,17.8,-0.8680297043824439,0.0,0.0,0.0,0
21-8-2017 10:00,19.2,-2.5681062516535533,0.0,0.0,0.0,0
21-8-2017 11:00,22.28,-1.2068666749197803,0.0,0.0,0.0,0
21-8-2017 12:00,20.68,-2.452449764725408,0.0,0.0,0.0,0
21-8-2017 13:00,23.58,2.7181896199177658,0.0,0.0,0.0,0
21-8-2017 14:00,20.78,0.23867916992161398,0.0,0.0,0.0,0
21-8-2017 15:00,19.98,-0.2647568200134103,0.0,0.0,0.0,0
21-8-2017 16:00,20.85,0.6410886281865018,0.0,0.0,0.0,0
21-8-2017 17:00,20.05,0.11014581050569916,0.0,0.0,0.0,0
21-8-2017 18:00,18.85,-1.0879124052801217,0.0,0.0,0.0,0
21-8-2017 19:00,20.03,-0.4319784850068302,0.0,0.0,0.0,0
21-8-2017 20:00,18.65,-0.936035218458322,0.0,0.0,0.0,0
21-8-2017 21:00,18.32,0.6419091397178462,0.0,0.0,0.0,0
21-8-2017 22:00,18.37,0.7923974850125788,0.0,0.0,0.0,0
21-8-2017 23:00,17.67,0.15889050112821934,0.0,0.0,0.0,0
22-8-2017 0:00,16.28,0.4285543881238958,0.0,0.0,0.0,0
22-8-2017 1:00,15.65,0.9280384082214184,0.0,0.0,0.0,0
22-8-2017 2:00,15.25,1.0112137856212868,0.0,0.0,0.0,0
22-8-2017 3:00,15.27,1.2842054181028182,0.0,0.0,0.0,0
22-8-2017 4:00,15.22,1.406334805915776,0.0,0.0,0.0,0
22-8-2017 5:00,15.45,1.3239156201611593,0.0,0.0,0.0,0
22-8-2017 6:00,15.95,1.1503115650489413,0.0,0.0,0.0,0
22-8-2017 7:00,16.6,0.8550545264545377,0.0,0.0,0.0,0
22-8-2017 8:00,17.4,0.8941672748694423,0.0,0.0,0.0,0
22-8-2017 9:00,18.18,0.13363656786773603,0.0,0.0,0.0,0
22-8-2017 10:00,19.15,-2.3243654224585093,0.0,0.0,0.0,0
22-8-2017 11:00,19.32,-3.9641526388234585,0.0,0.0,0.0,0
22-8-2017 12:00,19.67,-3.0811174690914918,0.0,0.0,0.0,0
22-8-2017 13:00,19.67,-0.3699428194177905,0.0,0.0,0.0,0
22-8-2017 14:00,18.87,-0.8404546569737619,0.0,0.0,0.0,0
22-8-2017 15:00,18.75,-0.6389916956869257,0.0,0.0,0.0,0
22-8-2017 16:00,18.88,-0.42069684579538347,0.0,0.0,0.0,0
22-8-2017 17:00,18.92,-0.10160422178494954,0.0,0.0,0.0,0
22-8-2017 18:00,18.9,-0.13293331705526157,0.0,0.0,0.0,0
22-8-2017 19:00,18.33,-1.246215704648634,0.0,0.0,0.0,0
22-8-2017 20:00,18.62,-0.11496218696409599,0.0,0.0,0.0,0
22-8-2017 21:00,18.08,1.2122931634854375,0.0,0.0,0.0,0
22-8-2017 22:00,18.02,1.2127401838375036,0.0,0.0,0.0,0
22-8-2017 23:00,17.37,0.5377378453289197,0.0,0.0,0.0,0
23-8-2017 0:00,14.62,-0.5468226748396141,0.0,0.0,0.0,0
23-8-2017 1:00,14.72,0.5862238729962854,0.0,0.0,0.0,0
23-8-2017 2:00,14.57,0.8171644767261377,0.0,0.0,0.0,0
23-8-2017 3:00,14.53,0.9165381890546271,0.0,0.0,0.0,0
23-8-2017 4:00,14.6,1.0427258954307774,0.0,0.0,0.0,0
23-8-2017 5:00,14.78,0.8273716781770766,0.0,0.0,0.0,0
23-8-2017 6:00,15.93,1.2148749785514035,0.0,0.0,0.0,0
23-8-2017 7:00,16.72,0.9640873197116164,0.0,0.0,0.0,0
23-8-2017 8:00,17.72,1.111124791592868,0.0,0.0,0.0,0
23-8-2017 9:00,18.12,-0.2293919865385874,0.0,0.0,0.0,0
23-8-2017 10:00,19.9,-2.4504900778829786,0.0,0.0,0.0,0
23-8-2017 11:00,21.13,-3.273216047786402,0.0,0.0,0.0,0
23-8-2017 12:00,21.7,-2.047292446559979,0.0,0.0,0.0,0
23-8-2017 13:00,25.12,4.600230913712615,0.0,0.0,0.0,0
23-8-2017 14:00,19.18,-1.087631255044979,0.0,0.0,0.0,0
23-8-2017 15:00,19.13,-0.8703055927284034,0.0,0.0,0.0,0
23-8-2017 16:00,19.03,-0.9105259665124983,0.0,0.0,0.0,0
23-8-2017 17:00,19.0,-0.6511532603685382,0.0,0.0,0.0,0
23-8-2017 18:00,18.62,-1.0675389945416072,0.0,0.0,0.0,0
23-8-2017 19:00,18.78,-1.4855663751684283,0.0,0.0,0.0,0
23-8-2017 20:00,18.35,-1.1237342116737032,0.0,0.0,0.0,0
23-8-2017 21:00,17.8,0.30808585711296743,0.0,0.0,0.0,0
23-8-2017 22:00,17.43,0.10078553243215538,0.0,0.0,0.0,0
23-8-2017 23:00,18.3,1.005336864851575,0.0,0.0,0.0,0
24-8-2017 0:00,16.52,1.0172196875054809,0.0,0.0,0.0,0
24-8-2017 1:00,15.8,1.4424719045932015,0.0,0.0,0.0,0
24-8-2017 2:00,15.77,1.899820876166494,0.0,0.0,0.0,0
24-8-2017 3:00,15.55,1.9142198098553926,0.0,0.0,0.0,0
24-8-2017 4:00,15.43,1.94306801808224,0.0,0.0,0.0,0
24-8-2017 5:00,15.9,2.0396282242892845,0.0,0.0,0.0,0
24-8-2017 6:00,16.27,1.6630883351099683,0.0,0.0,0.0,0
24-8-2017 7:00,16.9,1.2616376697458733,0.0,0.0,0.0,0
24-8-2017 8:00,17.43,0.9514674788145356,0.0,0.0,0.0,0
24-8-2017 9:00,18.3,-0.06944624289827672,0.0,0.0,0.0,0
24-8-2017 10:00,19.68,-3.213985754891553,0.0,0.0,0.0,0
24-8-2017 11:00,20.37,-4.769995797964192,0.0,0.0,0.0,0
24-8-2017 12:00,20.78,-3.5315290848740517,0.0,0.0,0.0,0
24-8-2017 13:00,22.25,1.7356515375670654,0.0,0.0,0.0,0
24-8-2017 14:00,20.17,-0.11625241082250781,0.0,0.0,0.0,0
24-8-2017 15:00,17.83,-2.18975549590656,0.0,0.0,0.0,0
24-8-2017 16:00,10.8,-9.135075300262221,0.0,0.0,0.0,0
24-8-2017 17:00,19.93,0.28806088783032635,0.0,0.0,0.0,0
24-8-2017 18:00,21.5,1.7901019145695578,0.0,0.0,0.0,0
24-8-2017 19:00,20.4,0.0708704372234834,0.0,0.0,0.0,0
24-8-2017 20:00,20.1,0.5068221428426085,0.0,0.0,0.0,0
24-8-2017 21:00,19.37,1.7374117013466055,0.0,0.0,0.0,0
24-8-2017 22:00,18.97,1.4665652639823783,0.0,0.0,0.0,0
24-8-2017 23:00,18.43,0.8848714996792495,0.0,0.0,0.0,0
25-8-2017 0:00,17.35,1.587398897505043,0.0,0.0,0.0,0
25-8-2017 1:00,16.55,1.8298402273725287,0.0,0.0,0.0,0
25-8-2017 2:00,16.13,1.7885810103171984,0.0,0.0,0.0,0
25-8-2017 3:00,15.98,1.7529886088944586,0.0,0.0,0.0,0
25-8-2017 4:00,16.05,1.849469552834396,0.0,0.0,0.0,0
25-8-2017 5:00,16.27,1.6428700421511628,0.0,0.0,0.0,0
25-8-2017 6:00,16.25,0.8172128230672016,0.0,0.0,0.0,0
25-8-2017 7:00,17.08,0.5500197150908903,0.0,0.0,0.0,0
25-8-2017 8:00,17.78,0.34756242525904923,0.0,0.0,0.0,0
25-8-2017 9:00,18.5,-0.9339680684220362,0.0,0.0,0.0,0
25-8-2017 10:00,18.83,-5.6121699530207465,0.0,0.0,0.0,0
25-8-2017 11:00,23.83,-3.0116850212191366,0.0,0.0,0.0,0
25-8-2017 12:00,24.15,-1.6508961482218254,0.0,0.0,0.0,0
25-8-2017 13:00,21.52,0.1260198549593028,0.0,0.0,0.0,0
25-8-2017 14:00,23.88,2.730152245509238,0.0,0.0,0.0,0
25-8-2017 15:00,23.6,2.7558985315960527,0.0,0.0,0.0,0
25-8-2017 16:00,18.93,-1.7644425847596956,0.0,0.0,0.0,0
25-8-2017 17:00,18.72,-1.6118767145535635,0.0,0.0,0.0,0
25-8-2017 18:00,18.88,-1.4857427267370333,0.0,0.0,0.0,0
25-8-2017 19:00,19.5,-1.4605121006373452,0.0,0.0,0.0,0
25-8-2017 20:00,18.85,-1.3647746527288263,0.0,0.0,0.0,0
25-8-2017 21:00,18.63,0.5590848119745502,0.0,0.0,0.0,0
25-8-2017 22:00,18.82,1.0491926784089607,0.0,0.0,0.0,0
25-8-2017 23:00,18.27,0.5857542338653445,0.0,0.0,0.0,0
26-8-2017 0:00,16.92,1.2134266233450823,0.0,0.0,0.0,0
26-8-2017 1:00,16.43,1.9638621970483143,0.0,0.0,0.0,0
26-8-2017 2:00,16.02,2.124799922420344,0.0,0.0,0.0,0
26-8-2017 3:00,16.0,2.4000213169419347,0.0,0.0,0.0,0
26-8-2017 4:00,15.82,2.4249401276509417,0.0,0.0,0.0,0
26-8-2017 5:00,15.95,2.244812092115236,0.0,0.0,0.0,0
26-8-2017 6:00,16.27,1.8696687351644243,0.0,0.0,0.0,0
26-8-2017 7:00,16.87,1.4763643766136916,0.0,0.0,0.0,0
26-8-2017 8:00,17.62,1.431251179919144,0.0,0.0,0.0,0
26-8-2017 9:00,18.82,0.5560890095221893,0.0,0.0,0.0,0
26-8-2017 10:00,19.77,-3.9487901524295523,0.0,0.0,0.0,0
26-8-2017 11:00,20.55,-5.684825150501302,0.0,0.0,0.0,0
26-8-2017 12:00,19.52,-5.424729022344424,0.0,0.0,0.0,0
26-8-2017 13:00,19.72,-0.2105786721654539,0.0,0.0,0.0,0
26-8-2017 14:00,18.82,-0.8529109764181868,0.0,0.0,0.0,0
26-8-2017 15:00,18.72,-0.6104163529026927,0.0,0.0,0.0,0
26-8-2017 16:00,19.17,0.051720184999314966,0.0,0.0,0.0,0
26-8-2017 17:00,18.75,-0.0027404852122678847,0.0,0.0,0.0,0
26-8-2017 18:00,18.93,0.11103024115026372,0.0,0.0,0.0,0
26-8-2017 19:00,19.02,-0.43573325183558964,0.0,0.0,0.0,0
26-8-2017 20:00,18.52,-0.2466662841689704,0.0,0.0,0.0,0
26-8-2017 21:00,4.88,-11.74477411143488,0.0,0.0,0.0,0
26-8-2017 22:00,18.17,1.8310508606294995,0.0,0.0,0.0,0
26-8-2017 23:00,18.05,1.7406305376767186,0.0,0.0,0.0,0
27-8-2017 0:00,17.1,2.778210720641731,0.0,0.0,0.0,0
27-8-2017 1:00,16.73,3.5865709175871494,0.0,0.0,0.0,0
27-8-2017 2:00,16.23,3.5896359647929827,0.0,0.0,0.0,0
27-8-2017 3:00,15.97,3.545601534665355,0.0,0.0,0.0,0
27-8-2017 4:00,15.65,3.3488885915498727,0.0,0.0,0.0,0
27-8-2017 5:00,15.97,3.237360918488278,0.0,0.0,0.0,0
27-8-2017 6:00,16.32,2.7648603109972,0.0,0.0,0.0,0
27-8-2017 7:00,16.83,2.1475735891986254,0.0,0.0,0.0,0
27-8-2017 8:00,17.67,2.061933372967964,0.0,0.0,0.0,0
27-8-2017 9:00,18.62,0.6596183472086068,0.0,0.0,0.0,0
27-8-2017 10:00,18.42,-5.645459270742693,0.0,0.0,0.0,0
27-8-2017 11:00,18.68,-8.221535377334328,0.0,0.0,0.0,0
27-8-2017 12:00,19.02,-6.545653172664409,0.0,0.0,0.0,0
27-8-2017 13:00,19.0,-1.0381485503413401,0.0,0.0,0.0,0
27-8-2017 14:00,18.82,-1.0408256242504876,0.0,0.0,0.0,0
27-8-2017 15:00,18.52,-1.055462738160049,0.0,0.0,0.0,0
27-8-2017 16:00,18.38,-1.0147286208540436,0.0,0.0,0.0,0
27-8-2017 17:00,18.32,-0.714374328325377,0.0,0.0,0.0,0
27-8-2017 18:00,18.63,-0.5111253602588768,0.0,0.0,0.0,0
27-8-2017 19:00,18.95,-0.8780414691723095,0.0,0.0,0.0,0
27-8-2017 20:00,18.23,-0.9738034785896268,0.0,0.0,0.0,0
27-8-2017 21:00,18.2,1.1584575118656204,0.0,0.0,0.0,0
27-8-2017 22:00,18.28,1.5323356992504067,0.0,0.0,0.0,0
27-8-2017 23:00,17.9,1.147269607578906,0.0,0.0,0.0,0
28-8-2017 0:00,17.13,2.39709369371964,0.0,0.0,0.0,0
28-8-2017 1:00,16.5,2.9312896449893273,0.0,0.0,0.0,0
28-8-2017 2:00,16.23,3.1443931451110387,0.0,0.0,0.0,0
28-8-2017 3:00,16.15,3.249014021416251,0.0,0.0,0.0,0
28-8-2017 4:00,16.0,3.188580455558359,0.0,0.0,0.0,0
28-8-2017 5:00,16.05,2.792369682934222,0.0,0.0,0.0,0
28-8-2017 6:00,16.32,2.2192283628662253,0.0,0.0,0.0,0
28-8-2017 7:00,16.98,1.7246758157831614,0.0,0.0,0.0,0
28-8-2017 8:00,17.65,1.4452251179797173,0.0,0.0,0.0,0
28-8-2017 9:00,18.4,-0.28565461665219516,0.0,0.0,0.0,0
28-8-2017 10:00,19.6,-5.692342544113204,0.0,0.0,0.0,0
28-8-2017 11:00,16.57,-11.729871612734875,0.0,0.0,0.0,0
28-8-2017 12:00,21.18,-5.589615185062069,0.0,0.0,0.0,0
28-8-2017 13:00,20.3,-0.3653409792419353,0.0,0.0,0.0,0
28-8-2017 14:00,20.12,-0.38494751145452355,0.0,0.0,0.0,0
28-8-2017 15:00,19.3,-0.9133010514361715,0.0,0.0,0.0,0
28-8-2017 16:00,20.48,0.4793494227585562,0.0,0.0,0.0,0
28-8-2017 17:00,20.2,0.6059503118435003,0.0,0.0,0.0,0
28-8-2017 18:00,20.38,0.6901091554299796,0.0,0.0,0.0,0
28-8-2017 19:00,19.5,-0.8759960902263693,0.0,0.0,0.0,0
28-8-2017 20:00,19.18,-0.5856235975429591,0.0,0.0,0.0,0
28-8-2017 21:00,19.0,1.4802572560679188,0.0,0.0,0.0,0
28-8-2017 22:00,19.45,2.2943141274772856,0.0,0.0,0.0,0
28-8-2017 23:00,18.33,1.1967277357912423,0.0,0.0,0.0,0
29-8-2017 0:00,17.12,2.100921193811864,0.0,0.0,0.0,0
29-8-2017 1:00,16.23,2.4053142658886166,0.0,0.0,0.0,0
29-8-2017 2:00,15.82,2.502817585409005,0.0,0.0,0.0,0
29-8-2017 3:00,15.58,2.460455134629882,0.0,0.0,0.0,0
29-8-2017 4:00,15.55,2.5295134267663606,0.0,0.0,0.0,0
29-8-2017 5:00,15.93,2.4353020608211366,0.0,0.0,0.0,0
29-8-2017 6:00,16.67,2.2982025344176797,0.0,0.0,0.0,0
29-8-2017 7:00,17.17,1.6030158154634542,0.0,0.0,0.0,0
29-8-2017 8:00,18.05,1.4963862895005597,0.0,0.0,0.0,0
29-8-2017 9:00,13.52,-5.71576496660936,0.0,0.0,0.0,0
29-8-2017 10:00,18.42,-7.995932027701757,0.0,0.0,0.0,0
29-8-2017 11:00,21.13,-8.536782882475142,0.0,0.0,0.0,0
29-8-2017 12:00,22.5,-5.514021055921116,0.0,0.0,0.0,0
29-8-2017 13:00,21.93,0.5121426530594704,0.0,0.0,0.0,0
29-8-2017 14:00,21.65,0.2907265822068297,0.0,0.0,0.0,0
29-8-2017 15:00,21.63,0.48377653581647806,0.0,0.0,0.0,0
29-8-2017 16:00,21.57,0.5853212706287891,0.0,0.0,0.0,0
29-8-2017 17:00,21.57,0.9371016466019846,0.0,0.0,0.0,0
29-8-2017 18:00,20.95,0.13110325604043283,0.0,0.0,0.0,0
29-8-2017 19:00,20.9,-0.7033736459534055,0.0,0.0,0.0,0
29-8-2017 20:00,21.22,0.11395082923615618,0.0,0.0,0.0,0
29-8-2017 21:00,20.15,1.335574864942199,0.0,0.0,0.0,0
29-8-2017 22:00,20.25,1.8342153779082615,0.0,0.0,0.0,0
29-8-2017 23:00,19.38,0.9785136437397775,0.0,0.0,0.0,0
30-8-2017 0:00,18.42,2.729018212437051,0.0,0.0,0.0,0
30-8-2017 1:00,17.6,3.28662678764357,0.0,0.0,0.0,0
30-8-2017 2:00,16.65,2.9533219935656234,0.0,0.0,0.0,0
30-8-2017 3:00,16.53,3.12347802375578,0.0,0.0,0.0,0
30-8-2017 4:00,16.35,3.0958461396810826,0.0,0.0,0.0,0
30-8-2017 5:00,16.48,2.791399439125456,0.0,0.0,0.0,0
30-8-2017 6:00,17.03,2.4713714939298583,0.0,0.0,0.0,0
30-8-2017 7:00,18.02,2.2401961424942094,0.0,0.0,0.0,0
30-8-2017 8:00,18.53,1.7454259083969355,0.0,0.0,0.0,0
30-8-2017 9:00,19.8,-0.4268188544740852,0.0,0.0,0.0,0
30-8-2017 10:00,20.6,-9.49210019453013,0.0,0.0,0.0,0
30-8-2017 11:00,22.0,-12.34527220235364,0.0,0.0,0.0,0
30-8-2017 12:00,21.5,-10.165227899381152,0.0,0.0,0.0,0
30-8-2017 13:00,21.78,-0.20689968922386726,0.0,0.0,0.0,0
30-8-2017 14:00,22.42,0.4427124671636804,0.0,0.0,0.0,0
30-8-2017 15:00,21.63,-0.00896706308446582,0.0,0.0,0.0,0
30-8-2017 16:00,23.73,2.246573524344008,0.0,0.0,0.0,0
30-8-2017 17:00,23.07,2.0305742947039818,0.0,0.0,0.0,0
30-8-2017 18:00,21.73,0.40760127338204555,0.0,0.0,0.0,0
30-8-2017 19:00,20.57,-1.785199419263602,0.0,0.0,0.0,0
30-8-2017 20:00,21.23,-0.7464995716762495,0.0,0.0,0.0,0
30-8-2017 21:00,20.98,1.5967841156255034,0.0,0.0,0.0,0
30-8-2017 22:00,20.05,1.1171475637899277,0.0,0.0,0.0,0
30-8-2017 23:00,19.93,1.0798405469403356,0.0,0.0,0.0,0
31-8-2017 0:00,18.52,2.780022745989754,0.0,0.0,0.0,0
31-8-2017 1:00,17.47,3.2102400704754075,0.0,0.0,0.0,0
31-8-2017 2:00,17.2,3.5855204089485113,0.0,0.0,0.0,0
31-8-2017 3:00,17.07,3.7575881662573174,0.0,0.0,0.0,0
31-8-2017 4:00,16.9,3.7117111269544445,0.0,0.0,0.0,0
31-8-2017 5:00,17.23,3.571944706393232,0.0,0.0,0.0,0
31-8-2017 6:00,17.45,2.8539039570103064,0.0,0.0,0.0,0
31-8-2017 7:00,18.42,2.501705750332487,0.0,0.0,0.0,0
31-8-2017 8:00,19.42,2.403760585340077,0.0,0.0,0.0,0
31-8-2017 9:00,20.58,-0.6921186962551751,0.0,0.0,0.0,0
31-8-2017 10:00,22.92,-10.955194587623168,0.0,0.0,0.0,0
31-8-2017 11:00,23.73,-15.453368020845108,0.0,0.0,0.0,0
31-8-2017 12:00,23.77,-11.758721513802456,0.5,2.76,-1.76,0
31-8-2017 13:00,24.4,1.6375366777138467,0.29,2.54,-1.97,0
31-8-2017 14:00,24.48,1.683942541523912,0.5,2.76,-1.76,0
31-8-2017 15:00,25.9,3.5732990076002906,0.71,2.96,-1.55,0
31-8-2017 16:00,22.32,0.15026584415622324,1.35,3.62,-0.91,0
31-8-2017 17:00,22.47,0.8927876001305926,0.38,2.64,-1.89,0
31-8-2017 18:00,22.13,0.2291405392758996,0.32,2.58,-1.94,0
31-8-2017 19:00,26.73,3.605264928016794,0.18,2.43,-2.08,1
31-8-2017 20:00,21.65,-1.1574109799597245,1.72,3.99,-0.56,0
31-8-2017 21:00,21.17,1.3754551129099717,-0.09,2.19,-2.37,0
31-8-2017 22:00,20.75,1.5754947353769566,0.58,2.86,-1.7,0
31-8-2017 23:00,19.97,1.0645356749504629,-0.09,2.19,-2.37,0
1-9-2017 0:00,18.25,2.972348743456223,-0.38,1.9,-2.65,0
1-9-2017 1:00,16.28,2.752627628231643,-0.63,1.64,-2.91,0
1-9-2017 2:00,16.0,3.313945910266405,-1.18,1.1,-3.46,0
1-9-2017 3:00,15.55,3.3453782057044776,-1.21,1.06,-3.49,0
1-9-2017 4:00,15.75,3.80860849189423,-1.42,0.86,-3.7,0
1-9-2017 5:00,15.78,3.4741827151576743,-1.32,0.96,-3.6,0
1-9-2017 6:00,16.47,3.298789525417668,-1.36,0.92,-3.64,0
1-9-2017 7:00,18.28,3.826178319596636,-1.17,1.12,-3.45,0
1-9-2017 8:00,18.95,3.4456680798080512,-0.7,1.59,-2.98,0
1-9-2017 9:00,20.55,0.036561445469825316,-0.65,1.63,-2.93,0
1-9-2017 10:00,22.67,-13.123913206794388,0.0,2.28,-2.28,0
1-9-2017 11:00,22.77,-19.326692274999022,0.27,2.55,-2.0,0
1-9-2017 12:00,23.72,-13.687047773470471,0.1,2.37,-2.17,0
1-9-2017 13:00,22.3,0.6886331981906721,0.24,2.51,-2.03,0
1-9-2017 14:00,22.73,0.9833255682090574,-0.25,2.01,-2.52,0
1-9-2017 15:00,22.28,1.0752108293957754,0.07,2.34,-2.19,0
1-9-2017 16:00,23.15,2.045096713864975,-0.05,2.21,-2.32,0
1-9-2017 17:00,22.88,2.4035338721743464,0.62,2.88,-1.65,0
1-9-2017 18:00,22.3,1.346607188507491,0.36,2.62,-1.9,0
1-9-2017 19:00,22.97,0.4890510753555155,0.32,2.58,-1.94,0
1-9-2017 20:00,21.15,-1.1876061714642603,0.44,2.7,-1.82,0
1-9-2017 21:00,20.38,1.3633646294321764,0.13,2.39,-2.13,0
1-9-2017 22:00,20.02,1.6816027286605397,0.42,2.68,-1.84,0
1-9-2017 23:00,18.85,0.8555139271159433,-0.13,2.12,-2.39,0
2-9-2017 0:00,17.63,3.6694801675368467,-0.41,1.84,-2.67,0
2-9-2017 1:00,16.55,4.528577827870329,-0.42,1.83,-2.68,0
2-9-2017 2:00,15.95,4.884691268735061,-0.58,1.67,-2.84,0
2-9-2017 3:00,15.8,5.314245317570709,-0.7,1.56,-2.95,0
2-9-2017 4:00,15.58,5.415340144521391,-0.73,1.52,-2.98,0
2-9-2017 5:00,15.93,5.531745060715764,-0.77,1.48,-3.03,0
2-9-2017 6:00,16.52,5.3544894797249505,-0.71,1.54,-2.96,0
2-9-2017 7:00,17.87,5.4869553238669795,-0.63,1.62,-2.88,0
2-9-2017 8:00,19.15,5.789370058388492,-0.43,1.82,-2.68,0
2-9-2017 9:00,19.5,0.5117812742054788,-0.22,2.03,-2.47,0
2-9-2017 10:00,20.73,-16.08134693605677,-0.11,2.14,-2.35,0
2-9-2017 11:00,22.4,-21.573986436345923,-0.18,2.06,-2.43,0
2-9-2017 12:00,20.82,-17.294598737433287,0.14,2.38,-2.11,0
2-9-2017 13:00,20.23,1.0676573136337062,-0.67,1.57,-2.92,0
2-9-2017 14:00,20.33,1.0577884891214389,-0.81,1.43,-3.06,0
2-9-2017 15:00,19.83,1.2993548446795131,-0.7,1.54,-2.95,0
2-9-2017 16:00,19.77,1.4093120763230047,-0.85,1.4,-3.09,0
2-9-2017 17:00,19.5,1.849490480515982,-0.57,1.68,-2.82,0
2-9-2017 18:00,19.48,1.2451100175855636,-0.77,1.48,-3.01,0
2-9-2017 19:00,20.55,0.5296992460893399,-0.6,1.64,-2.84,0
2-9-2017 20:00,19.75,-0.25511349602509625,-0.34,1.9,-2.58,0
2-9-2017 21:00,12.87,-3.539193797739964,-0.2,2.04,-2.44,0
2-9-2017 22:00,0.0,-15.705913032388281,-1.85,0.41,-4.11,0
2-9-2017 23:00,17.92,2.5997126143109632,-6.45,-4.01,-8.89,1
3-9-2017 0:00,17.43,6.5166762160089675,-0.18,2.33,-2.69,1
3-9-2017 1:00,16.48,7.565422456428529,-0.97,1.52,-3.47,1
3-9-2017 2:00,16.28,8.307160860651244,-0.72,1.78,-3.21,1
3-9-2017 3:00,15.92,8.495666467412477,0.21,2.71,-2.28,0
3-9-2017 4:00,15.83,8.655455639652104,0.5,2.99,-1.99,0
3-9-2017 5:00,15.88,8.28484691058324,0.74,3.23,-1.74,0
3-9-2017 6:00,16.3,7.717884600147446,0.81,3.29,-1.67,0
3-9-2017 7:00,17.18,7.127583156058371,0.86,3.34,-1.61,0
3-9-2017 8:00,17.55,6.275078526695815,0.84,3.32,-1.64,0
3-9-2017 9:00,18.33,0.3642610280800298,0.66,3.14,-1.81,0
3-9-2017 10:00,18.87,-19.90626730476822,0.83,3.31,-1.64,0
3-9-2017 11:00,20.02,-27.223513801729865,0.38,2.85,-2.1,0
3-9-2017 12:00,19.62,-21.039129470021123,0.34,2.82,-2.13,0
3-9-2017 13:00,19.2,0.40409740100968605,-0.07,2.41,-2.54,0
3-9-2017 14:00,19.23,0.1040631225247246,-0.26,2.21,-2.73,0
3-9-2017 15:00,19.08,0.6497063130121106,-0.25,2.22,-2.72,0
3-9-2017 16:00,18.78,0.34413063238785924,-0.32,2.14,-2.79,0
3-9-2017 17:00,18.55,0.817628385080063,-0.2,2.26,-2.66,0
3-9-2017 18:00,18.95,0.4373722455017166,-0.37,2.09,-2.83,0
3-9-2017 19:00,19.15,-1.4943150817231405,-0.14,2.32,-2.6,0
3-9-2017 20:00,19.18,-1.6657052165166064,-0.29,2.17,-2.75,0
3-9-2017 21:00,18.65,1.5669290586495457,0.09,2.55,-2.37,0
3-9-2017 22:00,19.15,2.687018169616877,0.73,3.19,-1.73,0
3-9-2017 23:00,18.8,2.6561239440523003,1.46,3.92,-1.01,0
4-9-2017 0:00,17.47,5.997850586519732,0.57,3.04,-1.9,0
4-9-2017 1:00,16.12,6.614818982918333,0.7,3.17,-1.77,0
4-9-2017 2:00,15.6,6.930755926391996,0.53,3.0,-1.93,0
4-9-2017 3:00,15.33,7.086786666971783,0.38,2.84,-2.09,0
4-9-2017 4:00,15.07,6.913843760393316,0.24,2.71,-2.22,0
4-9-2017 5:00,15.62,6.9531230155351125,0.1,2.56,-2.36,0
4-9-2017 6:00,15.9,6.123355605128257,0.15,2.61,-2.31,0
4-9-2017 7:00,16.98,5.577188502281977,0.04,2.5,-2.42,0
4-9-2017 8:00,18.37,5.596666138509253,0.06,2.51,-2.4,0
4-9-2017 9:00,19.23,-1.028444070411414,0.23,2.68,-2.23,0
4-9-2017 10:00,21.63,-22.157436521717806,0.43,2.88,-2.03,0
4-9-2017 11:00,23.93,-29.360354011224047,0.74,3.19,-1.72,0
4-9-2017 12:00,24.17,-21.542037042591318,1.16,3.62,-1.3,0
4-9-2017 13:00,24.58,3.7698847670014715,1.12,3.58,-1.33,0
4-9-2017 14:00,25.4,4.167409153141989,1.36,3.82,-1.1,0
4-9-2017 15:00,21.92,1.4648532971568713,1.65,4.12,-0.81,0
4-9-2017 16:00,23.0,2.4914496050048314,0.55,3.01,-1.92,0
4-9-2017 17:00,23.27,3.5671230603298483,1.14,3.6,-1.33,0
4-9-2017 18:00,22.67,2.099847598237158,0.95,3.41,-1.52,0
4-9-2017 19:00,23.07,0.13064992205935155,0.67,3.13,-1.79,0
4-9-2017 20:00,21.4,-1.848551398637479,0.54,3.01,-1.92,0
4-9-2017 21:00,21.13,2.10319592035313,0.21,2.67,-2.25,0
4-9-2017 22:00,20.15,1.9522847989228502,0.74,3.2,-1.72,0
4-9-2017 23:00,19.38,1.7270621230811862,0.72,3.18,-1.74,0
5-9-2017 0:00,17.63,5.2057432283047795,-0.29,2.17,-2.76,0
5-9-2017 1:00,16.48,6.3830571300670265,-0.43,2.02,-2.89,0
5-9-2017 2:00,15.93,6.95531596217624,-0.59,1.87,-3.04,0
5-9-2017 3:00,15.8,7.520995185959187,-0.78,1.67,-3.24,0
5-9-2017 4:00,15.63,7.667158038201464,-0.84,1.62,-3.29,0
5-9-2017 5:00,15.83,7.547536988309492,-0.92,1.54,-3.38,0
5-9-2017 6:00,16.3,7.066176188687123,-0.91,1.54,-3.36,0
5-9-2017 7:00,17.62,6.8851772954986,-0.85,1.6,-3.3,0
5-9-2017 8:00,18.67,6.69767106573066,-0.7,1.75,-3.15,0
5-9-2017 9:00,18.13,-1.9884922765121544,-0.61,1.84,-3.06,0
5-9-2017 10:00,19.98,-26.252743471218754,-0.79,1.66,-3.24,0
5-9-2017 11:00,24.1,-32.53812657821168,-0.64,1.81,-3.09,1
5-9-2017 12:00,24.92,-23.01267159759705,0.34,2.79,-2.11,0
5-9-2017 13:00,25.08,5.206689513216432,0.46,2.91,-1.99,0
5-9-2017 14:00,22.1,1.8305169266411276,0.71,3.16,-1.74,0
5-9-2017 15:00,22.05,2.758506386842196,-0.13,2.32,-2.57,0
5-9-2017 16:00,21.72,2.4463003353557156,0.24,2.68,-2.21,0
5-9-2017 17:00,22.03,3.714906631124684,0.17,2.62,-2.27,0
5-9-2017 18:00,22.32,3.1013689843287793,0.14,2.58,-2.3,0
5-9-2017 19:00,22.73,0.9558387633828254,0.28,2.72,-2.16,0
5-9-2017 20:00,19.23,-2.909995939032548,0.21,2.65,-2.23,0
5-9-2017 21:00,19.53,1.9923935137024564,-0.58,1.86,-3.02,0
5-9-2017 22:00,17.97,1.3925976552906008,0.16,2.6,-2.28,0
5-9-2017 23:00,17.12,1.2351620245878898,-0.0,2.43,-2.44,0
6-9-2017 0:00,15.53,5.462429690703161,-0.96,1.48,-3.4,0
6-9-2017 1:00,14.18,6.683413244427591,-1.01,1.43,-3.45,0
6-9-2017 2:00,13.75,7.519249689053321,-1.18,1.26,-3.63,0
6-9-2017 3:00,13.47,8.072628226659639,-1.26,1.18,-3.71,0
6-9-2017 4:00,13.57,8.568571321387545,-1.3,1.14,-3.75,0
6-9-2017 5:00,13.57,8.300855837174367,-1.19,1.26,-3.64,0
6-9-2017 6:00,14.37,8.152746273326201,-1.2,1.25,-3.64,0
6-9-2017 7:00,14.9,7.139123714373007,-0.97,1.48,-3.41,0
6-9-2017 8:00,16.33,7.293972108273998,-1.04,1.4,-3.49,0
6-9-2017 9:00,18.25,0.1833848349409557,-0.78,1.67,-3.22,0
6-9-2017 10:00,20.95,-26.118769806748713,-0.11,2.33,-2.56,0
6-9-2017 11:00,22.03,-36.631026272461774,0.27,2.72,-2.17,0
6-9-2017 12:00,20.62,-28.28169700685782,0.22,2.66,-2.22,0
6-9-2017 13:00,19.82,2.0791916846926526,-0.25,2.19,-2.69,0
6-9-2017 14:00,18.72,0.42952814618946533,-0.4,2.03,-2.84,0
6-9-2017 15:00,20.73,3.466780101809377,-0.67,1.77,-3.1,0
6-9-2017 16:00,21.13,3.7268349028177887,0.16,2.59,-2.28,0
6-9-2017 17:00,18.52,2.041021186114726,0.34,2.77,-2.1,0
6-9-2017 18:00,18.58,0.965931399314389,-0.53,1.9,-2.97,0
6-9-2017 19:00,21.52,0.9362335212302639,-0.29,2.14,-2.73,0
6-9-2017 20:00,18.68,-2.5105179316382618,0.47,2.91,-1.96,0
6-9-2017 21:00,18.18,1.875894859147703,-0.06,2.37,-2.49,0
6-9-2017 22:00,17.73,2.35826334647734,0.39,2.82,-2.04,0
6-9-2017 23:00,16.98,2.217809930629084,0.76,3.2,-1.67,0
7-9-2017 0:00,15.43,7.034135465533744,-0.03,2.4,-2.47,0
7-9-2017 1:00,14.52,8.784792454247096,-0.0,2.43,-2.43,0
7-9-2017 2:00,13.82,9.340210294416096,0.04,2.46,-2.39,0
7-9-2017 3:00,13.68,10.017291928872528,-0.15,2.28,-2.58,0
7-9-2017 4:00,13.35,10.00856650240151,-0.18,2.25,-2.6,0
7-9-2017 5:00,13.63,9.98477618844057,-0.29,2.14,-2.71,0
7-9-2017 6:00,14.27,9.59193746494007,-0.27,2.15,-2.69,0
7-9-2017 7:00,15.28,8.927464521342031,-0.23,2.19,-2.65,0
7-9-2017 8:00,16.25,8.496440820031783,-0.25,2.17,-2.67,0
7-9-2017 9:00,17.52,-0.13050329838687702,-0.26,2.16,-2.68,0
7-9-2017 10:00,18.67,-30.852540986588586,0.08,2.5,-2.34,0
7-9-2017 11:00,19.55,-42.73365041055076,-0.16,2.26,-2.58,0
7-9-2017 12:00,20.52,-30.93242645948645,-0.36,2.05,-2.78,0
7-9-2017 13:00,19.45,2.3362558673690437,-0.11,2.31,-2.52,0
7-9-2017 14:00,18.37,0.6293674315060045,-0.46,1.96,-2.87,0
7-9-2017 15:00,19.58,2.9921479371127795,-0.63,1.79,-3.04,0
7-9-2017 16:00,20.2,3.390972499002345,-0.15,2.27,-2.56,0
7-9-2017 17:00,19.98,4.108679923605045,0.09,2.5,-2.33,0
7-9-2017 18:00,20.5,3.309979150578073,0.16,2.57,-2.26,0
7-9-2017 19:00,18.55,-1.9757048592085802,0.46,2.87,-1.95,0
7-9-2017 20:00,18.03,-3.2951915370946114,-0.45,1.96,-2.86,0
7-9-2017 21:00,18.12,1.9139808224409833,0.05,2.46,-2.36,0
7-9-2017 22:00,18.47,3.1174222017934987,0.42,2.82,-1.99,0
7-9-2017 23:00,17.27,2.3928595470810876,0.99,3.4,-1.43,0
8-9-2017 0:00,15.45,7.437151497056515,0.2,2.59,-2.2,0
8-9-2017 1:00,14.45,9.144779037473104,0.2,2.59,-2.2,0
8-9-2017 2:00,13.72,9.617075389899668,0.23,2.62,-2.16,0
8-9-2017 3:00,13.73,10.385157237920524,0.04,2.43,-2.35,0
8-9-2017 4:00,13.5,10.359143924447658,0.06,2.45,-2.33,0
8-9-2017 5:00,13.85,10.380908788348865,-0.04,2.35,-2.43,0
8-9-2017 6:00,14.55,9.974970912805933,-0.02,2.37,-2.41,0
8-9-2017 7:00,15.42,9.05131183272946,0.02,2.4,-2.37,0
8-9-2017 8:00,16.32,8.436080284374388,-0.05,2.34,-2.43,0
8-9-2017 9:00,17.03,-1.4562348351061107,-0.1,2.29,-2.48,0
8-9-2017 10:00,21.57,-31.49716348399171,0.0,2.38,-2.38,0
8-9-2017 11:00,27.93,-38.90613378037483,0.9,3.29,-1.48,1
8-9-2017 12:00,28.6,-26.172023058022013,2.5,4.91,0.1,0
8-9-2017 13:00,21.15,4.310869758582889,2.65,5.06,0.23,0
8-9-2017 14:00,19.57,2.443173279804384,0.4,2.83,-2.02,0
8-9-2017 15:00,20.47,5.03789918984242,0.39,2.81,-2.03,0
8-9-2017 16:00,19.42,4.101910367057522,0.47,2.89,-1.95,0
8-9-2017 17:00,19.33,5.488671187026785,-0.28,2.14,-2.7,0
8-9-2017 18:00,19.75,4.931891681833971,-0.4,2.01,-2.82,0
8-9-2017 19:00,19.1,1.1057537944055866,-0.42,1.99,-2.83,0
8-9-2017 20:00,17.8,-0.6609358544371542,-0.94,1.47,-3.36,0
8-9-2017 21:00,17.45,4.9118794220720705,-0.84,1.58,-3.25,0
8-9-2017 22:00,16.6,5.407277041671463,-0.61,1.8,-3.02,0
8-9-2017 23:00,16.53,6.2494884963188895,-0.45,1.96,-2.86,0
9-9-2017 0:00,2.78,0.4326302095890764,-0.78,1.62,-3.19,0
9-9-2017 1:00,0.0,0.8387754749453382,-5.0,-2.5,-7.5,0
9-9-2017 2:00,0.0,2.4194975128659006,-5.13,-2.58,-7.67,0
9-9-2017 3:00,0.0,3.55012674768761,-4.91,-2.35,-7.48,0
9-9-2017 4:00,0.0,4.068372720449329,-4.62,-2.03,-7.2,0
9-9-2017 5:00,0.0,3.840809072045273,-3.97,-1.37,-6.56,0
9-9-2017 6:00,6.47,9.256888354292489,-3.29,-0.69,-5.89,1
9-9-2017 7:00,12.98,13.979159447570167,-0.32,2.29,-2.94,1
9-9-2017 8:00,14.47,13.96483636200286,1.77,4.37,-0.83,1
9-9-2017 9:00,15.42,3.16216980608033,1.97,4.56,-0.63,1
9-9-2017 10:00,16.38,-33.61263023886934,2.52,5.11,-0.08,1
9-9-2017 11:00,17.42,-47.794441843053605,2.04,4.63,-0.55,0
9-9-2017 12:00,17.37,-34.99242478479246,1.61,4.2,-0.97,0
9-9-2017 13:00,17.0,5.012427845297033,1.43,4.0,-1.15,0
9-9-2017 14:00,16.45,3.3616726473382386,1.77,4.35,-0.8,0
9-9-2017 15:00,16.38,4.37609328554271,1.72,4.29,-0.85,0
9-9-2017 16:00,16.43,3.7230404018185244,1.59,4.15,-0.98,0
9-9-2017 17:00,16.43,4.551885093471892,1.6,4.17,-0.96,0
9-9-2017 18:00,16.57,2.8700573324307825,1.52,4.09,-1.04,0
9-9-2017 19:00,16.48,-1.4235039563217864,1.16,3.72,-1.41,0
9-9-2017 20:00,16.37,-2.8543660998036895,0.72,3.28,-1.85,0
9-9-2017 21:00,9.43,-3.9204499953394105,1.18,3.74,-1.38,0
9-9-2017 22:00,12.8,0.43436177548827715,-1.4,1.18,-3.97,0
9-9-2017 23:00,14.93,3.060805250476964,0.57,3.15,-2.0,0
10-9-2017 0:00,14.22,10.500254638023346,0.52,3.1,-2.06,0
10-9-2017 1:00,13.72,13.13571729259965,1.69,4.28,-0.89,0
10-9-2017 2:00,13.0,13.845664680294592,1.94,4.53,-0.65,0
10-9-2017 3:00,12.83,14.649640966197534,1.83,4.43,-0.77,0
10-9-2017 4:00,12.62,14.74294588947421,1.76,4.35,-0.84,0
10-9-2017 5:00,12.7,14.540369327895931,1.55,4.15,-1.05,0
10-9-2017 6:00,13.45,14.132781367064338,1.31,3.91,-1.28,0
10-9-2017 7:00,14.25,12.99529823282721,0.86,3.46,-1.73,0
10-9-2017 8:00,14.8,11.896199209178704,0.32,2.91,-2.28,0
10-9-2017 9:00,15.7,0.33340366111218067,-0.05,2.54,-2.64,0
10-9-2017 10:00,16.45,-39.365045335603526,-0.01,2.59,-2.6,0
10-9-2017 11:00,17.03,-55.01947580329089,-0.64,1.95,-3.23,0
10-9-2017 12:00,16.48,-41.48932996482338,-1.28,1.3,-3.86,0
10-9-2017 13:00,16.6,2.5241496979214553,-1.71,0.88,-4.3,0
10-9-2017 14:00,16.25,1.3370029999531354,-1.1,1.48,-3.68,0
10-9-2017 15:00,15.85,2.4877855854948034,-0.94,1.64,-3.52,0
10-9-2017 16:00,15.73,1.9243358600020954,-1.05,1.53,-3.62,0
10-9-2017 17:00,16.18,3.451685044118813,-0.94,1.63,-3.52,0
10-9-2017 18:00,16.28,1.781229648008651,-0.62,1.95,-3.2,0
10-9-2017 19:00,16.62,-2.2133344212888613,-0.57,2.0,-3.15,0
10-9-2017 20:00,16.6,-3.5119484386306894,-0.48,2.09,-3.06,0
10-9-2017 21:00,16.33,2.421318556632432,0.13,2.7,-2.44,0
10-9-2017 22:00,15.85,2.9437945415322098,0.75,3.32,-1.82,0
10-9-2017 23:00,15.22,2.77272009970595,0.95,3.53,-1.62,0
11-9-2017 0:00,14.27,10.566727224372308,0.35,2.93,-2.22,0
11-9-2017 1:00,13.45,12.968947997359699,1.28,3.86,-1.29,0
11-9-2017 2:00,13.15,14.085561464020053,1.42,3.99,-1.16,0
11-9-2017 3:00,12.82,14.710325530195263,1.53,4.11,-1.05,0
11-9-2017 4:00,12.8,14.916130133177944,1.45,4.02,-1.13,0
11-9-2017 5:00,13.0,14.79232897031076,1.43,4.0,-1.15,0
11-9-2017 6:00,13.58,14.12486207828568,1.3,3.88,-1.27,0
11-9-2017 7:00,14.77,13.241413028419071,0.84,3.42,-1.74,0
11-9-2017 8:00,15.75,12.441326378574681,0.5,3.08,-2.08,0
11-9-2017 9:00,16.73,0.08455899169959658,0.31,2.88,-2.27,0
11-9-2017 10:00,18.45,-41.52138180344673,0.33,2.9,-2.24,0
11-9-2017 11:00,18.63,-58.752273981301755,0.1,2.67,-2.47,0
11-9-2017 12:00,18.95,-43.28784220929248,-0.71,1.86,-3.28,0
11-9-2017 13:00,18.53,3.3532901058562654,-0.71,1.86,-3.27,0
11-9-2017 14:00,18.18,2.078777527626965,-0.52,2.05,-3.08,0
11-9-2017 15:00,18.05,3.614947680254378,-0.46,2.1,-3.02,0
11-9-2017 16:00,18.38,3.4101272221597263,-0.56,2.0,-3.12,0
11-9-2017 17:00,18.33,4.509764599832696,-0.34,2.22,-2.9,0
11-9-2017 18:00,18.28,2.5644652697463926,-0.24,2.32,-2.8,0
11-9-2017 19:00,18.13,-2.227315615932236,-0.25,2.3,-2.81,0
11-9-2017 20:00,18.55,-3.2198955429701552,-0.41,2.15,-2.97,0
11-9-2017 21:00,17.93,2.7927565648311123,0.31,2.86,-2.25,0
11-9-2017 22:00,17.18,3.1629372338484885,0.65,3.21,-1.9,0
11-9-2017 23:00,17.2,3.7043853452527884,0.73,3.29,-1.82,0
12-9-2017 0:00,14.9,10.84299067708464,0.46,3.02,-2.09,0
12-9-2017 1:00,13.95,13.39050851728981,0.71,3.27,-1.84,0
12-9-2017 2:00,13.35,14.382327011722282,0.81,3.36,-1.75,0
12-9-2017 3:00,12.95,15.106417806976467,0.74,3.29,-1.81,0
12-9-2017 4:00,12.98,15.473257322183407,0.63,3.18,-1.92,0
12-9-2017 5:00,13.23,15.516616774055393,0.63,3.18,-1.92,0
12-9-2017 6:00,14.37,15.477656166864904,0.58,3.13,-1.97,0
12-9-2017 7:00,15.4,14.456604315962604,0.43,2.98,-2.12,0
12-9-2017 8:00,16.12,13.423893154516133,0.1,2.64,-2.45,0
12-9-2017 9:00,17.07,0.2584995762252902,-0.1,2.44,-2.65,0
12-9-2017 10:00,18.15,-44.7696143339915,-0.03,2.51,-2.57,0
12-9-2017 11:00,19.42,-61.991649538654066,-0.46,2.08,-3.01,0
12-9-2017 12:00,18.72,-46.38761314974285,-0.69,1.85,-3.23,0
12-9-2017 13:00,17.78,2.9525614364388453,-1.11,1.43,-3.65,0
12-9-2017 14:00,17.5,1.7120725965776344,-1.05,1.49,-3.59,0
12-9-2017 15:00,17.73,3.775019934919854,-0.92,1.62,-3.46,0
12-9-2017 16:00,17.7,3.1702070977374373,-0.86,1.68,-3.4,0
12-9-2017 17:00,17.48,4.173170321466204,-0.77,1.77,-3.31,0
12-9-2017 18:00,17.67,2.344064709903286,-0.68,1.86,-3.22,0
12-9-2017 19:00,18.25,-2.023888676775849,-0.54,2.0,-3.08,0
12-9-2017 20:00,18.05,-3.7693901981292566,-0.33,2.2,-2.87,0
12-9-2017 21:00,17.63,2.8188686338855575,0.07,2.6,-2.46,0
12-9-2017 22:00,16.63,3.002991769167224,0.53,3.06,-2.0,0
12-9-2017 23:00,16.15,3.053200215948774,0.53,3.06,-2.0,0
13-9-2017 0:00,14.92,11.899047310776986,0.11,2.64,-2.42,0
13-9-2017 1:00,14.02,14.665338968918089,0.83,3.36,-1.69,0
13-9-2017 2:00,13.43,15.733389633087711,0.91,3.44,-1.61,0
13-9-2017 3:00,13.17,16.659222269794164,0.91,3.43,-1.62,0
13-9-2017 4:00,13.2,17.02800153375298,0.9,3.43,-1.62,0
13-9-2017 5:00,13.25,16.872861068208863,0.91,3.43,-1.62,0
13-9-2017 6:00,14.02,16.41674200095887,0.78,3.31,-1.74,0
13-9-2017 7:00,14.95,15.202885832034148,0.47,2.99,-2.05,0
13-9-2017 8:00,15.85,14.26138454576523,0.09,2.62,-2.43,0
13-9-2017 9:00,16.7,0.156578965326716,-0.05,2.47,-2.57,0
13-9-2017 10:00,17.88,-47.57288665658957,-0.06,2.46,-2.58,0
13-9-2017 11:00,17.7,-67.37832014371733,-0.43,2.09,-2.95,0
13-9-2017 12:00,17.6,-50.102269457839434,-1.24,1.28,-3.76,0
13-9-2017 13:00,17.23,2.9367739152074037,-1.33,1.19,-3.84,0
13-9-2017 14:00,17.72,2.3997095325865736,-1.05,1.47,-3.57,0
13-9-2017 15:00,18.22,4.867885089668702,-0.67,1.84,-3.19,0
13-9-2017 16:00,17.68,3.6822562875269895,-0.51,2.0,-3.03,0
13-9-2017 17:00,17.63,4.8996488593862715,-0.62,1.9,-3.13,0
13-9-2017 18:00,17.62,2.715544924333333,-0.39,2.12,-2.9,0
13-9-2017 19:00,18.17,-2.016235998169421,-0.38,2.13,-2.89,0
13-9-2017 20:00,17.07,-4.830641846369989,-0.21,2.3,-2.72,0
13-9-2017 21:00,17.85,3.2982058893252706,-0.22,2.29,-2.73,0
13-9-2017 22:00,16.6,3.2570443622994887,0.66,3.17,-1.85,0
13-9-2017 23:00,16.1,3.2487565928358,0.5,3.01,-2.0,0
14-9-2017 0:00,13.65,11.491286385066097,0.18,2.69,-2.33,0
14-9-2017 1:00,13.22,14.88527297824212,0.35,2.85,-2.16,0
14-9-2017 2:00,12.85,16.22847692924787,0.65,3.15,-1.85,0
14-9-2017 3:00,13.22,17.8349725245056,0.68,3.18,-1.83,0
14-9-2017 4:00,13.53,18.47457912752395,0.93,3.44,-1.57,0
14-9-2017 5:00,13.95,18.704932891596975,1.05,3.55,-1.46,0
14-9-2017 6:00,14.23,17.725649511320697,1.12,3.62,-1.39,0
14-9-2017 7:00,15.13,16.402949180563862,0.64,3.14,-1.87,0
14-9-2017 8:00,15.78,15.13661792566281,0.32,2.82,-2.19,0
14-9-2017 9:00,16.28,-0.15916903161627616,0.06,2.56,-2.44,0
14-9-2017 10:00,17.08,-51.07158483467377,-0.11,2.39,-2.61,0
14-9-2017 11:00,18.08,-70.83201507370845,-0.62,1.88,-3.12,0
14-9-2017 12:00,17.95,-52.51554856030559,-0.88,1.61,-3.38,0
14-9-2017 13:00,17.9,3.9622401711378306,-1.04,1.46,-3.53,0
14-9-2017 14:00,17.78,2.738476817288829,-0.66,1.84,-3.15,0
14-9-2017 15:00,18.18,5.231757164642298,-0.55,1.94,-3.04,0
14-9-2017 16:00,17.83,4.155178682793901,-0.43,2.06,-2.92,0
14-9-2017 17:00,17.55,5.202205348413646,-0.47,2.02,-2.96,0
14-9-2017 18:00,17.43,2.768307835500625,-0.39,2.1,-2.88,0
14-9-2017 19:00,17.12,-3.142084688172904,-0.42,2.07,-2.91,0
14-9-2017 20:00,15.87,-6.260178928567775,-0.63,1.86,-3.12,0
14-9-2017 21:00,16.63,2.219633615879328,-0.69,1.8,-3.18,0
14-9-2017 22:00,16.53,3.3835919987012204,0.05,2.53,-2.44,0
14-9-2017 23:00,15.8,3.1372125851474024,0.39,2.87,-2.1,0
15-9-2017 0:00,14.45,13.126829646934887,-0.02,2.46,-2.51,0
15-9-2017 1:00,14.03,16.713934409593527,0.68,3.17,-1.8,0
15-9-2017 2:00,13.62,18.097714881883114,0.96,3.44,-1.53,0
15-9-2017 3:00,13.45,19.240296670139806,1.05,3.53,-1.44,0
15-9-2017 4:00,13.33,19.466168751916843,1.08,3.56,-1.4,0
15-9-2017 5:00,13.43,19.389519779433677,1.02,3.5,-1.47,0
15-9-2017 6:00,14.03,18.694575119957825,0.93,3.41,-1.55,0
15-9-2017 7:00,14.82,17.18053960589988,0.59,3.07,-1.89,0
15-9-2017 8:00,15.57,15.93688736089771,0.2,2.68,-2.28,0
15-9-2017 9:00,16.17,-0.024794992883792943,-0.0,2.48,-2.48,0
15-9-2017 10:00,17.12,-53.51507393138627,-0.12,2.36,-2.59,0
15-9-2017 11:00,17.62,-74.8354138766316,-0.52,1.95,-3.0,0
15-9-2017 12:00,18.12,-54.74344449000757,-0.96,1.52,-3.43,0
15-9-2017 13:00,17.72,4.764575904243548,-0.81,1.66,-3.28,0
15-9-2017 14:00,17.27,3.3955998835774697,-0.63,1.84,-3.1,0
15-9-2017 15:00,17.18,5.785471325613395,-0.65,1.82,-3.12,0
15-9-2017 16:00,17.02,5.07942946846943,-0.76,1.71,-3.23,0
15-9-2017 17:00,16.98,6.643925338113485,-0.73,1.74,-3.19,0
15-9-2017 18:00,17.2,4.628069357604241,-0.56,1.91,-3.03,0
15-9-2017 19:00,16.83,-1.4430996569761962,-0.46,2.01,-2.93,0
15-9-2017 20:00,16.62,-3.4570471793015134,-0.54,1.93,-3.01,0
15-9-2017 21:00,17.15,5.228947241570669,-0.23,2.23,-2.7,0
15-9-2017 22:00,15.95,5.413242601913463,0.27,2.73,-2.2,0
15-9-2017 23:00,16.17,6.17398861194275,0.2,2.66,-2.26,0
16-9-2017 0:00,14.48,16.535910010960663,0.3,2.76,-2.17,0
16-9-2017 1:00,1.42,7.62057548233496,0.73,3.19,-1.73,0
16-9-2017 2:00,0.0,8.029375015141412,-4.15,-1.63,-6.67,0
16-9-2017 3:00,0.0,9.372485535630094,-4.13,-1.59,-6.66,0
16-9-2017 4:00,0.0,9.689065635398856,-4.37,-1.82,-6.91,0
16-9-2017 5:00,11.4,20.856728452857,-4.32,-1.77,-6.87,1
16-9-2017 6:00,13.8,21.857437040679045,0.66,3.26,-1.93,1
16-9-2017 7:00,14.83,20.433380869817483,1.11,3.7,-1.48,1
16-9-2017 8:00,15.5,18.963722161211678,1.4,3.98,-1.19,0
16-9-2017 9:00,16.85,2.7069845775195933,1.48,4.06,-1.09,0
16-9-2017 10:00,16.87,-54.72031732983601,2.05,4.61,-0.52,0
16-9-2017 11:00,18.13,-76.61972681470019,1.06,3.62,-1.5,0
16-9-2017 12:00,17.82,-56.471414388263135,1.04,3.6,-1.52,0
16-9-2017 13:00,17.78,6.055471023031229,0.7,3.26,-1.86,0
16-9-2017 14:00,17.47,4.2899156897836335,1.03,3.58,-1.53,0
16-9-2017 15:00,17.37,6.3350115807375715,0.95,3.51,-1.61,0
16-9-2017 16:00,18.18,6.0581397025335875,0.78,3.34,-1.78,0
16-9-2017 17:00,22.85,12.05225536666169,1.12,3.67,-1.44,1
16-9-2017 18:00,17.48,3.9665915090159505,3.16,5.73,0.59,0
16-9-2017 19:00,17.28,-2.5932034060116678,0.59,3.17,-1.99,0
16-9-2017 20:00,16.85,-5.320853619807707,0.68,3.26,-1.9,0
16-9-2017 21:00,9.78,-3.9266021781382676,0.45,3.03,-2.12,0
16-9-2017 22:00,7.1,-5.2298946959023915,-2.54,0.06,-5.13,0
16-9-2017 23:00,15.38,3.520051882082175,-3.29,-0.7,-5.88,1
17-9-2017 0:00,14.75,15.526352762702693,-0.09,2.51,-2.69,0
17-9-2017 1:00,14.05,19.21182533985138,0.54,3.14,-2.07,0
17-9-2017 2:00,13.42,20.54889033023344,1.9,4.51,-0.71,0
17-9-2017 3:00,13.32,21.92577598001286,1.93,4.54,-0.68,0
17-9-2017 4:00,13.15,22.14631049483207,1.98,4.59,-0.63,0
17-9-2017 5:00,13.17,22.0129997364816,1.75,4.36,-0.87,0
17-9-2017 6:00,13.83,21.304076205851622,0.95,3.56,-1.65,0
17-9-2017 7:00,14.75,19.75471401243651,0.54,3.15,-2.06,0
17-9-2017 8:00,15.43,18.28376347447714,-0.13,2.49,-2.76,0
17-9-2017 9:00,16.22,0.715195767613352,-0.08,2.52,-2.69,0
17-9-2017 10:00,16.53,-59.13590400185651,-0.08,2.52,-2.68,0
17-9-2017 11:00,16.85,-83.02115791960067,-0.56,2.04,-3.16,0
17-9-2017 12:00,16.62,-61.63327734661169,-0.99,1.61,-3.59,0
17-9-2017 13:00,16.45,4.093565193480911,-1.14,1.46,-3.74,0
17-9-2017 14:00,16.37,2.6925226594068015,-0.92,1.7,-3.54,0
17-9-2017 15:00,16.17,4.973935111033748,-0.71,1.91,-3.33,0
17-9-2017 16:00,16.0,3.847325323524746,-0.82,1.78,-3.41,0
17-9-2017 17:00,16.18,5.475653291836455,-0.85,1.74,-3.45,0
17-9-2017 18:00,16.65,3.1547740667537827,-0.77,1.84,-3.39,0
17-9-2017 19:00,16.55,-3.55905423902146,-0.37,2.22,-2.97,0
17-9-2017 20:00,16.23,-6.265814634588658,-0.33,2.29,-2.94,0
17-9-2017 21:00,15.77,1.8999894379722484,-0.11,2.49,-2.7,0
17-9-2017 22:00,15.6,2.9524046521954084,0.25,2.84,-2.34,0
17-9-2017 23:00,15.12,2.724847408229458,0.79,3.38,-1.8,0
18-9-2017 0:00,14.15,14.82882338054679,0.05,2.63,-2.54,0
18-9-2017 1:00,13.6,18.514796471915915,0.79,3.37,-1.8,0
18-9-2017 2:00,13.17,19.79982032831962,1.52,4.11,-1.07,0
18-9-2017 3:00,13.12,20.970174515835822,1.67,4.26,-0.93,0
18-9-2017 4:00,13.15,21.074356854151542,1.78,4.37,-0.82,0
18-9-2017 5:00,13.52,20.951786396102637,1.73,4.33,-0.86,0
18-9-2017 6:00,13.8,19.47494462313084,1.15,3.74,-1.45,0
18-9-2017 7:00,14.52,17.291990283272376,0.62,3.21,-1.97,0
18-9-2017 8:00,17.22,17.411461792069638,-0.18,2.43,-2.79,0
18-9-2017 9:00,19.53,0.1872258795865136,0.86,3.45,-1.73,0
18-9-2017 10:00,22.7,-59.94150983444525,1.42,4.01,-1.18,0
18-9-2017 11:00,23.63,-84.68644626751703,2.22,4.82,-0.37,0
18-9-2017 12:00,23.02,-62.942835630423794,1.99,4.59,-0.6,0
18-9-2017 13:00,23.07,5.893818780388898,1.65,4.25,-0.94,0
18-9-2017 14:00,23.3,4.497143787410103,1.83,4.43,-0.77,0
18-9-2017 15:00,28.42,11.994727541631892,1.83,4.43,-0.77,0
18-9-2017 16:00,29.0,11.308221512249297,3.83,6.44,1.21,0
18-9-2017 17:00,0.47,-15.816182477485892,3.53,6.16,0.9,0
18-9-2017 18:00,28.5,9.180778667763999,-8.4,-5.49,-11.31,1
18-9-2017 19:00,27.38,1.0259094013058103,3.1,6.12,0.09,0
18-9-2017 20:00,28.1,-0.8969687459678681,0.72,3.74,-2.29,1
18-9-2017 21:00,28.95,8.834984189828596,3.13,6.17,0.1,0
18-9-2017 22:00,27.4,8.44755055357778,3.63,6.68,0.58,0
18-9-2017 23:00,24.85,6.026932905200063,3.34,6.4,0.29,0
19-9-2017 0:00,20.35,15.13302738675294,2.02,5.08,-1.04,0
19-9-2017 1:00,17.28,16.28791328020845,0.74,3.8,-2.32,0
19-9-2017 2:00,15.78,16.389308290499756,0.2,3.25,-2.86,0
19-9-2017 3:00,14.47,16.181543303618696,-0.37,2.68,-3.42,0
19-9-2017 4:00,13.55,15.157633888207645,-1.16,1.89,-4.21,0
19-9-2017 5:00,13.93,14.905490787874193,-1.36,1.68,-4.4,0
19-9-2017 6:00,16.53,15.56041782997444,-1.77,1.27,-4.81,0
19-9-2017 7:00,20.45,16.34356193502003,-1.05,1.98,-4.08,0
19-9-2017 8:00,24.13,17.213146081921316,-0.12,2.91,-3.15,0
19-9-2017 9:00,27.57,0.20996244605325032,1.0,4.03,-2.03,0
19-9-2017 10:00,28.97,-64.55956323242233,2.15,5.19,-0.89,0
19-9-2017 11:00,36.35,-84.0573362007036,1.97,5.01,-1.07,1
19-9-2017 12:00,38.93,-58.12114951938803,4.23,7.3,1.17,1
19-9-2017 13:00,37.65,12.475828025077167,5.28,8.36,2.2,0
19-9-2017 14:00,36.85,9.944031836126118,4.95,8.01,1.89,0
19-9-2017 15:00,36.47,12.038298155875172,4.22,7.32,1.11,0
19-9-2017 16:00,33.45,7.642663797098894,2.9,6.01,-0.22,0
19-9-2017 17:00,33.32,8.99205485072995,1.08,4.2,-2.04,0
19-9-2017 18:00,31.95,4.463383367725545,1.56,4.68,-1.56,0
19-9-2017 19:00,32.18,-2.6457476029111575,-0.4,2.72,-3.52,0
19-9-2017 20:00,36.27,-1.3379642453868783,-0.45,2.66,-3.56,0
19-9-2017 21:00,35.52,6.90980233301633,0.75,3.87,-2.37,0
19-9-2017 22:00,36.28,8.632484857289121,0.64,3.75,-2.48,0
19-9-2017 23:00,33.55,5.76877181549721,1.34,4.45,-1.77,0
20-9-2017 0:00,25.45,11.740732748530355,-0.09,3.03,-3.2,0
20-9-2017 1:00,22.63,12.096102263169506,-1.94,1.2,-5.07,0
20-9-2017 2:00,18.75,8.659268922113036,-2.63,0.49,-5.75,0
20-9-2017 3:00,14.72,4.567624617275065,-3.79,-0.66,-6.92,0
20-9-2017 4:00,14.88,3.39602166078172,-4.93,-1.8,-8.06,0
20-9-2017 5:00,16.28,1.9828101274268803,-5.04,-1.91,-8.17,0
20-9-2017 6:00,20.63,2.155568837957823,-4.97,-1.84,-8.11,0
20-9-2017 7:00,24.37,0.47764726834238047,-3.29,-0.16,-6.43,0
20-9-2017 8:00,27.37,-1.610211505846749,-1.82,1.33,-4.97,0
20-9-2017 9:00,45.32,-6.972293718751111,-0.49,2.66,-3.64,1
20-9-2017 10:00,57.68,-65.83363579801329,6.09,9.32,2.85,1
20-9-2017 11:00,54.3,-99.27684834978328,12.01,15.31,8.71,0
20-9-2017 12:00,54.8,-76.16694260141631,10.91,14.21,7.62,0
20-9-2017 13:00,74.03,17.64237323741108,10.25,13.54,6.96,1
20-9-2017 14:00,90.27,31.292959327413755,18.06,21.51,14.61,1
20-9-2017 15:00,105.62,48.483978926903056,25.33,28.95,21.72,1
20-9-2017 16:00,101.37,42.00115908040492,33.03,36.79,29.28,0
20-9-2017 17:00,102.85,45.407787301774526,25.79,29.55,22.04,0
20-9-2017 18:00,91.97,31.59849463634714,23.98,27.76,20.2,0
20-9-2017 19:00,105.18,37.500223702254814,9.01,12.87,5.16,0
20-9-2017 20:00,108.08,37.82780503637654,11.7,15.59,7.82,0
20-9-2017 21:00,87.2,27.95225957616971,7.96,11.85,4.08,0
20-9-2017 22:00,86.82,30.18914169111038,-6.62,-2.61,-10.64,0
20-9-2017 23:00,63.38,8.215065150132311,-10.06,-6.08,-14.05,0
21-9-2017 0:00,28.83,-9.976331567510954,-24.63,-20.4,-28.86,0
21-9-2017 1:00,23.7,-8.606856338261018,-44.74,-40.21,-49.27,0
21-9-2017 2:00,20.48,-8.168295937238128,-45.69,-41.29,-50.1,0
21-9-2017 3:00,18.25,-7.250197466605854,-45.19,-40.89,-49.49,1
21-9-2017 4:00,17.9,-5.785985972851357,-39.48,-35.24,-43.71,1
21-9-2017 5:00,16.9,-5.748934621385956,-33.52,-29.29,-37.74,0
21-9-2017 6:00,20.65,-2.3770129245826936,-29.34,-25.1,-33.58,1
21-9-2017 7:00,24.45,-0.24464763138504253,-22.41,-18.15,-26.68,1
21-9-2017 8:00,29.45,3.4214032108095083,-16.5,-12.21,-20.79,1
21-9-2017 9:00,32.98,-14.738155665945161,-9.82,-5.49,-14.15,1
21-9-2017 10:00,48.33,-71.16976299028633,-5.54,-1.2,-9.88,1
21-9-2017 11:00,58.23,-90.02686396983744,9.17,13.61,4.72,1
21-9-2017 12:00,59.08,-62.82168799871144,16.59,21.05,12.14,0
21-9-2017 13:00,61.83,18.79229310619025,18.54,22.98,14.09,0
21-9-2017 14:00,92.6,47.6975884468588,18.62,23.02,14.21,1
21-9-2017 15:00,68.77,26.657688297800448,33.55,38.15,28.95,0
21-9-2017 16:00,57.28,13.660240435859237,14.69,19.21,10.16,0
21-9-2017 17:00,51.05,9.346402598793333,11.1,15.62,6.58,0
21-9-2017 18:00,54.22,9.358785524768876,3.67,8.19,-0.86,0
21-9-2017 19:00,60.98,8.383797040728496,2.99,7.52,-1.54,1
21-9-2017 20:00,70.7,15.283598764955265,5.48,10.0,0.96,1
21-9-2017 21:00,60.28,15.265591330042525,9.49,14.08,4.89,0
21-9-2017 22:00,64.43,21.07751770157096,4.99,9.59,0.39,0
21-9-2017 23:00,52.23,9.33392232732654,7.25,11.86,2.64,0
22-9-2017 0:00,29.83,2.97001262492671,-0.17,4.48,-4.81,0
22-9-2017 1:00,23.08,0.7209624522285836,-9.03,-4.32,-13.73,0
22-9-2017 2:00,18.45,-2.3577145212280186,-11.54,-6.84,-16.24,0
22-9-2017 3:00,17.45,-2.3225043916843546,-14.93,-10.25,-19.61,0
22-9-2017 4:00,17.5,-2.63512844573696,-14.09,-9.42,-18.76,0
22-9-2017 5:00,16.98,-4.745331831531814,-12.65,-7.98,-17.31,0
22-9-2017 6:00,19.57,-5.211764770536703,-11.9,-7.22,-16.57,0
22-9-2017 7:00,25.0,-4.1766390794559385,-9.67,-4.99,-14.35,1
22-9-2017 8:00,29.97,-3.26420508580766,-6.32,-1.62,-11.02,1
22-9-2017 9:00,40.25,-17.164680062858622,-3.02,1.69,-7.73,1
22-9-2017 10:00,60.33,-73.53999394104375,2.45,7.18,-2.28,1
22-9-2017 11:00,78.4,-87.0344246571409,12.3,17.09,7.5,1
22-9-2017 12:00,99.3,-40.14741977202086,21.71,26.55,16.87,1
22-9-2017 13:00,95.83,38.356549599709886,34.14,39.08,29.19,0
22-9-2017 14:00,94.7,34.91187719179905,29.21,34.09,24.34,0
22-9-2017 15:00,98.27,41.046380294947795,23.8,28.66,18.93,0
22-9-2017 16:00,96.65,37.469627418318254,21.42,26.3,16.53,0
22-9-2017 17:00,88.92,25.595206248408033,16.91,21.82,12.0,0
22-9-2017 18:00,87.05,14.289147491377733,10.91,15.85,5.97,0
22-9-2017 19:00,87.13,0.15732418298051698,5.56,10.52,0.6,0
22-9-2017 20:00,102.53,6.439229022903504,1.47,6.45,-3.5,0
22-9-2017 21:00,85.68,-24.94346916264226,7.32,12.33,2.32,0
22-9-2017 22:00,62.87,-71.37872731045323,-2.83,2.22,-7.88,0
22-9-2017 23:00,50.4,-108.73407029389112,-16.16,-10.98,-21.33,0
23-9-2017 0:00,36.1,-131.65272175697464,-21.53,-16.35,-26.71,0
23-9-2017 1:00,21.12,-165.29556719323836,-25.81,-20.68,-30.93,0
23-9-2017 2:00,18.0,-190.13675140279196,-30.95,-25.86,-36.05,0
23-9-2017 3:00,15.57,-214.80969947595443,-28.91,-23.88,-33.94,0
23-9-2017 4:00,16.73,-237.35442893943167,-27.32,-22.32,-32.32,0
23-9-2017 5:00,18.55,-245.63563061083448,-23.06,-18.06,-28.06,1
23-9-2017 6:00,18.33,-257.47416173399535,-18.44,-13.42,-23.46,0
23-9-2017 7:00,23.8,-265.0100191933792,-15.91,-10.87,-20.95,1
23-9-2017 8:00,27.85,-273.62494559662497,-10.36,-5.29,-15.43,1
23-9-2017 9:00,395.48,69.03212518633211,-6.57,-1.48,-11.67,1
23-9-2017 10:00,1760.38,1354.5015666146073,92.84,109.62,76.05,1
23-9-2017 11:00,2191.48,1752.9282680222686,1385.622285281307,-1299.16,0.0,0
23-9-2017 12:00,1714.58,1303.3455636816868,771.3600623746497,-107.38,0.0,0
23-9-2017 13:00,73.38,-246.98193999994794,-651.1318446579944,-92.31,0.0,0
23-9-2017 14:00,63.93,-253.40804147663266,-1363.62,397.74,-1428.08,1
23-9-2017 15:00,63.2,-246.01059644147125,-172.4,-135.16,-237.43,0
23-9-2017 16:00,88.12,-217.70811565298362,-154.48,-401.67,-216.65,0
23-9-2017 17:00,60.15,-224.03407478135526,-467.81463928607184,221.73,0.0,0
23-9-2017 18:00,60.77,-207.27952984700858,328.1,-205.51,258.47,0
23-9-2017 19:00,90.5,-166.38914260537973,-209.89,-233.69,-284.61,0
23-9-2017 20:00,140.05,-100.40608927537758,-478.13,233.56,-554.58,1
23-9-2017 21:00,38.93,-159.7785504844304,146.27,-44.12,70.81,0
23-9-2017 22:00,28.63,-137.77606542445483,-285.1,-35.01,-364.68,0
23-9-2017 23:00,41.65,-93.76822828996016,-313.39,239.52,-393.1,1
24-9-2017 0:00,27.77,-59.70669378660141,154.53,66.5,75.5,0
24-9-2017 1:00,18.9,-45.60066370223131,-125.58,81.89,-207.04,0
24-9-2017 2:00,14.68,-30.01168436368252,-116.28,135.63,-197.54,0
24-9-2017 3:00,12.2,-13.210119855351707,158.93,129.21,78.35,0
24-9-2017 4:00,10.65,2.9957160559458273,-14.4,140.23,-95.3,0
24-9-2017 5:00,12.13,5.496521042224046,1.21,160.21,-79.47,0
24-9-2017 6:00,15.52,8.338896678196363,55.16,118.33,-25.32,0
24-9-2017 7:00,20.33,11.165061011636908,48.95,1.51,-31.32,0
24-9-2017 8:00,21.95,11.145779154786176,59.88,60.83,-20.46,0
24-9-2017 9:00,25.52,-10.959494083021081,79.75,163.89,-0.71,0
24-9-2017 10:00,37.07,-81.72518712905784,37.8,260.9,-42.73,0
24-9-2017 11:00,40.07,-112.4172433784108,-79.18,179.05,-159.86,0
24-9-2017 12:00,40.35,-83.39954672546637,-19.86,152.4,-100.55,0
24-9-2017 13:00,37.53,2.2125948435696614,83.17,187.82,2.45,1
24-9-2017 14:00,43.38,5.086182602147254,179.66,126.08,98.43,0
24-9-2017 15:00,38.72,2.7776878733574364,98.1,134.14,17.15,0
24-9-2017 16:00,31.57,-6.989479369001572,71.51,190.94,-9.39,0
24-9-2017 17:00,32.23,-4.934552145846638,106.82,109.87,25.82,0
24-9-2017 18:00,43.72,2.2230207898651173,45.28,110.7,-35.53,0
24-9-2017 19:00,102.42,51.418042891507994,53.34,136.43,-27.46,0
24-9-2017 20:00,95.82,40.76466902157723,110.0,86.36,29.06,0
24-9-2017 21:00,90.88,46.37889573624847,29.05,59.8,-51.76,0
24-9-2017 22:00,84.85,41.105574951241756,29.86,80.48,-50.98,0
24-9-2017 23:00,82.75,38.39304315090004,55.6,69.18,-25.24,0
25-9-2017 0:00,37.03,9.701214567932176,5.59,57.83,-75.18,0
25-9-2017 1:00,24.55,1.4363365925618368,-20.94,74.26,-101.67,0
25-9-2017 2:00,16.35,-5.824304101161232,-0.22,65.77,-80.92,0
25-9-2017 3:00,15.62,-6.148010591711419,-11.5,63.19,-92.18,0
25-9-2017 4:00,14.92,-8.031392886013364,-22.81,73.68,-103.45,0
25-9-2017 5:00,15.35,-9.577401085086834,-6.34,71.94,-86.95,0
25-9-2017 6:00,18.82,-9.702938533014112,-14.82,46.07,-95.4,0
25-9-2017 7:00,26.2,-7.403572249781874,-17.35,-60.91,-97.9,0
25-9-2017 8:00,33.0,-5.336029403270331,-6.84,-0.2,-87.36,0
25-9-2017 9:00,53.88,-11.772941237268611,-8.55,85.14,-89.04,0
25-9-2017 10:00,78.27,-73.52306333304408,-34.4,192.23,-114.88,0
25-9-2017 11:00,103.03,-84.41317181483785,-141.62,122.39,-222.32,0
25-9-2017 12:00,93.27,-64.95436874379409,-80.84,64.65,-161.48,0
25-9-2017 13:00,98.43,32.228235385342515,4.55,153.41,-76.05,0
25-9-2017 14:00,102.73,33.582329688612205,111.43,114.24,30.63,0
25-9-2017 15:00,71.22,4.678712505300979,41.66,107.88,-39.07,0
25-9-2017 16:00,82.17,13.042703089751086,-16.03,152.63,-96.71,0
25-9-2017 17:00,97.08,30.322983553442867,72.65,74.03,-8.12,0
25-9-2017 18:00,122.2,51.8680513795299,33.54,73.89,-47.17,0
25-9-2017 19:00,153.32,74.04212059443981,27.17,120.56,-53.54,0
25-9-2017 20:00,124.82,42.2267317778292,71.87,33.75,-8.9,0
25-9-2017 21:00,100.73,31.288928112722814,-6.7,49.83,-87.43,0
25-9-2017 22:00,108.08,41.6409530567214,-6.82,87.99,-87.54,0
25-9-2017 23:00,64.22,-0.6407961044690893,39.85,42.92,-40.86,0
26-9-2017 0:00,39.77,-5.184836199775944,-47.06,54.67,-127.87,0
26-9-2017 1:00,31.98,-5.356361505603047,-30.95,72.94,-111.73,0
26-9-2017 2:00,25.03,-8.072361502314294,7.24,55.82,-73.51,0
26-9-2017 3:00,18.35,-11.057078262461758,-37.83,65.03,-118.58,0
26-9-2017 4:00,16.6,-10.765554374879045,-26.04,76.95,-106.76,0
26-9-2017 5:00,16.9,-8.848652365779778,-7.74,68.23,-88.43,0
26-9-2017 6:00,22.3,-3.5023795040822208,-24.86,39.4,-105.53,0
26-9-2017 7:00,29.67,2.2798974344138543,-15.61,-60.67,-96.24,0
26-9-2017 8:00,33.37,4.743973689759841,-3.66,60.1,-84.26,0
26-9-2017 9:00,42.45,-11.732586186565484,-12.36,49.56,-92.94,0
26-9-2017 10:00,56.4,-84.34506246035822,-41.17,151.83,-121.74,0
26-9-2017 11:00,138.12,-36.831148302871384,-141.46,151.1,-222.25,0
26-9-2017 12:00,71.75,-70.0991639420069,-20.66,61.03,-101.42,0
26-9-2017 13:00,66.17,21.137962399631718,-31.31,142.01,-112.18,1
26-9-2017 14:00,70.35,23.606622899994974,70.77,110.28,-10.29,0
26-9-2017 15:00,55.9,13.221942914563833,70.1,82.66,-10.9,0
26-9-2017 16:00,61.18,17.151356469235488,-19.93,100.21,-100.89,0
26-9-2017 17:00,57.42,16.23998013314644,60.96,88.19,-20.09,0
26-9-2017 18:00,63.0,18.505532809291083,29.28,98.19,-51.71,0
26-9-2017 19:00,58.52,5.1418555992933435,1.68,98.48,-79.29,0
26-9-2017 20:00,55.43,-1.0223417021718788,19.25,90.82,-61.71,0
26-9-2017 21:00,52.13,9.382436915246082,7.27,79.63,-73.66,0
26-9-2017 22:00,51.52,11.974688480532471,17.28,85.99,-63.63,0
26-9-2017 23:00,45.8,7.978602850775694,17.6,92.27,-63.28,0
27-9-2017 0:00,16.57,-0.4468800402876667,9.97,81.04,-70.87,0
27-9-2017 1:00,13.22,3.4944517106238067,-1.18,82.35,-81.99,0
27-9-2017 2:00,16.63,10.696719398725868,5.2,82.95,-75.58,0
27-9-2017 3:00,16.25,13.564823202366576,11.51,77.37,-69.24,0
27-9-2017 4:00,15.42,14.261048984020363,0.32,79.08,-80.4,0
27-9-2017 5:00,16.12,15.41658133491751,1.66,80.94,-79.03,0
27-9-2017 6:00,19.07,17.096441606500896,2.29,42.22,-78.36,0
27-9-2017 7:00,24.5,19.669166188771293,-3.25,-65.07,-83.87,0
27-9-2017 8:00,29.92,22.587032085955578,-1.52,-19.38,-82.11,0
27-9-2017 9:00,35.42,0.6179891832804429,0.38,84.16,-80.19,0
27-9-2017 10:00,41.22,-84.40780519298215,-38.34,172.27,-118.9,0
27-9-2017 11:00,48.3,-113.792136987061,-145.83,93.41,-226.6,0
27-9-2017 12:00,45.97,-82.6396487952247,-100.11,100.5,-180.84,0
27-9-2017 13:00,47.97,19.64576072867555,3.49,149.42,-77.19,0
27-9-2017 14:00,42.32,11.921837973932448,91.52,81.46,10.77,0
27-9-2017 15:00,42.73,16.278071808082245,12.69,89.06,-68.03,0
27-9-2017 16:00,49.75,21.579221460877793,19.79,103.04,-60.93,0
27-9-2017 17:00,45.57,19.89059342346375,68.69,76.94,-12.04,0
27-9-2017 18:00,40.73,11.152460607487463,0.78,100.33,-79.91,0
27-9-2017 19:00,40.75,1.48752072888783,8.39,97.3,-72.29,0
27-9-2017 20:00,38.38,-4.5584088460331245,22.38,87.3,-58.27,0
27-9-2017 21:00,37.3,7.764230499948752,-3.68,104.01,-84.31,0
27-9-2017 22:00,32.13,5.110167690223129,19.71,91.22,-60.9,0
27-9-2017 23:00,30.18,4.14095582924508,16.71,86.29,-63.88,0
28-9-2017 0:00,21.82,16.591360194888694,6.71,89.59,-73.87,0
28-9-2017 1:00,16.15,17.90771047774492,23.44,83.39,-57.13,0
28-9-2017 2:00,14.98,20.110407325866426,10.69,79.15,-69.85,0
28-9-2017 3:00,12.02,19.973493168501513,5.78,79.32,-74.72,0
28-9-2017 4:00,13.02,22.00645613103828,9.11,77.19,-71.37,0
28-9-2017 5:00,12.62,22.063313764428685,2.94,75.83,-77.51,0
28-9-2017 6:00,14.88,22.999456386593316,-1.27,41.34,-81.68,0
28-9-2017 7:00,18.98,24.13531359728365,-1.06,-58.71,-81.45,0
28-9-2017 8:00,23.78,26.329654120951854,-3.17,-21.76,-83.53,0
28-9-2017 9:00,27.45,1.636972090995613,-4.5,83.79,-84.83,0
28-9-2017 10:00,33.17,-86.71321109403988,-38.98,161.05,-119.3,0
28-9-2017 11:00,35.33,-122.25685954598748,-139.22,86.56,-219.73,0
28-9-2017 12:00,38.78,-83.92493822948242,-102.26,93.85,-182.75,0
28-9-2017 13:00,37.42,18.820799602744366,3.34,130.24,-77.11,0
28-9-2017 14:00,33.42,12.736338718959743,80.56,79.28,0.07,0
28-9-2017 15:00,28.02,11.51553149875538,6.09,90.04,-74.37,0
28-9-2017 16:00,27.18,8.940644963202551,13.4,95.52,-67.06,0
28-9-2017 17:00,26.9,11.093457044088321,49.79,79.55,-30.65,0
28-9-2017 18:00,25.88,5.89033055561589,-1.12,100.5,-81.52,0
28-9-2017 19:00,25.32,-4.857072941332394,9.65,98.74,-70.74,0
28-9-2017 20:00,24.77,-9.385935739455846,15.15,94.81,-65.21,0
28-9-2017 21:00,23.2,2.6749450244432147,-0.78,106.57,-81.11,0
28-9-2017 22:00,23.07,4.904956514017908,20.18,97.12,-60.14,0
28-9-2017 23:00,24.72,7.323007096130922,18.44,91.21,-61.85,0
29-9-2017 0:00,16.55,20.49968739279384,14.54,93.0,-65.72,0
29-9-2017 1:00,13.9,24.69325421618478,26.32,87.18,-53.92,0
29-9-2017 2:00,12.4,26.30857823291573,16.91,81.49,-63.31,0
29-9-2017 3:00,11.05,27.518844123135132,11.03,80.19,-69.15,0
29-9-2017 4:00,11.78,28.950737198442212,12.84,75.82,-67.31,0
29-9-2017 5:00,11.55,28.648280211113423,7.06,74.18,-73.06,0
29-9-2017 6:00,12.82,28.01006528064683,1.39,40.86,-78.7,0
29-9-2017 7:00,14.9,26.488412850543412,0.13,-58.09,-79.93,0
29-9-2017 8:00,18.62,26.968585731481816,-4.22,-20.42,-84.25,0
29-9-2017 9:00,21.47,-0.20643774477412435,-5.83,77.9,-85.83,0
29-9-2017 10:00,23.82,-95.93971259598655,-39.13,152.25,-119.13,0
29-9-2017 11:00,26.1,-133.3713805632069,-138.27,87.93,-218.45,0
29-9-2017 12:00,26.58,-97.37872897943711,-100.57,95.35,-180.72,0
29-9-2017 13:00,25.93,9.3057870263488,-2.19,129.25,-82.28,0
29-9-2017 14:00,25.75,6.439237878755268,72.14,80.75,-7.97,0
29-9-2017 15:00,24.5,9.009839469429323,7.84,91.67,-72.25,0
29-9-2017 16:00,25.88,8.047363508010616,15.27,100.75,-64.8,0
29-9-2017 17:00,25.57,9.775531003246837,49.18,81.99,-30.88,0
29-9-2017 18:00,25.83,5.231326138328903,0.72,100.09,-79.3,0
29-9-2017 19:00,30.55,-1.0746402811933358,11.65,97.77,-68.36,0
29-9-2017 20:00,30.05,-6.192535606744592,20.76,140.85,-59.24,0
29-9-2017 21:00,28.05,5.410316893153755,2.03,77.75,-77.93,0
29-9-2017 22:00,25.18,4.488098803406306,20.14,75.53,-59.81,0
29-9-2017 23:00,74.72,54.32710794998791,17.85,115.5,-62.07,0
30-9-2017 0:00,20.87,22.103760299047668,60.9,68.86,-19.06,0
30-9-2017 1:00,15.6,23.620641157296816,-2.19,78.74,-82.13,0
30-9-2017 2:00,15.12,26.084689836960674,-4.4,91.28,-84.32,0
30-9-2017 3:00,12.85,26.198233269087893,35.6,68.73,-44.31,0
30-9-2017 4:00,13.27,27.0751127061357,-11.02,71.68,-90.9,0
30-9-2017 5:00,13.32,27.148301781179214,-1.11,78.96,-80.97,0
30-9-2017 6:00,14.9,26.860689981172882,11.45,36.93,-68.38,0
30-9-2017 7:00,18.35,26.696472917393343,-11.07,-52.22,-90.87,0
30-9-2017 8:00,23.12,28.21742316271961,-8.09,-13.47,-87.86,0
30-9-2017 9:00,25.12,-0.015572659063270322,-0.78,74.56,-80.53,0
30-9-2017 10:00,27.3,-98.47755184077336,-42.82,144.52,-122.56,0
30-9-2017 11:00,28.73,-137.31285198758718,-132.11,86.01,-212.01,0
30-9-2017 12:00,29.95,-98.49508280087338,-93.34,92.31,-173.21,0
30-9-2017 13:00,28.75,12.860343572824746,-5.26,121.99,-85.08,0
30-9-2017 14:00,27.78,10.59383835577541,64.69,79.69,-15.15,0
30-9-2017 15:00,26.48,14.747980951680994,6.2,91.38,-73.62,0
30-9-2017 16:00,25.83,13.140058796937694,12.51,96.19,-67.29,0
30-9-2017 17:00,25.87,17.385615395923367,42.21,92.82,-37.57,0
30-9-2017 18:00,26.98,15.632365843958924,-0.05,81.15,-79.8,0
30-9-2017 19:00,29.72,9.069906345851233,11.65,90.31,-68.08,0
30-9-2017 20:00,41.13,17.785048336860687,16.48,,-63.22,0
30-9-2017 21:00,16.12,8.038285557087729,13.15,,-66.53,0
30-9-2017 22:00,16.77,11.912325241394115,1.5,,-78.15,0
30-9-2017 23:00,21.22,17.880780305820284,10.69,,-68.94,0
