Time,Actual,STL processed,Forecasts,Upper Interval,Lower Interval,Is Anomalies
1-8-2017 0:00,98.41,0.6914898721772573,0.0,0.0,0.0,0
1-8-2017 1:00,98.44,0.08530016706413335,0.0,0.0,0.0,0
1-8-2017 2:00,99.47,1.1743801488366188,0.0,0.0,0.0,0
1-8-2017 3:00,97.92,0.8231231329450139,0.0,0.0,0.0,0
1-8-2017 4:00,94.01,-3.241613298882669,0.0,0.0,0.0,0
1-8-2017 5:00,96.21,-0.867528487206954,0.0,0.0,0.0,0
1-8-2017 6:00,98.73,1.0857971962180528,0.0,0.0,0.0,0
1-8-2017 7:00,98.74,0.634473732846601,0.0,0.0,0.0,0
1-8-2017 8:00,98.59,2.065622685088556,0.0,0.0,0.0,0
1-8-2017 9:00,98.47,1.0647099044302166,0.0,0.0,0.0,0
1-8-2017 10:00,98.37,-0.19835467002883433,0.0,0.0,0.0,0
1-8-2017 11:00,98.37,0.03564398095834065,0.0,0.0,0.0,0
1-8-2017 12:00,95.15,-2.7606128929080285,0.0,0.0,0.0,0
1-8-2017 13:00,96.77,-0.8221457489390502,0.0,0.0,0.0,0
1-8-2017 14:00,98.25,0.24164599610091386,0.0,0.0,0.0,0
1-8-2017 15:00,93.2,-3.49871073675655,0.0,0.0,0.0,0
1-8-2017 16:00,98.08,-0.08552504382396364,0.0,0.0,0.0,0
1-8-2017 17:00,97.99,-0.865251567977964,0.0,0.0,0.0,0
1-8-2017 18:00,97.92,0.03902661404472951,0.0,0.0,0.0,0
1-8-2017 19:00,97.84,-0.20883424003514506,0.0,0.0,0.0,0
1-8-2017 20:00,97.77,0.17434909439032253,0.0,0.0,0.0,0
1-8-2017 21:00,97.74,6.191991002315902,0.0,0.0,0.0,0
1-8-2017 22:00,97.81,-0.0850852295903195,0.0,0.0,0.0,0
1-8-2017 23:00,98.29,0.21282946768569388,0.0,0.0,0.0,0
2-8-2017 0:00,98.19,-0.1551475683066883,0.0,0.0,0.0,0
2-8-2017 1:00,99.14,0.14134224778661064,0.0,0.0,0.0,0
2-8-2017 2:00,99.25,0.3170721327520454,0.0,0.0,0.0,0
2-8-2017 3:00,97.3,-0.549205993988636,0.0,0.0,0.0,0
2-8-2017 4:00,97.56,-0.5214763054820821,0.0,0.0,0.0,0
2-8-2017 5:00,94.54,-3.390033036292479,0.0,0.0,0.0,0
2-8-2017 6:00,97.23,-1.254445338833392,0.0,0.0,0.0,0
2-8-2017 7:00,99.12,0.2003412197027501,0.0,0.0,0.0,0
2-8-2017 8:00,99.17,1.7716116700231197,0.0,0.0,0.0,0
2-8-2017 9:00,99.18,1.0702905317997136,0.0,0.0,0.0,0
2-8-2017 10:00,99.21,0.06066920860938296,0.0,0.0,0.0,0
2-8-2017 11:00,99.22,0.26984383622222197,0.0,0.0,0.0,0
2-8-2017 12:00,99.15,0.6139340669841005,0.0,0.0,0.0,0
2-8-2017 13:00,99.14,0.9709140132357561,0.0,0.0,0.0,0
2-8-2017 14:00,99.13,0.6297476709316925,0.0,0.0,0.0,0
2-8-2017 15:00,99.16,2.0216891476232064,0.0,0.0,0.0,0
2-8-2017 16:00,98.94,0.4796031748513201,0.0,0.0,0.0,0
2-8-2017 17:00,98.92,-0.22872522343087098,0.0,0.0,0.0,0
2-8-2017 18:00,95.11,-3.082835602719257,0.0,0.0,0.0,0
2-8-2017 19:00,97.75,-0.5670412669054912,0.0,0.0,0.0,0
2-8-2017 20:00,97.37,-0.4788653790488979,0.0,0.0,0.0,0
2-8-2017 21:00,97.09,5.37354084707043,0.0,0.0,0.0,0
2-8-2017 22:00,97.01,-0.7647862124361495,0.0,0.0,0.0,0
2-8-2017 23:00,96.08,-2.092930297976835,0.0,0.0,0.0,0
3-8-2017 0:00,95.55,-2.836264415439942,0.0,0.0,0.0,0
3-8-2017 1:00,98.54,-0.4214821129071282,0.0,0.0,0.0,0
3-8-2017 2:00,99.42,0.6265106404843692,0.0,0.0,0.0,0
3-8-2017 3:00,92.71,-5.019175631872258,0.0,0.0,0.0,0
3-8-2017 4:00,96.07,-1.8733668602845626,0.0,0.0,0.0,0
3-8-2017 5:00,99.37,1.5496917763388183,0.0,0.0,0.0,0
3-8-2017 6:00,99.37,1.0017983977519123,0.0,0.0,0.0,0
3-8-2017 7:00,99.4,0.6169512393368564,0.0,0.0,0.0,0
3-8-2017 8:00,99.42,2.0925994488769106,0.0,0.0,0.0,0
3-8-2017 9:00,99.44,1.5027055844705757,0.0,0.0,0.0,0
3-8-2017 10:00,99.35,0.4283634069896891,0.0,0.0,0.0,0
3-8-2017 11:00,99.39,0.5645499056688976,0.0,0.0,0.0,0
3-8-2017 12:00,99.44,0.9508231354996894,0.0,0.0,0.0,0
3-8-2017 13:00,99.43,1.32178889567966,0.0,0.0,0.0,0
3-8-2017 14:00,99.42,1.0311374776771913,0.0,0.0,0.0,0
3-8-2017 15:00,97.75,0.7408501755632244,0.0,0.0,0.0,0
3-8-2017 16:00,99.4,1.1789607239546598,0.0,0.0,0.0,0
3-8-2017 17:00,99.31,0.5417183664740008,0.0,0.0,0.0,0
3-8-2017 18:00,99.05,1.3589073408042935,0.0,0.0,0.0,0
3-8-2017 19:00,97.17,-0.46195888238274563,0.0,0.0,0.0,0
3-8-2017 20:00,90.61,-6.399106189989482,0.0,0.0,0.0,0
3-8-2017 21:00,95.53,5.005243868769739,0.0,0.0,0.0,0
3-8-2017 22:00,97.02,0.9928437814553348,0.0,0.0,0.0,0
3-8-2017 23:00,95.15,-1.224181287109559,0.0,0.0,0.0,0
4-8-2017 0:00,95.86,-0.40569468625089655,0.0,0.0,0.0,0
4-8-2017 1:00,97.93,1.4289745032951657,0.0,0.0,0.0,0
4-8-2017 2:00,98.96,2.990824525686463,0.0,0.0,0.0,0
4-8-2017 3:00,95.94,1.2773245082876485,0.0,0.0,0.0,0
4-8-2017 4:00,95.34,0.7428065865666014,0.0,0.0,0.0,0
4-8-2017 5:00,96.95,2.6665689660412824,0.0,0.0,0.0,0
4-8-2017 6:00,94.42,-0.1857171131741353,0.0,0.0,0.0,0
4-8-2017 7:00,94.18,-0.6011095571329292,0.0,0.0,0.0,0
4-8-2017 8:00,87.48,-5.691995156965731,0.0,0.0,0.0,0
4-8-2017 9:00,87.22,-6.224763292696693,0.0,0.0,0.0,0
4-8-2017 10:00,97.54,3.4018720877686093,0.0,0.0,0.0,0
4-8-2017 11:00,90.87,-3.039231130249064,0.0,0.0,0.0,0
4-8-2017 12:00,89.03,-4.385076489112592,0.0,0.0,0.0,0
4-8-2017 13:00,89.06,-3.8441642606051687,0.0,0.0,0.0,0
4-8-2017 14:00,95.61,2.591659900093134,0.0,0.0,0.0,0
4-8-2017 15:00,90.67,-0.8348955264270614,0.0,0.0,0.0,0
4-8-2017 16:00,99.03,6.539372197526845,0.0,0.0,0.0,0
4-8-2017 17:00,97.35,4.152970099086957,0.0,0.0,0.0,0
4-8-2017 18:00,92.4,0.10121264527514029,0.0,0.0,0.0,0
4-8-2017 19:00,93.71,1.3534400813264824,0.0,0.0,0.0,0
4-8-2017 20:00,88.58,-3.299276203504334,0.0,0.0,0.0,0
4-8-2017 21:00,89.97,4.372021410352431,0.0,0.0,0.0,0
4-8-2017 22:00,91.53,0.4305520176878588,0.0,0.0,0.0,0
4-8-2017 23:00,84.89,-7.060350311443543,0.0,0.0,0.0,0
5-8-2017 0:00,86.3,-5.775039269805447,0.0,0.0,0.0,0
5-8-2017 1:00,88.88,-3.50031026816265,0.0,0.0,0.0,0
5-8-2017 2:00,93.23,1.3355699483119707,0.0,0.0,0.0,0
5-8-2017 3:00,92.55,1.7944291109543968,0.0,0.0,0.0,0
5-8-2017 4:00,95.89,5.069757421008106,0.0,0.0,0.0,0
5-8-2017 5:00,94.36,3.843581943435808,0.0,0.0,0.0,0
5-8-2017 6:00,96.04,5.22626156369364,0.0,0.0,0.0,0
5-8-2017 7:00,95.94,4.989682234292829,0.0,0.0,0.0,0
5-8-2017 8:00,88.98,-0.40837877481109786,0.0,0.0,0.0,0
5-8-2017 9:00,86.9,-2.7790877084966326,0.0,0.0,0.0,0
5-8-2017 10:00,82.9,-7.536541296715072,0.0,0.0,0.0,0
5-8-2017 11:00,91.95,1.519999241940397,0.0,0.0,0.0,0
5-8-2017 12:00,93.07,2.936968767752603,0.0,0.0,0.0,0
5-8-2017 13:00,86.62,-3.298086201993854,0.0,0.0,0.0,0
5-8-2017 14:00,86.8,-3.4917001291761807,0.0,0.0,0.0,0
5-8-2017 15:00,87.25,-1.8204373466840025,0.0,0.0,0.0,0
5-8-2017 16:00,90.79,0.5340738862510506,0.0,0.0,0.0,0
5-8-2017 17:00,89.24,-2.114678793263593,0.0,0.0,0.0,0
5-8-2017 18:00,89.42,-1.4485735153329955,0.0,0.0,0.0,0
5-8-2017 19:00,88.06,-3.216443260158684,0.0,0.0,0.0,0
5-8-2017 20:00,94.82,3.6420806376708725,0.0,0.0,0.0,0
5-8-2017 21:00,47.43,-37.976264224094656,0.0,0.0,0.0,0
5-8-2017 22:00,94.54,3.3266070471707962,0.0,0.0,0.0,0
5-8-2017 23:00,98.69,5.815237426753001,0.0,0.0,0.0,0
6-8-2017 0:00,98.94,5.40078287845067,0.0,0.0,0.0,0
6-8-2017 1:00,97.27,2.745469834301147,0.0,0.0,0.0,0
6-8-2017 2:00,97.81,3.1152783869700187,0.0,0.0,0.0,0
6-8-2017 3:00,95.63,1.2963948717646616,0.0,0.0,0.0,0
6-8-2017 4:00,98.86,3.7214675557040664,0.0,0.0,0.0,0
6-8-2017 5:00,99.36,3.7306559023407146,0.0,0.0,0.0,0
6-8-2017 6:00,99.44,2.7536029033277174,0.0,0.0,0.0,0
6-8-2017 7:00,99.45,1.8811383697408672,0.0,0.0,0.0,0
6-8-2017 8:00,99.09,2.2512036326217384,0.0,0.0,0.0,0
6-8-2017 9:00,99.35,1.8582650661571734,0.0,0.0,0.0,0
6-8-2017 10:00,99.4,0.7424336744305293,0.0,0.0,0.0,0
6-8-2017 11:00,99.38,0.16232913493473689,0.0,0.0,0.0,0
6-8-2017 12:00,98.97,-0.49217528940177147,0.0,0.0,0.0,0
6-8-2017 13:00,99.25,0.011797245273342583,0.0,0.0,0.0,0
6-8-2017 14:00,99.28,-0.28626006711409957,0.0,0.0,0.0,0
6-8-2017 15:00,99.34,1.0078156270659235,0.0,0.0,0.0,0
6-8-2017 16:00,99.35,-0.06243492834245501,0.0,0.0,0.0,0
6-8-2017 17:00,99.32,-0.9125232468959865,0.0,0.0,0.0,0
6-8-2017 18:00,99.35,-0.13754029518717914,0.0,0.0,0.0,0
6-8-2017 19:00,99.35,-0.2244922788541288,0.0,0.0,0.0,0
6-8-2017 20:00,99.35,0.1662867436716624,0.0,0.0,0.0,0
6-8-2017 21:00,99.35,6.5042404643900795,0.0,0.0,0.0,0
6-8-2017 22:00,99.32,1.4373934576917549,0.0,0.0,0.0,0
6-8-2017 23:00,99.3,0.021497604093838163,0.0,0.0,0.0,0
7-8-2017 0:00,99.33,-0.07678147604265462,0.0,0.0,0.0,0
7-8-2017 1:00,99.4,-0.32017492726819796,0.0,0.0,0.0,0
7-8-2017 2:00,97.02,-2.1744763996887997,0.0,0.0,0.0,0
7-8-2017 3:00,97.46,-0.7991409540256456,0.0,0.0,0.0,0
7-8-2017 4:00,98.53,0.07763774251573352,0.0,0.0,0.0,0
7-8-2017 5:00,99.34,0.9960714501589933,0.0,0.0,0.0,0
7-8-2017 6:00,99.17,0.4031673686728112,0.0,0.0,0.0,0
7-8-2017 7:00,99.14,0.13869916769748158,0.0,0.0,0.0,0
7-8-2017 8:00,99.28,1.5707722393607781,0.0,0.0,0.0,0
7-8-2017 9:00,99.29,1.470101293676592,0.0,0.0,0.0,0
7-8-2017 10:00,94.26,-4.229610647998882,0.0,0.0,0.0,0
7-8-2017 11:00,99.23,0.5181369879134223,0.0,0.0,0.0,0
7-8-2017 12:00,97.57,-1.0233441330124293,0.0,0.0,0.0,0
7-8-2017 13:00,97.52,-0.7425759104154395,0.0,0.0,0.0,0
7-8-2017 14:00,94.23,-4.217308424507721,0.0,0.0,0.0,0
7-8-2017 15:00,97.53,0.4273483648604497,0.0,0.0,0.0,0
7-8-2017 16:00,99.21,1.2301039462622327,0.0,0.0,0.0,0
7-8-2017 17:00,92.61,-6.175563991414194,0.0,0.0,0.0,0
7-8-2017 18:00,99.27,1.224052653988835,0.0,0.0,0.0,0
7-8-2017 19:00,99.26,1.1837755821801892,0.0,0.0,0.0,0
7-8-2017 20:00,98.92,1.2625668801017866,0.0,0.0,0.0,0
7-8-2017 21:00,97.06,5.759192686020128,0.0,0.0,0.0,0
7-8-2017 22:00,98.55,2.435006262960073,0.0,0.0,0.0,0
7-8-2017 23:00,98.4,0.6069630377841122,0.0,0.0,0.0,0
8-8-2017 0:00,98.39,0.45723828741552097,0.0,0.0,0.0,0
8-8-2017 1:00,96.95,-1.3877266735024563,0.0,0.0,0.0,0
8-8-2017 2:00,96.34,-1.5396292736289325,0.0,0.0,0.0,0
8-8-2017 3:00,98.57,1.4364340302863354,0.0,0.0,0.0,0
8-8-2017 4:00,99.33,1.8514360441011917,0.0,0.0,0.0,0
8-8-2017 5:00,96.79,-0.7599018687080417,0.0,0.0,0.0,0
8-8-2017 6:00,97.5,-0.6176740141264929,0.0,0.0,0.0,0
8-8-2017 7:00,97.33,-1.1531578955569586,0.0,0.0,0.0,0
8-8-2017 8:00,93.98,-3.4280890281779364,0.0,0.0,0.0,0
8-8-2017 9:00,90.71,-6.8123658807153475,0.0,0.0,0.0,0
8-8-2017 10:00,95.36,-2.8818317723025757,0.0,0.0,0.0,0
8-8-2017 11:00,99.27,0.5978946390548856,0.0,0.0,0.0,0
8-8-2017 12:00,99.34,0.6035634215767658,0.0,0.0,0.0,0
8-8-2017 13:00,99.32,0.8055748019508968,0.0,0.0,0.0,0
8-8-2017 14:00,99.34,0.5686145560090523,0.0,0.0,0.0,0
8-8-2017 15:00,99.32,1.7882999104206192,0.0,0.0,0.0,0
8-8-2017 16:00,99.33,0.9084999976132906,0.0,0.0,0.0,0
8-8-2017 17:00,99.31,-0.04730923009736898,0.0,0.0,0.0,0
8-8-2017 18:00,99.3,0.5323794380885403,0.0,0.0,0.0,0
8-8-2017 19:00,99.31,0.42420542266842176,0.0,0.0,0.0,0
8-8-2017 20:00,99.3,0.716437140516021,0.0,0.0,0.0,0
8-8-2017 21:00,99.16,6.924416379280331,0.0,0.0,0.0,0
8-8-2017 22:00,99.27,2.415556667373423,0.0,0.0,0.0,0
8-8-2017 23:00,99.05,0.20803219813420526,0.0,0.0,0.0,0
9-8-2017 0:00,99.01,-0.0049315929653062085,0.0,0.0,0.0,0
9-8-2017 1:00,99.38,0.06557767296375516,0.0,0.0,0.0,0
9-8-2017 2:00,99.34,0.597899594784991,0.0,0.0,0.0,0
9-8-2017 3:00,99.02,1.0403827572398114,0.0,0.0,0.0,0
9-8-2017 4:00,99.04,0.7636434805345829,0.0,0.0,0.0,0
9-8-2017 5:00,92.52,-5.749547824031936,0.0,0.0,0.0,0
9-8-2017 6:00,96.46,-2.268580381354255,0.0,0.0,0.0,0
9-8-2017 7:00,98.89,-0.0844458388341991,0.0,0.0,0.0,0
9-8-2017 8:00,93.87,-3.9845780694352015,0.0,0.0,0.0,0
9-8-2017 9:00,96.22,-1.5589434326409446,0.0,0.0,0.0,0
9-8-2017 10:00,99.01,0.6600339383184206,0.0,0.0,0.0,0
9-8-2017 11:00,99.01,0.21365581364196373,0.0,0.0,0.0,0
9-8-2017 12:00,99.02,0.18025851282580163,0.0,0.0,0.0,0
9-8-2017 13:00,98.97,0.37594162030514156,0.0,0.0,0.0,0
9-8-2017 14:00,98.93,0.13378780043007055,0.0,0.0,0.0,0
9-8-2017 15:00,98.98,1.4411490081949268,0.0,0.0,0.0,0
9-8-2017 16:00,96.9,-1.4251916670619806,0.0,0.0,0.0,0
9-8-2017 17:00,98.28,-1.005425180767432,0.0,0.0,0.0,0
9-8-2017 18:00,98.37,-0.4143876387690568,0.0,0.0,0.0,0
9-8-2017 19:00,98.44,-0.47729830022579733,0.0,0.0,0.0,0
9-8-2017 20:00,98.42,-0.2364316448330186,0.0,0.0,0.0,0
9-8-2017 21:00,98.36,6.062225853161024,0.0,0.0,0.0,0
9-8-2017 22:00,98.38,1.675829846098864,0.0,0.0,0.0,0
9-8-2017 23:00,98.78,-0.177724144346314,0.0,0.0,0.0,0
10-8-2017 0:00,99.13,-0.01403612687758482,0.0,0.0,0.0,0
10-8-2017 1:00,99.19,-0.2559337194576443,0.0,0.0,0.0,0
10-8-2017 2:00,99.27,0.40273163895511743,0.0,0.0,0.0,0
10-8-2017 3:00,99.19,0.9937535745933133,0.0,0.0,0.0,0
10-8-2017 4:00,98.41,-0.14259835900924145,0.0,0.0,0.0,0
10-8-2017 5:00,98.47,-0.1309510279090489,0.0,0.0,0.0,0
10-8-2017 6:00,96.83,-2.254551969711301,0.0,0.0,0.0,0
10-8-2017 7:00,98.57,-0.7741020490762622,0.0,0.0,0.0,0
10-8-2017 8:00,98.64,0.3272615765071549,0.0,0.0,0.0,0
10-8-2017 9:00,98.69,0.5755162426695364,0.0,0.0,0.0,0
10-8-2017 10:00,98.71,0.10564569258087886,0.0,0.0,0.0,0
10-8-2017 11:00,98.65,-0.48412815172409296,0.0,0.0,0.0,0
10-8-2017 12:00,98.19,-1.033882719472885,0.0,0.0,0.0,0
10-8-2017 13:00,98.18,-0.7574141051110814,0.0,0.0,0.0,0
10-8-2017 14:00,98.19,-0.877647719142189,0.0,0.0,0.0,0
10-8-2017 15:00,98.35,0.574503121753196,0.0,0.0,0.0,0
10-8-2017 16:00,98.15,-0.2912741537440269,0.0,0.0,0.0,0
10-8-2017 17:00,98.03,-1.3264912167933005,0.0,0.0,0.0,0
10-8-2017 18:00,98.37,-0.5046640643315072,0.0,0.0,0.0,0
10-8-2017 19:00,98.29,-0.6628785581652465,0.0,0.0,0.0,0
10-8-2017 20:00,98.19,-0.473944151567693,0.0,0.0,0.0,0
10-8-2017 21:00,97.98,5.71059517892806,0.0,0.0,0.0,0
10-8-2017 22:00,97.91,1.471861947623566,0.0,0.0,0.0,0
10-8-2017 23:00,97.91,-1.0225224931146784,0.0,0.0,0.0,0
11-8-2017 0:00,98.09,-1.016983596164735,0.0,0.0,0.0,0
11-8-2017 1:00,98.87,-0.5382481130035757,0.0,0.0,0.0,0
11-8-2017 2:00,99.06,0.23980061625107396,0.0,0.0,0.0,0
11-8-2017 3:00,99.32,1.0824012593230066,0.0,0.0,0.0,0
11-8-2017 4:00,98.26,-0.3905240527720224,0.0,0.0,0.0,0
11-8-2017 5:00,99.32,0.5563975577861697,0.0,0.0,0.0,0
11-8-2017 6:00,99.09,-0.19133612470466232,0.0,0.0,0.0,0
11-8-2017 7:00,98.7,-0.8641351613373729,0.0,0.0,0.0,0
11-8-2017 8:00,98.57,-0.06084001495226232,0.0,0.0,0.0,0
11-8-2017 9:00,98.49,0.14156123218870675,0.0,0.0,0.0,0
11-8-2017 10:00,98.63,-0.1656307616866144,0.0,0.0,0.0,0
11-8-2017 11:00,98.57,-0.8772738483587688,0.0,0.0,0.0,0
11-8-2017 12:00,98.78,-0.8418592057788459,0.0,0.0,0.0,0
11-8-2017 13:00,98.82,-0.5038937080650214,0.0,0.0,0.0,0
11-8-2017 14:00,98.95,-0.46149573978249236,0.0,0.0,0.0,0
11-8-2017 15:00,98.9,0.7861561107130655,0.0,0.0,0.0,0
11-8-2017 16:00,98.67,-0.018346388554931536,0.0,0.0,0.0,0
11-8-2017 17:00,98.89,-0.6815818053759699,0.0,0.0,0.0,0
11-8-2017 18:00,98.92,-0.20199984687876338,0.0,0.0,0.0,0
11-8-2017 19:00,98.98,-0.17855297751744104,0.0,0.0,0.0,0
11-8-2017 20:00,98.91,0.05541437585695519,0.0,0.0,0.0,0
11-8-2017 21:00,98.56,6.1535083209060275,0.0,0.0,0.0,0
11-8-2017 22:00,98.2,1.880110647410831,0.0,0.0,0.0,0
11-8-2017 23:00,98.69,-0.34743146156888827,0.0,0.0,0.0,0
12-8-2017 0:00,98.46,-0.7223689030861635,0.0,0.0,0.0,0
12-8-2017 1:00,97.33,-2.0643885044219843,0.0,0.0,0.0,0
12-8-2017 2:00,97.81,-0.8983445645636294,0.0,0.0,0.0,0
12-8-2017 3:00,97.92,-0.2055533742961586,0.0,0.0,0.0,0
12-8-2017 4:00,97.25,-1.2564402251218922,0.0,0.0,0.0,0
12-8-2017 5:00,98.48,0.040789841070733246,0.0,0.0,0.0,0
12-8-2017 6:00,99.05,0.30395759406771106,0.0,0.0,0.0,0
12-8-2017 7:00,99.21,0.40294377634363343,0.0,0.0,0.0,0
12-8-2017 8:00,99.19,1.4632046197068433,0.0,0.0,0.0,0
12-8-2017 9:00,99.12,2.077896399321048,0.0,0.0,0.0,0
12-8-2017 10:00,98.94,1.8115269131536849,0.0,0.0,0.0,0
12-8-2017 11:00,98.88,1.2961585356089813,0.0,0.0,0.0,0
12-8-2017 12:00,98.9,1.3748863400122389,0.0,0.0,0.0,0
12-8-2017 13:00,98.47,1.3885813275779242,0.0,0.0,0.0,0
12-8-2017 14:00,98.7,1.7078434846738304,0.0,0.0,0.0,0
12-8-2017 15:00,92.07,-3.484771048730707,0.0,0.0,0.0,0
12-8-2017 16:00,98.61,2.7062338347303836,0.0,0.0,0.0,0
12-8-2017 17:00,98.73,2.0069057685143576,0.0,0.0,0.0,0
12-8-2017 18:00,98.75,2.476168237423778,0.0,0.0,0.0,0
12-8-2017 19:00,98.73,2.493202174356952,0.0,0.0,0.0,0
12-8-2017 20:00,99.07,3.184128178884947,0.0,0.0,0.0,0
12-8-2017 21:00,49.54,-39.84606917313991,0.0,0.0,0.0,0
12-8-2017 22:00,91.74,-1.3059772004530572,0.0,0.0,0.0,0
12-8-2017 23:00,98.23,2.2414771106985683,0.0,0.0,0.0,0
13-8-2017 0:00,98.7,2.594217419086874,0.0,0.0,0.0,0
13-8-2017 1:00,99.05,2.633650904901316,0.0,0.0,0.0,0
13-8-2017 2:00,98.95,3.129898227010642,0.0,0.0,0.0,0
13-8-2017 3:00,98.99,3.565088136120906,0.0,0.0,0.0,0
13-8-2017 4:00,98.91,2.948447918211741,0.0,0.0,0.0,0
13-8-2017 5:00,98.24,1.8971980407341533,0.0,0.0,0.0,0
13-8-2017 6:00,96.26,-0.8075211700856784,0.0,0.0,0.0,0
13-8-2017 7:00,94.77,-2.7655381682057367,0.0,0.0,0.0,0
13-8-2017 8:00,95.79,-1.1471000271690457,0.0,0.0,0.0,0
13-8-2017 9:00,98.41,1.733668823574078,0.0,0.0,0.0,0
13-8-2017 10:00,98.53,1.3019083837703675,0.0,0.0,0.0,0
13-8-2017 11:00,98.32,0.006601254008785418,0.0,0.0,0.0,0
13-8-2017 12:00,98.34,-0.5075712411089341,0.0,0.0,0.0,0
13-8-2017 13:00,98.29,-0.37638959225581914,0.0,0.0,0.0,0
13-8-2017 14:00,98.16,-0.648506074910955,0.0,0.0,0.0,0
13-8-2017 15:00,98.33,0.6903701792200252,0.0,0.0,0.0,0
13-8-2017 16:00,98.43,0.2586396168457554,0.0,0.0,0.0,0
13-8-2017 17:00,98.28,-0.8521419572405193,0.0,0.0,0.0,0
13-8-2017 18:00,98.2,-0.6885598363941057,0.0,0.0,0.0,0
13-8-2017 19:00,98.18,-0.8032996903643266,0.0,0.0,0.0,0
13-8-2017 20:00,98.41,-0.3807758931579457,0.0,0.0,0.0,0
13-8-2017 21:00,98.15,5.814703322252399,0.0,0.0,0.0,0
13-8-2017 22:00,98.31,2.4722528056304043,0.0,0.0,0.0,0
13-8-2017 23:00,98.86,-0.24132859857755307,0.0,0.0,0.0,0
14-8-2017 0:00,98.96,-0.3269426757745606,0.0,0.0,0.0,0
14-8-2017 1:00,99.09,-0.3959418167742257,0.0,0.0,0.0,0
14-8-2017 2:00,99.19,0.42062317362162105,0.0,0.0,0.0,0
14-8-2017 3:00,98.84,0.4883260876102753,0.0,0.0,0.0,0
14-8-2017 4:00,98.22,-0.6139532113467112,0.0,0.0,0.0,0
14-8-2017 5:00,98.94,-0.061455616749952924,0.0,0.0,0.0,0
14-8-2017 6:00,99.06,-0.4218343756420495,0.0,0.0,0.0,0
14-8-2017 7:00,99.02,-0.674627138413527,0.0,0.0,0.0,0
14-8-2017 8:00,99.04,0.12421571604119208,0.0,0.0,0.0,0
14-8-2017 9:00,98.96,0.6870083080402907,0.0,0.0,0.0,0
14-8-2017 10:00,98.93,0.44580358472727255,0.0,0.0,0.0,0
14-8-2017 11:00,98.54,-0.853495627124147,0.0,0.0,0.0,0
14-8-2017 12:00,98.55,-1.1646217516358064,0.0,0.0,0.0,0
14-8-2017 13:00,98.43,-0.9852442684855731,0.0,0.0,0.0,0
14-8-2017 14:00,98.53,-0.878030217882042,0.0,0.0,0.0,0
14-8-2017 15:00,98.51,0.3830459967941664,0.0,0.0,0.0,0
14-8-2017 16:00,98.73,0.26928896701791416,0.0,0.0,0.0,0
14-8-2017 17:00,98.53,-0.7734854386021652,0.0,0.0,0.0,0
14-8-2017 18:00,98.52,-0.486122989482368,0.0,0.0,0.0,0
14-8-2017 19:00,98.93,-0.04317472750598483,0.0,0.0,0.0,0
14-8-2017 20:00,98.62,-0.059591230771189885,0.0,0.0,0.0,0
14-8-2017 21:00,97.94,5.830721761372246,0.0,0.0,0.0,0
14-8-2017 22:00,97.29,1.9948907906862985,0.0,0.0,0.0,0
14-8-2017 23:00,98.37,-0.3505642936363529,0.0,0.0,0.0,0
15-8-2017 0:00,98.62,-0.19537072117381626,0.0,0.0,0.0,0
15-8-2017 1:00,99.04,0.07719908210421522,0.0,0.0,0.0,0
15-8-2017 2:00,98.99,0.8040833118784292,0.0,0.0,0.0,0
15-8-2017 3:00,97.81,0.004300801837317181,0.0,0.0,0.0,0
15-8-2017 4:00,97.59,-0.7036056426223354,0.0,0.0,0.0,0
15-8-2017 5:00,97.69,-0.8032183543975862,0.0,0.0,0.0,0
15-8-2017 6:00,93.26,-5.715114439808261,0.0,0.0,0.0,0
15-8-2017 7:00,97.79,-1.388531404015282,0.0,0.0,0.0,0
15-8-2017 8:00,98.15,-0.3151322729266752,0.0,0.0,0.0,0
15-8-2017 9:00,98.36,0.6190166861392186,0.0,0.0,0.0,0
15-8-2017 10:00,98.34,0.4277049776620174,0.0,0.0,0.0,0
15-8-2017 11:00,98.64,-0.30624901793407844,0.0,0.0,0.0,0
15-8-2017 12:00,98.86,-0.49499147349453665,0.0,0.0,0.0,0
15-8-2017 13:00,98.41,-0.7193947361854214,0.0,0.0,0.0,0
15-8-2017 14:00,98.93,-0.23482673246141417,0.0,0.0,0.0,0
15-8-2017 15:00,98.96,0.9964728626217578,0.0,0.0,0.0,0
15-8-2017 16:00,99.25,0.9587051396498936,0.0,0.0,0.0,0
15-8-2017 17:00,99.17,-0.057999442684518954,0.0,0.0,0.0,0
15-8-2017 18:00,98.65,-0.43879401047179556,0.0,0.0,0.0,0
15-8-2017 19:00,98.15,-0.9901078848920122,0.0,0.0,0.0,0
15-8-2017 20:00,98.54,-0.4174149409720087,0.0,0.0,0.0,0
15-8-2017 21:00,98.09,5.680382677329732,0.0,0.0,0.0,0
15-8-2017 22:00,98.03,2.613803079175696,0.0,0.0,0.0,0
15-8-2017 23:00,99.24,0.09910614133424644,0.0,0.0,0.0,0
16-8-2017 0:00,98.48,-0.7973115087817746,0.0,0.0,0.0,0
16-8-2017 1:00,98.84,-0.5527991180875063,0.0,0.0,0.0,0
16-8-2017 2:00,98.56,-0.03007687082080679,0.0,0.0,0.0,0
16-8-2017 3:00,98.59,0.3290945245134651,0.0,0.0,0.0,0
16-8-2017 4:00,98.65,-0.11712495665285871,0.0,0.0,0.0,0
16-8-2017 5:00,97.92,-1.0435932682015334,0.0,0.0,0.0,0
16-8-2017 6:00,97.76,-1.6573422370752127,0.0,0.0,0.0,0
16-8-2017 7:00,98.06,-1.5253698579792712,0.0,0.0,0.0,0
16-8-2017 8:00,98.63,-0.2717524680653014,0.0,0.0,0.0,0
16-8-2017 9:00,99.28,1.2329691286003737,0.0,0.0,0.0,0
16-8-2017 10:00,99.14,1.025409949152703,0.0,0.0,0.0,0
16-8-2017 11:00,98.83,-0.374235587848716,0.0,0.0,0.0,0
16-8-2017 12:00,98.66,-0.9715368688530219,0.0,0.0,0.0,0
16-8-2017 13:00,99.0,-0.3379033649808463,0.0,0.0,0.0,0
16-8-2017 14:00,98.79,-0.48698931716624827,0.0,0.0,0.0,0
16-8-2017 15:00,98.35,0.32653652734894933,0.0,0.0,0.0,0
16-8-2017 16:00,98.39,0.17655282893484525,0.0,0.0,0.0,0
16-8-2017 17:00,98.25,-0.7518051517838558,0.0,0.0,0.0,0
16-8-2017 18:00,98.27,-0.5561149743603977,0.0,0.0,0.0,0
16-8-2017 19:00,97.97,-0.7820820849426724,0.0,0.0,0.0,0
16-8-2017 20:00,98.19,-0.27912911351546654,0.0,0.0,0.0,0
16-8-2017 21:00,97.8,6.022812361767265,0.0,0.0,0.0,0
16-8-2017 22:00,97.95,3.518445281967388,0.0,0.0,0.0,0
16-8-2017 23:00,98.8,0.5223675001569177,0.0,0.0,0.0,0
17-8-2017 0:00,99.22,0.9302414333422178,0.0,0.0,0.0,0
17-8-2017 1:00,99.0,0.7082234632618452,0.0,0.0,0.0,0
17-8-2017 2:00,98.6,1.2183107798301194,0.0,0.0,0.0,0
17-8-2017 3:00,95.79,-1.232036867651118,0.0,0.0,0.0,0
17-8-2017 4:00,97.07,-0.3950252627044364,0.0,0.0,0.0,0
17-8-2017 5:00,92.56,-5.0839337529634605,0.0,0.0,0.0,0
17-8-2017 6:00,96.31,-1.7451201842371376,0.0,0.0,0.0,0
17-8-2017 7:00,98.14,-0.03333131028878711,0.0,0.0,0.0,0
17-8-2017 8:00,97.24,-0.2650685100000061,0.0,0.0,0.0,0
17-8-2017 9:00,96.75,0.20347695976253988,0.0,0.0,0.0,0
17-8-2017 10:00,95.76,-0.7770732691692501,0.0,0.0,0.0,0
17-8-2017 11:00,95.31,-2.3991539260896957,0.0,0.0,0.0,0
17-8-2017 12:00,96.64,-1.5417576110514801,0.0,0.0,0.0,0
17-8-2017 13:00,96.35,-1.5976066732906418,0.0,0.0,0.0,0
17-8-2017 14:00,97.08,-0.8378659140598188,0.0,0.0,0.0,0
17-8-2017 15:00,96.78,0.040366847213036294,0.0,0.0,0.0,0
17-8-2017 16:00,97.44,0.5206398058742963,0.0,0.0,0.0,0
17-8-2017 17:00,97.2,-0.6221489573683385,0.0,0.0,0.0,0
17-8-2017 18:00,97.6,-0.2727514188737956,0.0,0.0,0.0,0
17-8-2017 19:00,98.13,0.19384040410670877,0.0,0.0,0.0,0
17-8-2017 20:00,97.71,-0.10573442723404014,0.0,0.0,0.0,0
17-8-2017 21:00,98.03,6.7386682270462614,0.0,0.0,0.0,0
17-8-2017 22:00,97.67,3.7648216166816724,0.0,0.0,0.0,0
17-8-2017 23:00,98.03,-0.15432905801665697,0.0,0.0,0.0,0
18-8-2017 0:00,98.55,0.16614440955110865,0.0,0.0,0.0,0
18-8-2017 1:00,98.69,0.1731945189738866,0.0,0.0,0.0,0
18-8-2017 2:00,95.16,-2.5837546548784616,0.0,0.0,0.0,0
18-8-2017 3:00,96.52,-1.0780229048974093,0.0,0.0,0.0,0
18-8-2017 4:00,95.44,-2.7821851268385416,0.0,0.0,0.0,0
18-8-2017 5:00,98.22,-0.28259741914506264,0.0,0.0,0.0,0
18-8-2017 6:00,98.95,-0.04028493615584239,0.0,0.0,0.0,0
18-8-2017 7:00,99.1,-0.07774438510431025,0.0,0.0,0.0,0
18-8-2017 8:00,98.55,-0.09390099218992987,0.0,0.0,0.0,0
18-8-2017 9:00,98.75,1.1633022891157196,0.0,0.0,0.0,0
18-8-2017 10:00,98.99,1.4845946924185682,0.0,0.0,0.0,0
18-8-2017 11:00,98.82,0.05491259729788567,0.0,0.0,0.0,0
18-8-2017 12:00,98.62,-0.6681598099026331,0.0,0.0,0.0,0
18-8-2017 13:00,98.93,-0.04816785272235791,0.0,0.0,0.0,0
18-8-2017 14:00,98.29,-0.5542767965445563,0.0,0.0,0.0,0
18-8-2017 15:00,98.48,0.8739864670166781,0.0,0.0,0.0,0
18-8-2017 16:00,98.56,0.9198396682840411,0.0,0.0,0.0,0
18-8-2017 17:00,98.18,-0.19876340518959523,0.0,0.0,0.0,0
18-8-2017 18:00,98.12,-0.25704203333101816,0.0,0.0,0.0,0
18-8-2017 19:00,98.03,-0.26927480449482744,0.0,0.0,0.0,0
18-8-2017 20:00,97.68,-0.38276096631058465,0.0,0.0,0.0,0
18-8-2017 21:00,97.47,6.084058814936242,0.0,0.0,0.0,0
18-8-2017 22:00,97.51,3.8706886219759156,0.0,0.0,0.0,0
18-8-2017 23:00,98.57,0.5384210023586746,0.0,0.0,0.0,0
19-8-2017 0:00,98.58,0.48144995227788456,0.0,0.0,0.0,0
19-8-2017 1:00,94.04,-4.068182264486808,0.0,0.0,0.0,0
19-8-2017 2:00,89.9,-7.317918334450425,0.0,0.0,0.0,0
19-8-2017 3:00,93.64,-3.3918575926977326,0.0,0.0,0.0,0
19-8-2017 4:00,97.46,-0.12294404721730245,0.0,0.0,0.0,0
19-8-2017 5:00,98.37,0.81043063265993,0.0,0.0,0.0,0
19-8-2017 6:00,98.84,1.1215328041433423,0.0,0.0,0.0,0
19-8-2017 7:00,98.73,1.1601158065293333,0.0,0.0,0.0,0
19-8-2017 8:00,97.87,1.1048305663005777,0.0,0.0,0.0,0
19-8-2017 9:00,98.11,3.2106360140138577,0.0,0.0,0.0,0
19-8-2017 10:00,97.97,3.9337154044158638,0.0,0.0,0.0,0
19-8-2017 11:00,98.24,3.5663762259594876,0.0,0.0,0.0,0
19-8-2017 12:00,98.27,3.732779451384758,0.0,0.0,0.0,0
19-8-2017 13:00,98.23,4.544096193559795,0.0,0.0,0.0,0
19-8-2017 14:00,98.24,5.2576213122599,0.0,0.0,0.0,0
19-8-2017 15:00,97.89,6.671398843684855,0.0,0.0,0.0,0
19-8-2017 16:00,97.36,6.7183160531336625,0.0,0.0,0.0,0
19-8-2017 17:00,97.23,6.185290294342138,0.0,0.0,0.0,0
19-8-2017 18:00,97.02,6.200727124477851,0.0,0.0,0.0,0
19-8-2017 19:00,97.37,6.941061384082886,0.0,0.0,0.0,0
19-8-2017 20:00,96.99,7.085055516705225,0.0,0.0,0.0,0
19-8-2017 21:00,55.15,-27.87270143661342,0.0,0.0,0.0,0
19-8-2017 22:00,8.1,-76.76258907370152,0.0,0.0,0.0,0
19-8-2017 23:00,91.49,2.17503250023033,0.0,0.0,0.0,0
20-8-2017 0:00,90.28,1.083623070968983,0.0,0.0,0.0,0
20-8-2017 1:00,92.3,3.0096364030592895,0.0,0.0,0.0,0
20-8-2017 2:00,92.3,3.8094413120269195,0.0,0.0,0.0,0
20-8-2017 3:00,97.13,8.658158920593777,0.0,0.0,0.0,0
20-8-2017 4:00,89.02,-0.1375238914617256,0.0,0.0,0.0,0
20-8-2017 5:00,93.9,3.8502858250140974,0.0,0.0,0.0,0
20-8-2017 6:00,95.79,4.6908257494065,0.0,0.0,0.0,0
20-8-2017 7:00,90.67,-1.1639007324582167,0.0,0.0,0.0,0
20-8-2017 8:00,92.04,0.062333458584731716,0.0,0.0,0.0,0
20-8-2017 9:00,93.59,2.0174976225334973,0.0,0.0,0.0,0
20-8-2017 10:00,86.93,-5.266879450137424,0.0,0.0,0.0,0
20-8-2017 11:00,92.06,-2.421119162101647,0.0,0.0,0.0,0
20-8-2017 12:00,98.47,2.5155162457772917,0.0,0.0,0.0,0
20-8-2017 13:00,98.42,2.2322820426067835,0.0,0.0,0.0,0
20-8-2017 14:00,97.21,0.6695654934889319,0.0,0.0,0.0,0
20-8-2017 15:00,98.49,2.6129815624373407,0.0,0.0,0.0,0
20-8-2017 16:00,98.08,1.765087049727299,0.0,0.0,0.0,0
20-8-2017 17:00,98.35,1.0231416170877452,0.0,0.0,0.0,0
20-8-2017 18:00,98.31,0.48779691697049543,0.0,0.0,0.0,0
20-8-2017 19:00,98.48,0.41620121881419436,0.0,0.0,0.0,0
20-8-2017 20:00,98.43,0.23317865734452425,0.0,0.0,0.0,0
20-8-2017 21:00,98.6,6.901687472519441,0.0,0.0,0.0,0
20-8-2017 22:00,98.18,4.466124894362679,0.0,0.0,0.0,0
20-8-2017 23:00,98.72,-0.09552183509735812,0.0,0.0,0.0,0
21-8-2017 0:00,98.9,-0.2005271404802329,0.0,0.0,0.0,0
21-8-2017 1:00,98.97,-0.10252589647438981,0.0,0.0,0.0,0
21-8-2017 2:00,99.09,0.9331623544850061,0.0,0.0,0.0,0
21-8-2017 3:00,97.46,-0.639120807073482,0.0,0.0,0.0,0
21-8-2017 4:00,99.14,0.426942386395595,0.0,0.0,0.0,0
21-8-2017 5:00,99.1,0.17193731068996954,0.0,0.0,0.0,0
21-8-2017 6:00,98.7,-0.5753348407886563,0.0,0.0,0.0,0
21-8-2017 7:00,99.26,-0.040620635684092576,0.0,0.0,0.0,0
21-8-2017 8:00,99.15,0.34988315785049906,0.0,0.0,0.0,0
21-8-2017 9:00,99.01,1.6273614126307052,0.0,0.0,0.0,0
21-8-2017 10:00,98.52,1.4984832514827247,0.0,0.0,0.0,0
21-8-2017 11:00,98.59,0.11029838060659358,0.0,0.0,0.0,0
21-8-2017 12:00,98.99,-0.09987865446488797,0.0,0.0,0.0,0
21-8-2017 13:00,98.72,-0.09740265274575677,0.0,0.0,0.0,0
21-8-2017 14:00,94.37,-4.266099719446402,0.0,0.0,0.0,0
21-8-2017 15:00,95.46,-2.022783962739382,0.0,0.0,0.0,0
21-8-2017 16:00,95.54,-1.8052291893981192,0.0,0.0,0.0,0
21-8-2017 17:00,95.32,-2.7129901781107435,0.0,0.0,0.0,0
21-8-2017 18:00,95.2,-3.11601229070601,0.0,0.0,0.0,0
21-8-2017 19:00,95.34,-2.9164336380070637,0.0,0.0,0.0,0
21-8-2017 20:00,96.43,-1.6833685849522055,0.0,0.0,0.0,0
21-8-2017 21:00,98.49,7.046171067125982,0.0,0.0,0.0,0
21-8-2017 22:00,98.16,5.079699817117103,0.0,0.0,0.0,0
21-8-2017 23:00,98.84,0.5635510534818309,0.0,0.0,0.0,0
22-8-2017 0:00,98.9,0.4897161411940374,0.0,0.0,0.0,0
22-8-2017 1:00,99.16,0.6970575395127128,0.0,0.0,0.0,0
22-8-2017 2:00,99.18,1.5459813748611708,0.0,0.0,0.0,0
22-8-2017 3:00,99.22,1.48004968557467,0.0,0.0,0.0,0
22-8-2017 4:00,97.62,-0.8647759368873551,0.0,0.0,0.0,0
22-8-2017 5:00,94.74,-4.174743851939937,0.0,0.0,0.0,0
22-8-2017 6:00,97.8,-1.651976126455125,0.0,0.0,0.0,0
22-8-2017 7:00,98.48,-1.1799523285302058,0.0,0.0,0.0,0
22-8-2017 8:00,99.1,-0.3073100266528854,0.0,0.0,0.0,0
22-8-2017 9:00,99.16,1.2113456907759712,0.0,0.0,0.0,0
22-8-2017 10:00,99.29,1.716843089704625,0.0,0.0,0.0,0
22-8-2017 11:00,99.17,-0.006410291529789447,0.0,0.0,0.0,0
22-8-2017 12:00,99.09,-0.8045231209980415,0.0,0.0,0.0,0
22-8-2017 13:00,99.06,-0.483468358853699,0.0,0.0,0.0,0
22-8-2017 14:00,99.03,-0.22527738760157945,0.0,0.0,0.0,0
22-8-2017 15:00,99.08,1.0408066123996491,0.0,0.0,0.0,0
22-8-2017 16:00,99.03,1.2766752040099334,0.0,0.0,0.0,0
22-8-2017 17:00,99.1,0.7920614773034487,0.0,0.0,0.0,0
22-8-2017 18:00,99.06,0.4903247703093143,0.0,0.0,0.0,0
22-8-2017 19:00,98.83,0.43002627558603024,0.0,0.0,0.0,0
22-8-2017 20:00,98.74,0.568127444887935,0.0,0.0,0.0,0
22-8-2017 21:00,98.66,7.338598629374829,0.0,0.0,0.0,0
22-8-2017 22:00,98.76,6.191100472897304,0.0,0.0,0.0,0
22-8-2017 23:00,96.19,-1.659668559529777,0.0,0.0,0.0,0
23-8-2017 0:00,95.19,-2.6284973644805802,0.0,0.0,0.0,0
23-8-2017 1:00,97.78,0.3180487714989795,0.0,0.0,0.0,0
23-8-2017 2:00,92.46,-3.7731279175547883,0.0,0.0,0.0,0
23-8-2017 3:00,89.93,-6.072296760270476,0.0,0.0,0.0,0
23-8-2017 4:00,93.17,-3.2075772503990834,0.0,0.0,0.0,0
23-8-2017 5:00,95.53,-0.7385915672214622,0.0,0.0,0.0,0
23-8-2017 6:00,98.87,2.622211115373119,0.0,0.0,0.0,0
23-8-2017 7:00,97.64,1.7545385895267316,0.0,0.0,0.0,0
23-8-2017 8:00,97.67,2.5458833224681285,0.0,0.0,0.0,0
23-8-2017 9:00,97.79,4.626087990297094,0.0,0.0,0.0,0
23-8-2017 10:00,97.94,5.639816369786942,0.0,0.0,0.0,0
23-8-2017 11:00,98.02,4.472385016012026,0.0,0.0,0.0,0
23-8-2017 12:00,98.64,4.747630322169783,0.0,0.0,0.0,0
23-8-2017 13:00,96.51,3.147915910507834,0.0,0.0,0.0,0
23-8-2017 14:00,92.63,-0.2368647054935593,0.0,0.0,0.0,0
23-8-2017 15:00,84.67,-6.813720337497614,0.0,0.0,0.0,0
23-8-2017 16:00,84.94,-6.004486535713468,0.0,0.0,0.0,0
23-8-2017 17:00,84.9,-6.462603139290934,0.0,0.0,0.0,0
23-8-2017 18:00,84.89,-6.731985112935803,0.0,0.0,0.0,0
23-8-2017 19:00,84.97,-6.381875286986528,0.0,0.0,0.0,0
23-8-2017 20:00,84.94,-6.10294121407793,0.0,0.0,0.0,0
23-8-2017 21:00,86.01,1.717754438165926,0.0,0.0,0.0,0
23-8-2017 22:00,89.91,4.498353852147702,0.0,0.0,0.0,0
23-8-2017 23:00,89.68,-1.3677741597257267,0.0,0.0,0.0,0
24-8-2017 0:00,90.22,-0.9097716233510198,0.0,0.0,0.0,0
24-8-2017 1:00,90.45,-0.6829107543572377,0.0,0.0,0.0,0
24-8-2017 2:00,90.25,-0.02307797245990173,0.0,0.0,0.0,0
24-8-2017 3:00,90.31,-0.16437397325145753,0.0,0.0,0.0,0
24-8-2017 4:00,90.43,-0.8189748248297803,0.0,0.0,0.0,0
24-8-2017 5:00,90.47,-1.3820131974674297,0.0,0.0,0.0,0
24-8-2017 6:00,90.38,-2.144153211808529,0.0,0.0,0.0,0
24-8-2017 7:00,91.78,-1.0624784356330537,0.0,0.0,0.0,0
24-8-2017 8:00,94.8,1.9766123541655816,0.0,0.0,0.0,0
24-8-2017 9:00,97.5,5.969215661520138,0.0,0.0,0.0,0
24-8-2017 10:00,98.21,6.862038838057103,0.0,0.0,0.0,0
24-8-2017 11:00,99.18,5.771293328227642,0.0,0.0,0.0,0
24-8-2017 12:00,99.25,4.700760586497324,0.0,0.0,0.0,0
24-8-2017 13:00,99.19,4.515734183849233,0.0,0.0,0.0,0
24-8-2017 14:00,99.21,4.403439163414532,0.0,0.0,0.0,0
24-8-2017 15:00,84.3,-9.790898917774598,0.0,0.0,0.0,0
24-8-2017 16:00,45.05,-49.08284703036432,0.0,0.0,0.0,0
24-8-2017 17:00,98.93,3.9402774714013162,0.0,0.0,0.0,0
24-8-2017 18:00,98.79,2.9679942133197983,0.0,0.0,0.0,0
24-8-2017 19:00,98.86,2.8332424074822313,0.0,0.0,0.0,0
24-8-2017 20:00,99.12,2.90773943153809,0.0,0.0,0.0,0
24-8-2017 21:00,98.9,9.195024837977073,0.0,0.0,0.0,0
24-8-2017 22:00,98.78,7.940070580348163,0.0,0.0,0.0,0
24-8-2017 23:00,99.09,2.114932346958355,0.0,0.0,0.0,0
25-8-2017 0:00,99.0,1.6861149825885349,0.0,0.0,0.0,0
25-8-2017 1:00,99.29,1.7595531894937722,0.0,0.0,0.0,0
25-8-2017 2:00,99.25,2.3566580472394634,0.0,0.0,0.0,0
25-8-2017 3:00,99.04,1.6594974932693134,0.0,0.0,0.0,0
25-8-2017 4:00,98.95,0.5418330977802555,0.0,0.0,0.0,0
25-8-2017 5:00,97.82,-1.2387965956874467,0.0,0.0,0.0,0
25-8-2017 6:00,99.35,-0.4094465719790179,0.0,0.0,0.0,0
25-8-2017 7:00,99.38,-0.7139939222074645,0.0,0.0,0.0,0
25-8-2017 8:00,99.18,-0.9727265039773698,0.0,0.0,0.0,0
25-8-2017 9:00,98.96,0.5141359893233783,0.0,0.0,0.0,0
25-8-2017 10:00,99.17,1.3079140840161045,0.0,0.0,0.0,0
25-8-2017 11:00,99.26,-0.3942854607593347,0.0,0.0,0.0,0
25-8-2017 12:00,99.11,-1.3987361292691247,0.0,0.0,0.0,0
25-8-2017 13:00,99.24,-0.936799082372687,0.0,0.0,0.0,0
25-8-2017 14:00,99.22,-0.6043330667100122,0.0,0.0,0.0,0
25-8-2017 15:00,99.14,0.47612184344640696,0.0,0.0,0.0,0
25-8-2017 16:00,99.08,0.9052672570134774,0.0,0.0,0.0,0
25-8-2017 17:00,99.3,0.692901390318255,0.0,0.0,0.0,0
25-8-2017 18:00,99.27,0.12098537399616305,0.0,0.0,0.0,0
25-8-2017 19:00,99.13,0.1646404625678599,0.0,0.0,0.0,0
25-8-2017 20:00,99.29,0.5079689639670733,0.0,0.0,0.0,0
25-8-2017 21:00,99.03,7.092172844533039,0.0,0.0,0.0,0
25-8-2017 22:00,98.73,6.221993635225331,0.0,0.0,0.0,0
25-8-2017 23:00,99.3,0.7381739002510272,0.0,0.0,0.0,0
26-8-2017 0:00,99.27,0.6928653550685624,0.0,0.0,0.0,0
26-8-2017 1:00,99.15,0.7749222424928206,0.0,0.0,0.0,0
26-8-2017 2:00,88.4,-8.928659481305587,0.0,0.0,0.0,0
26-8-2017 3:00,90.74,-6.7296432458468445,0.0,0.0,0.0,0
26-8-2017 4:00,93.8,-4.318329842639059,0.0,0.0,0.0,0
26-8-2017 5:00,97.66,-0.6270029163165702,0.0,0.0,0.0,0
26-8-2017 6:00,98.79,0.3033850860616383,0.0,0.0,0.0,0
26-8-2017 7:00,98.61,0.30216355004948525,0.0,0.0,0.0,0
26-8-2017 8:00,98.79,0.8751555373312527,0.0,0.0,0.0,0
26-8-2017 9:00,98.75,3.0001446541274674,0.0,0.0,0.0,0
26-8-2017 10:00,98.81,4.088745104525188,0.0,0.0,0.0,0
26-8-2017 11:00,98.69,2.4889589623530384,0.0,0.0,0.0,0
26-8-2017 12:00,98.6,1.8744578046130442,0.0,0.0,0.0,0
26-8-2017 13:00,98.51,2.2204823345220177,0.0,0.0,0.0,0
26-8-2017 14:00,98.55,2.744833419750009,0.0,0.0,0.0,0
26-8-2017 15:00,98.31,3.75720535472,0.0,0.0,0.0,0
26-8-2017 16:00,98.19,4.304568327911866,0.0,0.0,0.0,0
26-8-2017 17:00,97.92,3.5864906754718504,0.0,0.0,0.0,0
26-8-2017 18:00,97.55,2.524720483625245,0.0,0.0,0.0,0
26-8-2017 19:00,97.46,2.5665610493222175,0.0,0.0,0.0,0
26-8-2017 20:00,97.22,2.4384996107808092,0.0,0.0,0.0,0
26-8-2017 21:00,25.88,-62.10918884154178,0.0,0.0,0.0,0
26-8-2017 22:00,95.22,6.83659619045612,0.0,0.0,0.0,0
26-8-2017 23:00,97.4,2.6552841468817547,0.0,0.0,0.0,0
27-8-2017 0:00,97.98,3.1546736138710827,0.0,0.0,0.0,0
27-8-2017 1:00,99.19,4.392504050590418,0.0,0.0,0.0,0
27-8-2017 2:00,90.27,-3.6646093859759787,0.0,0.0,0.0,0
27-8-2017 3:00,92.47,-1.8522614923121665,0.0,0.0,0.0,0
27-8-2017 4:00,97.35,2.1651845783685246,0.0,0.0,0.0,0
27-8-2017 5:00,99.25,3.2507587159893916,0.0,0.0,0.0,0
27-8-2017 6:00,99.02,2.194475288545476,0.0,0.0,0.0,0
27-8-2017 7:00,98.94,1.6788701582578085,0.0,0.0,0.0,0
27-8-2017 8:00,98.57,1.0258773060994315,0.0,0.0,0.0,0
27-8-2017 9:00,99.0,2.9073713024823036,0.0,0.0,0.0,0
27-8-2017 10:00,98.88,3.0891723646761875,0.0,0.0,0.0,0
27-8-2017 11:00,98.77,0.6401778811985395,0.0,0.0,0.0,0
27-8-2017 12:00,98.73,-0.7659955096804794,0.0,0.0,0.0,0
27-8-2017 13:00,98.57,-0.8542160568690491,0.0,0.0,0.0,0
27-8-2017 14:00,98.61,-0.6663124621857577,0.0,0.0,0.0,0
27-8-2017 15:00,98.39,-0.01035606251224408,0.0,0.0,0.0,0
27-8-2017 16:00,98.56,0.5368919101943845,0.0,0.0,0.0,0
27-8-2017 17:00,98.47,-0.018450677522267256,0.0,0.0,0.0,0
27-8-2017 18:00,98.76,-0.5716281944252302,0.0,0.0,0.0,0
27-8-2017 19:00,98.5,-0.7531553011348109,0.0,0.0,0.0,0
27-8-2017 20:00,98.67,-0.5441598291486542,0.0,0.0,0.0,0
27-8-2017 21:00,98.4,6.103758995571226,0.0,0.0,0.0,0
27-8-2017 22:00,98.45,6.113007878805732,0.0,0.0,0.0,0
27-8-2017 23:00,98.68,-0.1482968634376789,0.0,0.0,0.0,0
28-8-2017 0:00,98.83,0.033290225654454275,0.0,0.0,0.0,0
28-8-2017 1:00,99.33,0.859906240813558,0.0,0.0,0.0,0
28-8-2017 2:00,96.6,-0.7177268793761442,0.0,0.0,0.0,0
28-8-2017 3:00,96.8,-0.6790352983626491,0.0,0.0,0.0,0
28-8-2017 4:00,99.18,1.0975554689356528,0.0,0.0,0.0,0
28-8-2017 5:00,99.06,0.5839363308590464,0.0,0.0,0.0,0
28-8-2017 6:00,99.0,0.13754098659725855,0.0,0.0,0.0,0
28-8-2017 7:00,98.83,-0.015888224961770447,0.0,0.0,0.0,0
28-8-2017 8:00,98.38,-0.35830640355611365,0.0,0.0,0.0,0
28-8-2017 9:00,98.65,1.9115714967449406,0.0,0.0,0.0,0
28-8-2017 10:00,96.98,1.0784521950665606,0.0,0.0,0.0,0
28-8-2017 11:00,79.0,-18.83787160538509,0.0,0.0,0.0,0
28-8-2017 12:00,98.7,-0.08383820507161488,0.0,0.0,0.0,0
28-8-2017 13:00,98.8,0.2872668359803754,0.0,0.0,0.0,0
28-8-2017 14:00,98.59,0.45229360545701525,0.0,0.0,0.0,0
28-8-2017 15:00,93.86,-3.2145948648279017,0.0,0.0,0.0,0
28-8-2017 16:00,98.5,2.07610550638546,0.0,0.0,0.0,0
28-8-2017 17:00,98.56,1.786499060351261,0.0,0.0,0.0,0
28-8-2017 18:00,98.48,0.8449152953509724,0.0,0.0,0.0,0
28-8-2017 19:00,98.42,0.9430137355410864,0.0,0.0,0.0,0
28-8-2017 20:00,98.49,1.1120593373610461,0.0,0.0,0.0,0
28-8-2017 21:00,98.13,7.639300649378882,0.0,0.0,0.0,0
28-8-2017 22:00,98.35,8.015715147160577,0.0,0.0,0.0,0
28-8-2017 23:00,98.64,1.5281194695586464,0.0,0.0,0.0,0
29-8-2017 0:00,98.8,1.6756059440641167,0.0,0.0,0.0,0
29-8-2017 1:00,92.58,-4.287576366825235,0.0,0.0,0.0,0
29-8-2017 2:00,90.63,-5.164313075126529,0.0,0.0,0.0,0
29-8-2017 3:00,94.63,-1.4678617112515582,0.0,0.0,0.0,0
29-8-2017 4:00,98.33,1.5193082872514623,0.0,0.0,0.0,0
29-8-2017 5:00,99.31,2.001519255766354,0.0,0.0,0.0,0
29-8-2017 6:00,99.0,1.2200353769756163,0.0,0.0,0.0,0
29-8-2017 7:00,98.93,1.0938438094458007,0.0,0.0,0.0,0
29-8-2017 8:00,99.05,1.1870620297160173,0.0,0.0,0.0,0
29-8-2017 9:00,72.6,-23.287294627346085,0.0,0.0,0.0,0
29-8-2017 10:00,93.75,-1.3379090556902469,0.0,0.0,0.0,0
29-8-2017 11:00,95.74,-1.4541369359093892,0.0,0.0,0.0,0
29-8-2017 12:00,98.76,0.4675284928031118,0.0,0.0,0.0,0
29-8-2017 13:00,98.83,0.6685132277204531,0.0,0.0,0.0,0
29-8-2017 14:00,98.78,0.8812172776152778,0.0,0.0,0.0,0
29-8-2017 15:00,98.88,1.8920380429967736,0.0,0.0,0.0,0
29-8-2017 16:00,98.92,2.516776884747415,0.0,0.0,0.0,0
29-8-2017 17:00,98.9,2.0109883122117083,0.0,0.0,0.0,0
29-8-2017 18:00,98.97,0.9490800309302045,0.0,0.0,0.0,0
29-8-2017 19:00,98.93,0.8948958432685146,0.0,0.0,0.0,0
29-8-2017 20:00,98.94,0.8120834001707635,0.0,0.0,0.0,0
29-8-2017 21:00,98.63,7.210088632493466,0.0,0.0,0.0,0
29-8-2017 22:00,98.62,7.405116577499882,0.0,0.0,0.0,0
29-8-2017 23:00,98.75,0.32267779721698275,0.0,0.0,0.0,0
30-8-2017 0:00,98.89,0.2964515808368162,0.0,0.0,0.0,0
30-8-2017 1:00,97.98,-0.4023820449289701,0.0,0.0,0.0,0
30-8-2017 2:00,89.93,-7.525733972017292,0.0,0.0,0.0,0
30-8-2017 3:00,93.54,-4.242027802175528,0.0,0.0,0.0,0
30-8-2017 4:00,97.37,-1.1884380796954161,0.0,0.0,0.0,0
30-8-2017 5:00,98.63,-0.41663082717566624,0.0,0.0,0.0,0
30-8-2017 6:00,99.03,-0.5163689835979426,0.0,0.0,0.0,0
30-8-2017 7:00,98.71,-0.931572714278758,0.0,0.0,0.0,0
30-8-2017 8:00,98.34,-1.292472498151895,0.0,0.0,0.0,0
30-8-2017 9:00,98.65,1.0022926555797653,0.0,0.0,0.0,0
30-8-2017 10:00,99.05,2.2202292375883843,0.0,0.0,0.0,0
30-8-2017 11:00,98.87,0.017508628617818545,0.0,0.0,0.0,0
30-8-2017 12:00,98.83,-1.0683884936893975,0.0,0.0,0.0,0
30-8-2017 13:00,98.71,-1.0025778882166065,0.0,0.0,0.0,0
30-8-2017 14:00,98.82,-0.5774354467314424,0.0,0.0,0.0,0
30-8-2017 15:00,99.14,0.6679487944346789,0.0,0.0,0.0,0
30-8-2017 16:00,99.2,1.37690922726037,0.0,0.0,0.0,0
30-8-2017 17:00,99.15,1.215988476353786,0.0,0.0,0.0,0
30-8-2017 18:00,99.13,0.10892945757743178,0.0,0.0,0.0,0
30-8-2017 19:00,98.69,-0.18989039273063213,0.0,0.0,0.0,0
30-8-2017 20:00,98.22,-0.5545856582545383,0.0,0.0,0.0,0
30-8-2017 21:00,98.34,6.535349159780466,0.0,0.0,0.0,0
30-8-2017 22:00,98.33,7.146205121915699,0.0,0.0,0.0,0
30-8-2017 23:00,97.71,-0.5207824600734483,0.0,0.0,0.0,0
31-8-2017 0:00,97.69,-0.499604762320601,0.0,0.0,0.0,0
31-8-2017 1:00,97.87,0.10108306275778034,0.0,0.0,0.0,0
31-8-2017 2:00,98.42,1.6862886826030206,0.0,0.0,0.0,0
31-8-2017 3:00,97.1,0.27242242413215934,0.0,0.0,0.0,0
31-8-2017 4:00,91.9,-5.512353138785556,0.0,0.0,0.0,0
31-8-2017 5:00,95.68,-1.9804077603129855,0.0,0.0,0.0,0
31-8-2017 6:00,95.63,-2.3278583524188434,0.0,0.0,0.0,0
31-8-2017 7:00,94.47,-3.39147942882596,0.0,0.0,0.0,0
31-8-2017 8:00,97.12,-0.4659023994178142,0.0,0.0,0.0,0
31-8-2017 9:00,97.41,2.0549498039907803,0.0,0.0,0.0,0
31-8-2017 10:00,97.36,3.078451299009828,0.0,0.0,0.0,0
31-8-2017 11:00,97.08,1.096251863945426,0.0,0.0,0.0,0
31-8-2017 12:00,97.13,0.38980609327610694,0.29,10.7,-10.11,0
31-8-2017 13:00,97.28,0.9291975667320713,-0.46,9.94,-10.86,0
31-8-2017 14:00,97.21,1.3755333972352588,-0.06,10.33,-10.45,0
31-8-2017 15:00,92.52,-2.2257638883863535,-0.03,10.35,-10.42,0
31-8-2017 16:00,93.12,-0.7638014333443266,-0.14,10.23,-10.52,0
31-8-2017 17:00,93.0,-0.7476504270438795,0.44,10.81,-9.93,0
31-8-2017 18:00,92.43,-2.4876562477371067,-0.5,9.87,-10.86,0
31-8-2017 19:00,92.44,-2.3089134469868355,-0.27,10.09,-10.63,0
31-8-2017 20:00,91.91,-2.6632932212321947,-0.15,10.2,-10.5,0
31-8-2017 21:00,91.52,3.8596780315770047,0.1,10.45,-10.24,0
31-8-2017 22:00,91.12,4.177448365683645,1.11,11.46,-9.23,0
31-8-2017 23:00,93.75,-0.3930016631691444,-0.36,9.98,-10.7,0
1-9-2017 0:00,94.87,0.6566663035593194,-0.07,10.26,-10.4,0
1-9-2017 1:00,96.08,2.082322575792972,-0.01,10.32,-10.33,0
1-9-2017 2:00,93.47,0.20153273888287515,0.55,10.87,-9.77,0
1-9-2017 3:00,85.64,-7.904458951589476,0.45,10.77,-9.87,0
1-9-2017 4:00,88.58,-5.772164696508469,-1.11,9.21,-11.42,0
1-9-2017 5:00,93.3,-1.6807465917746356,-0.47,9.84,-10.78,0
1-9-2017 6:00,95.42,-0.2765750192556453,0.21,10.51,-10.1,0
1-9-2017 7:00,94.44,-1.5892861573131967,0.58,10.87,-9.72,0
1-9-2017 8:00,95.52,-0.5879050305478586,0.08,10.37,-10.21,0
1-9-2017 9:00,97.0,2.682640240501769,0.06,10.34,-10.22,0
1-9-2017 10:00,95.54,1.8653101838520598,0.81,11.1,-9.47,0
1-9-2017 11:00,96.91,1.1672354580146163,-0.23,10.05,-10.51,0
1-9-2017 12:00,97.18,0.28384457430401255,0.3,10.57,-9.98,0
1-9-2017 13:00,97.04,0.11638967306679149,-0.45,9.82,-10.72,0
1-9-2017 14:00,97.25,0.4234916499116821,-0.13,10.13,-10.39,0
1-9-2017 15:00,91.58,-4.614914405173906,-0.17,10.08,-10.43,0
1-9-2017 16:00,95.26,-0.48037717059189333,-0.32,9.93,-10.57,0
1-9-2017 17:00,97.14,1.4152364441926721,0.63,10.87,-9.61,0
1-9-2017 18:00,97.0,-0.3453253271404009,-0.04,10.2,-10.27,0
1-9-2017 19:00,96.73,-0.7866290240547187,-0.03,10.2,-10.25,0
1-9-2017 20:00,96.46,-1.1783024557444293,-0.24,9.98,-10.46,0
1-9-2017 21:00,96.61,5.750220623453998,-0.01,10.2,-10.23,0
1-9-2017 22:00,96.09,5.9674207211470645,0.85,11.07,-9.36,0
1-9-2017 23:00,97.18,-0.37397636295432335,-0.53,9.67,-10.73,0
2-9-2017 0:00,97.47,-0.34330273563521985,-0.4,9.8,-10.6,0
2-9-2017 1:00,98.55,0.9606060509375709,-0.37,9.83,-10.56,0
2-9-2017 2:00,97.82,0.8671048244560211,0.25,10.44,-9.94,0
2-9-2017 3:00,98.04,0.8422717691660466,0.56,10.75,-9.63,0
2-9-2017 4:00,98.01,-0.00508009057035963,0.31,10.49,-9.87,0
2-9-2017 5:00,97.76,-0.5103071480050261,-0.25,9.92,-10.42,0
2-9-2017 6:00,97.75,-0.9006312992909358,-0.67,9.5,-10.84,0
2-9-2017 7:00,97.58,-1.0785503874286775,-0.48,9.68,-10.65,0
2-9-2017 8:00,98.5,0.16251694826407004,-0.12,10.03,-10.28,0
2-9-2017 9:00,98.24,2.5143940775390377,-0.02,10.13,-10.17,0
2-9-2017 10:00,98.26,4.00787125980483,0.42,10.56,-9.73,0
2-9-2017 11:00,98.18,2.7555600337786785,-0.12,10.02,-10.26,0
2-9-2017 12:00,98.02,2.306862827611056,0.2,10.33,-9.94,0
2-9-2017 13:00,97.74,2.6700205703188544,-0.42,9.71,-10.55,0
2-9-2017 14:00,97.99,3.685347712143667,-0.14,9.98,-10.26,0
2-9-2017 15:00,95.66,2.6172919062322393,-0.03,10.09,-10.15,0
2-9-2017 16:00,97.97,6.061862938992434,0.34,10.45,-9.77,0
2-9-2017 17:00,97.59,6.174030184781884,0.71,10.82,-9.39,0
2-9-2017 18:00,97.48,4.590003485329717,-0.28,9.82,-10.38,0
2-9-2017 19:00,98.01,5.20574431327158,-0.19,9.9,-10.29,0
2-9-2017 20:00,98.67,6.043868246658249,-0.04,10.04,-10.13,0
2-9-2017 21:00,65.14,-20.61909593600116,0.27,10.35,-9.82,0
2-9-2017 22:00,0.0,-84.77950516296872,-3.91,6.29,-14.11,0
2-9-2017 23:00,95.04,2.82111160943424,-15.31,-3.93,-26.69,1
3-9-2017 0:00,98.66,6.215751809096929,9.54,21.06,-1.98,0
3-9-2017 1:00,99.13,6.820135515109413,7.61,19.11,-3.9,0
3-9-2017 2:00,99.15,7.286145304156989,5.71,17.21,-5.79,0
3-9-2017 3:00,99.22,7.044693289149947,-1.61,9.91,-13.13,1
3-9-2017 4:00,99.23,6.129917719696678,2.25,13.83,-9.34,0
3-9-2017 5:00,99.06,4.9834997597806705,-0.54,11.07,-12.14,0
3-9-2017 6:00,98.3,3.0841341443770034,-1.67,9.96,-13.3,0
3-9-2017 7:00,98.1,2.1064613658462292,-1.72,9.92,-13.35,0
3-9-2017 8:00,98.27,1.9026691701535583,-0.8,10.84,-12.44,0
3-9-2017 9:00,98.34,3.337238807974302,-0.89,10.75,-12.53,0
3-9-2017 10:00,98.0,3.232883879476063,-0.13,11.51,-11.77,0
3-9-2017 11:00,97.8,0.687696803581602,-0.73,10.91,-12.36,0
3-9-2017 12:00,97.7,-0.9049460747225595,-0.27,11.36,-11.89,0
3-9-2017 13:00,97.12,-1.4410935509235685,-0.85,10.76,-12.47,0
3-9-2017 14:00,97.3,-1.0974591069727353,-0.49,11.11,-12.09,0
3-9-2017 15:00,97.39,-0.3850825265638349,-0.37,11.22,-11.96,0
3-9-2017 16:00,97.02,-0.21039555847929137,0.49,12.07,-11.09,0
3-9-2017 17:00,97.45,0.8224112827619905,0.2,11.77,-11.37,0
3-9-2017 18:00,97.41,-0.9109943803622969,-0.41,11.15,-11.97,0
3-9-2017 19:00,97.44,-0.9041230631173249,-0.28,11.27,-11.84,0
3-9-2017 20:00,97.44,-0.7921158002072985,-0.02,11.52,-11.56,0
3-9-2017 21:00,97.35,6.005920569977775,0.1,11.64,-11.44,0
3-9-2017 22:00,96.85,6.660389833051909,1.67,13.21,-9.88,0
3-9-2017 23:00,97.4,-0.3044917233384723,1.91,13.47,-9.65,0
4-9-2017 0:00,97.66,-0.30339713662986867,-2.0,9.57,-13.57,0
4-9-2017 1:00,93.87,-3.8041668078400193,-1.53,10.03,-13.09,0
4-9-2017 2:00,96.29,-0.8842742999257069,-1.28,10.29,-12.84,0
4-9-2017 3:00,96.67,-0.6379735713121875,1.05,12.6,-10.51,0
4-9-2017 4:00,99.09,0.994198852855348,0.32,11.87,-11.23,0
4-9-2017 5:00,98.15,-0.4632672416747283,0.56,12.11,-10.98,0
4-9-2017 6:00,98.04,-1.2915315533288663,-0.37,11.17,-11.91,0
4-9-2017 7:00,98.25,-1.4488152543854085,-0.07,11.46,-11.61,0
4-9-2017 8:00,97.53,-2.0573242135962317,0.1,11.63,-11.42,0
4-9-2017 9:00,97.3,-0.3684858559464743,-0.02,11.49,-11.54,0
4-9-2017 10:00,98.45,1.5809033160744974,0.39,11.9,-11.12,0
4-9-2017 11:00,98.49,-0.09558339840501162,0.14,11.65,-11.36,0
4-9-2017 12:00,98.71,-0.7705957375624877,0.44,11.94,-11.06,0
4-9-2017 13:00,98.24,-1.008662956373584,-0.19,11.31,-11.68,0
4-9-2017 14:00,98.31,-0.5893357339979275,-0.03,11.45,-11.52,0
4-9-2017 15:00,98.2,0.07085870903004832,-0.01,11.47,-11.48,0
4-9-2017 16:00,98.51,1.1230438935167655,0.63,12.1,-10.84,0
4-9-2017 17:00,98.49,2.251271050119044,0.42,11.89,-11.04,0
4-9-2017 18:00,98.11,0.39326714323183865,-0.32,11.14,-11.78,0
4-9-2017 19:00,98.43,1.0160333248782933,-0.32,11.14,-11.77,0
4-9-2017 20:00,98.16,1.226688292409989,-0.07,11.38,-11.51,0
4-9-2017 21:00,97.79,8.555251958426524,-0.01,11.43,-11.45,0
4-9-2017 22:00,98.26,11.144080654338325,1.25,12.7,-10.19,0
4-9-2017 23:00,98.68,4.763181711950509,1.71,13.18,-9.75,0
5-9-2017 0:00,99.16,5.740211628500958,-1.87,9.58,-13.33,0
5-9-2017 1:00,92.26,-0.2577122262103728,-1.47,9.98,-12.92,0
5-9-2017 2:00,89.71,-1.795937805707851,-1.81,9.64,-13.26,0
5-9-2017 3:00,92.27,1.2661148602477397,-0.28,11.17,-11.73,0
5-9-2017 4:00,96.33,5.133152735372548,0.09,11.54,-11.35,0
5-9-2017 5:00,98.43,6.9676798885927695,0.88,12.32,-10.57,0
5-9-2017 6:00,98.43,6.463558263052519,0.55,11.98,-10.89,0
5-9-2017 7:00,97.76,5.629642924093844,0.3,11.73,-11.13,0
5-9-2017 8:00,97.79,6.049396485988481,0.18,11.6,-11.24,0
5-9-2017 9:00,42.54,-47.225825601156096,0.1,11.52,-11.31,0
5-9-2017 10:00,4.9,-84.00103670300842,-8.4,3.38,-20.19,0
5-9-2017 11:00,98.4,7.912832569534558,-13.53,-1.12,-25.95,1
5-9-2017 12:00,98.31,7.027106395131298,15.43,28.02,2.84,0
5-9-2017 13:00,98.27,6.952546786535379,8.45,21.02,-4.12,0
5-9-2017 14:00,98.18,6.942994140161105,4.92,17.49,-7.65,0
5-9-2017 15:00,97.82,7.046433798633402,-1.22,11.36,-13.81,1
5-9-2017 16:00,98.01,7.7216348413083296,3.26,15.9,-9.37,0
5-9-2017 17:00,98.27,8.332115124634853,-0.22,12.44,-12.88,0
5-9-2017 18:00,97.4,4.856345785347926,-1.12,11.56,-13.81,0
5-9-2017 19:00,94.65,1.391956872957934,-1.26,11.44,-13.96,0
5-9-2017 20:00,95.63,1.8782095866733783,-1.27,11.43,-13.97,0
5-9-2017 21:00,93.98,6.439637190740001,-0.73,11.97,-13.44,0
5-9-2017 22:00,92.89,6.1353175188884705,0.65,13.36,-12.06,0
5-9-2017 23:00,92.49,-2.6491066100976894,1.21,13.94,-11.51,0
6-9-2017 0:00,92.29,-3.8777569712998883,-2.64,10.09,-15.36,0
6-9-2017 1:00,96.67,0.6448904456096187,-1.61,11.11,-14.32,0
6-9-2017 2:00,98.52,2.577255665264758,0.29,12.99,-12.41,0
6-9-2017 3:00,98.26,2.114798048343033,1.2,13.89,-11.49,0
6-9-2017 4:00,98.31,1.166793028043685,-0.06,12.61,-12.73,0
6-9-2017 5:00,96.28,-1.3937479030942512,-0.64,12.02,-13.3,0
6-9-2017 6:00,95.61,-2.900701490802163,-1.15,11.5,-13.81,0
6-9-2017 7:00,95.56,-3.491254160277677,-0.72,11.93,-13.36,0
6-9-2017 8:00,98.0,-0.9275956349262344,-0.24,12.4,-12.88,0
6-9-2017 9:00,98.66,1.4804740930622842,0.34,12.97,-12.3,0
6-9-2017 10:00,98.89,2.385664314033008,2.57,15.21,-10.06,0
6-9-2017 11:00,98.59,0.40955947281939586,2.03,14.67,-10.62,0
6-9-2017 12:00,99.0,-0.09183053779949546,-2.22,10.43,-14.87,0
6-9-2017 13:00,99.05,0.08158449548984947,-1.49,11.15,-14.14,0
6-9-2017 14:00,94.81,-3.928663656719877,-0.56,12.08,-13.2,0
6-9-2017 15:00,98.0,-0.17167853358634488,-0.78,11.86,-13.42,0
6-9-2017 16:00,97.42,-0.13051464343007524,0.56,13.19,-12.07,0
6-9-2017 17:00,97.52,1.0967771661050563,0.3,12.93,-12.32,0
6-9-2017 18:00,97.93,-0.6087314328694475,-0.04,12.58,-12.67,0
6-9-2017 19:00,98.54,-0.16330390299798125,0.01,12.62,-12.61,0
6-9-2017 20:00,98.47,-0.11675591501030169,0.43,13.04,-12.17,0
6-9-2017 21:00,98.03,6.425113378414267,0.21,12.81,-12.39,0
6-9-2017 22:00,98.22,8.221746986487076,1.31,13.9,-11.29,0
6-9-2017 23:00,98.35,0.6107867368579889,1.78,14.38,-10.82,0
7-9-2017 0:00,97.73,-0.3644642489374519,-1.71,10.88,-14.3,0
7-9-2017 1:00,98.1,0.40940116798965676,-1.21,11.37,-13.8,0
7-9-2017 2:00,92.65,-4.866996084805862,-0.38,12.2,-12.96,0
7-9-2017 3:00,95.56,-1.8433172562081523,-0.56,12.01,-13.14,0
7-9-2017 4:00,97.02,-1.165817280513977,0.08,12.64,-12.49,0
7-9-2017 5:00,98.31,-0.28994295532335457,-0.0,12.56,-12.56,0
7-9-2017 6:00,98.44,-0.9482451645122438,0.23,12.78,-12.33,0
7-9-2017 7:00,98.57,-1.3540142019986234,0.02,12.57,-12.53,0
7-9-2017 8:00,98.22,-1.4650297506844225,0.31,12.85,-12.23,0
7-9-2017 9:00,98.08,0.24253699782072147,-0.1,12.43,-12.64,0
7-9-2017 10:00,97.96,0.9343187307993048,2.1,14.64,-10.44,0
7-9-2017 11:00,97.95,-0.5155700349860979,1.64,14.19,-10.9,0
7-9-2017 12:00,98.47,-0.6964336926358357,-2.09,10.45,-14.63,0
7-9-2017 13:00,98.17,-0.7350691640452425,-1.42,11.11,-13.96,0
7-9-2017 14:00,98.53,-0.01603796867451024,-0.61,11.91,-13.14,0
7-9-2017 15:00,98.26,0.36446747253620515,0.25,12.77,-12.27,0
7-9-2017 16:00,98.17,1.0116529621087125,0.06,12.57,-12.46,0
7-9-2017 17:00,98.54,2.7855154993210647,0.15,12.66,-12.35,0
7-9-2017 18:00,98.23,0.3500268421275905,-0.12,12.37,-12.62,0
7-9-2017 19:00,97.76,-0.2348854436936847,-0.01,12.48,-12.5,0
7-9-2017 20:00,97.08,-0.6881984393880032,0.01,12.5,-12.47,0
7-9-2017 21:00,96.67,5.9770689486834385,-0.06,12.42,-12.54,0
7-9-2017 22:00,96.8,7.857676198767848,1.02,13.49,-11.46,0
7-9-2017 23:00,96.86,0.14320019058312994,1.6,14.08,-10.87,0
8-9-2017 0:00,97.11,0.034368942281716386,-1.52,10.9,-13.94,0
8-9-2017 1:00,92.24,-4.4052523503346634,-0.94,11.48,-13.35,0
8-9-2017 2:00,88.09,-8.525116785141961,-1.33,11.08,-13.74,0
8-9-2017 3:00,91.37,-5.050006220585956,-0.41,11.99,-12.82,0
8-9-2017 4:00,94.29,-2.931697408162293,0.21,12.61,-12.19,0
8-9-2017 5:00,97.37,-0.2944423663818583,0.76,13.15,-11.64,0
8-9-2017 6:00,98.47,-0.07912773679042573,0.87,13.26,-11.52,0
8-9-2017 7:00,98.61,-0.6151475418063654,0.7,13.08,-11.68,0
8-9-2017 8:00,98.78,-0.23587156404812504,0.57,12.95,-11.8,0
8-9-2017 9:00,98.52,1.1792444553743593,0.12,12.49,-12.25,0
8-9-2017 10:00,98.55,1.885669853976296,1.88,14.26,-10.49,0
8-9-2017 11:00,98.7,0.5600493172346148,1.41,13.8,-10.98,0
8-9-2017 12:00,98.69,-0.21223583383041955,-2.15,10.23,-14.54,0
8-9-2017 13:00,98.72,-0.09076898957685842,-1.79,10.59,-14.16,0
8-9-2017 14:00,98.4,-0.23030562626389894,-0.82,11.55,-13.18,0
8-9-2017 15:00,98.97,0.765872953385724,-0.1,12.26,-12.47,0
8-9-2017 16:00,98.6,0.9412328627362001,-0.07,12.29,-12.42,0
8-9-2017 17:00,98.91,2.750421351892598,-0.04,12.31,-12.39,0
8-9-2017 18:00,98.78,0.3037078607469823,-0.21,12.13,-12.55,0
8-9-2017 19:00,98.11,-0.6127890165002299,-0.09,12.25,-12.42,0
8-9-2017 20:00,97.86,-0.7072077716097454,-0.03,12.3,-12.36,0
8-9-2017 21:00,97.87,6.490038978709421,0.02,12.35,-12.3,0
8-9-2017 22:00,97.53,8.063201138406285,0.98,13.3,-11.33,0
8-9-2017 23:00,98.51,1.2537906392667537,1.44,13.75,-10.87,0
9-9-2017 0:00,89.4,-8.200039603939786,-1.15,11.15,-13.46,0
9-9-2017 1:00,90.62,-6.356923030272341,-2.72,9.59,-15.03,0
9-9-2017 2:00,96.35,-0.574030071264076,-0.5,11.81,-12.81,0
9-9-2017 3:00,98.78,2.2987368050775956,2.09,14.39,-10.22,0
9-9-2017 4:00,98.84,1.704079030058054,1.34,13.63,-10.96,0
9-9-2017 5:00,98.36,1.1540456695596788,-0.05,12.23,-12.34,0
9-9-2017 6:00,97.88,0.09430801906276542,-0.45,11.83,-12.73,0
9-9-2017 7:00,98.71,0.5093683276486303,-0.13,12.14,-12.41,0
9-9-2017 8:00,99.17,1.550266712982264,0.22,12.49,-12.05,0
9-9-2017 9:00,98.06,2.518590438571465,0.05,12.31,-12.21,0
9-9-2017 10:00,95.94,1.5153179380461665,1.58,13.84,-10.68,0
9-9-2017 11:00,95.48,0.11962406559760552,0.83,13.09,-11.43,0
9-9-2017 12:00,95.45,-0.15842414363335422,-2.25,10.0,-14.51,0
9-9-2017 13:00,94.96,-0.216434606927578,-1.55,10.7,-13.8,0
9-9-2017 14:00,94.88,0.21588130111689452,-0.58,11.66,-12.83,0
9-9-2017 15:00,94.81,0.8581533959947194,0.21,12.45,-12.03,0
9-9-2017 16:00,94.72,1.6321081019124364,0.1,12.33,-12.14,0
9-9-2017 17:00,94.5,3.264025511732683,0.3,12.53,-11.93,0
9-9-2017 18:00,94.36,0.8734901553547161,0.1,12.32,-12.12,0
9-9-2017 19:00,94.38,0.7728116554013837,0.27,12.49,-11.94,0
9-9-2017 20:00,94.4,1.1346901095965194,0.42,12.63,-11.79,0
9-9-2017 21:00,55.1,-30.954439014958744,0.42,12.63,-11.78,0
9-9-2017 22:00,74.12,-9.947077182771537,-7.27,5.08,-19.62,0
9-9-2017 23:00,95.18,3.220222590012014,2.61,14.96,-9.73,0
10-9-2017 0:00,95.35,2.973038114778234,4.51,16.85,-7.83,0
10-9-2017 1:00,95.28,3.2790188558095537,3.77,16.1,-8.57,0
10-9-2017 2:00,94.76,2.394795509713475,0.25,12.58,-12.08,0
10-9-2017 3:00,94.81,2.695344998920845,1.16,13.5,-11.18,0
10-9-2017 4:00,94.79,1.7278469375381604,-0.0,12.34,-12.34,0
10-9-2017 5:00,94.51,0.7516729804073776,-0.86,11.47,-13.2,0
10-9-2017 6:00,94.42,-0.6119691445314572,-1.18,11.16,-13.51,0
10-9-2017 7:00,95.55,-0.6346809166974339,-0.7,11.63,-13.03,0
10-9-2017 8:00,95.14,-1.0910123181420204,-0.34,11.98,-12.66,0
10-9-2017 9:00,95.17,0.1269147826736372,-0.65,11.67,-12.96,0
10-9-2017 10:00,95.35,0.5703400520807946,1.15,13.47,-11.17,0
10-9-2017 11:00,95.52,-0.949031487014949,0.97,13.3,-11.35,0
10-9-2017 12:00,95.48,-2.0164470853521124,-1.93,10.38,-14.25,0
10-9-2017 13:00,96.11,-1.491303833731834,-1.55,10.76,-13.86,0
10-9-2017 14:00,96.44,-1.1945043584936315,-0.58,11.72,-12.88,0
10-9-2017 15:00,96.81,-0.7035077259253484,0.07,12.36,-12.22,0
10-9-2017 16:00,97.21,0.0016727990218612376,-0.07,12.22,-12.35,0
10-9-2017 17:00,97.61,2.1378825079264345,0.07,12.35,-12.2,0
10-9-2017 18:00,97.61,-0.5149113352633918,-0.01,12.26,-12.28,0
10-9-2017 19:00,97.79,-0.798208079502345,0.06,12.32,-12.2,0
10-9-2017 20:00,97.84,-0.6884690375821236,0.17,12.43,-12.09,0
10-9-2017 21:00,98.27,6.958900363273088,0.16,12.41,-12.1,0
10-9-2017 22:00,99.06,9.793336268235507,2.02,14.27,-10.24,0
10-9-2017 23:00,99.1,1.8202207132270303,1.22,13.47,-11.03,0
11-9-2017 0:00,98.67,0.882556406250913,-1.81,10.44,-14.06,0
11-9-2017 1:00,98.68,1.5582079270888158,-1.12,11.12,-13.36,0
11-9-2017 2:00,98.39,1.023674888331044,-0.24,11.99,-12.48,0
11-9-2017 3:00,98.01,1.2388136028468182,0.21,12.44,-12.02,0
11-9-2017 4:00,98.79,1.315281867543689,-0.65,11.57,-12.88,0
11-9-2017 5:00,98.48,0.8886700053402166,-0.43,11.79,-12.64,0
11-9-2017 6:00,98.2,-0.15317390248080187,-0.47,11.74,-12.69,0
11-9-2017 7:00,97.41,-1.6279550638388542,-0.14,12.07,-12.35,0
11-9-2017 8:00,98.49,-0.015813560501911184,-0.17,12.04,-12.37,0
11-9-2017 9:00,96.05,-0.7126583923611776,0.26,12.46,-11.94,0
11-9-2017 10:00,93.89,-2.016910660922889,1.22,13.42,-10.97,0
11-9-2017 11:00,94.24,-2.664335174567171,0.9,13.09,-11.29,0
11-9-2017 12:00,94.01,-3.2554934699118974,-1.47,10.72,-13.66,0
11-9-2017 13:00,94.27,-2.7932079009347177,-0.77,11.41,-12.96,0
11-9-2017 14:00,94.34,-2.4579362560603073,-0.01,12.17,-12.19,0
11-9-2017 15:00,93.61,-2.814226483359178,0.52,12.69,-11.66,0
11-9-2017 16:00,94.2,-1.6338319359703348,0.16,12.33,-12.01,0
11-9-2017 17:00,94.13,0.3039893454603231,0.43,12.59,-11.74,0
11-9-2017 18:00,94.24,-2.253743711099588,0.31,12.46,-11.85,0
11-9-2017 19:00,93.78,-3.13234037500483,0.42,12.57,-11.72,0
11-9-2017 20:00,94.29,-2.4574224207401585,0.28,12.42,-11.86,0
11-9-2017 21:00,94.45,4.864839504839935,0.41,12.55,-11.72,0
11-9-2017 22:00,94.37,6.824741193503513,1.86,13.99,-10.28,0
11-9-2017 23:00,95.1,-0.6403979783710696,0.97,13.1,-11.17,0
12-9-2017 0:00,95.33,-1.0701504061636058,-1.49,10.64,-13.62,0
12-9-2017 1:00,96.73,0.7417731140179171,-0.74,11.39,-12.87,0
12-9-2017 2:00,99.23,2.573531602135489,0.17,12.29,-11.95,0
12-9-2017 3:00,98.95,2.689860761496689,0.85,12.97,-11.27,0
12-9-2017 4:00,98.91,1.6468963562040102,-0.38,11.73,-12.5,0
12-9-2017 5:00,98.23,0.5237108941234823,-0.67,11.44,-12.78,0
12-9-2017 6:00,98.24,-0.6224704913841634,-0.87,11.23,-12.97,0
12-9-2017 7:00,98.36,-1.6254534304138417,-0.4,11.7,-12.49,0
12-9-2017 8:00,98.49,-1.290971410774901,-0.26,11.83,-12.35,0
12-9-2017 9:00,98.58,0.1921188354676815,-0.25,11.84,-12.33,0
12-9-2017 10:00,97.16,-0.6850988007988406,1.29,13.37,-10.79,0
12-9-2017 11:00,94.73,-4.325864118727537,0.86,12.94,-11.22,0
12-9-2017 12:00,99.07,-0.5860529408157618,-2.05,10.03,-14.12,0
12-9-2017 13:00,98.71,-0.8718760347811241,-0.24,11.83,-12.31,0
12-9-2017 14:00,98.94,-0.5133832005699901,-0.11,11.96,-12.17,0
12-9-2017 15:00,98.74,-0.5222112680354343,0.37,12.42,-11.69,0
12-9-2017 16:00,98.69,-0.13185009529895808,-0.17,11.88,-12.22,0
12-9-2017 17:00,98.44,1.829141611426266,0.12,12.17,-11.92,0
12-9-2017 18:00,98.18,-1.1819718057352873,-0.08,11.96,-12.12,0
12-9-2017 19:00,98.45,-1.3543099310365108,0.04,12.08,-11.99,0
12-9-2017 20:00,98.5,-1.1026546061570457,0.21,12.25,-11.82,0
12-9-2017 21:00,98.13,5.860984418653246,0.19,12.22,-11.84,0
12-9-2017 22:00,98.09,8.0828355546642,1.41,13.43,-10.61,0
12-9-2017 23:00,98.84,0.6821564295697442,0.78,12.79,-11.24,0
13-9-2017 0:00,98.67,-0.0693464748512298,-1.26,10.76,-13.27,0
13-9-2017 1:00,99.15,1.0314685678177113,-0.65,11.35,-12.66,0
13-9-2017 2:00,98.79,0.027039122534603166,-0.01,11.99,-12.01,0
13-9-2017 3:00,98.12,0.022177637630051095,0.09,12.09,-11.9,0
13-9-2017 4:00,98.15,-0.7866447198641424,-0.55,11.44,-12.54,0
13-9-2017 5:00,99.17,0.0014033722982134123,-0.48,11.5,-12.47,0
13-9-2017 6:00,99.37,-0.8187166585406658,-0.07,11.91,-12.05,0
13-9-2017 7:00,99.28,-1.9436567777259341,0.12,12.1,-11.85,0
13-9-2017 8:00,99.2,-1.6187063078563,0.12,12.08,-11.85,0
13-9-2017 9:00,99.29,-0.07757297092803128,-0.03,11.94,-11.99,0
13-9-2017 10:00,98.59,-0.11991838941085575,1.4,13.36,-10.56,0
13-9-2017 11:00,96.59,-3.099663064526183,1.13,13.09,-10.83,0
13-9-2017 12:00,98.94,-1.159599127318998,-1.57,10.38,-13.52,0
13-9-2017 13:00,98.96,-1.0017680373724716,-0.54,11.41,-12.48,0
13-9-2017 14:00,98.79,-0.9892095257398239,-0.15,11.8,-12.09,0
13-9-2017 15:00,98.88,-0.7053925493026867,0.21,12.14,-11.73,0
13-9-2017 16:00,99.09,-0.015647823324158594,-0.11,11.82,-12.04,0
13-9-2017 17:00,99.15,2.4965122405766493,0.07,12.0,-11.85,0
13-9-2017 18:00,98.87,-0.6031371162228965,0.1,12.02,-11.82,0
13-9-2017 19:00,98.39,-1.5246672187256252,0.07,11.98,-11.84,0
13-9-2017 20:00,97.88,-1.7722702440815254,0.04,11.94,-11.87,0
13-9-2017 21:00,97.75,5.542353085212909,-0.05,11.85,-11.95,0
13-9-2017 22:00,97.31,7.509192188310237,1.18,13.08,-10.72,0
13-9-2017 23:00,97.7,-0.28665146435085376,0.57,12.47,-11.32,0
14-9-2017 0:00,97.49,-1.0700380232936482,-1.19,10.7,-13.08,0
14-9-2017 1:00,98.36,0.4768934236900009,-0.6,11.29,-12.48,0
14-9-2017 2:00,98.7,0.04350092683350226,0.13,12.01,-11.75,0
14-9-2017 3:00,98.67,0.7946736794904865,0.32,12.19,-11.56,0
14-9-2017 4:00,98.99,0.28722595379534255,-0.23,11.64,-12.1,0
14-9-2017 5:00,98.86,0.0013545768344442877,-0.27,11.6,-12.13,0
14-9-2017 6:00,99.0,-0.8778571227018404,-0.28,11.58,-12.13,0
14-9-2017 7:00,98.95,-2.009901258897301,-0.01,11.84,-11.87,0
14-9-2017 8:00,98.87,-1.6196291756515961,0.04,11.89,-11.8,0
14-9-2017 9:00,98.93,-0.1063084065490898,-0.04,11.8,-11.88,0
14-9-2017 10:00,98.42,0.10036813507139186,1.2,13.04,-10.64,0
14-9-2017 11:00,96.92,-2.2042061549109775,1.04,12.88,-10.79,0
14-9-2017 12:00,99.0,-0.39973971608878855,-1.29,10.54,-13.12,0
14-9-2017 13:00,98.94,-0.25691567916733504,-0.52,11.3,-12.35,0
14-9-2017 14:00,98.78,-0.1789527270501594,-0.2,11.62,-12.02,0
14-9-2017 15:00,98.78,0.018848056352595677,0.13,11.95,-11.68,0
14-9-2017 16:00,99.0,0.7593178837810513,-0.15,11.66,-11.96,0
14-9-2017 17:00,98.95,3.404991981533925,0.02,11.83,-11.78,0
14-9-2017 18:00,98.83,0.39915236177284896,0.04,11.84,-11.76,0
14-9-2017 19:00,97.2,-1.6692263333978161,0.09,11.88,-11.71,0
14-9-2017 20:00,94.33,-4.213744324455533,-0.21,11.57,-12.0,0
14-9-2017 21:00,93.05,2.1303478829238287,-0.64,11.14,-12.43,0
14-9-2017 22:00,92.66,4.360654039072287,0.57,12.35,-11.21,0
14-9-2017 23:00,93.92,-2.531875055190625,0.5,12.27,-11.28,0
15-9-2017 0:00,94.93,-2.018666182690467,-0.66,11.11,-12.43,0
15-9-2017 1:00,98.18,2.1616215566621264,0.06,11.83,-11.7,0
15-9-2017 2:00,98.81,2.0865058962864396,1.0,12.76,-10.76,0
15-9-2017 3:00,98.25,2.6209527745591714,0.72,12.48,-11.03,0
15-9-2017 4:00,97.51,1.2621156098276174,-0.12,11.63,-11.86,0
15-9-2017 5:00,98.32,2.165477162346974,-0.5,11.25,-12.24,0
15-9-2017 6:00,99.22,2.2203261927168114,-0.12,11.62,-11.86,0
15-9-2017 7:00,98.8,0.8443289980213393,0.14,11.87,-11.59,0
15-9-2017 8:00,99.02,1.7730736531533182,-0.05,11.68,-11.77,0
15-9-2017 9:00,98.91,3.1883810581318954,-0.13,11.59,-11.85,0
15-9-2017 10:00,95.5,0.6238786428856713,0.91,12.62,-10.81,0
15-9-2017 11:00,92.02,-3.4157261789337525,0.17,11.88,-11.54,0
15-9-2017 12:00,92.19,-3.317058155466597,-1.99,9.72,-13.7,0
15-9-2017 13:00,92.22,-2.991494792892979,-1.2,10.51,-12.91,0
15-9-2017 14:00,91.63,-3.260381021614009,-0.3,11.41,-12.0,0
15-9-2017 15:00,91.48,-3.180850052568374,0.09,11.79,-11.61,0
15-9-2017 16:00,91.09,-2.981908745012703,0.02,11.71,-11.68,0
15-9-2017 17:00,90.83,-0.3774000165706326,0.09,11.78,-11.6,0
15-9-2017 18:00,90.54,-3.694109302456056,0.35,12.04,-11.34,0
15-9-2017 19:00,90.36,-4.384015993457567,0.38,12.07,-11.3,0
15-9-2017 20:00,90.52,-3.9101283533799744,0.51,12.19,-11.17,0
15-9-2017 21:00,90.25,3.2758022620545972,0.55,12.23,-11.12,0
15-9-2017 22:00,89.83,5.341945001224431,1.25,12.92,-10.42,0
15-9-2017 23:00,91.14,-1.8149000046700792,0.7,12.37,-10.96,0
16-9-2017 0:00,91.3,-2.4227261707567322,-0.51,11.15,-12.18,0
16-9-2017 1:00,85.69,-7.467642719280889,-0.17,11.49,-11.83,0
16-9-2017 2:00,97.35,2.936957876578603,-1.33,10.32,-12.98,0
16-9-2017 3:00,98.61,4.986118300221392,2.14,13.8,-9.52,0
16-9-2017 4:00,98.77,4.117331116207737,0.81,12.47,-10.85,0
16-9-2017 5:00,98.89,4.245788448520443,0.27,11.93,-11.38,0
16-9-2017 6:00,99.36,3.7105610591094518,-0.69,10.96,-12.35,0
16-9-2017 7:00,99.28,2.4664736562270235,-0.06,11.59,-11.71,0
16-9-2017 8:00,98.96,2.7595537335583202,-0.39,11.26,-12.03,0
16-9-2017 9:00,97.86,3.4275969420000507,-0.55,11.09,-12.19,0
16-9-2017 10:00,95.48,2.1926647374741606,0.19,11.83,-11.44,0
16-9-2017 11:00,95.7,2.2687785514047647,0.03,11.66,-11.6,0
16-9-2017 12:00,96.65,3.5223973271039597,-1.11,10.51,-12.74,0
16-9-2017 13:00,94.65,2.0568276099530607,-0.74,10.88,-12.36,0
16-9-2017 14:00,91.7,-0.34278020498287276,-0.8,10.81,-12.42,0
16-9-2017 15:00,95.07,3.434608544328867,-0.88,10.73,-12.49,0
16-9-2017 16:00,96.02,5.188148926635023,0.34,11.95,-11.26,0
16-9-2017 17:00,93.59,5.905108563708467,0.4,12.01,-11.2,0
16-9-2017 18:00,94.38,3.6411458896407964,-0.13,11.47,-11.73,0
16-9-2017 19:00,91.85,0.6433274807505995,0.19,11.78,-11.41,0
16-9-2017 20:00,91.1,0.3092370299056597,-0.15,11.44,-11.74,0
16-9-2017 21:00,50.13,-33.13146897729492,0.05,11.63,-11.54,0
16-9-2017 22:00,6.09,-74.57796468579404,-8.26,3.5,-20.01,0
16-9-2017 23:00,94.1,4.892399365989476,-14.07,-1.9,-26.25,1
17-9-2017 0:00,96.68,6.675063130625688,15.65,27.94,3.35,0
17-9-2017 1:00,98.92,9.311961167704865,8.23,20.52,-4.05,0
17-9-2017 2:00,99.39,8.173296893279556,5.97,18.26,-6.33,0
17-9-2017 3:00,99.02,8.484189735772503,-1.09,11.21,-13.4,1
17-9-2017 4:00,98.12,6.342471405956829,2.72,15.06,-9.62,0
17-9-2017 5:00,98.38,5.768193535261162,-1.19,11.16,-13.54,0
17-9-2017 6:00,99.08,4.545058743267688,-0.86,11.5,-13.23,0
17-9-2017 7:00,99.09,2.4250501493966254,-0.92,11.45,-13.3,0
17-9-2017 8:00,99.08,2.17463466612557,-0.56,11.82,-12.94,0
17-9-2017 9:00,98.91,2.3447883646792462,-0.94,11.43,-13.32,0
17-9-2017 10:00,98.71,1.918801057522515,0.18,12.56,-12.2,0
17-9-2017 11:00,98.12,-0.06999180614808154,0.38,12.76,-11.99,0
17-9-2017 12:00,98.57,-0.612047591568043,-1.25,11.12,-13.62,0
17-9-2017 13:00,98.66,-0.6532578248050243,-1.07,11.29,-13.42,0
17-9-2017 14:00,98.58,-0.8580946623174412,-0.68,11.67,-13.02,0
17-9-2017 15:00,98.75,-1.0073555691010938,-0.33,12.0,-12.67,0
17-9-2017 16:00,98.66,-0.9837235484059903,-0.58,11.74,-12.91,0
17-9-2017 17:00,98.67,2.293970139571371,-0.57,11.75,-12.89,0
17-9-2017 18:00,98.68,-0.938962780405916,-0.11,12.2,-12.42,0
17-9-2017 19:00,98.23,-1.9764097649122192,-0.06,12.25,-12.36,0
17-9-2017 20:00,98.62,-1.230195164407121,0.05,12.35,-12.26,0
17-9-2017 21:00,98.67,6.6953791333662025,0.19,12.49,-12.11,0
17-9-2017 22:00,98.61,9.609161904807195,2.04,14.34,-10.25,0
17-9-2017 23:00,98.72,1.379651941877853,2.28,14.59,-10.02,0
18-9-2017 0:00,98.69,0.7957225648459598,-2.72,9.59,-15.02,0
18-9-2017 1:00,98.5,1.993213566400712,-1.26,11.04,-13.56,0
18-9-2017 2:00,98.48,1.1700628005628886,-0.67,11.63,-12.97,0
18-9-2017 3:00,98.42,2.8414664407782197,-0.27,12.02,-12.57,0
18-9-2017 4:00,98.65,2.7755953440327517,-0.67,11.62,-12.97,0
18-9-2017 5:00,98.72,3.674538456680267,-0.12,12.17,-12.41,0
18-9-2017 6:00,98.61,3.229452448455774,-0.05,12.24,-12.33,0
18-9-2017 7:00,98.57,2.5994788499476016,0.03,12.31,-12.25,0
18-9-2017 8:00,98.61,4.0515239924257,0.14,12.42,-12.13,0
18-9-2017 9:00,98.61,5.824367744783032,0.16,12.43,-12.11,0
18-9-2017 10:00,94.69,3.1679048986871123,1.02,13.29,-11.24,0
18-9-2017 11:00,91.66,0.34478492110702064,0.24,12.5,-12.02,0
18-9-2017 12:00,91.63,0.8876341382595854,-1.3,10.96,-13.56,0
18-9-2017 13:00,90.03,-0.2043188241634084,-0.73,11.53,-12.98,0
18-9-2017 14:00,91.44,1.7105131026477807,-0.41,11.84,-12.66,0
18-9-2017 15:00,91.5,2.02950032666881,0.55,12.79,-11.69,0
18-9-2017 16:00,85.43,-3.3118784379905435,0.15,12.39,-12.09,0
18-9-2017 17:00,0.0,-85.18883781579106,-1.26,10.98,-13.5,0
18-9-2017 18:00,87.02,-1.4361280983598306,-20.87,-7.92,-33.83,1
18-9-2017 19:00,90.29,1.291408504211347,12.58,25.65,-0.48,0
18-9-2017 20:00,90.38,1.8425403187600438,6.79,19.84,-6.26,0
18-9-2017 21:00,87.17,6.154935691511639,6.46,19.51,-6.59,0
18-9-2017 22:00,91.48,13.119535464943823,-1.4,11.66,-14.46,1
18-9-2017 23:00,89.28,2.0806900093526934,5.24,18.38,-7.91,0
19-9-2017 0:00,88.77,0.5607060127037897,-2.67,10.47,-15.81,0
19-9-2017 1:00,86.68,-1.3468721486379138,-1.58,11.56,-14.73,0
19-9-2017 2:00,92.3,2.079828466739656,-1.79,11.35,-14.94,0
19-9-2017 3:00,91.57,1.9360807773053494,0.54,13.69,-12.61,0
19-9-2017 4:00,95.23,4.050400541481238,-0.89,12.26,-14.03,0
19-9-2017 5:00,93.89,1.9542568855422218,0.34,13.49,-12.8,0
19-9-2017 6:00,97.32,3.388911909157059,-0.62,12.52,-13.76,0
19-9-2017 7:00,99.15,2.9206773650926436,0.4,13.54,-12.73,0
19-9-2017 8:00,98.92,2.506887192400768,0.2,13.32,-12.93,0
19-9-2017 9:00,98.82,2.9883637207663867,-0.12,12.99,-13.24,0
19-9-2017 10:00,93.18,-2.5226196014988886,0.18,13.28,-12.93,0
19-9-2017 11:00,95.13,-1.384111630218726,-0.7,12.39,-13.8,0
19-9-2017 12:00,98.8,1.799597652276148,-0.65,12.44,-13.74,0
19-9-2017 13:00,93.82,-3.288825561499891,0.07,13.15,-13.02,0
19-9-2017 14:00,93.89,-3.3400523925321153,-1.05,12.03,-14.13,0
19-9-2017 15:00,98.77,1.1214554401265389,-0.55,12.52,-13.62,0
19-9-2017 16:00,93.12,-4.44065648408025,0.56,13.63,-12.5,0
19-9-2017 17:00,95.9,1.940896058512493,-0.89,12.17,-13.96,0
19-9-2017 18:00,97.81,0.3224133995233984,2.6,15.67,-10.46,0
19-9-2017 19:00,94.5,-3.7219049489385867,-0.92,12.15,-13.99,0
19-9-2017 20:00,96.45,-1.4426944584568844,-0.87,12.2,-13.93,0
19-9-2017 21:00,98.35,8.327818592056019,-0.37,12.69,-13.42,0
19-9-2017 22:00,98.45,11.464526407563014,2.17,15.22,-10.89,0
19-9-2017 23:00,97.23,1.6076364993937062,1.65,14.71,-11.4,0
20-9-2017 0:00,95.3,-1.0845322658293668,-2.33,10.73,-15.39,0
20-9-2017 1:00,97.41,1.8927212794041424,-1.61,11.44,-14.67,0
20-9-2017 2:00,98.5,1.2812777632634607,-0.14,12.91,-13.19,0
20-9-2017 3:00,95.35,-0.5303343174935833,-0.1,12.95,-13.14,0
20-9-2017 4:00,97.12,0.3388170038156062,-1.04,12.01,-14.09,0
20-9-2017 5:00,97.0,0.27840264312071383,-0.13,12.91,-13.17,0
20-9-2017 6:00,98.54,0.5544232667479037,0.07,13.11,-12.97,0
20-9-2017 7:00,97.4,-2.202549569657691,0.42,13.46,-12.61,0
20-9-2017 8:00,92.23,-6.748556112455347,-0.06,12.97,-13.09,0
20-9-2017 9:00,98.99,0.9664689594509355,-0.99,12.04,-14.02,0
20-9-2017 10:00,95.41,-2.0421740081110045,1.79,14.82,-11.23,0
20-9-2017 11:00,93.91,-3.7533791969084405,0.88,13.9,-12.14,0
20-9-2017 12:00,98.94,1.3260277855204237,-0.33,12.68,-13.35,0
20-9-2017 13:00,98.98,1.5045699481231765,0.5,13.51,-12.51,0
20-9-2017 14:00,98.33,0.9703147198159456,0.69,13.69,-12.32,0
20-9-2017 15:00,95.99,-1.604640894984044,0.16,13.16,-12.84,0
20-9-2017 16:00,97.24,-0.040422002649691535,-0.9,12.09,-13.9,0
20-9-2017 17:00,95.91,2.5202531516447095,0.11,13.1,-12.88,0
20-9-2017 18:00,94.44,-2.5252423827072903,1.93,14.93,-11.07,0
20-9-2017 19:00,92.45,-5.219532631361361,-1.75,11.24,-14.75,0
20-9-2017 20:00,96.94,-0.30430056277722883,-1.17,11.83,-14.16,0
20-9-2017 21:00,92.22,2.960892082011668,0.36,13.34,-12.63,0
20-9-2017 22:00,91.55,5.4665430691890435,0.67,13.65,-12.31,0
20-9-2017 23:00,95.5,0.7451653977778108,0.83,13.8,-12.15,0
21-9-2017 0:00,95.76,0.24178052809409678,-1.17,11.81,-14.14,0
21-9-2017 1:00,97.03,2.454375949803378,-0.29,12.68,-13.26,0
21-9-2017 2:00,96.82,0.4252984720449433,0.04,13.0,-12.92,0
21-9-2017 3:00,97.1,2.18633216986575,-0.38,12.57,-13.34,0
21-9-2017 4:00,98.05,2.270840756081512,-0.21,12.74,-13.16,0
21-9-2017 5:00,91.17,-4.555198981407543,-0.0,12.94,-12.95,0
21-9-2017 6:00,98.21,1.1308325701937179,-1.39,11.55,-14.34,0
21-9-2017 7:00,97.23,-1.606216881603757,0.89,13.83,-12.06,0
21-9-2017 8:00,98.76,0.5342218824420968,0.27,13.2,-12.67,0
21-9-2017 9:00,92.25,-5.166000169203642,0.82,13.75,-12.11,0
21-9-2017 10:00,95.63,-1.2910851819631688,-0.96,11.97,-13.89,0
21-9-2017 11:00,95.42,-1.6307859307391652,1.44,14.37,-11.48,0
21-9-2017 12:00,98.69,1.7055363517227562,0.04,12.96,-12.88,0
21-9-2017 13:00,98.68,1.8704770434590188,0.58,13.5,-12.33,0
21-9-2017 14:00,98.66,1.992626570631515,0.14,13.05,-12.77,0
21-9-2017 15:00,94.51,-2.41935933887234,0.31,13.22,-12.6,0
21-9-2017 16:00,95.36,-1.2393717505549944,-1.22,11.68,-14.13,0
21-9-2017 17:00,91.35,-1.13597819590494,-0.22,12.68,-13.12,0
21-9-2017 18:00,95.03,-1.1448908169658125,1.15,14.05,-11.74,0
21-9-2017 19:00,96.73,-0.18556214268893712,-0.69,12.2,-13.59,0
21-9-2017 20:00,96.1,-0.3607176728793604,0.09,12.98,-12.79,0
21-9-2017 21:00,92.16,3.752275160620698,-0.3,12.58,-13.18,0
21-9-2017 22:00,92.41,7.269979855297606,0.36,13.24,-12.52,0
21-9-2017 23:00,94.11,0.21722495647361484,0.88,13.75,-12.0,0
22-9-2017 0:00,94.51,-0.194265481841569,-1.38,11.5,-14.25,0
22-9-2017 1:00,91.77,-1.9005092359241615,-0.53,12.34,-13.4,0
22-9-2017 2:00,88.34,-7.251401727567952,-0.91,11.96,-13.77,0
22-9-2017 3:00,92.58,-1.3719033034369517,-1.33,11.54,-14.2,0
22-9-2017 4:00,96.53,1.7637766040929677,0.31,13.18,-12.55,0
22-9-2017 5:00,97.27,2.7220472189956695,1.06,13.92,-11.79,0
22-9-2017 6:00,99.05,3.2280254277569043,0.96,13.81,-11.89,0
22-9-2017 7:00,98.92,1.3708328207649743,0.44,13.29,-12.4,0
22-9-2017 8:00,98.78,1.997650351851746,0.33,13.17,-12.52,0
22-9-2017 9:00,94.6,-1.3038051493439724,0.2,13.04,-12.64,0
22-9-2017 10:00,96.43,1.1586810033876276,-0.39,12.44,-13.22,0
22-9-2017 11:00,98.32,3.2144979053217355,0.87,13.7,-11.96,0
22-9-2017 12:00,95.53,0.7217486985054364,0.35,13.18,-12.47,0
22-9-2017 13:00,95.1,0.6138808181528219,-0.87,11.95,-13.69,0
22-9-2017 14:00,94.35,0.1432279995826633,-0.47,12.34,-13.29,0
22-9-2017 15:00,89.53,-4.8549953058474955,-0.25,12.56,-13.07,0
22-9-2017 16:00,89.68,-4.248446122769536,-1.23,11.58,-14.04,0
22-9-2017 17:00,90.21,0.8264237569532469,-0.47,12.34,-13.27,0
22-9-2017 18:00,94.15,1.1728519739005634,2.16,14.97,-10.64,0
22-9-2017 19:00,94.72,1.1745574958254537,-0.07,12.73,-12.87,0
22-9-2017 20:00,90.34,-2.512227708422415,0.16,12.96,-12.63,0
22-9-2017 21:00,87.13,2.7702148539062676,-1.13,11.67,-13.92,0
22-9-2017 22:00,83.33,2.7016227962002546,0.31,13.1,-12.48,0
22-9-2017 23:00,81.93,-7.160859789918959,-0.03,12.76,-12.81,0
23-9-2017 0:00,87.96,-1.6188062567481438,-2.07,10.72,-14.86,0
23-9-2017 1:00,87.43,-0.592799428318088,0.5,13.28,-12.29,0
23-9-2017 2:00,93.84,4.22558282445722,0.35,13.13,-12.43,0
23-9-2017 3:00,90.01,2.6246357332028936,1.5,14.27,-11.28,0
23-9-2017 4:00,91.56,3.842576720351474,-0.5,12.27,-13.27,0
23-9-2017 5:00,94.93,8.075580397296136,0.21,12.97,-12.56,0
23-9-2017 6:00,88.8,1.2319279728675667,0.89,13.65,-11.88,0
23-9-2017 7:00,95.32,6.535014920331378,-1.04,11.72,-13.8,0
23-9-2017 8:00,93.74,6.358633928109285,0.94,13.69,-11.82,0
23-9-2017 9:00,91.2,5.220344020590957,0.1,12.85,-12.65,0
23-9-2017 10:00,93.41,8.654800382041003,0.2,12.95,-12.54,0
23-9-2017 11:00,87.69,3.8505339779126615,0.75,13.49,-11.99,0
23-9-2017 12:00,68.97,-13.886887674954522,-1.1,11.64,-13.83,0
23-9-2017 13:00,73.89,-8.187665373203075,-4.91,7.86,-17.67,0
23-9-2017 14:00,74.55,-6.801221783322987,-0.69,12.07,-13.46,0
23-9-2017 15:00,78.0,-3.135783730486523,0.38,13.14,-12.39,0
23-9-2017 16:00,76.29,-3.95277419845506,1.52,14.28,-11.24,0
23-9-2017 17:00,75.09,-0.22518951562449274,0.16,12.92,-12.6,0
23-9-2017 18:00,76.55,-2.312181982633973,2.5,15.25,-10.26,0
23-9-2017 19:00,82.08,2.7731388649739586,-0.46,12.29,-13.21,0
23-9-2017 20:00,91.14,12.715962464703637,1.48,14.23,-11.27,0
23-9-2017 21:00,41.56,-28.60286955593596,2.49,15.26,-10.27,0
23-9-2017 22:00,22.28,-44.3584826778219,-8.14,4.71,-21.0,0
23-9-2017 23:00,79.07,3.588582736966657,-6.85,6.07,-19.77,1
24-9-2017 0:00,90.15,13.83345592982657,8.8,21.77,-4.16,0
24-9-2017 1:00,85.92,10.329248298334463,7.23,20.21,-5.74,0
24-9-2017 2:00,82.53,4.32444025309411,1.63,14.61,-11.35,0
24-9-2017 3:00,80.57,3.8305826040196678,-1.58,11.4,-14.56,0
24-9-2017 4:00,72.5,-5.441680371647863,-0.22,12.77,-13.2,0
24-9-2017 5:00,79.23,0.9364451438922572,-2.8,10.18,-15.78,0
24-9-2017 6:00,87.13,6.823550862827332,0.27,13.25,-12.72,0
24-9-2017 7:00,94.57,11.697306141300373,1.45,14.44,-11.54,0
24-9-2017 8:00,81.28,-1.4118845976771155,2.14,15.13,-10.86,0
24-9-2017 9:00,71.79,-10.999033298052197,-2.82,10.17,-15.81,0
24-9-2017 10:00,85.38,2.3853688855821673,-2.9,10.09,-15.89,0
24-9-2017 11:00,84.13,0.7789947888571618,2.16,15.16,-10.83,0
24-9-2017 12:00,82.42,-1.2851236965950221,0.33,13.31,-12.66,0
24-9-2017 13:00,80.86,-3.121250314787474,-0.39,12.59,-13.37,0
24-9-2017 14:00,80.4,-3.920149418505062,-0.97,12.0,-13.94,0
24-9-2017 15:00,88.89,3.666510890550086,-0.24,12.72,-13.2,0
24-9-2017 16:00,84.48,-0.9264583305128724,1.41,14.38,-11.55,0
24-9-2017 17:00,79.73,-1.2698106923893278,-0.58,12.38,-13.54,0
24-9-2017 18:00,75.27,-10.133875691170402,0.54,13.49,-12.42,0
24-9-2017 19:00,90.56,3.931408634305768,-3.1,9.86,-16.06,0
24-9-2017 20:00,80.18,-6.279810809801802,2.46,15.42,-10.5,0
24-9-2017 21:00,93.49,14.856737678220895,-2.06,10.91,-15.02,1
24-9-2017 22:00,90.24,14.720758583785681,4.74,17.73,-8.25,0
24-9-2017 23:00,74.59,-10.355972908887338,1.55,14.54,-11.44,0
25-9-2017 0:00,75.61,-10.721624964707757,-5.55,7.46,-18.56,0
25-9-2017 1:00,88.75,2.914772588709198,-3.29,9.73,-16.3,0
25-9-2017 2:00,90.6,1.7275938902843961,2.34,15.35,-10.67,0
25-9-2017 3:00,91.69,4.121645328221064,1.09,14.1,-11.91,0
25-9-2017 4:00,91.48,2.4399980345686174,0.3,13.3,-12.7,0
25-9-2017 5:00,88.94,-0.3907567526178468,-0.05,12.95,-13.04,0
25-9-2017 6:00,87.44,-3.926895031641095,-0.42,12.57,-13.41,0
25-9-2017 7:00,90.74,-3.2664735634808437,-1.03,11.96,-14.02,0
25-9-2017 8:00,82.41,-11.362476190535745,0.12,13.11,-12.87,0
25-9-2017 9:00,95.18,1.5533285000156667,-1.33,11.66,-14.31,0
25-9-2017 10:00,96.81,3.289488689617613,3.24,16.23,-9.75,0
25-9-2017 11:00,97.66,4.252819084079192,1.56,14.54,-11.42,0
25-9-2017 12:00,98.36,5.003815949825224,0.91,13.89,-12.07,0
25-9-2017 13:00,98.36,5.166995474685862,0.12,13.1,-12.86,0
25-9-2017 14:00,97.46,4.357408740367518,0.2,13.18,-12.78,0
25-9-2017 15:00,96.38,2.749946368638305,-0.58,12.39,-13.56,0
25-9-2017 16:00,96.84,3.445652962528456,-1.16,11.81,-14.13,0
25-9-2017 17:00,95.28,6.999349749234483,-0.49,12.48,-13.46,0
25-9-2017 18:00,95.61,3.296198411971389,1.17,14.14,-11.8,0
25-9-2017 19:00,94.63,1.5394291730271874,-1.52,11.45,-14.48,0
25-9-2017 20:00,90.81,-1.5978503572062408,-1.5,11.46,-14.46,0
25-9-2017 21:00,88.31,4.457786281039191,-1.67,11.29,-14.63,0
25-9-2017 22:00,85.56,5.57513917243331,0.68,13.63,-12.28,0
25-9-2017 23:00,85.68,-3.1516912693226686,0.77,13.72,-12.18,0
26-9-2017 0:00,88.63,-0.9741706154447911,-1.96,11.01,-14.92,0
26-9-2017 1:00,76.55,-11.810063492822607,-0.44,12.52,-13.4,0
26-9-2017 2:00,82.62,-8.222508460135685,-2.93,10.06,-15.92,0
26-9-2017 3:00,82.5,-6.2234435508917585,0.32,13.31,-12.67,0
26-9-2017 4:00,76.93,-12.557381519943704,0.17,13.16,-12.82,0
26-9-2017 5:00,84.66,-4.669026427418956,-0.58,12.42,-13.58,0
26-9-2017 6:00,94.89,3.8895814780372575,1.65,14.64,-11.35,0
26-9-2017 7:00,98.24,4.914655634704204,3.3,16.29,-9.69,0
26-9-2017 8:00,93.28,0.6298276183913885,2.06,15.05,-10.93,0
26-9-2017 9:00,98.15,5.4517411668874445,0.29,13.27,-12.69,0
26-9-2017 10:00,96.57,3.852819367574938,1.66,14.65,-11.33,0
26-9-2017 11:00,91.0,-1.5709857416588733,0.3,13.28,-12.69,0
26-9-2017 12:00,86.28,-6.2717135195966165,-1.36,11.62,-14.35,0
26-9-2017 13:00,89.38,-3.4985870730425574,-1.71,11.27,-14.68,0
26-9-2017 14:00,92.29,-0.9982206593212055,0.15,13.13,-12.82,0
26-9-2017 15:00,92.98,-1.3891649331943796,0.65,13.62,-12.32,0
26-9-2017 16:00,98.33,3.6858770450367473,0.01,12.97,-12.96,0
26-9-2017 17:00,96.96,7.1930146052587105,1.23,14.2,-11.74,0
26-9-2017 18:00,97.01,2.637168554446987,1.97,14.94,-11.01,0
26-9-2017 19:00,92.97,-2.6752438622343817,-1.01,11.96,-13.98,0
26-9-2017 20:00,91.46,-3.9321730919104567,-2.01,10.96,-14.97,0
26-9-2017 21:00,91.03,3.9137542212303345,-1.21,11.75,-14.17,0
26-9-2017 22:00,91.81,8.305666853752939,1.0,13.96,-11.95,0
26-9-2017 23:00,88.27,-4.510034781786857,1.62,14.57,-11.32,0
27-9-2017 0:00,87.85,-6.09600454706387,-2.6,10.35,-15.55,0
27-9-2017 1:00,92.16,-0.7913738828432741,-1.63,11.32,-14.58,0
27-9-2017 2:00,97.24,1.358273541369286,0.39,13.33,-12.55,0
27-9-2017 3:00,98.27,4.331694338034353,0.93,13.87,-12.0,0
27-9-2017 4:00,98.65,3.657696071805532,0.45,13.38,-12.49,0
27-9-2017 5:00,98.33,3.5237050656465385,0.38,13.31,-12.55,0
27-9-2017 6:00,96.45,-0.09104054007175932,-0.08,12.84,-13.01,0
27-9-2017 7:00,97.87,-1.1133329331777162,-1.01,11.91,-13.93,0
27-9-2017 8:00,95.93,-2.356870284570846,-0.52,12.4,-13.44,0
27-9-2017 9:00,97.4,-0.80917915615575,0.09,13.01,-12.82,0
27-9-2017 10:00,97.65,-0.37908584705149906,0.55,13.46,-12.36,0
27-9-2017 11:00,96.64,-0.852015544669456,0.28,13.19,-12.62,0
27-9-2017 12:00,99.11,1.9473419323270065,0.03,12.93,-12.86,0
27-9-2017 13:00,97.48,0.5259296370545314,0.96,13.85,-11.93,0
27-9-2017 14:00,97.07,0.23254309278787844,-0.04,12.85,-12.93,0
27-9-2017 15:00,96.61,-0.8345053424013145,-0.14,12.74,-13.02,0
27-9-2017 16:00,96.43,-0.7709784483367059,-0.59,12.28,-13.47,0
27-9-2017 17:00,91.69,0.10145384427102044,-0.2,12.67,-13.07,0
27-9-2017 18:00,93.28,-2.5009214289206767,0.6,13.47,-12.27,0
27-9-2017 19:00,96.84,0.2651538905161175,-0.92,11.94,-13.79,0
27-9-2017 20:00,97.02,1.250154050900548,0.21,13.07,-12.65,0
27-9-2017 21:00,96.76,9.643735754532926,0.22,13.08,-12.64,0
27-9-2017 22:00,95.42,12.301904312175509,1.61,14.46,-11.25,0
27-9-2017 23:00,83.98,-8.186716555071015,1.29,14.15,-11.56,0
28-9-2017 0:00,94.06,0.9754238100126145,-4.12,8.75,-16.98,0
28-9-2017 1:00,93.95,2.0023669755790365,0.31,13.17,-12.55,0
28-9-2017 2:00,95.8,0.8658957510647269,-0.04,12.81,-12.9,0
28-9-2017 3:00,82.82,-9.954538605101632,0.13,12.98,-12.73,0
28-9-2017 4:00,87.54,-6.186818268423963,-3.43,9.44,-16.29,0
28-9-2017 5:00,85.49,-8.047143391962521,0.41,13.28,-12.45,0
28-9-2017 6:00,89.31,-6.049230527551089,-0.5,12.37,-13.37,0
28-9-2017 7:00,94.36,-3.582879224441328,0.78,13.64,-12.09,0
28-9-2017 8:00,98.95,1.7008843350738942,0.95,13.81,-11.91,0
28-9-2017 9:00,99.0,1.5928752035027713,2.7,15.56,-10.16,0
28-9-2017 10:00,98.3,0.9105108772114647,1.12,13.97,-11.74,0
28-9-2017 11:00,96.6,-0.22301615260288088,0.47,13.32,-12.38,0
28-9-2017 12:00,98.7,2.1549538355155278,-0.16,12.69,-13.01,0
28-9-2017 13:00,98.74,2.13894004751198,0.81,13.65,-12.04,0
28-9-2017 14:00,98.41,1.6517377943528544,0.18,13.02,-12.67,0
28-9-2017 15:00,98.42,0.7285224469431739,-0.1,12.74,-12.95,0
28-9-2017 16:00,98.81,1.0804893067853527,-0.52,12.33,-13.36,0
28-9-2017 17:00,98.78,6.6779128799652625,-0.17,12.66,-13.01,0
28-9-2017 18:00,97.16,0.5587049325800137,1.62,14.46,-11.22,0
28-9-2017 19:00,96.49,-1.147023173085131,-1.39,11.45,-14.23,0
28-9-2017 20:00,96.68,-0.32038478386030533,-1.14,11.7,-13.97,0
28-9-2017 21:00,96.73,8.510768640338128,-0.51,12.32,-13.33,0
28-9-2017 22:00,93.7,9.615116317438194,1.24,14.06,-11.58,0
28-9-2017 23:00,94.63,1.4734994128223917,0.64,13.46,-12.17,0
29-9-2017 0:00,94.94,0.8636731026041673,-1.07,11.75,-13.88,0
29-9-2017 1:00,91.8,-0.9955462248346834,-1.1,11.71,-13.91,0
29-9-2017 2:00,91.04,-4.796611092427014,-1.19,11.61,-14.0,0
29-9-2017 3:00,87.22,-6.23937559577594,-1.36,11.44,-14.17,0
29-9-2017 4:00,94.1,-0.20841199156623702,-1.1,11.71,-13.92,0
29-9-2017 5:00,87.15,-6.863868539759835,1.32,14.13,-11.49,0
29-9-2017 6:00,87.47,-8.352094512494176,-1.15,11.66,-13.97,0
29-9-2017 7:00,90.78,-7.6658977945955655,-0.64,12.17,-13.46,0
29-9-2017 8:00,97.31,-0.3436316055988726,-0.0,12.81,-12.81,0
29-9-2017 9:00,99.17,1.2416700334420057,2.56,15.37,-10.24,0
29-9-2017 10:00,98.2,0.2458588233568122,1.44,14.24,-11.36,0
29-9-2017 11:00,95.62,-1.6192547870523128,0.59,13.39,-12.2,0
29-9-2017 12:00,98.64,1.7463384637896269,-0.15,12.64,-12.94,0
29-9-2017 13:00,98.37,1.4189206566042003,1.08,13.87,-11.7,0
29-9-2017 14:00,97.97,0.8511001681017376,0.32,13.1,-12.47,0
29-9-2017 15:00,97.72,-0.39508461797926486,0.03,12.81,-12.76,0
29-9-2017 16:00,98.06,-0.11148060954866423,-0.45,12.33,-13.23,0
29-9-2017 17:00,98.54,6.178625598696755,-0.09,12.69,-12.87,0
29-9-2017 18:00,98.74,1.740276331611284,1.75,14.53,-11.03,0
29-9-2017 19:00,99.11,1.0004340787998132,-0.71,12.06,-13.49,0
29-9-2017 20:00,99.3,1.8263999748206885,-0.55,12.22,-13.32,0
29-9-2017 21:00,99.29,10.621662889982659,-0.25,12.52,-13.02,0
29-9-2017 22:00,95.96,11.458721141159359,1.14,13.9,-11.63,0
29-9-2017 23:00,95.89,2.1906396537934825,0.54,13.3,-12.22,0
30-9-2017 0:00,97.56,2.835378122892621,-1.23,11.53,-13.98,0
30-9-2017 1:00,87.54,-5.890891651744425,-0.85,11.9,-13.6,0
30-9-2017 2:00,94.75,-1.9074381166077075,-2.75,10.01,-15.51,0
30-9-2017 3:00,86.44,-7.753420721332105,-0.03,12.73,-12.78,0
30-9-2017 4:00,89.58,-5.490111016199535,-1.77,10.99,-14.53,0
30-9-2017 5:00,87.79,-6.595619714323547,0.12,12.88,-12.64,0
30-9-2017 6:00,88.21,-7.684905249479044,-0.53,12.23,-13.3,0
30-9-2017 7:00,92.44,-5.833789385308663,-0.23,12.53,-12.99,0
30-9-2017 8:00,99.16,2.06205316465244,0.25,13.01,-12.51,0
30-9-2017 9:00,99.33,2.511830067288372,2.37,15.12,-10.39,0
30-9-2017 10:00,99.42,3.2037386666277854,1.02,13.77,-11.73,0
30-9-2017 11:00,99.43,4.748205168842432,0.65,13.39,-12.1,0
30-9-2017 12:00,99.41,5.812588375626461,0.56,13.3,-12.18,0
30-9-2017 13:00,99.31,6.273095482483399,0.57,13.31,-12.17,0
30-9-2017 14:00,99.26,6.66398569186191,0.19,12.92,-12.55,0
30-9-2017 15:00,98.45,5.414160400333827,0.07,12.8,-12.67,0
30-9-2017 16:00,96.36,3.868732020953928,-0.44,12.29,-13.17,0
30-9-2017 17:00,99.22,13.236395130981592,-0.73,12.0,-13.45,0
30-9-2017 18:00,99.22,8.973778810912663,2.02,14.75,-10.71,0
30-9-2017 19:00,98.93,8.014702266080874,-0.54,12.19,-13.26,0
30-9-2017 20:00,97.29,7.524875524023756,-0.55,12.17,-13.27,0
30-9-2017 21:00,44.42,-35.98069300763063,-0.71,12.01,-13.42,0
30-9-2017 22:00,47.13,-28.535850957358278,-11.71,1.18,-24.61,0
30-9-2017 23:00,98.81,14.354676197544762,-2.85,10.07,-15.77,1
