Time,Actual,STL processed,Forecasts,Upper Interval,Lower Interval,Is Anomalies
1-8-2017 0:00,0.0,0.0011580711642161239,0.0,0.0,0.0,0
1-8-2017 1:00,0.0,0.0013274448290387488,0.0,0.0,0.0,0
1-8-2017 2:00,0.0,0.002001763889846122,0.0,0.0,0.0,0
1-8-2017 3:00,0.0,0.0022149807574808385,0.0,0.0,0.0,0
1-8-2017 4:00,0.0,-0.011897811217844606,0.0,0.0,0.0,0
1-8-2017 5:00,0.0,0.003929668835639077,0.0,0.0,0.0,0
1-8-2017 6:00,0.02,0.01279326128603243,0.0,0.0,0.0,0
1-8-2017 7:00,0.0,0.003886801480081271,0.0,0.0,0.0,0
1-8-2017 8:00,0.0,0.004606072866482833,0.0,0.0,0.0,0
1-8-2017 9:00,0.0,-0.0017206288785654076,0.0,0.0,0.0,0
1-8-2017 10:00,0.0,-0.009256062093587128,0.0,0.0,0.0,0
1-8-2017 11:00,0.0,-0.009609879187026965,0.0,0.0,0.0,0
1-8-2017 12:00,0.0,-0.0014764112299488104,0.0,0.0,0.0,0
1-8-2017 13:00,0.0,-0.0014961296105913242,0.0,0.0,0.0,0
1-8-2017 14:00,0.0,-0.001982175546367552,0.0,0.0,0.0,0
1-8-2017 15:00,0.0,0.0034034081694336057,0.0,0.0,0.0,0
1-8-2017 16:00,0.0,-0.00487374784128818,0.0,0.0,0.0,0
1-8-2017 17:00,0.0,5.830414471781034E-5,0.0,0.0,0.0,0
1-8-2017 18:00,0.0,8.50629399669605E-5,0.0,0.0,0.0,0
1-8-2017 19:00,0.0,-0.0025467785163717036,0.0,0.0,0.0,0
1-8-2017 20:00,0.0,1.8203300361024357E-4,0.0,0.0,0.0,0
1-8-2017 21:00,0.0,-0.00417017549031189,0.0,0.0,0.0,0
1-8-2017 22:00,0.0,-0.006575461786813052,0.0,0.0,0.0,0
1-8-2017 23:00,0.0,0.0020104376416490498,0.0,0.0,0.0,0
2-8-2017 0:00,0.0,0.0034782298874330504,0.0,0.0,0.0,0
2-8-2017 1:00,0.0,0.0033904101750635435,0.0,0.0,0.0,0
2-8-2017 2:00,0.0,0.003773597447903938,0.0,0.0,0.0,0
2-8-2017 3:00,0.0,0.003735173361328086,0.0,0.0,0.0,0
2-8-2017 4:00,0.0,-0.011118101552411134,0.0,0.0,0.0,0
2-8-2017 5:00,0.0,0.004892401538253563,0.0,0.0,0.0,0
2-8-2017 6:00,0.02,0.01391721770109866,0.0,0.0,0.0,0
2-8-2017 7:00,0.0,0.004259860239439141,0.0,0.0,0.0,0
2-8-2017 8:00,0.0,0.0046734036025293975,0.0,0.0,0.0,0
2-8-2017 9:00,0.0,-0.001684646361893311,0.0,0.0,0.0,0
2-8-2017 10:00,0.0,-0.009839759849128821,0.0,0.0,0.0,0
2-8-2017 11:00,0.0,-0.009654628336139639,0.0,0.0,0.0,0
2-8-2017 12:00,0.0,-0.0021963153964307453,0.0,0.0,0.0,0
2-8-2017 13:00,0.0,-0.0020558248945743685,0.0,0.0,0.0,0
2-8-2017 14:00,0.0,-0.0026749645573883292,0.0,0.0,0.0,0
2-8-2017 15:00,0.0,0.002155821293426791,0.0,0.0,0.0,0
2-8-2017 16:00,0.0,-0.006312783767237537,0.0,0.0,0.0,0
2-8-2017 17:00,0.0,-0.0010097958009226732,0.0,0.0,0.0,0
2-8-2017 18:00,0.0,-0.0011143310976560743,0.0,0.0,0.0,0
2-8-2017 19:00,0.03,0.02634105717532493,0.0,0.0,0.0,0
2-8-2017 20:00,0.0,-0.00121375667458589,0.0,0.0,0.0,0
2-8-2017 21:00,0.0,-0.005348753284430727,0.0,0.0,0.0,0
2-8-2017 22:00,0.0,-0.008262700474189949,0.0,0.0,0.0,0
2-8-2017 23:00,0.0,7.158507914189101E-4,0.0,0.0,0.0,0
3-8-2017 0:00,0.0,0.0021582843685731376,0.0,0.0,0.0,0
3-8-2017 1:00,0.0,0.0021882874876874452,0.0,0.0,0.0,0
3-8-2017 2:00,0.0,0.0026553591812368098,0.0,0.0,0.0,0
3-8-2017 3:00,0.0,0.0027403103491263356,0.0,0.0,0.0,0
3-8-2017 4:00,0.0,-0.012478413536997097,0.0,0.0,0.0,0
3-8-2017 5:00,0.0,0.004278515368815003,0.0,0.0,0.0,0
3-8-2017 6:00,0.02,0.014027958022078244,0.0,0.0,0.0,0
3-8-2017 7:00,0.0,0.00418311436252967,0.0,0.0,0.0,0
3-8-2017 8:00,0.0,0.004854341160127935,0.0,0.0,0.0,0
3-8-2017 9:00,0.0,-0.0011027260669936206,0.0,0.0,0.0,0
3-8-2017 10:00,0.0,-0.009445186094869712,0.0,0.0,0.0,0
3-8-2017 11:00,0.0,-0.008288772243878303,0.0,0.0,0.0,0
3-8-2017 12:00,0.0,-0.0010732805899654652,0.0,0.0,0.0,0
3-8-2017 13:00,0.0,-5.978189157139288E-4,0.0,0.0,0.0,0
3-8-2017 14:00,0.0,-0.0011752900156693537,0.0,0.0,0.0,0
3-8-2017 15:00,0.0,0.003275460260055998,0.0,0.0,0.0,0
3-8-2017 16:00,0.0,-0.005209833786639551,0.0,0.0,0.0,0
3-8-2017 17:00,0.0,5.484093562698824E-4,0.0,0.0,0.0,0
3-8-2017 18:00,0.0,3.9689916383962593E-4,0.0,0.0,0.0,0
3-8-2017 19:00,0.0,-0.0019761755402011127,0.0,0.0,0.0,0
3-8-2017 20:00,0.0,2.6969253365388853E-4,0.0,0.0,0.0,0
3-8-2017 21:00,0.0,-0.003693031226296394,0.0,0.0,0.0,0
3-8-2017 22:00,0.0,-0.007160592250539587,0.0,0.0,0.0,0
3-8-2017 23:00,0.0,0.002165657910990123,0.0,0.0,0.0,0
4-8-2017 0:00,0.0,0.0035377798782886666,0.0,0.0,0.0,0
4-8-2017 1:00,0.0,0.003430650612034064,0.0,0.0,0.0,0
4-8-2017 2:00,0.0,0.003726651509439671,0.0,0.0,0.0,0
4-8-2017 3:00,0.0,0.003680022714941847,0.0,0.0,0.0,0
4-8-2017 4:00,0.0,-0.012159112888231485,0.0,0.0,0.0,0
4-8-2017 5:00,0.0,0.0047966612431278866,0.0,0.0,0.0,0
4-8-2017 6:00,0.02,0.014723149797209132,0.0,0.0,0.0,0
4-8-2017 7:00,0.0,0.004143235731640793,0.0,0.0,0.0,0
4-8-2017 8:00,0.0,0.00452456175561635,0.0,0.0,0.0,0
4-8-2017 9:00,0.0,-0.0014155924839236971,0.0,0.0,0.0,0
4-8-2017 10:00,0.0,-0.010329469338616537,0.0,0.0,0.0,0
4-8-2017 11:00,0.0,-0.00858584343579907,0.0,0.0,0.0,0
4-8-2017 12:00,0.0,-0.0019972433538584544,0.0,0.0,0.0,0
4-8-2017 13:00,0.0,-0.0012692315562662442,0.0,0.0,0.0,0
4-8-2017 14:00,0.0,-0.0018874551424176188,0.0,0.0,0.0,0
4-8-2017 15:00,0.0,0.002100838509163478,0.0,0.0,0.0,0
4-8-2017 16:00,0.0,-0.006483565572617778,0.0,0.0,0.0,0
4-8-2017 17:00,0.0,-5.320918889820806E-4,0.0,0.0,0.0,0
4-8-2017 18:00,0.02,0.019007398387022503,0.0,0.0,0.0,0
4-8-2017 19:00,0.0,-0.0034561639299082866,0.0,0.0,0.0,0
4-8-2017 20:00,0.0,-0.0016716385681557699,0.0,0.0,0.0,0
4-8-2017 21:00,0.0,-0.006597597775289753,0.0,0.0,0.0,0
4-8-2017 22:00,0.0,-0.011754280931095167,0.0,0.0,0.0,0
4-8-2017 23:00,0.0,-0.0032158401707228597,0.0,0.0,0.0,0
5-8-2017 0:00,0.0,-0.0030495381103582513,0.0,0.0,0.0,0
5-8-2017 1:00,0.0,-0.004251828543839315,0.0,0.0,0.0,0
5-8-2017 2:00,0.0,-0.0050849272244350196,0.0,0.0,0.0,0
5-8-2017 3:00,0.0,-0.006221164763177743,0.0,0.0,0.0,0
5-8-2017 4:00,0.0,-0.023638740865258526,0.0,0.0,0.0,0
5-8-2017 5:00,0.0,-0.006554615801427296,0.0,0.0,0.0,0
5-8-2017 6:00,0.02,0.0034784243603965433,0.0,0.0,0.0,0
5-8-2017 7:00,0.0,-0.007907054404266976,0.0,0.0,0.0,0
5-8-2017 8:00,0.0,-0.007886123446989541,0.0,0.0,0.0,0
5-8-2017 9:00,0.0,-0.0135973212934956,0.0,0.0,0.0,0
5-8-2017 10:00,0.07,0.04712942843044729,0.0,0.0,0.0,0
5-8-2017 11:00,0.13,0.1096723097905433,0.0,0.0,0.0,0
5-8-2017 12:00,0.05,0.035846061705964175,0.0,0.0,0.0,0
5-8-2017 13:00,0.0,-0.012919124662538325,0.0,0.0,0.0,0
5-8-2017 14:00,0.02,0.006676150975678977,0.0,0.0,0.0,0
5-8-2017 15:00,0.0,-0.009543760286319555,0.0,0.0,0.0,0
5-8-2017 16:00,0.0,-0.017973022692621892,0.0,0.0,0.0,0
5-8-2017 17:00,0.0,-0.010474869883306245,0.0,0.0,0.0,0
5-8-2017 18:00,0.0,-0.009890930553913142,0.0,0.0,0.0,0
5-8-2017 19:00,0.0,-0.011091531898780295,0.0,0.0,0.0,0
5-8-2017 20:00,0.0,-0.00841490066417658,0.0,0.0,0.0,0
5-8-2017 21:00,0.0,-0.010643255065730604,0.0,0.0,0.0,0
5-8-2017 22:00,0.0,-0.013828220100334587,0.0,0.0,0.0,0
5-8-2017 23:00,0.0,-0.0024167484883560234,0.0,0.0,0.0,0
6-8-2017 0:00,0.0,2.045739178383058E-4,0.0,0.0,0.0,0
6-8-2017 1:00,0.0,9.131144431878471E-4,0.0,0.0,0.0,0
6-8-2017 2:00,0.0,0.001956908310647904,0.0,0.0,0.0,0
6-8-2017 3:00,0.0,0.0027370541537173497,0.0,0.0,0.0,0
6-8-2017 4:00,0.0,-0.013252970321213817,0.0,0.0,0.0,0
6-8-2017 5:00,0.0,0.004768829914976177,0.0,0.0,0.0,0
6-8-2017 6:00,0.02,0.01571774592442951,0.0,0.0,0.0,0
6-8-2017 7:00,0.0,0.004336026700557717,0.0,0.0,0.0,0
6-8-2017 8:00,0.0,0.004805886831023934,0.0,0.0,0.0,0
6-8-2017 9:00,0.0,-6.95409028680002E-4,0.0,0.0,0.0,0
6-8-2017 10:00,0.0,-0.010347087132333246,0.0,0.0,0.0,0
6-8-2017 11:00,0.0,-0.007024004721190568,0.0,0.0,0.0,0
6-8-2017 12:00,0.0,-0.0012841553785213028,0.0,0.0,0.0,0
6-8-2017 13:00,0.0,2.4966678721601455E-5,0.0,0.0,0.0,0
6-8-2017 14:00,0.0,-5.987518668523259E-4,0.0,0.0,0.0,0
6-8-2017 15:00,0.0,0.002540638549409609,0.0,0.0,0.0,0
6-8-2017 16:00,0.0,-0.006165975589573713,0.0,0.0,0.0,0
6-8-2017 17:00,0.0,8.831798218961717E-4,0.0,0.0,0.0,0
6-8-2017 18:00,0.0,5.158916811520921E-4,0.0,0.0,0.0,0
6-8-2017 19:00,0.0,-0.0014174252151771332,0.0,0.0,0.0,0
6-8-2017 20:00,0.0,1.5563536875207477E-4,0.0,0.0,0.0,0
6-8-2017 21:00,0.0,-0.003532019733619517,0.0,0.0,0.0,0
6-8-2017 22:00,0.0,-0.008902172153419588,0.0,0.0,0.0,0
6-8-2017 23:00,0.0,0.0012254248037677053,0.0,0.0,0.0,0
7-8-2017 0:00,0.0,0.0021448620493942326,0.0,0.0,0.0,0
7-8-2017 1:00,0.0,0.0015470940549756236,0.0,0.0,0.0,0
7-8-2017 2:00,0.0,0.0012506409918926838,0.0,0.0,0.0,0
7-8-2017 3:00,0.0,7.300307381755411E-4,0.0,0.0,0.0,0
7-8-2017 4:00,0.0,-0.017049581588204764,0.0,0.0,0.0,0
7-8-2017 5:00,0.0,8.608580853652669E-4,0.0,0.0,0.0,0
7-8-2017 6:00,0.02,0.011676614207469375,0.0,0.0,0.0,0
7-8-2017 7:00,0.0,-7.503812105894223E-4,0.0,0.0,0.0,0
7-8-2017 8:00,0.0,-8.806276419131452E-4,0.0,0.0,0.0,0
7-8-2017 9:00,0.02,0.013348682593982345,0.0,0.0,0.0,0
7-8-2017 10:00,0.0,-0.01716071922846973,0.0,0.0,0.0,0
7-8-2017 11:00,0.0,-0.013536731657483075,0.0,0.0,0.0,0
7-8-2017 12:00,0.0,-0.008710080778768111,0.0,0.0,0.0,0
7-8-2017 13:00,0.07,0.06259562648584102,0.0,0.0,0.0,0
7-8-2017 14:00,0.0,-0.008324809461903315,0.0,0.0,0.0,0
7-8-2017 15:00,0.0,-0.005903840585760088,0.0,0.0,0.0,0
7-8-2017 16:00,0.02,0.005034469777907493,0.0,0.0,0.0,0
7-8-2017 17:00,0.0,-0.007335368699082008,0.0,0.0,0.0,0
7-8-2017 18:00,0.0,-0.0076238808005769,0.0,0.0,0.0,0
7-8-2017 19:00,0.0,-0.009259913853351835,0.0,0.0,0.0,0
7-8-2017 20:00,0.03,0.022239575474919226,0.0,0.0,0.0,0
7-8-2017 21:00,0.0,-0.010583383200836155,0.0,0.0,0.0,0
7-8-2017 22:00,0.02,0.004185267026056554,0.0,0.0,0.0,0
7-8-2017 23:00,0.02,0.01535297936034145,0.0,0.0,0.0,0
8-8-2017 0:00,0.0,-0.003105478522710958,0.0,0.0,0.0,0
8-8-2017 1:00,0.0,-0.0027857100451226307,0.0,0.0,0.0,0
8-8-2017 2:00,0.0,-0.00219856504697348,0.0,0.0,0.0,0
8-8-2017 3:00,0.0,-0.0017960864057021244,0.0,0.0,0.0,0
8-8-2017 4:00,0.03,0.010858571183016776,0.0,0.0,0.0,0
8-8-2017 5:00,0.0,1.310634197541731E-5,0.0,0.0,0.0,0
8-8-2017 6:00,0.0,-0.007948841375261133,0.0,0.0,0.0,0
8-8-2017 7:00,0.0,-6.563878224060023E-5,0.0,0.0,0.0,0
8-8-2017 8:00,0.0,5.594824299120626E-4,0.0,0.0,0.0,0
8-8-2017 9:00,0.0,-0.00436502587647975,0.0,0.0,0.0,0
8-8-2017 10:00,0.02,0.005383442670203308,0.0,0.0,0.0,0
8-8-2017 11:00,0.0,-0.009576070511032094,0.0,0.0,0.0,0
8-8-2017 12:00,0.0,-0.004547024008337472,0.0,0.0,0.0,0
8-8-2017 13:00,0.0,-0.0026486641122647316,0.0,0.0,0.0,0
8-8-2017 14:00,0.0,-0.0032697500380820693,0.0,0.0,0.0,0
8-8-2017 15:00,0.0,-9.711352779601537E-4,0.0,0.0,0.0,0
8-8-2017 16:00,0.02,0.010208169778296396,0.0,0.0,0.0,0
8-8-2017 17:00,0.0,-0.0018046211181062155,0.0,0.0,0.0,0
8-8-2017 18:00,0.0,-0.002238315711305644,0.0,0.0,0.0,0
8-8-2017 19:00,0.0,-0.003801027642565958,0.0,0.0,0.0,0
8-8-2017 20:00,0.0,-0.002599072291992709,0.0,0.0,0.0,0
8-8-2017 21:00,0.0,-0.005660694148417962,0.0,0.0,0.0,0
8-8-2017 22:00,0.02,0.008143398560650468,0.0,0.0,0.0,0
8-8-2017 23:00,0.0,-7.521338924840982E-4,0.0,0.0,0.0,0
9-8-2017 0:00,0.0,3.10934072454111E-4,0.0,0.0,0.0,0
9-8-2017 1:00,0.0,3.2595432983387705E-5,0.0,0.0,0.0,0
9-8-2017 2:00,0.0,-1.6454773522338144E-5,0.0,0.0,0.0,0
9-8-2017 3:00,0.0,-2.072616823281838E-4,0.0,0.0,0.0,0
9-8-2017 4:00,0.03,0.011439729999882547,0.0,0.0,0.0,0
9-8-2017 5:00,0.0,2.2727385479829037E-4,0.0,0.0,0.0,0
9-8-2017 6:00,0.0,-0.008071028174631819,0.0,0.0,0.0,0
9-8-2017 7:00,0.0,-0.001334019333036408,0.0,0.0,0.0,0
9-8-2017 8:00,0.0,-0.001474092562649452,0.0,0.0,0.0,0
9-8-2017 9:00,0.0,-0.00681695708638976,0.0,0.0,0.0,0
9-8-2017 10:00,0.02,0.0019258869942892168,0.0,0.0,0.0,0
9-8-2017 11:00,0.02,0.007094918266078316,0.0,0.0,0.0,0
9-8-2017 12:00,0.0,-0.008902003021111375,0.0,0.0,0.0,0
9-8-2017 13:00,0.0,-0.007012939845133339,0.0,0.0,0.0,0
9-8-2017 14:00,0.0,-0.007822852270358675,0.0,0.0,0.0,0
9-8-2017 15:00,0.0,-0.006111111138616231,0.0,0.0,0.0,0
9-8-2017 16:00,0.02,0.004746353291754969,0.0,0.0,0.0,0
9-8-2017 17:00,0.02,0.01323900010336229,0.0,0.0,0.0,0
9-8-2017 18:00,0.0,-0.007161136427174917,0.0,0.0,0.0,0
9-8-2017 19:00,0.05,0.041489747374281225,0.0,0.0,0.0,0
9-8-2017 20:00,0.02,0.012550089213649104,0.0,0.0,0.0,0
9-8-2017 21:00,0.0,-0.010063392593653795,0.0,0.0,0.0,0
9-8-2017 22:00,0.02,0.003497332478083214,0.0,0.0,0.0,0
9-8-2017 23:00,0.0,-0.004825231644890382,0.0,0.0,0.0,0
10-8-2017 0:00,0.0,-0.003565716758534303,0.0,0.0,0.0,0
10-8-2017 1:00,0.0,-0.0033991692220324233,0.0,0.0,0.0,0
10-8-2017 2:00,0.0,-0.003041421340161373,0.0,0.0,0.0,0
10-8-2017 3:00,0.0,-0.002782520506012771,0.0,0.0,0.0,0
10-8-2017 4:00,0.03,0.008899826487488886,0.0,0.0,0.0,0
10-8-2017 5:00,0.0,-0.0014817405796482552,0.0,0.0,0.0,0
10-8-2017 6:00,0.0,-0.008918516539281914,0.0,0.0,0.0,0
10-8-2017 7:00,0.0,-0.0021297941822116207,0.0,0.0,0.0,0
10-8-2017 8:00,0.0,-0.0018371545866903679,0.0,0.0,0.0,0
10-8-2017 9:00,0.0,-0.007001485662568791,0.0,0.0,0.0,0
10-8-2017 10:00,0.02,0.0013326439511866274,0.0,0.0,0.0,0
10-8-2017 11:00,0.0,-0.01277287032491925,0.0,0.0,0.0,0
10-8-2017 12:00,0.0,-0.009198849402912731,0.0,0.0,0.0,0
10-8-2017 13:00,0.0,-0.007345396958900693,0.0,0.0,0.0,0
10-8-2017 14:00,0.02,0.011629550104594679,0.0,0.0,0.0,0
10-8-2017 15:00,0.0,-0.007271896403913641,0.0,0.0,0.0,0
10-8-2017 16:00,0.02,0.0032374150619637176,0.0,0.0,0.0,0
10-8-2017 17:00,0.0,-0.007950659965399542,0.0,0.0,0.0,0
10-8-2017 18:00,0.0,-0.008503397980255047,0.0,0.0,0.0,0
10-8-2017 19:00,0.0,-0.00982509041288893,0.0,0.0,0.0,0
10-8-2017 20:00,0.0,-0.0090925340515329,0.0,0.0,0.0,0
10-8-2017 21:00,0.12,0.1083907532663086,0.0,0.0,0.0,0
10-8-2017 22:00,0.02,0.001356725028415471,0.0,0.0,0.0,0
10-8-2017 23:00,0.0,-0.006744256436695883,0.0,0.0,0.0,0
11-8-2017 0:00,0.0,-0.005639680301220669,0.0,0.0,0.0,0
11-8-2017 1:00,0.0,-0.00551023284122894,0.0,0.0,0.0,0
11-8-2017 2:00,0.0,-0.005227673123463865,0.0,0.0,0.0,0
11-8-2017 3:00,0.0,-0.005001050798843562,0.0,0.0,0.0,0
11-8-2017 4:00,0.03,0.0062346576784691795,0.0,0.0,0.0,0
11-8-2017 5:00,0.0,-0.0033087874532199083,0.0,0.0,0.0,0
11-8-2017 6:00,0.0,-0.009876804485556171,0.0,0.0,0.0,0
11-8-2017 7:00,0.0,-0.0030291401193361708,0.0,0.0,0.0,0
11-8-2017 8:00,0.0,-0.0022965592050057954,0.0,0.0,0.0,0
11-8-2017 9:00,0.0,-0.006328045419160779,0.0,0.0,0.0,0
11-8-2017 10:00,0.02,0.0025516803375079085,0.0,0.0,0.0,0
11-8-2017 11:00,0.0,-0.009874068876656114,0.0,0.0,0.0,0
11-8-2017 12:00,0.0,-0.005774795135616556,0.0,0.0,0.0,0
11-8-2017 13:00,0.02,0.016764631604138235,0.0,0.0,0.0,0
11-8-2017 14:00,0.0,-0.0037539768159369287,0.0,0.0,0.0,0
11-8-2017 15:00,0.0,-0.002547025936987259,0.0,0.0,0.0,0
11-8-2017 16:00,0.02,0.008335717592105007,0.0,0.0,0.0,0
11-8-2017 17:00,0.0,-0.002312703828652696,0.0,0.0,0.0,0
11-8-2017 18:00,0.0,-0.0027976678822503607,0.0,0.0,0.0,0
11-8-2017 19:00,0.0,-0.003871561103398131,0.0,0.0,0.0,0
11-8-2017 20:00,0.0,-0.0032464147744778165,0.0,0.0,0.0,0
11-8-2017 21:00,0.0,-0.005507262137415413,0.0,0.0,0.0,0
11-8-2017 22:00,0.02,0.007023052509137779,0.0,0.0,0.0,0
11-8-2017 23:00,0.0,-6.972501040348562E-4,0.0,0.0,0.0,0
12-8-2017 0:00,0.0,4.114834746359753E-4,0.0,0.0,0.0,0
12-8-2017 1:00,0.0,4.114759687337127E-4,0.0,0.0,0.0,0
12-8-2017 2:00,0.0,5.264926330089698E-4,0.0,0.0,0.0,0
12-8-2017 3:00,0.0,6.284815587171266E-4,0.0,0.0,0.0,0
12-8-2017 4:00,0.03,0.01132519663045711,0.0,0.0,0.0,0
12-8-2017 5:00,0.0,0.001645044661246986,0.0,0.0,0.0,0
12-8-2017 6:00,0.0,-0.005029042216760976,0.0,0.0,0.0,0
12-8-2017 7:00,0.0,9.027353856396426E-4,0.0,0.0,0.0,0
12-8-2017 8:00,0.0,0.0011004288458100467,0.0,0.0,0.0,0
12-8-2017 9:00,0.0,-0.0032796978635416833,0.0,0.0,0.0,0
12-8-2017 10:00,0.02,0.00466413867912009,0.0,0.0,0.0,0
12-8-2017 11:00,0.0,-0.0075633308300222645,0.0,0.0,0.0,0
12-8-2017 12:00,0.0,-0.004420289626869852,0.0,0.0,0.0,0
12-8-2017 13:00,0.0,-0.0017927800342825038,0.0,0.0,0.0,0
12-8-2017 14:00,0.0,-0.002402835380838404,0.0,0.0,0.0,0
12-8-2017 15:00,0.0,-0.0016853785573409433,0.0,0.0,0.0,0
12-8-2017 16:00,0.02,0.00897290559205603,0.0,0.0,0.0,0
12-8-2017 17:00,0.0,-0.0012751815354711256,0.0,0.0,0.0,0
12-8-2017 18:00,0.0,-0.0018316909411859612,0.0,0.0,0.0,0
12-8-2017 19:00,0.0,-0.0027971042642226315,0.0,0.0,0.0,0
12-8-2017 20:00,0.0,-0.0024186872811130427,0.0,0.0,0.0,0
12-8-2017 21:00,0.0,-0.00456343694879491,0.0,0.0,0.0,0
12-8-2017 22:00,0.02,0.007391452958239452,0.0,0.0,0.0,0
12-8-2017 23:00,0.0,-8.793842695962615E-5,0.0,0.0,0.0,0
13-8-2017 0:00,0.0,8.851849709416593E-4,0.0,0.0,0.0,0
13-8-2017 1:00,0.0,7.886887555341171E-4,0.0,0.0,0.0,0
13-8-2017 2:00,0.0,7.691286227082678E-4,0.0,0.0,0.0,0
13-8-2017 3:00,0.0,7.794504058929921E-4,0.0,0.0,0.0,0
13-8-2017 4:00,0.03,0.01097013832844893,0.0,0.0,0.0,0
13-8-2017 5:00,0.0,0.0016276146938087955,0.0,0.0,0.0,0
13-8-2017 6:00,0.0,-0.004678206857779838,0.0,0.0,0.0,0
13-8-2017 7:00,0.0,8.120191528924224E-4,0.0,0.0,0.0,0
13-8-2017 8:00,0.0,9.491603309938843E-4,0.0,0.0,0.0,0
13-8-2017 9:00,0.0,-0.0032401752304984295,0.0,0.0,0.0,0
13-8-2017 10:00,0.02,0.004307203741212592,0.0,0.0,0.0,0
13-8-2017 11:00,0.0,-0.00718255441985193,0.0,0.0,0.0,0
13-8-2017 12:00,0.0,-0.004456314111530501,0.0,0.0,0.0,0
13-8-2017 13:00,0.0,-0.0016345210660848445,0.0,0.0,0.0,0
13-8-2017 14:00,0.0,-0.0022298227390957293,0.0,0.0,0.0,0
13-8-2017 15:00,0.0,-0.0018956593710247258,0.0,0.0,0.0,0
13-8-2017 16:00,0.02,0.008644365998702714,0.0,0.0,0.0,0
13-8-2017 17:00,0.0,-0.0014527255934739876,0.0,0.0,0.0,0
13-8-2017 18:00,0.0,-0.0023301191091860806,0.0,0.0,0.0,0
13-8-2017 19:00,0.0,-0.003436391291991736,0.0,0.0,0.0,0
13-8-2017 20:00,0.0,-0.0035540424125729587,0.0,0.0,0.0,0
13-8-2017 21:00,0.0,-0.006006363999037831,0.0,0.0,0.0,0
13-8-2017 22:00,0.02,0.004949431554438966,0.0,0.0,0.0,0
13-8-2017 23:00,0.0,-0.0027127182168252884,0.0,0.0,0.0,0
14-8-2017 0:00,0.0,-0.0022988746137322814,0.0,0.0,0.0,0
14-8-2017 1:00,0.0,-0.0027735583838158643,0.0,0.0,0.0,0
14-8-2017 2:00,0.0,-0.0032093941589135793,0.0,0.0,0.0,0
14-8-2017 3:00,0.0,-0.0035724383634230476,0.0,0.0,0.0,0
14-8-2017 4:00,0.03,0.005830523564778083,0.0,0.0,0.0,0
14-8-2017 5:00,0.0,-0.0033826846002439973,0.0,0.0,0.0,0
14-8-2017 6:00,0.0,-0.009528553690365241,0.0,0.0,0.0,0
14-8-2017 7:00,0.0,-0.004688192136373274,0.0,0.0,0.0,0
14-8-2017 8:00,0.0,-0.004819916105292692,0.0,0.0,0.0,0
14-8-2017 9:00,0.1,0.09108078118005163,0.0,0.0,0.0,0
14-8-2017 10:00,0.02,-0.0018690557202108837,0.0,0.0,0.0,0
14-8-2017 11:00,0.0,-0.012721860834220357,0.0,0.0,0.0,0
14-8-2017 12:00,0.0,-0.010513179721752693,0.0,0.0,0.0,0
14-8-2017 13:00,0.0,-0.007341799637994051,0.0,0.0,0.0,0
14-8-2017 14:00,0.0,-0.007767044052005244,0.0,0.0,0.0,0
14-8-2017 15:00,0.0,-0.007660870553906021,0.0,0.0,0.0,0
14-8-2017 16:00,0.02,0.00291619829233585,0.0,0.0,0.0,0
14-8-2017 17:00,0.0,-0.006009084103056214,0.0,0.0,0.0,0
14-8-2017 18:00,0.03,0.023813451932668612,0.0,0.0,0.0,0
14-8-2017 19:00,0.0,-0.00641287195615683,0.0,0.0,0.0,0
14-8-2017 20:00,0.0,-0.006005784026679663,0.0,0.0,0.0,0
14-8-2017 21:00,0.0,-0.0072396819905594795,0.0,0.0,0.0,0
14-8-2017 22:00,0.02,0.004243003911512526,0.0,0.0,0.0,0
14-8-2017 23:00,0.0,-0.0020759195436641327,0.0,0.0,0.0,0
15-8-2017 0:00,0.0,-6.953710332266308E-4,0.0,0.0,0.0,0
15-8-2017 1:00,0.0,-5.9356578910226E-4,0.0,0.0,0.0,0
15-8-2017 2:00,0.0,-4.910006375878472E-4,0.0,0.0,0.0,0
15-8-2017 3:00,0.0,-2.7273426090751365E-4,0.0,0.0,0.0,0
15-8-2017 4:00,0.03,0.00929718450946081,0.0,0.0,0.0,0
15-8-2017 5:00,0.0,8.171489182017136E-4,0.0,0.0,0.0,0
15-8-2017 6:00,0.0,-0.0045649106063072094,0.0,0.0,0.0,0
15-8-2017 7:00,0.0,2.2945250875492512E-4,0.0,0.0,0.0,0
15-8-2017 8:00,0.0,4.327294105650869E-4,0.0,0.0,0.0,0
15-8-2017 9:00,0.0,-0.0033216649994269095,0.0,0.0,0.0,0
15-8-2017 10:00,0.02,0.003486168956707207,0.0,0.0,0.0,0
15-8-2017 11:00,0.0,-0.006474796381877052,0.0,0.0,0.0,0
15-8-2017 12:00,0.0,-0.004528787736892992,0.0,0.0,0.0,0
15-8-2017 13:00,0.0,-0.001304513099407295,0.0,0.0,0.0,0
15-8-2017 14:00,0.0,-0.0018563927390047243,0.0,0.0,0.0,0
15-8-2017 15:00,0.0,-0.002274901595463212,0.0,0.0,0.0,0
15-8-2017 16:00,0.02,0.008042525117916519,0.0,0.0,0.0,0
15-8-2017 17:00,0.0,-8.945938991664149E-4,0.0,0.0,0.0,0
15-8-2017 18:00,0.0,-0.0015557741304801733,0.0,0.0,0.0,0
15-8-2017 19:00,0.0,-0.0020857882214094852,0.0,0.0,0.0,0
15-8-2017 20:00,0.0,-0.002337599737958015,0.0,0.0,0.0,0
15-8-2017 21:00,0.0,-0.00404263410147242,0.0,0.0,0.0,0
15-8-2017 22:00,0.02,0.006277399237239812,0.0,0.0,0.0,0
15-8-2017 23:00,0.0,-3.8784081380422754E-4,0.0,0.0,0.0,0
16-8-2017 0:00,0.0,2.7836310346314105E-4,0.0,0.0,0.0,0
16-8-2017 1:00,0.0,-3.451959305529424E-4,0.0,0.0,0.0,0
16-8-2017 2:00,0.0,-0.0010062302117607473,0.0,0.0,0.0,0
16-8-2017 3:00,0.0,-0.0015073949864149996,0.0,0.0,0.0,0
16-8-2017 4:00,0.03,0.006968427553594953,0.0,0.0,0.0,0
16-8-2017 5:00,0.0,-0.0018763935185798393,0.0,0.0,0.0,0
16-8-2017 6:00,0.0,-0.007553438480867501,0.0,0.0,0.0,0
16-8-2017 7:00,0.0,-0.0038095325315081075,0.0,0.0,0.0,0
16-8-2017 8:00,0.0,-0.004314048254917316,0.0,0.0,0.0,0
16-8-2017 9:00,0.0,-0.008209138784883182,0.0,0.0,0.0,0
16-8-2017 10:00,0.02,-0.0021037696922236865,0.0,0.0,0.0,0
16-8-2017 11:00,0.0,-0.011627551874924993,0.0,0.0,0.0,0
16-8-2017 12:00,0.0,-0.010389613116721022,0.0,0.0,0.0,0
16-8-2017 13:00,0.0,-0.007120821612732857,0.0,0.0,0.0,0
16-8-2017 14:00,0.1,0.09227856117593493,0.0,0.0,0.0,0
16-8-2017 15:00,0.0,-0.008508848815381652,0.0,0.0,0.0,0
16-8-2017 16:00,0.02,0.0015520052038096484,0.0,0.0,0.0,0
16-8-2017 17:00,0.0,-0.006858817718513179,0.0,0.0,0.0,0
16-8-2017 18:00,0.0,-0.007406554190482011,0.0,0.0,0.0,0
16-8-2017 19:00,0.0,-0.007688845488986499,0.0,0.0,0.0,0
16-8-2017 20:00,0.03,0.021941973053437917,0.0,0.0,0.0,0
16-8-2017 21:00,0.0,-0.008969242790686406,0.0,0.0,0.0,0
16-8-2017 22:00,0.02,0.0014721752342632538,0.0,0.0,0.0,0
16-8-2017 23:00,0.0,-0.004305408380233915,0.0,0.0,0.0,0
17-8-2017 0:00,0.0,-0.003107501686041324,0.0,0.0,0.0,0
17-8-2017 1:00,0.0,-0.0028711244569087696,0.0,0.0,0.0,0
17-8-2017 2:00,0.0,-0.002710457629549699,0.0,0.0,0.0,0
17-8-2017 3:00,0.0,-0.0023457530142494453,0.0,0.0,0.0,0
17-8-2017 4:00,0.03,0.006621286884510685,0.0,0.0,0.0,0
17-8-2017 5:00,0.0,-0.0015115173236295272,0.0,0.0,0.0,0
17-8-2017 6:00,0.0,-0.006406745378745653,0.0,0.0,0.0,0
17-8-2017 7:00,0.0,-0.002636479220476517,0.0,0.0,0.0,0
17-8-2017 8:00,0.0,-0.002771970194492614,0.0,0.0,0.0,0
17-8-2017 9:00,0.0,-0.006352004077586936,0.0,0.0,0.0,0
17-8-2017 10:00,0.02,-4.933343779718663E-4,0.0,0.0,0.0,0
17-8-2017 11:00,0.0,-0.00912416793436003,0.0,0.0,0.0,0
17-8-2017 12:00,0.0,-0.008138533592505954,0.0,0.0,0.0,0
17-8-2017 13:00,0.0,-0.004725541992857262,0.0,0.0,0.0,0
17-8-2017 14:00,0.0,-0.005275213546766204,0.0,0.0,0.0,0
17-8-2017 15:00,0.0,-0.006331841443782817,0.0,0.0,0.0,0
17-8-2017 16:00,0.02,0.003572127327046053,0.0,0.0,0.0,0
17-8-2017 17:00,0.08,0.07547579931457403,0.0,0.0,0.0,0
17-8-2017 18:00,0.0,-0.00517029458295918,0.0,0.0,0.0,0
17-8-2017 19:00,0.0,-0.005416669966926684,0.0,0.0,0.0,0
17-8-2017 20:00,0.0,-0.0061150282434171595,0.0,0.0,0.0,0
17-8-2017 21:00,0.0,-0.007115586801170711,0.0,0.0,0.0,0
17-8-2017 22:00,0.02,0.002564050108831154,0.0,0.0,0.0,0
17-8-2017 23:00,0.0,-0.003209042870304362,0.0,0.0,0.0,0
18-8-2017 0:00,0.0,-0.0023625992003717677,0.0,0.0,0.0,0
18-8-2017 1:00,0.0,-0.002225341068959023,0.0,0.0,0.0,0
18-8-2017 2:00,0.0,-0.0022020284939015247,0.0,0.0,0.0,0
18-8-2017 3:00,0.0,-0.001930509849515212,0.0,0.0,0.0,0
18-8-2017 4:00,0.03,0.006568688657035923,0.0,0.0,0.0,0
18-8-2017 5:00,0.0,-8.822448839474663E-4,0.0,0.0,0.0,0
18-8-2017 6:00,0.0,-0.005025802228769815,0.0,0.0,0.0,0
18-8-2017 7:00,0.0,-0.0012593251164970346,0.0,0.0,0.0,0
18-8-2017 8:00,0.0,-0.0010559405960261148,0.0,0.0,0.0,0
18-8-2017 9:00,0.0,-0.0042544293365612855,0.0,0.0,0.0,0
18-8-2017 10:00,0.02,0.0014240287491761316,0.0,0.0,0.0,0
18-8-2017 11:00,0.0,-0.006247368401732111,0.0,0.0,0.0,0
18-8-2017 12:00,0.0,-0.005447550697061158,0.0,0.0,0.0,0
18-8-2017 13:00,0.02,0.018138680907002908,0.0,0.0,0.0,0
18-8-2017 14:00,0.0,-0.0023310050807279128,0.0,0.0,0.0,0
18-8-2017 15:00,0.0,-0.0036278109746897096,0.0,0.0,0.0,0
18-8-2017 16:00,0.02,0.006148312456531583,0.0,0.0,0.0,0
18-8-2017 17:00,0.0,-0.0015087821445460329,0.0,0.0,0.0,0
18-8-2017 18:00,0.0,-0.0021284949661000132,0.0,0.0,0.0,0
18-8-2017 19:00,0.0,-0.0022142159339869267,0.0,0.0,0.0,0
18-8-2017 20:00,0.0,-0.0031170125278486877,0.0,0.0,0.0,0
18-8-2017 21:00,0.0,-0.0038998272952036343,0.0,0.0,0.0,0
18-8-2017 22:00,0.02,0.0053251150038782676,0.0,0.0,0.0,0
18-8-2017 23:00,0.0,-1.364008358677657E-4,0.0,0.0,0.0,0
19-8-2017 0:00,0.0,6.656663138326635E-4,0.0,0.0,0.0,0
19-8-2017 1:00,0.0,5.482726945114048E-4,0.0,0.0,0.0,0
19-8-2017 2:00,0.0,2.7869836425313804E-4,0.0,0.0,0.0,0
19-8-2017 3:00,0.0,3.0149838471131736E-4,0.0,0.0,0.0,0
19-8-2017 4:00,0.03,0.008177322846039269,0.0,0.0,0.0,0
19-8-2017 5:00,0.0,6.121094810879165E-4,0.0,0.0,0.0,0
19-8-2017 6:00,0.0,-0.003575927644565432,0.0,0.0,0.0,0
19-8-2017 7:00,0.0,-6.093900694137829E-4,0.0,0.0,0.0,0
19-8-2017 8:00,0.0,-8.632805455806268E-4,0.0,0.0,0.0,0
19-8-2017 9:00,0.0,-0.003929693242771402,0.0,0.0,0.0,0
19-8-2017 10:00,0.02,0.0013190841298736065,0.0,0.0,0.0,0
19-8-2017 11:00,0.0,-0.005642345714769471,0.0,0.0,0.0,0
19-8-2017 12:00,0.0,-0.005277813746496395,0.0,0.0,0.0,0
19-8-2017 13:00,0.0,-0.001519821154611909,0.0,0.0,0.0,0
19-8-2017 14:00,0.0,-0.001911000592759564,0.0,0.0,0.0,0
19-8-2017 15:00,0.0,-0.0034494635002614996,0.0,0.0,0.0,0
19-8-2017 16:00,0.02,0.006197335574757255,0.0,0.0,0.0,0
19-8-2017 17:00,0.03,0.028947630554953273,0.0,0.0,0.0,0
19-8-2017 18:00,0.0,-0.0016775450207422533,0.0,0.0,0.0,0
19-8-2017 19:00,0.0,-0.0016344554026693518,0.0,0.0,0.0,0
19-8-2017 20:00,0.0,-0.0027735341440231747,0.0,0.0,0.0,0
19-8-2017 21:00,0.0,-0.0033712814870054987,0.0,0.0,0.0,0
19-8-2017 22:00,0.0,-0.01463371016486954,0.0,0.0,0.0,0
19-8-2017 23:00,0.0,1.8367476874793336E-4,0.0,0.0,0.0,0
20-8-2017 0:00,0.0,9.086890321902174E-4,0.0,0.0,0.0,0
20-8-2017 1:00,0.0,8.898316083835421E-4,0.0,0.0,0.0,0
20-8-2017 2:00,0.0,6.805583190580972E-4,0.0,0.0,0.0,0
20-8-2017 3:00,0.0,8.078276618367305E-4,0.0,0.0,0.0,0
20-8-2017 4:00,0.03,0.008413466024190078,0.0,0.0,0.0,0
20-8-2017 5:00,0.0,0.001301135322305036,0.0,0.0,0.0,0
20-8-2017 6:00,0.0,-0.002364219097145049,0.0,0.0,0.0,0
20-8-2017 7:00,0.0,3.695414279197315E-4,0.0,0.0,0.0,0
20-8-2017 8:00,0.0,2.2553844214939127E-4,0.0,0.0,0.0,0
20-8-2017 9:00,0.0,-0.0027353574727654465,0.0,0.0,0.0,0
20-8-2017 10:00,0.02,0.0020571799257186954,0.0,0.0,0.0,0
20-8-2017 11:00,0.0,-0.0042208418737276765,0.0,0.0,0.0,0
20-8-2017 12:00,0.0,-0.004318154902920936,0.0,0.0,0.0,0
20-8-2017 13:00,0.0,-5.315395237005189E-4,0.0,0.0,0.0,0
20-8-2017 14:00,0.0,-9.87350612749498E-4,0.0,0.0,0.0,0
20-8-2017 15:00,0.0,-0.002910608734276062,0.0,0.0,0.0,0
20-8-2017 16:00,0.02,0.006463727784055669,0.0,0.0,0.0,0
20-8-2017 17:00,0.0,-4.0099989956122366E-4,0.0,0.0,0.0,0
20-8-2017 18:00,0.0,-0.0010540504744848446,0.0,0.0,0.0,0
20-8-2017 19:00,0.0,-9.045625155386745E-4,0.0,0.0,0.0,0
20-8-2017 20:00,0.0,-0.0023023356494711045,0.0,0.0,0.0,0
20-8-2017 21:00,0.0,-0.0027364192756933487,0.0,0.0,0.0,0
20-8-2017 22:00,0.02,0.005492377361884123,0.0,0.0,0.0,0
20-8-2017 23:00,0.0,5.672593612525557E-4,0.0,0.0,0.0,0
21-8-2017 0:00,0.0,0.0011938170308241512,0.0,0.0,0.0,0
21-8-2017 1:00,0.0,0.0010601747031875812,0.0,0.0,0.0,0
21-8-2017 2:00,0.0,6.978813554504798E-4,0.0,0.0,0.0,0
21-8-2017 3:00,0.0,7.162989212050877E-4,0.0,0.0,0.0,0
21-8-2017 4:00,0.03,0.007838430085239356,0.0,0.0,0.0,0
21-8-2017 5:00,0.0,9.569717693524086E-4,0.0,0.0,0.0,0
21-8-2017 6:00,0.0,-0.0024077102209626253,0.0,0.0,0.0,0
21-8-2017 7:00,0.0,-1.2873702305292618E-4,0.0,0.0,0.0,0
21-8-2017 8:00,0.0,-3.848627954949773E-4,0.0,0.0,0.0,0
21-8-2017 9:00,0.0,-0.003087595976735568,0.0,0.0,0.0,0
21-8-2017 10:00,0.02,0.0014013473989860172,0.0,0.0,0.0,0
21-8-2017 11:00,0.0,-0.004040620403865339,0.0,0.0,0.0,0
21-8-2017 12:00,0.0,-0.004447132479126624,0.0,0.0,0.0,0
21-8-2017 13:00,0.0,-5.052737760638079E-4,0.0,0.0,0.0,0
21-8-2017 14:00,0.0,-8.990959795076407E-4,0.0,0.0,0.0,0
21-8-2017 15:00,0.0,-0.0030805287785523657,0.0,0.0,0.0,0
21-8-2017 16:00,0.02,0.006147965671502866,0.0,0.0,0.0,0
21-8-2017 17:00,0.0,-3.0228450010419015E-4,0.0,0.0,0.0,0
21-8-2017 18:00,0.0,-9.537098984331556E-4,0.0,0.0,0.0,0
21-8-2017 19:00,0.0,-6.683251009481938E-4,0.0,0.0,0.0,0
21-8-2017 20:00,0.0,-0.0022952941297937086,0.0,0.0,0.0,0
21-8-2017 21:00,0.0,-0.0026306769735565004,0.0,0.0,0.0,0
21-8-2017 22:00,0.02,0.005024379517936742,0.0,0.0,0.0,0
21-8-2017 23:00,0.0,2.917931215303902E-4,0.0,0.0,0.0,0
22-8-2017 0:00,0.0,7.54928735705554E-4,0.0,0.0,0.0,0
22-8-2017 1:00,0.0,-2.0099947368744722E-4,0.0,0.0,0.0,0
22-8-2017 2:00,0.0,-0.0014238138577627422,0.0,0.0,0.0,0
22-8-2017 3:00,0.0,-0.0022217490469586968,0.0,0.0,0.0,0
22-8-2017 4:00,0.03,0.0037093948427284855,0.0,0.0,0.0,0
22-8-2017 5:00,0.0,-0.0040241396835350215,0.0,0.0,0.0,0
22-8-2017 6:00,0.0,-0.00817109784108966,0.0,0.0,0.0,0
22-8-2017 7:00,0.0,-0.007429839991203094,0.0,0.0,0.0,0
22-8-2017 8:00,0.0,-0.008881016571184907,0.0,0.0,0.0,0
22-8-2017 9:00,0.0,-0.012128876819729474,0.0,0.0,0.0,0
22-8-2017 10:00,0.02,-0.00874680418038078,0.0,0.0,0.0,0
22-8-2017 11:00,0.0,-0.014155994700247459,0.0,0.0,0.0,0
22-8-2017 12:00,0.0,-0.015674982535187107,0.0,0.0,0.0,0
22-8-2017 13:00,0.0,-0.011860339573069808,0.0,0.0,0.0,0
22-8-2017 14:00,0.0,-0.012474631955696414,0.0,0.0,0.0,0
22-8-2017 15:00,0.13,0.11480330150295279,0.0,0.0,0.0,0
22-8-2017 16:00,0.03,0.0036034838510943384,0.0,0.0,0.0,0
22-8-2017 17:00,0.0,-0.012466685308749989,0.0,0.0,0.0,0
22-8-2017 18:00,0.1,0.0868491179692686,0.0,0.0,0.0,0
22-8-2017 19:00,0.0,-0.012764019165278247,0.0,0.0,0.0,0
22-8-2017 20:00,0.0,-0.01465460285960744,0.0,0.0,0.0,0
22-8-2017 21:00,0.0,-0.01482723736635159,0.0,0.0,0.0,0
22-8-2017 22:00,0.02,-0.007681890642708879,0.0,0.0,0.0,0
22-8-2017 23:00,0.0,-0.012157915056656313,0.0,0.0,0.0,0
23-8-2017 0:00,0.02,0.008207866153657834,0.0,0.0,0.0,0
23-8-2017 1:00,0.0,-0.011801259695092943,0.0,0.0,0.0,0
23-8-2017 2:00,0.0,-0.012106355162264163,0.0,0.0,0.0,0
23-8-2017 3:00,0.0,-0.011945141740408376,0.0,0.0,0.0,0
23-8-2017 4:00,0.03,-0.00536784995530392,0.0,0.0,0.0,0
23-8-2017 5:00,0.0,-0.012466508063751651,0.0,0.0,0.0,0
23-8-2017 6:00,0.0,-0.015875430485895438,0.0,0.0,0.0,0
23-8-2017 7:00,0.0,-0.015090078639533685,0.0,0.0,0.0,0
23-8-2017 8:00,0.0,-0.016184539668507962,0.0,0.0,0.0,0
23-8-2017 9:00,0.0,-0.021056780745009405,0.0,0.0,0.0,0
23-8-2017 10:00,0.02,-0.019885241479492596,0.0,0.0,0.0,0
23-8-2017 11:00,0.05,0.02363445631426304,0.0,0.0,0.0,0
23-8-2017 12:00,0.13,0.0998947230480908,0.0,0.0,0.0,0
23-8-2017 13:00,0.0,-0.029108770649484174,0.0,0.0,0.0,0
23-8-2017 14:00,0.0,-0.03266074818811422,0.0,0.0,0.0,0
23-8-2017 15:00,0.0,-0.03861458327686501,0.0,0.0,0.0,0
23-8-2017 16:00,0.02,-0.032951323460019076,0.0,0.0,0.0,0
23-8-2017 17:00,0.0,-0.04167538423189746,0.0,0.0,0.0,0
23-8-2017 18:00,0.0,-0.04536629682336204,0.0,0.0,0.0,0
23-8-2017 19:00,0.08,0.03213303726276591,0.0,0.0,0.0,0
23-8-2017 20:00,0.1,0.046985025934421776,0.0,0.0,0.0,0
23-8-2017 21:00,0.1,0.04485589986475717,0.0,0.0,0.0,0
23-8-2017 22:00,0.1,0.02934563650355953,0.0,0.0,0.0,0
23-8-2017 23:00,0.08,0.022937302316475616,0.0,0.0,0.0,0
24-8-2017 0:00,0.05,-0.008949034083193648,0.0,0.0,0.0,0
24-8-2017 1:00,0.08,0.020490058315465673,0.0,0.0,0.0,0
24-8-2017 2:00,0.08,0.0196040976519664,0.0,0.0,0.0,0
24-8-2017 3:00,0.08,0.019225875571641807,0.0,0.0,0.0,0
24-8-2017 4:00,0.08,-0.00504923033223989,0.0,0.0,0.0,0
24-8-2017 5:00,0.05,-0.009277320407170567,0.0,0.0,0.0,0
24-8-2017 6:00,0.05,-0.009712515478202198,0.0,0.0,0.0,0
24-8-2017 7:00,0.1,0.04335265197788247,0.0,0.0,0.0,0
24-8-2017 8:00,0.1,0.04485062811316344,0.0,0.0,0.0,0
24-8-2017 9:00,0.08,0.02623370417974208,0.0,0.0,0.0,0
24-8-2017 10:00,0.12,0.053074422484998794,0.0,0.0,0.0,0
24-8-2017 11:00,0.1,0.05340272100594855,0.0,0.0,0.0,0
24-8-2017 12:00,0.07,0.025321954722115528,0.0,0.0,0.0,0
24-8-2017 13:00,0.0,-0.036850666475470216,0.0,0.0,0.0,0
24-8-2017 14:00,0.0,-0.033691320010422174,0.0,0.0,0.0,0
24-8-2017 15:00,0.0,-0.03322791448689144,0.0,0.0,0.0,0
24-8-2017 16:00,0.0,-0.04105257910670075,0.0,0.0,0.0,0
24-8-2017 17:00,0.0,-0.02297341350710929,0.0,0.0,0.0,0
24-8-2017 18:00,0.0,-0.020213923984553118,0.0,0.0,0.0,0
24-8-2017 19:00,0.0,-0.016145026320884433,0.0,0.0,0.0,0
24-8-2017 20:00,0.0,-0.015093372926377536,0.0,0.0,0.0,0
24-8-2017 21:00,0.0,-0.01206971294664749,0.0,0.0,0.0,0
24-8-2017 22:00,0.02,-0.0031263310111461183,0.0,0.0,0.0,0
24-8-2017 23:00,0.0,-0.004357719589827113,0.0,0.0,0.0,0
25-8-2017 0:00,0.0,-0.0013869182179404096,0.0,0.0,0.0,0
25-8-2017 1:00,0.0,-8.136246102514481E-4,0.0,0.0,0.0,0
25-8-2017 2:00,0.0,-5.944675084592144E-4,0.0,0.0,0.0,0
25-8-2017 3:00,0.0,1.7385787065533898E-4,0.0,0.0,0.0,0
25-8-2017 4:00,0.03,0.006732328425941943,0.0,0.0,0.0,0
25-8-2017 5:00,0.0,7.493917994872315E-4,0.0,0.0,0.0,0
25-8-2017 6:00,0.0,-0.0013374905054733743,0.0,0.0,0.0,0
25-8-2017 7:00,0.0,-6.179267357268345E-4,0.0,0.0,0.0,0
25-8-2017 8:00,0.0,-0.001152932732251632,0.0,0.0,0.0,0
25-8-2017 9:00,0.0,-0.0030406174619306034,0.0,0.0,0.0,0
25-8-2017 10:00,0.02,-5.6798733855140116E-5,0.0,0.0,0.0,0
25-8-2017 11:00,0.0,-0.002445978102632462,0.0,0.0,0.0,0
25-8-2017 12:00,0.0,-0.00439385602104744,0.0,0.0,0.0,0
25-8-2017 13:00,0.0,8.163628451466178E-5,0.0,0.0,0.0,0
25-8-2017 14:00,0.0,-2.3045224360060792E-4,0.0,0.0,0.0,0
25-8-2017 15:00,0.0,-0.0035325651046297325,0.0,0.0,0.0,0
25-8-2017 16:00,0.02,0.004972086842064317,0.0,0.0,0.0,0
25-8-2017 17:00,0.0,3.602717978704517E-5,0.0,0.0,0.0,0
25-8-2017 18:00,0.0,-5.725328169746166E-4,0.0,0.0,0.0,0
25-8-2017 19:00,0.0,2.474767908962256E-4,0.0,0.0,0.0,0
25-8-2017 20:00,0.0,-0.0023196567250844255,0.0,0.0,0.0,0
25-8-2017 21:00,0.0,-0.0015487502818248592,0.0,0.0,0.0,0
25-8-2017 22:00,0.02,0.004442737364510409,0.0,0.0,0.0,0
25-8-2017 23:00,0.0,9.827548083671976E-4,0.0,0.0,0.0,0
26-8-2017 0:00,0.0,0.0014051543659447407,0.0,0.0,0.0,0
26-8-2017 1:00,0.0,0.0012233707884671337,0.0,0.0,0.0,0
26-8-2017 2:00,0.0,6.583672613546527E-4,0.0,0.0,0.0,0
26-8-2017 3:00,0.0,6.839617057121552E-4,0.0,0.0,0.0,0
26-8-2017 4:00,0.03,0.006186730325970854,0.0,0.0,0.0,0
26-8-2017 5:00,0.0,4.734407659296013E-4,0.0,0.0,0.0,0
26-8-2017 6:00,0.0,-0.0012406351550224679,0.0,0.0,0.0,0
26-8-2017 7:00,0.0,-8.421814536765421E-4,0.0,0.0,0.0,0
26-8-2017 8:00,0.0,-0.0013856759640696065,0.0,0.0,0.0,0
26-8-2017 9:00,0.0,-0.0030545809570659667,0.0,0.0,0.0,0
26-8-2017 10:00,0.02,-4.381212732315421E-4,0.0,0.0,0.0,0
26-8-2017 11:00,0.0,-0.0020552379987957003,0.0,0.0,0.0,0
26-8-2017 12:00,0.0,-0.004380687018852413,0.0,0.0,0.0,0
26-8-2017 13:00,0.0,2.328541345491728E-4,0.0,0.0,0.0,0
26-8-2017 14:00,0.0,-6.0734042037769755E-5,0.0,0.0,0.0,0
26-8-2017 15:00,0.0,-0.003638429942935119,0.0,0.0,0.0,0
26-8-2017 16:00,0.02,0.00468547391495393,0.0,0.0,0.0,0
26-8-2017 17:00,0.0,1.1587620404945789E-4,0.0,0.0,0.0,0
26-8-2017 18:00,0.0,-4.790460987885029E-4,0.0,0.0,0.0,0
26-8-2017 19:00,0.0,4.7376266652603746E-4,0.0,0.0,0.0,0
26-8-2017 20:00,0.0,-0.0023304705467006312,0.0,0.0,0.0,0
26-8-2017 21:00,0.0,-0.001303715130643558,0.0,0.0,0.0,0
26-8-2017 22:00,0.02,0.004244480735793588,0.0,0.0,0.0,0
26-8-2017 23:00,0.0,0.0010645067114561455,0.0,0.0,0.0,0
27-8-2017 0:00,0.0,0.001447106963992514,0.0,0.0,0.0,0
27-8-2017 1:00,0.0,0.0012545719462378514,0.0,0.0,0.0,0
27-8-2017 2:00,0.0,6.497335351101688E-4,0.0,0.0,0.0,0
27-8-2017 3:00,0.0,6.769227896001309E-4,0.0,0.0,0.0,0
27-8-2017 4:00,0.03,0.005868315219720435,0.0,0.0,0.0,0
27-8-2017 5:00,0.0,3.742084646158571E-4,0.0,0.0,0.0,0
27-8-2017 6:00,0.0,-0.0010175253338044602,0.0,0.0,0.0,0
27-8-2017 7:00,0.0,-9.906459623359337E-4,0.0,0.0,0.0,0
27-8-2017 8:00,0.0,-0.0015930932480740499,0.0,0.0,0.0,0
27-8-2017 9:00,0.0,-0.0030495499913411822,0.0,0.0,0.0,0
27-8-2017 10:00,0.02,-8.067808387011762E-4,0.0,0.0,0.0,0
27-8-2017 11:00,0.0,-0.0016581664080055568,0.0,0.0,0.0,0
27-8-2017 12:00,0.0,-0.004367518016657388,0.0,0.0,0.0,0
27-8-2017 13:00,0.0,3.8407198458368817E-4,0.0,0.0,0.0,0
27-8-2017 14:00,0.0,1.0898415952508012E-4,0.0,0.0,0.0,0
27-8-2017 15:00,0.0,-0.0037442947812404877,0.0,0.0,0.0,0
27-8-2017 16:00,0.02,0.004398860987843565,0.0,0.0,0.0,0
27-8-2017 17:00,0.0,1.9572522832202264E-4,0.0,0.0,0.0,0
27-8-2017 18:00,0.0,-3.855593805821098E-4,0.0,0.0,0.0,0
27-8-2017 19:00,0.0,7.00048542186256E-4,0.0,0.0,0.0,0
27-8-2017 20:00,0.0,-0.002341284368276302,0.0,0.0,0.0,0
27-8-2017 21:00,0.0,-0.0010586799750821837,0.0,0.0,0.0,0
27-8-2017 22:00,0.02,0.004046224115796382,0.0,0.0,0.0,0
27-8-2017 23:00,0.0,0.0011462586276042462,0.0,0.0,0.0,0
28-8-2017 0:00,0.0,0.0014890595794389782,0.0,0.0,0.0,0
28-8-2017 1:00,0.0,0.0012857733207899125,0.0,0.0,0.0,0
28-8-2017 2:00,0.0,6.411002250296853E-4,0.0,0.0,0.0,0
28-8-2017 3:00,0.0,6.698844890347584E-4,0.0,0.0,0.0,0
28-8-2017 4:00,0.03,0.005549900928399325,0.0,0.0,0.0,0
28-8-2017 5:00,0.0,2.7497990990926584E-4,0.0,0.0,0.0,0
28-8-2017 6:00,0.0,-7.944088343014516E-4,0.0,0.0,0.0,0
28-8-2017 7:00,0.0,-0.0011391008610324772,0.0,0.0,0.0,0
28-8-2017 8:00,0.0,-0.001800497990437799,0.0,0.0,0.0,0
28-8-2017 9:00,0.0,-0.003044488858834302,0.0,0.0,0.0,0
28-8-2017 10:00,0.02,-0.0011753926122473092,0.0,0.0,0.0,0
28-8-2017 11:00,0.0,-0.0012610294001505155,0.0,0.0,0.0,0
28-8-2017 12:00,0.0,-0.004354265972256063,0.0,0.0,0.0,0
28-8-2017 13:00,0.0,5.354300453460545E-4,0.0,0.0,0.0,0
28-8-2017 14:00,0.0,2.788997403373331E-4,0.0,0.0,0.0,0
28-8-2017 15:00,0.0,-0.0038499050717749005,0.0,0.0,0.0,0
28-8-2017 16:00,0.02,0.004112554789644984,0.0,0.0,0.0,0
28-8-2017 17:00,0.0,2.759998707056346E-4,0.0,0.0,0.0,0
28-8-2017 18:00,0.0,-2.915281550654042E-4,0.0,0.0,0.0,0
28-8-2017 19:00,0.0,9.269495313452411E-4,0.0,0.0,0.0,0
28-8-2017 20:00,0.0,-0.0023514124701647524,0.0,0.0,0.0,0
28-8-2017 21:00,0.0,-8.128097015159949E-4,0.0,0.0,0.0,0
28-8-2017 22:00,0.02,0.0038488126064411404,0.0,0.0,0.0,0
28-8-2017 23:00,0.0,0.0012288656470314627,0.0,0.0,0.0,0
29-8-2017 0:00,0.0,0.0015318772908017105,0.0,0.0,0.0,0
29-8-2017 1:00,0.0,0.0013177492277877886,0.0,0.0,0.0,0
29-8-2017 2:00,0.0,6.331508839245593E-4,0.0,0.0,0.0,0
29-8-2017 3:00,0.0,6.634395939742925E-4,0.0,0.0,0.0,0
29-8-2017 4:00,0.03,0.005231898045116742,0.0,0.0,0.0,0
29-8-2017 5:00,0.0,1.7599239173848175E-4,0.0,0.0,0.0,0
29-8-2017 6:00,0.0,-5.712216697653584E-4,0.0,0.0,0.0,0
29-8-2017 7:00,0.0,-0.0012876733954315413,0.0,0.0,0.0,0
29-8-2017 8:00,0.0,-0.0020082086692396733,0.0,0.0,0.0,0
29-8-2017 9:00,0.0,-0.003040439406522583,0.0,0.0,0.0,0
29-8-2017 10:00,0.02,-0.0015456696565703662,0.0,0.0,0.0,0
29-8-2017 11:00,0.0,-8.662112536541484E-4,0.0,0.0,0.0,0
29-8-2017 12:00,0.0,-0.0043439863797951695,0.0,0.0,0.0,0
29-8-2017 13:00,0.0,6.809346930053673E-4,0.0,0.0,0.0,0
29-8-2017 14:00,0.0,4.4008094688390877E-4,0.0,0.0,0.0,0
29-8-2017 15:00,0.0,-0.003967130697737614,0.0,0.0,0.0,0
29-8-2017 16:00,0.02,0.0038119405709982203,0.0,0.0,0.0,0
29-8-2017 17:00,0.0,3.4047600384804746E-4,0.0,0.0,0.0,0
29-8-2017 18:00,0.0,-2.1478592758291445E-4,0.0,0.0,0.0,0
29-8-2017 19:00,0.0,0.0011352533339590671,0.0,0.0,0.0,0
29-8-2017 20:00,0.0,-0.0023814459471093044,0.0,0.0,0.0,0
29-8-2017 21:00,0.0,-5.852642866582686E-4,0.0,0.0,0.0,0
29-8-2017 22:00,0.02,0.0036349711934657272,0.0,0.0,0.0,0
29-8-2017 23:00,0.0,0.001296937717926801,0.0,0.0,0.0,0
30-8-2017 0:00,0.0,0.0015938300181313073,0.0,0.0,0.0,0
30-8-2017 1:00,0.0,0.0013343583501712673,0.0,0.0,0.0,0
30-8-2017 2:00,0.0,6.543753078121911E-4,0.0,0.0,0.0,0
30-8-2017 3:00,0.0,7.546293036931433E-4,0.0,0.0,0.0,0
30-8-2017 4:00,0.03,0.00555343110523264,0.0,0.0,0.0,0
30-8-2017 5:00,0.0,5.368691615162012E-5,0.0,0.0,0.0,0
30-8-2017 6:00,0.0,-6.417652374915684E-4,0.0,0.0,0.0,0
30-8-2017 7:00,0.0,-0.0014262491103547966,0.0,0.0,0.0,0
30-8-2017 8:00,0.0,-0.0022308325892358566,0.0,0.0,0.0,0
30-8-2017 9:00,0.0,-0.0031628414520174964,0.0,0.0,0.0,0
30-8-2017 10:00,0.02,-0.002169067928676164,0.0,0.0,0.0,0
30-8-2017 11:00,0.0,-6.502669073648864E-4,0.0,0.0,0.0,0
30-8-2017 12:00,0.0,-0.004121412307941986,0.0,0.0,0.0,0
30-8-2017 13:00,0.0,5.827887836425743E-4,0.0,0.0,0.0,0
30-8-2017 14:00,0.0,6.602760631763899E-4,0.0,0.0,0.0,0
30-8-2017 15:00,0.0,-0.0037159437557639846,0.0,0.0,0.0,0
30-8-2017 16:00,0.02,0.003572044115125777,0.0,0.0,0.0,0
30-8-2017 17:00,0.0,3.204307941948028E-4,0.0,0.0,0.0,0
30-8-2017 18:00,0.0,-2.1904348798231724E-4,0.0,0.0,0.0,0
30-8-2017 19:00,0.0,0.0011167805134322845,0.0,0.0,0.0,0
30-8-2017 20:00,0.0,-0.0025104337553732642,0.0,0.0,0.0,0
30-8-2017 21:00,0.0,-3.36548667239203E-4,0.0,0.0,0.0,0
30-8-2017 22:00,0.02,0.003810326502469396,0.0,0.0,0.0,0
30-8-2017 23:00,0.0,0.0012485174204110564,0.0,0.0,0.0,0
31-8-2017 0:00,0.0,0.0016631664408994148,0.0,0.0,0.0,0
31-8-2017 1:00,0.0,0.0013572249504393754,0.0,0.0,0.0,0
31-8-2017 2:00,0.0,6.807309920305719E-4,0.0,0.0,0.0,0
31-8-2017 3:00,0.0,8.498240561888616E-4,0.0,0.0,0.0,0
31-8-2017 4:00,0.03,0.005877757399007079,0.0,0.0,0.0,0
31-8-2017 5:00,0.0,-6.673361293502936E-5,0.0,0.0,0.0,0
31-8-2017 6:00,0.0,-7.113321458758937E-4,0.0,0.0,0.0,0
31-8-2017 7:00,0.0,-0.0015647422025498688,0.0,0.0,0.0,0
31-8-2017 8:00,0.0,-0.0024542679231175585,0.0,0.0,0.0,0
31-8-2017 9:00,0.0,-0.0032863752323594882,0.0,0.0,0.0,0
31-8-2017 10:00,0.02,-0.002793862856665789,0.0,0.0,0.0,0
31-8-2017 11:00,0.0,-4.359841379961995E-4,0.0,0.0,0.0,0
31-8-2017 12:00,0.0,-0.0039007647340461244,-0.0,0.03,-0.03,0
31-8-2017 13:00,0.0,4.8200235466377105E-4,-0.0,0.03,-0.03,0
31-8-2017 14:00,0.0,8.771166381941744E-4,0.0,0.03,-0.02,0
31-8-2017 15:00,0.0,-0.003468825376723738,0.0,0.03,-0.03,0
31-8-2017 16:00,0.02,0.0033275433760425535,-0.0,0.03,-0.03,0
31-8-2017 17:00,0.0,2.1553437097078434E-4,0.0,0.03,-0.03,0
31-8-2017 18:00,0.0,-3.88399192312486E-4,0.0,0.03,-0.03,0
31-8-2017 19:00,0.0,8.530483528751938E-4,-0.0,0.03,-0.03,0
31-8-2017 20:00,0.0,-0.002964842099767074,-0.0,0.03,-0.03,0
31-8-2017 21:00,0.0,-0.0010350896480228544,-0.0,0.03,-0.03,0
31-8-2017 22:00,0.02,0.002416624774577252,0.0,0.03,-0.03,0
31-8-2017 23:00,0.0,-9.90760350693602E-4,-0.0,0.03,-0.03,0
1-9-2017 0:00,0.0,-0.001080155046614491,-0.0,0.03,-0.03,0
1-9-2017 1:00,0.0,-0.0028692948721117575,-0.0,0.03,-0.03,0
1-9-2017 2:00,0.0,-0.004979028259107516,-0.0,0.03,-0.03,0
1-9-2017 3:00,0.0,-0.006177824639209115,-0.0,0.03,-0.03,0
1-9-2017 4:00,0.03,-0.0023574911888651438,-0.0,0.03,-0.03,0
1-9-2017 5:00,0.0,-0.009891195350562928,0.0,0.03,-0.03,0
1-9-2017 6:00,0.0,-0.011629406589696054,0.0,0.03,-0.03,0
1-9-2017 7:00,0.0,-0.013696225246964124,0.0,0.03,-0.03,0
1-9-2017 8:00,0.0,-0.015815175626001786,-0.0,0.03,-0.03,0
1-9-2017 9:00,0.02,0.003052698568559456,-0.0,0.03,-0.03,0
1-9-2017 10:00,0.02,-0.01735597187650578,0.0,0.03,-0.02,0
1-9-2017 11:00,0.0,-0.014558937133589182,-0.0,0.03,-0.03,0
1-9-2017 12:00,0.07,0.051582725401776774,-0.0,0.03,-0.03,1
1-9-2017 13:00,0.02,0.00568201465413504,0.01,0.04,-0.02,0
1-9-2017 14:00,0.02,0.006432712108185076,0.0,0.03,-0.02,0
1-9-2017 15:00,0.17,0.1521550040638127,0.0,0.03,-0.02,1
1-9-2017 16:00,0.03,-0.0015022901350214626,0.02,0.05,-0.0,0
1-9-2017 17:00,0.0,-0.013856693128705057,-0.0,0.02,-0.03,0
1-9-2017 18:00,0.0,-0.01390708427756551,-0.0,0.02,-0.03,0
1-9-2017 19:00,0.0,-0.012142011493075783,-0.01,0.02,-0.03,0
1-9-2017 20:00,0.0,-0.0155325764340258,-0.01,0.02,-0.03,0
1-9-2017 21:00,0.0,-0.011428089783875679,-0.0,0.02,-0.03,0
1-9-2017 22:00,0.02,-0.006252669273588321,-0.0,0.02,-0.03,0
1-9-2017 23:00,0.0,-0.008086763607275943,-0.0,0.02,-0.03,0
2-9-2017 0:00,0.0,-0.006261335184810337,-0.0,0.02,-0.03,0
2-9-2017 1:00,0.0,-0.005256079340457176,-0.0,0.03,-0.03,0
2-9-2017 2:00,0.0,-0.004521458151152235,-0.0,0.03,-0.03,0
2-9-2017 3:00,0.0,-0.0028105499706260707,-0.0,0.03,-0.03,0
2-9-2017 4:00,0.03,0.004079777592131308,-0.0,0.03,-0.03,0
2-9-2017 5:00,0.0,-0.0021180346459109046,-0.0,0.03,-0.03,0
2-9-2017 6:00,0.0,-0.0020247535178250513,-0.0,0.03,-0.03,0
2-9-2017 7:00,0.0,-0.002379875702275961,-0.0,0.03,-0.03,0
2-9-2017 8:00,0.0,-0.0028031456663723513,-0.0,0.03,-0.03,0
2-9-2017 9:00,0.0,-0.003323406220619323,-0.0,0.03,-0.03,0
2-9-2017 10:00,0.02,-0.0037213757390548844,0.0,0.03,-0.03,0
2-9-2017 11:00,0.0,4.26698775497337E-4,0.0,0.03,-0.03,0
2-9-2017 12:00,0.0,-0.002913311810332234,0.0,0.03,-0.03,0
2-9-2017 13:00,0.0,9.072243444496007E-4,-0.0,0.03,-0.03,0
2-9-2017 14:00,0.0,0.002018229707794447,0.0,0.03,-0.03,0
2-9-2017 15:00,0.0,-0.0021865196272572757,0.0,0.03,-0.03,0
2-9-2017 16:00,0.02,0.003707247961083344,-0.0,0.02,-0.03,0
2-9-2017 17:00,0.0,0.0011400149803781996,0.0,0.03,-0.03,0
2-9-2017 18:00,0.0,6.727302475308399E-4,0.0,0.03,-0.03,0
2-9-2017 19:00,0.0,0.00199099227291289,0.0,0.03,-0.03,0
2-9-2017 20:00,0.0,-0.0019426831547546027,0.0,0.03,-0.03,0
2-9-2017 21:00,0.0,0.001364446561826235,0.0,0.03,-0.03,0
2-9-2017 22:00,0.0,-0.014708517972174342,0.0,0.03,-0.03,0
2-9-2017 23:00,0.0,0.0020585873537460825,-0.0,0.03,-0.03,0
3-9-2017 0:00,0.0,0.0028267477626230018,0.0,0.03,-0.03,0
3-9-2017 1:00,0.0,0.0023568403757347214,0.0,0.03,-0.03,0
3-9-2017 2:00,0.0,0.0016662572402484925,0.0,0.03,-0.03,0
3-9-2017 3:00,0.0,0.0020173110803105537,0.0,0.03,-0.03,0
3-9-2017 4:00,0.03,0.007708073854389472,0.0,0.03,-0.03,0
3-9-2017 5:00,0.0,3.515830871876442E-4,0.0,0.03,-0.03,0
3-9-2017 6:00,0.0,-2.1821387032270462E-4,0.0,0.03,-0.03,0
3-9-2017 7:00,0.0,-0.0013562100347716433,0.0,0.03,-0.03,0
3-9-2017 8:00,0.0,-0.0025783700367419445,-0.0,0.03,-0.03,0
3-9-2017 9:00,0.0,-0.0032116742390261035,-0.0,0.03,-0.03,0
3-9-2017 10:00,0.02,-0.00432385173006096,-0.0,0.03,-0.03,0
3-9-2017 11:00,0.0,4.503536568979073E-4,-0.0,0.03,-0.03,0
3-9-2017 12:00,0.0,-0.003096238949356153,-0.0,0.03,-0.03,0
3-9-2017 13:00,0.0,2.903398561310152E-4,-0.0,0.03,-0.03,0
3-9-2017 14:00,0.0,0.001606448877052447,0.0,0.03,-0.03,0
3-9-2017 15:00,0.0,-0.0026805460003968165,0.0,0.03,-0.03,0
3-9-2017 16:00,0.02,0.0026090791234003314,-0.0,0.02,-0.03,0
3-9-2017 17:00,0.0,2.3702538626561636E-4,0.0,0.03,-0.03,0
3-9-2017 18:00,0.0,-2.391436999766715E-4,0.0,0.03,-0.03,0
3-9-2017 19:00,0.0,0.0010403167968896813,0.0,0.03,-0.03,0
3-9-2017 20:00,0.0,-0.0030284598869033067,0.0,0.03,-0.03,0
3-9-2017 21:00,0.0,6.564180235544602E-4,0.0,0.03,-0.03,0
3-9-2017 22:00,0.02,0.004510173572712163,0.0,0.03,-0.03,0
3-9-2017 23:00,0.0,0.0010535836856868444,0.0,0.03,-0.03,0
4-9-2017 0:00,0.0,0.0019395812084212882,0.0,0.03,-0.03,0
4-9-2017 1:00,0.0,0.001394511944340959,0.0,0.03,-0.03,0
4-9-2017 2:00,0.0,6.787258381129539E-4,-0.0,0.03,-0.03,0
4-9-2017 3:00,0.0,0.0010699266917603032,-0.0,0.03,-0.03,0
4-9-2017 4:00,0.03,0.0069611260312101506,-0.0,0.03,-0.03,0
4-9-2017 5:00,0.0,-9.136099940837404E-4,-0.0,0.03,-0.03,0
4-9-2017 6:00,0.0,-0.0015060517661227455,0.0,0.03,-0.03,0
4-9-2017 7:00,0.0,-0.002786488639502165,0.0,0.03,-0.03,0
4-9-2017 8:00,0.0,-0.004167105408278829,-0.0,0.03,-0.03,0
4-9-2017 9:00,0.0,-0.0047163406561054845,-0.0,0.03,-0.03,0
4-9-2017 10:00,0.02,-0.0063456135172449465,-0.0,0.03,-0.03,0
4-9-2017 11:00,0.0,-7.481646553847395E-4,-0.0,0.03,-0.03,0
4-9-2017 12:00,0.0,-0.004304226679568599,-0.0,0.03,-0.03,0
4-9-2017 13:00,0.0,-0.0012395443182209218,-0.0,0.03,-0.03,0
4-9-2017 14:00,0.0,3.937292654322688E-4,0.0,0.03,-0.03,0
4-9-2017 15:00,0.0,-0.0038634502492593597,0.0,0.03,-0.03,0
4-9-2017 16:00,0.02,9.340921528718498E-4,-0.0,0.02,-0.03,0
4-9-2017 17:00,0.0,-0.001182362605263821,0.0,0.03,-0.03,0
4-9-2017 18:00,0.03,0.02839300369052758,0.0,0.03,-0.03,0
4-9-2017 19:00,0.0,-3.059374533185416E-4,0.01,0.03,-0.02,0
4-9-2017 20:00,0.0,-0.004449415505433802,-0.0,0.03,-0.03,0
4-9-2017 21:00,0.0,-2.487102390905946E-4,-0.0,0.03,-0.03,0
4-9-2017 22:00,0.02,0.0036697726305571342,0.0,0.03,-0.03,0
4-9-2017 23:00,0.0,1.2749476791782018E-4,0.0,0.03,-0.03,0
5-9-2017 0:00,0.0,0.0012693366418415368,-0.0,0.03,-0.03,0
5-9-2017 1:00,0.0,9.258649723547585E-4,-0.0,0.03,-0.03,0
5-9-2017 2:00,0.0,4.6163536717057797E-4,-0.0,0.03,-0.03,0
5-9-2017 3:00,0.0,0.001169742706188818,-0.0,0.03,-0.03,0
5-9-2017 4:00,0.03,0.007538038318951854,-0.0,0.03,-0.03,0
5-9-2017 5:00,0.0,-4.5407248584185093E-4,-0.0,0.03,-0.03,0
5-9-2017 6:00,0.0,-6.682885938172575E-4,-0.0,0.03,-0.03,0
5-9-2017 7:00,0.0,-0.0016903713076594684,-0.0,0.03,-0.03,0
5-9-2017 8:00,0.0,-0.0028286499747748085,-0.0,0.03,-0.03,0
5-9-2017 9:00,0.0,-0.0031049147374238115,-0.0,0.03,-0.03,0
5-9-2017 10:00,0.0,-0.025062420294023127,-0.0,0.03,-0.03,0
5-9-2017 11:00,0.0,0.0015471347173831762,-0.0,0.02,-0.03,0
5-9-2017 12:00,0.0,-0.0018295340500857266,0.0,0.03,-0.03,0
5-9-2017 13:00,0.0,9.640697906980883E-4,-0.0,0.03,-0.03,0
5-9-2017 14:00,0.0,0.0029653258606586698,0.0,0.03,-0.03,0
5-9-2017 15:00,0.0,-0.0012112203676996956,0.0,0.03,-0.03,0
5-9-2017 16:00,0.02,0.0031451831020283053,-0.0,0.02,-0.03,0
5-9-2017 17:00,0.0,0.001165024077365552,0.0,0.03,-0.03,0
5-9-2017 18:00,0.0,6.726225096645153E-4,0.0,0.03,-0.03,0
5-9-2017 19:00,0.0,0.0018761368118619362,0.0,0.03,-0.03,0
5-9-2017 20:00,0.0,-0.002461185521819578,0.0,0.03,-0.03,0
5-9-2017 21:00,0.0,0.001852856376730739,0.0,0.03,-0.03,0
5-9-2017 22:00,0.02,0.005433827482190201,0.0,0.03,-0.03,0
5-9-2017 23:00,0.0,0.0014036225592586032,0.0,0.03,-0.03,0
6-9-2017 0:00,0.0,0.0024103199451458316,0.0,0.03,-0.03,0
6-9-2017 1:00,0.0,0.0017220620609039688,0.0,0.03,-0.03,0
6-9-2017 2:00,0.0,0.0010178013228651526,0.0,0.03,-0.03,0
6-9-2017 3:00,0.0,0.0016670261850398505,0.0,0.03,-0.03,0
6-9-2017 4:00,0.02,-0.0019138205725582336,0.0,0.03,-0.03,0
6-9-2017 5:00,0.0,-7.875229560933773E-4,-0.0,0.03,-0.03,0
6-9-2017 6:00,0.0,-0.0010901205705354231,0.0,0.03,-0.03,0
6-9-2017 7:00,0.0,-0.0023512800766087695,0.0,0.03,-0.03,0
6-9-2017 8:00,0.0,-0.003792618260889587,-0.0,0.03,-0.03,0
6-9-2017 9:00,0.0,-0.0041752555626601105,-0.0,0.03,-0.03,0
6-9-2017 10:00,0.03,0.0032954901225078076,0.0,0.03,-0.03,0
6-9-2017 11:00,0.0,6.896723253185903E-4,0.0,0.03,-0.03,0
6-9-2017 12:00,0.0,-0.0025431027144214935,-0.0,0.03,-0.03,0
6-9-2017 13:00,0.0,-4.681583387866105E-4,-0.0,0.03,-0.03,0
6-9-2017 14:00,0.0,0.0020385800758126547,0.0,0.03,-0.03,0
6-9-2017 15:00,0.0,-0.001980784375608085,0.0,0.03,-0.03,0
6-9-2017 16:00,0.02,0.0015937699777297887,-0.0,0.02,-0.03,0
6-9-2017 17:00,0.0,-2.0268327439449188E-5,0.0,0.03,-0.03,0
6-9-2017 18:00,0.0,-6.46630700802538E-4,0.0,0.03,-0.03,0
6-9-2017 19:00,0.0,4.8242574703978233E-4,-0.0,0.03,-0.03,0
6-9-2017 20:00,0.0,-0.003860764614138333,0.0,0.03,-0.03,0
6-9-2017 21:00,0.0,0.001235262961242961,0.0,0.03,-0.03,0
6-9-2017 22:00,0.02,0.005080822416390549,0.0,0.03,-0.03,0
6-9-2017 23:00,0.0,6.103253330062789E-4,0.0,0.03,-0.03,0
7-9-2017 0:00,0.0,0.0020883718783487586,0.0,0.03,-0.03,0
7-9-2017 1:00,0.0,0.0014079093638067553,0.0,0.03,-0.03,0
7-9-2017 2:00,0.0,8.161990773682443E-4,0.0,0.03,-0.03,0
7-9-2017 3:00,0.0,0.0017591230471543451,-0.0,0.03,-0.03,0
7-9-2017 4:00,0.03,0.008581514654044956,-0.0,0.03,-0.03,0
7-9-2017 5:00,0.0,-9.66817041440539E-4,0.0,0.03,-0.03,0
7-9-2017 6:00,0.0,-0.0011508338955581354,-0.0,0.03,-0.03,0
7-9-2017 7:00,0.0,-0.002444206342379151,0.0,0.03,-0.03,0
7-9-2017 8:00,0.0,-0.003981740192341979,-0.0,0.03,-0.03,0
7-9-2017 9:00,0.0,-0.00436529268210914,-0.0,0.03,-0.03,0
7-9-2017 10:00,0.02,-0.007360883814441135,-0.0,0.03,-0.03,0
7-9-2017 11:00,0.0,9.233375205069784E-4,-0.0,0.03,-0.03,0
7-9-2017 12:00,0.0,-0.0020601318507714357,-0.0,0.03,-0.03,0
7-9-2017 13:00,0.0,-6.162913650375685E-4,-0.0,0.03,-0.03,0
7-9-2017 14:00,0.0,0.0024834849694482983,0.0,0.03,-0.03,0
7-9-2017 15:00,0.0,-0.001291142129786903,0.0,0.03,-0.03,0
7-9-2017 16:00,0.02,0.0015892422235405743,-0.0,0.02,-0.03,0
7-9-2017 17:00,0.0,2.943751848234061E-4,0.0,0.03,-0.03,0
7-9-2017 18:00,0.0,-5.128974472431822E-4,0.0,0.03,-0.03,0
7-9-2017 19:00,0.0,4.948723302339508E-4,-0.0,0.03,-0.03,0
7-9-2017 20:00,0.0,-0.0039010148744508554,0.0,0.03,-0.03,0
7-9-2017 21:00,0.0,0.0017560472146074708,0.0,0.03,-0.03,0
7-9-2017 22:00,0.02,0.005645351645935753,0.0,0.03,-0.03,0
7-9-2017 23:00,0.0,5.137190285913768E-4,0.0,0.03,-0.03,0
8-9-2017 0:00,0.0,0.0022422713598816736,0.0,0.03,-0.03,0
8-9-2017 1:00,0.0,0.0014633931123340365,0.0,0.03,-0.03,0
8-9-2017 2:00,0.0,8.780221747903411E-4,0.0,0.03,-0.03,0
8-9-2017 3:00,0.0,0.002008434149482352,0.0,0.03,-0.03,0
8-9-2017 4:00,0.03,0.009127903561037053,-0.0,0.03,-0.03,0
8-9-2017 5:00,0.0,-0.0011176037660590526,0.0,0.03,-0.03,0
8-9-2017 6:00,0.0,-0.0012055861795124642,-0.0,0.03,-0.03,0
8-9-2017 7:00,0.0,-0.0025537064841498827,0.0,0.03,-0.03,0
8-9-2017 8:00,0.0,-0.004209970916863458,-0.0,0.03,-0.03,0
8-9-2017 9:00,0.0,-0.004784868406304756,-0.0,0.03,-0.03,0
8-9-2017 10:00,0.02,-0.008437222890655845,0.0,0.03,-0.03,0
8-9-2017 11:00,0.0,5.466110419104185E-4,-0.0,0.03,-0.03,0
8-9-2017 12:00,0.0,-0.0023779791954255053,-0.0,0.03,-0.03,0
8-9-2017 13:00,0.0,-0.002153779555476199,-0.0,0.03,-0.03,0
8-9-2017 14:00,0.0,9.504977430127232E-4,0.0,0.03,-0.03,0
8-9-2017 15:00,0.0,-0.0031679289599204808,0.0,0.03,-0.03,0
8-9-2017 16:00,0.02,-0.001570251562486945,-0.0,0.02,-0.03,0
8-9-2017 17:00,0.0,-0.0031175536567341795,0.0,0.03,-0.03,0
8-9-2017 18:00,0.0,-0.004677342869486405,0.0,0.03,-0.03,0
8-9-2017 19:00,0.0,-0.004362466084356596,-0.0,0.03,-0.03,0
8-9-2017 20:00,0.0,-0.009382656454530229,0.0,0.03,-0.03,0
8-9-2017 21:00,0.0,-0.0034137129543624373,0.0,0.03,-0.03,0
8-9-2017 22:00,0.02,2.701833505789706E-4,0.0,0.03,-0.03,0
8-9-2017 23:00,0.0,-0.005771737903293074,0.0,0.03,-0.03,0
9-9-2017 0:00,0.02,0.015958167111377475,0.0,0.03,-0.03,0
9-9-2017 1:00,0.0,-0.004967489250970651,0.0,0.03,-0.02,0
9-9-2017 2:00,0.03,0.02440511677858561,-0.0,0.03,-0.03,0
9-9-2017 3:00,0.03,0.025674654376388675,0.0,0.03,-0.02,0
9-9-2017 4:00,0.05,0.02304283921081262,0.0,0.03,-0.02,0
9-9-2017 5:00,0.03,0.02222263398172768,0.0,0.03,-0.02,0
9-9-2017 6:00,0.0,-0.007646836261439755,0.0,0.03,-0.02,0
9-9-2017 7:00,0.0,-0.008927226694271791,-0.0,0.02,-0.03,0
9-9-2017 8:00,0.0,-0.010579743980114324,-0.0,0.02,-0.03,0
9-9-2017 9:00,0.0,-0.010595532085797443,-0.0,0.02,-0.03,0
9-9-2017 10:00,0.03,-0.004154195538735313,-0.0,0.02,-0.03,0
9-9-2017 11:00,0.0,-0.0037202946251185826,-0.0,0.03,-0.03,0
9-9-2017 12:00,0.0,-0.005835551345079702,-0.0,0.02,-0.03,0
9-9-2017 13:00,0.0,-0.005060793634489945,-0.0,0.02,-0.03,0
9-9-2017 14:00,0.0,-1.8181645557295567E-4,-0.0,0.02,-0.03,0
9-9-2017 15:00,0.0,-0.0028738438457791547,-0.0,0.03,-0.03,0
9-9-2017 16:00,0.02,-7.886744878145471E-4,-0.0,0.02,-0.03,0
9-9-2017 17:00,0.0,-0.0010128266221167727,-0.0,0.03,-0.03,0
9-9-2017 18:00,0.0,-0.0017495474000795565,0.0,0.03,-0.03,0
9-9-2017 19:00,0.0,-5.519785918219966E-4,-0.0,0.03,-0.03,0
9-9-2017 20:00,0.0,-0.004620887112009378,0.0,0.03,-0.03,0
9-9-2017 21:00,0.0,0.002312485277486117,0.0,0.03,-0.03,0
9-9-2017 22:00,0.02,0.006443520934258887,0.0,0.03,-0.03,0
9-9-2017 23:00,0.0,1.438585220774084E-4,0.0,0.03,-0.03,0
10-9-2017 0:00,0.0,0.0025276636983464482,0.0,0.03,-0.03,0
10-9-2017 1:00,0.0,0.0015704041385004876,0.0,0.03,-0.03,0
10-9-2017 2:00,0.0,0.0010161620524593651,0.0,0.03,-0.03,0
10-9-2017 3:00,0.0,0.0025400001906761387,-0.0,0.03,-0.03,0
10-9-2017 4:00,0.02,2.72075365271969E-4,-0.0,0.03,-0.03,0
10-9-2017 5:00,0.0,-0.0013650523031399067,-0.0,0.02,-0.03,0
10-9-2017 6:00,0.0,-0.0012582349133594905,0.0,0.03,-0.03,0
10-9-2017 7:00,0.0,-0.002713120011724262,0.0,0.03,-0.02,0
10-9-2017 8:00,0.0,-0.004604114688033872,0.0,0.03,-0.03,0
10-9-2017 9:00,0.0,-0.005087223764526336,0.0,0.03,-0.03,0
10-9-2017 10:00,0.03,4.2137345938149124E-4,0.0,0.03,-0.03,0
10-9-2017 11:00,0.0,0.001278910999481166,0.0,0.03,-0.02,0
10-9-2017 12:00,0.0,-0.0010534425576726714,0.0,0.03,-0.03,0
10-9-2017 13:00,0.0,-0.001611944450372593,-0.0,0.03,-0.03,0
10-9-2017 14:00,0.0,0.0031579149350423356,0.0,0.03,-0.03,0
10-9-2017 15:00,0.0,8.469183633014708E-6,0.0,0.03,-0.03,0
10-9-2017 16:00,0.02,6.973128281985651E-4,-0.0,0.02,-0.03,0
10-9-2017 17:00,0.0,3.9243402227036274E-4,0.0,0.03,-0.03,0
10-9-2017 18:00,0.0,-9.250949524739639E-4,0.0,0.03,-0.03,0
10-9-2017 19:00,0.0,-2.487107526596365E-4,-0.0,0.03,-0.03,0
10-9-2017 20:00,0.0,-0.0047702140544317526,0.0,0.03,-0.03,0
10-9-2017 21:00,0.0,0.002733644038138446,0.0,0.03,-0.03,0
10-9-2017 22:00,0.02,0.006917875860489581,0.0,0.03,-0.03,0
10-9-2017 23:00,0.0,-3.347089625433189E-5,0.0,0.03,-0.03,0
11-9-2017 0:00,0.0,0.002610291255360199,-0.0,0.03,-0.03,0
11-9-2017 1:00,0.0,0.0015724339836999425,-0.0,0.03,-0.03,0
11-9-2017 2:00,0.0,0.0010423492677449709,-0.0,0.03,-0.03,0
11-9-2017 3:00,0.0,0.0027714934320589935,-0.0,0.03,-0.03,0
11-9-2017 4:00,0.02,8.184644325102547E-4,-0.0,0.03,-0.03,0
11-9-2017 5:00,0.0,-0.001509506980593509,-0.0,0.02,-0.03,0
11-9-2017 6:00,0.0,-0.001300323263230181,-0.0,0.03,-0.03,0
11-9-2017 7:00,0.0,-0.00280362433249263,0.0,0.03,-0.03,0
11-9-2017 8:00,0.0,-0.004807017704634261,0.0,0.03,-0.03,0
11-9-2017 9:00,0.0,-0.005316029190220838,0.0,0.03,-0.03,0
11-9-2017 10:00,0.03,-2.987527277520819E-4,0.0,0.03,-0.03,0
11-9-2017 11:00,0.0,0.0014238400005457674,0.0,0.03,-0.02,0
11-9-2017 12:00,0.0,-6.841918320855574E-4,0.0,0.03,-0.03,0
11-9-2017 13:00,0.0,-0.0019107145204272332,-0.0,0.03,-0.03,0
11-9-2017 14:00,0.0,0.003415265879133557,0.0,0.03,-0.03,0
11-9-2017 15:00,0.0,4.7364057416903697E-4,0.0,0.03,-0.03,0
11-9-2017 16:00,0.02,4.313961721886363E-4,-0.0,0.02,-0.03,0
11-9-2017 17:00,0.0,4.4453783293545764E-4,0.0,0.03,-0.03,0
11-9-2017 18:00,0.0,-0.0010550522002894156,0.0,0.03,-0.02,0
11-9-2017 19:00,0.0,-5.0111150284906E-4,-0.0,0.03,-0.03,0
11-9-2017 20:00,0.0,-0.005076468480136651,0.0,0.03,-0.03,0
11-9-2017 21:00,0.0,0.002949926868635137,0.0,0.03,-0.03,0
11-9-2017 22:00,0.02,0.007139395579736307,0.0,0.03,-0.03,0
11-9-2017 23:00,0.0,-5.115947983983628E-4,0.0,0.03,-0.03,0
12-9-2017 0:00,0.0,0.0023441650517333308,-0.0,0.03,-0.03,0
12-9-2017 1:00,0.0,0.001071656470192697,-0.0,0.02,-0.03,0
12-9-2017 2:00,0.0,4.116755262577971E-4,-0.0,0.03,-0.03,0
12-9-2017 3:00,0.0,0.002192072118602984,-0.0,0.02,-0.03,0
12-9-2017 4:00,0.02,3.998954085063554E-4,-0.0,0.02,-0.03,0
12-9-2017 5:00,0.0,-0.0027151294713088302,-0.0,0.02,-0.03,0
12-9-2017 6:00,0.0,-0.0024997891483821253,-0.0,0.03,-0.03,0
12-9-2017 7:00,0.0,-0.004147703568201102,0.0,0.03,-0.02,0
12-9-2017 8:00,0.0,-0.006359693015833602,0.0,0.03,-0.03,0
12-9-2017 9:00,0.0,-0.00691716916542581,0.0,0.03,-0.03,0
12-9-2017 10:00,0.03,-0.002413765565475413,0.0,0.03,-0.02,0
12-9-2017 11:00,0.0,1.5133024994132445E-4,0.0,0.03,-0.02,0
12-9-2017 12:00,0.0,-0.001754931959246773,0.0,0.03,-0.03,0
12-9-2017 13:00,0.03,0.02635512275089251,-0.0,0.02,-0.03,0
12-9-2017 14:00,0.0,0.0022418223587218804,0.0,0.03,-0.02,0
12-9-2017 15:00,0.0,-4.8738430567512106E-4,-0.0,0.02,-0.03,0
12-9-2017 16:00,0.02,-0.0012561104339972656,-0.0,0.02,-0.03,0
12-9-2017 17:00,0.0,-8.828656705702166E-4,-0.0,0.02,-0.03,0
12-9-2017 18:00,0.0,-0.002522434126270432,-0.0,0.03,-0.03,0
12-9-2017 19:00,0.0,-0.002048845726795616,-0.0,0.02,-0.03,0
12-9-2017 20:00,0.0,-0.006635965175190247,-0.0,0.03,-0.03,0
12-9-2017 21:00,0.0,0.002023046199541946,-0.0,0.03,-0.03,0
12-9-2017 22:00,0.02,0.0063278525311847595,-0.0,0.03,-0.03,0
12-9-2017 23:00,0.0,-0.0019126807365490647,-0.0,0.02,-0.03,0
13-9-2017 0:00,0.0,0.001275419142993446,-0.0,0.02,-0.03,0
13-9-2017 1:00,0.0,-8.046373571271928E-5,-0.0,0.02,-0.03,0
13-9-2017 2:00,0.0,-7.064565629805626E-4,-0.0,0.02,-0.03,0
13-9-2017 3:00,0.0,0.0013091643915448762,-0.0,0.02,-0.03,0
13-9-2017 4:00,0.02,-1.4694049722117648E-4,-0.0,0.02,-0.03,0
13-9-2017 5:00,0.0,-0.004064159042521851,-0.0,0.02,-0.03,0
13-9-2017 6:00,0.0,-0.0037947000067783095,-0.0,0.02,-0.03,0
13-9-2017 7:00,0.0,-0.005545622248505182,0.0,0.03,-0.02,0
13-9-2017 8:00,0.0,-0.007937167060781241,0.0,0.03,-0.02,0
13-9-2017 9:00,0.0,-0.008538172106528692,0.0,0.03,-0.02,0
13-9-2017 10:00,0.03,-0.0045149252175041175,0.0,0.03,-0.02,0
13-9-2017 11:00,0.0,-0.0010995870254891472,0.0,0.03,-0.02,0
13-9-2017 12:00,0.05,0.04722887113040115,0.0,0.03,-0.02,1
13-9-2017 13:00,0.0,-0.0053839117718563236,0.01,0.03,-0.02,0
13-9-2017 14:00,0.0,0.0010919340062258637,-0.0,0.02,-0.03,0
13-9-2017 15:00,0.0,-0.0013443813453176776,-0.0,0.02,-0.03,0
13-9-2017 16:00,0.03,0.007096026395690475,-0.0,0.02,-0.03,0
13-9-2017 17:00,0.0,-0.002156941241427425,0.0,0.03,-0.02,0
13-9-2017 18:00,0.0,-0.003926105596252623,-0.0,0.02,-0.03,0
13-9-2017 19:00,0.0,-0.003536088719087795,-0.0,0.02,-0.03,0
13-9-2017 20:00,0.0,-0.008153415934257408,-0.0,0.02,-0.03,0
13-9-2017 21:00,0.0,0.0014102946072080645,-0.0,0.02,-0.03,0
13-9-2017 22:00,0.02,0.006060276996874454,-0.0,0.02,-0.03,0
13-9-2017 23:00,0.0,-0.002608880982799692,-0.0,0.02,-0.03,0
14-9-2017 0:00,0.0,0.0011333966418340486,-0.0,0.02,-0.03,0
14-9-2017 1:00,0.0,-2.037468749001292E-6,-0.0,0.02,-0.03,0
14-9-2017 2:00,0.0,-2.902191140611429E-4,-0.0,0.02,-0.03,0
14-9-2017 3:00,0.0,0.0022644492679331904,-0.0,0.02,-0.03,0
14-9-2017 4:00,0.02,0.0014482407469627537,-0.0,0.02,-0.03,0
14-9-2017 5:00,0.0,-0.003042851964623722,-0.0,0.02,-0.03,0
14-9-2017 6:00,0.0,-0.002490954716863658,-0.0,0.02,-0.03,0
14-9-2017 7:00,0.0,-0.004116552659891261,0.0,0.03,-0.02,0
14-9-2017 8:00,0.0,-0.006459320716203712,0.0,0.03,-0.02,0
14-9-2017 9:00,0.0,-0.007034178242065991,0.0,0.03,-0.02,0
14-9-2017 10:00,0.05,0.016578598605880422,0.0,0.03,-0.02,0
14-9-2017 11:00,0.0,9.138658443412781E-4,0.0,0.03,-0.02,0
14-9-2017 12:00,0.0,-4.5326896484238974E-4,-0.0,0.02,-0.03,0
14-9-2017 13:00,0.0,-0.0037906313861144013,-0.0,0.02,-0.03,0
14-9-2017 14:00,0.0,0.003272618655602808,-0.0,0.02,-0.03,0
14-9-2017 15:00,0.0,0.001127452710294928,0.0,0.03,-0.02,0
14-9-2017 16:00,0.02,-0.0012247417414925589,-0.0,0.02,-0.03,0
14-9-2017 17:00,0.0,-1.7367113106991818E-4,-0.0,0.02,-0.03,0
14-9-2017 18:00,0.0,-0.0021421807369346076,0.0,0.03,-0.02,0
14-9-2017 19:00,0.0,-0.0019054882300545218,0.0,0.02,-0.02,0
14-9-2017 20:00,0.0,-0.006622776059973873,0.0,0.03,-0.02,0
14-9-2017 21:00,0.0,0.0034902343435497763,0.0,0.03,-0.02,0
14-9-2017 22:00,0.02,0.008129993788687005,0.0,0.03,-0.02,0
14-9-2017 23:00,0.0,-0.0013231879054802038,0.0,0.02,-0.02,0
15-9-2017 0:00,0.0,0.0026178684616920246,-0.0,0.02,-0.02,0
15-9-2017 1:00,0.0,0.00106369561651206,-0.0,0.02,-0.03,0
15-9-2017 2:00,0.0,4.7413765043559115E-4,-0.0,0.02,-0.02,0
15-9-2017 3:00,0.0,0.0029286659571787915,-0.0,0.02,-0.03,0
15-9-2017 4:00,0.02,0.002113170591527125,-0.0,0.02,-0.03,0
15-9-2017 5:00,0.0,-0.003874759217140682,-0.0,0.02,-0.03,0
15-9-2017 6:00,0.0,-0.003963386688159624,-0.0,0.02,-0.03,0
15-9-2017 7:00,0.0,-0.006386623402806884,0.0,0.03,-0.02,0
15-9-2017 8:00,0.0,-0.009603577773474654,0.0,0.03,-0.02,0
15-9-2017 9:00,0.0,-0.011246840568021834,0.0,0.03,-0.02,0
15-9-2017 10:00,0.03,-0.009139086599711166,0.0,0.03,-0.02,0
15-9-2017 11:00,0.0,-0.004978443153361993,0.0,0.03,-0.02,0
15-9-2017 12:00,0.0,-0.007135723766177193,0.0,0.03,-0.02,0
15-9-2017 13:00,0.0,-0.013084286965002155,-0.0,0.02,-0.03,0
15-9-2017 14:00,0.03,0.02267974608181167,-0.0,0.02,-0.03,1
15-9-2017 15:00,0.0,-0.011060891715798948,0.0,0.03,-0.02,0
15-9-2017 16:00,0.02,-0.016092309618920473,-0.0,0.02,-0.03,0
15-9-2017 17:00,0.0,-0.019019950670661815,-0.0,0.02,-0.03,0
15-9-2017 18:00,0.0,-0.025470555437270517,-0.0,0.02,-0.02,0
15-9-2017 19:00,0.0,-0.029669937210379697,-0.0,0.02,-0.03,0
15-9-2017 20:00,0.15,0.11123006443524669,-0.0,0.02,-0.02,1
15-9-2017 21:00,0.0,-0.03219145037117672,0.02,0.05,-0.01,0
15-9-2017 22:00,0.02,-0.0316457389425739,-0.0,0.02,-0.03,0
15-9-2017 23:00,0.02,-0.02596676942323941,-0.0,0.02,-0.03,0
16-9-2017 0:00,0.0,-0.045910759385533934,-0.0,0.03,-0.03,0
16-9-2017 1:00,0.03,-0.019004081255954416,-0.0,0.02,-0.03,0
16-9-2017 2:00,0.03,-0.021015425833438822,0.0,0.03,-0.03,0
16-9-2017 3:00,0.03,-0.019781447892590363,0.0,0.03,-0.03,0
16-9-2017 4:00,0.03,-0.04171664039356687,-0.0,0.03,-0.03,0
16-9-2017 5:00,0.12,0.06283722558045662,-0.0,0.02,-0.03,1
16-9-2017 6:00,0.18,0.12414670627043133,0.01,0.04,-0.02,1
16-9-2017 7:00,0.18,0.12296446366393705,0.02,0.05,-0.01,1
16-9-2017 8:00,0.23,0.17091195585868663,0.02,0.05,-0.01,1
16-9-2017 9:00,0.15,0.09210012340836726,0.03,0.05,-0.0,0
16-9-2017 10:00,0.08,-0.0033973098900450804,0.01,0.03,-0.02,0
16-9-2017 11:00,0.0,-0.04551145462289486,-0.02,0.01,-0.04,0
16-9-2017 12:00,0.0,-0.044559045426428856,-0.03,0.0,-0.05,0
16-9-2017 13:00,0.05,0.0040230923701471966,-0.03,0.0,-0.06,0
16-9-2017 14:00,0.0,-0.0343701898049884,-0.01,0.02,-0.04,0
16-9-2017 15:00,0.0,-0.03256439768194779,-0.02,0.0,-0.05,0
16-9-2017 16:00,0.02,-0.0331331372634494,-0.02,0.01,-0.05,0
16-9-2017 17:00,0.0,-0.026810676716144424,-0.02,0.01,-0.05,0
16-9-2017 18:00,0.0,-0.024514563382286837,-0.02,0.01,-0.04,0
16-9-2017 19:00,0.0,-0.019921206174174977,-0.01,0.02,-0.04,0
16-9-2017 20:00,0.0,-0.02017510179179255,-0.01,0.02,-0.04,0
16-9-2017 21:00,0.0,-0.005758164299002047,-0.01,0.02,-0.04,0
16-9-2017 22:00,0.0,-0.017933523377772646,-0.0,0.03,-0.03,0
16-9-2017 23:00,0.0,-0.005749425135775475,-0.01,0.02,-0.04,0
17-9-2017 0:00,0.0,0.0017945160816242303,0.0,0.03,-0.03,0
17-9-2017 1:00,0.0,7.332535552572452E-4,0.0,0.03,-0.03,0
17-9-2017 2:00,0.0,8.713307356589314E-4,0.0,0.03,-0.03,0
17-9-2017 3:00,0.0,0.004455966679906675,0.0,0.03,-0.03,0
17-9-2017 4:00,0.02,0.004972285412899356,0.01,0.03,-0.02,0
17-9-2017 5:00,0.0,-0.0018347015138093113,0.01,0.04,-0.02,0
17-9-2017 6:00,0.0,-0.0010297613462644647,0.0,0.03,-0.03,0
17-9-2017 7:00,0.0,-0.002873658528029236,0.0,0.03,-0.03,0
17-9-2017 8:00,0.0,-0.005664368451285843,0.0,0.03,-0.03,0
17-9-2017 9:00,0.0,-0.006407993134077214,0.0,0.03,-0.03,0
17-9-2017 10:00,0.03,-0.004273836275912423,0.01,0.03,-0.02,0
17-9-2017 11:00,0.0,0.002574008235338982,0.01,0.04,-0.02,0
17-9-2017 12:00,0.0,0.001872884664386322,0.01,0.04,-0.02,0
17-9-2017 13:00,0.0,-0.003725793698014329,0.01,0.04,-0.02,0
17-9-2017 14:00,0.0,0.0050120917505229534,0.0,0.03,-0.02,0
17-9-2017 15:00,0.0,0.0036527966398370625,0.01,0.03,-0.02,0
17-9-2017 16:00,0.02,-0.0011647817744223376,0.0,0.03,-0.03,0
17-9-2017 17:00,0.0,7.670694619602504E-4,0.0,0.03,-0.03,0
17-9-2017 18:00,0.0,-0.001830810013684586,0.0,0.03,-0.03,0
17-9-2017 19:00,0.0,-0.002085424734320401,0.0,0.03,-0.03,0
17-9-2017 20:00,0.0,-0.0071339285251506394,0.0,0.03,-0.03,0
17-9-2017 21:00,0.0,0.004948789939052275,-0.0,0.03,-0.03,0
17-9-2017 22:00,0.02,0.00987968902510675,0.0,0.03,-0.03,0
17-9-2017 23:00,0.0,-0.0016037553380349053,0.0,0.03,-0.03,0
18-9-2017 0:00,0.0,0.003255445731257527,-0.0,0.03,-0.03,0
18-9-2017 1:00,0.0,0.0015911829459956386,-0.0,0.03,-0.03,0
18-9-2017 2:00,0.0,0.001243622281335009,-0.0,0.03,-0.03,0
18-9-2017 3:00,0.0,0.00454385662603363,-0.0,0.03,-0.03,0
18-9-2017 4:00,0.02,0.004876626990047095,-0.0,0.03,-0.03,0
18-9-2017 5:00,0.0,-0.0027056532555336994,-0.0,0.03,-0.03,0
18-9-2017 6:00,0.0,-0.0018196940285586543,-0.0,0.02,-0.03,0
18-9-2017 7:00,0.0,-0.0037396862037338773,-0.0,0.02,-0.03,0
18-9-2017 8:00,0.0,-0.006683038663136597,-0.0,0.03,-0.03,0
18-9-2017 9:00,0.0,-0.0074500229593552495,-0.0,0.02,-0.03,0
18-9-2017 10:00,0.03,-0.00577584332556858,-0.0,0.03,-0.03,0
18-9-2017 11:00,0.0,0.001942423048828754,0.0,0.03,-0.03,0
18-9-2017 12:00,0.0,0.0014961993295021792,0.0,0.03,-0.03,0
18-9-2017 13:00,0.0,-0.004864619245343149,0.0,0.03,-0.03,0
18-9-2017 14:00,0.0,0.004423109773399023,0.0,0.03,-0.03,0
18-9-2017 15:00,0.0,0.0033174033755186657,0.0,0.03,-0.03,0
18-9-2017 16:00,0.02,-0.002330339470576949,0.0,0.03,-0.03,0
18-9-2017 17:00,0.0,-9.391690701700695E-5,0.0,0.03,-0.03,0
18-9-2017 18:00,0.0,-0.0028906085540645215,0.0,0.03,-0.03,0
18-9-2017 19:00,0.0,-0.0032980232966100267,0.0,0.03,-0.03,0
18-9-2017 20:00,0.0,-0.00844596335381495,0.0,0.03,-0.03,0
18-9-2017 21:00,0.02,0.024312360497736968,-0.0,0.03,-0.03,0
18-9-2017 22:00,0.02,0.009359320345145744,0.01,0.04,-0.02,0
18-9-2017 23:00,0.0,-0.002781864026605505,0.0,0.03,-0.03,0
19-9-2017 0:00,0.0,0.0024023994911088796,-0.0,0.03,-0.03,0
19-9-2017 1:00,0.0,6.848808102647179E-4,-0.0,0.03,-0.03,0
19-9-2017 2:00,0.0,4.0142666385440187E-4,-0.0,0.03,-0.03,0
19-9-2017 3:00,0.0,0.003967003772316533,-0.0,0.03,-0.03,0
19-9-2017 4:00,0.02,0.004665951016312435,-0.0,0.03,-0.03,0
19-9-2017 5:00,0.0,-0.0035204310734909716,-0.0,0.03,-0.03,0
19-9-2017 6:00,0.0,-0.002382261312436216,-0.0,0.02,-0.03,0
19-9-2017 7:00,0.0,-0.004207168946668824,-0.0,0.02,-0.03,0
19-9-2017 8:00,0.0,-0.00713198440786459,-0.0,0.02,-0.03,0
19-9-2017 9:00,0.0,-0.007725578493685995,-0.0,0.02,-0.03,0
19-9-2017 10:00,0.03,-0.006314627843101573,-0.0,0.03,-0.03,0
19-9-2017 11:00,0.0,0.0024708086356175656,0.0,0.03,-0.03,0
19-9-2017 12:00,0.0,0.0024762330090929516,0.0,0.03,-0.03,0
19-9-2017 13:00,0.0,-0.004536597154593907,0.0,0.03,-0.03,0
19-9-2017 14:00,0.0,0.005411104057956305,0.0,0.03,-0.03,0
19-9-2017 15:00,0.0,0.004669114996484629,0.0,0.03,-0.03,0
19-9-2017 16:00,0.02,-0.0016986337213954297,0.0,0.03,-0.03,0
19-9-2017 17:00,0.0,8.720467139396396E-4,0.0,0.03,-0.03,0
19-9-2017 18:00,0.0,-0.002093770559912778,0.0,0.03,-0.03,0
19-9-2017 19:00,0.0,-0.0026242605205146477,0.0,0.03,-0.03,0
19-9-2017 20:00,0.0,-0.00784191204024093,0.0,0.03,-0.03,0
19-9-2017 21:00,0.0,0.005582527163662578,-0.0,0.03,-0.03,0
19-9-2017 22:00,0.02,0.010736119485648348,0.0,0.03,-0.03,0
19-9-2017 23:00,0.0,-0.002072233181489807,0.0,0.03,-0.03,0
20-9-2017 0:00,0.0,0.0034392217407126086,0.0,0.03,-0.03,0
20-9-2017 1:00,0.0,0.00154650955255522,0.0,0.03,-0.03,0
20-9-2017 2:00,0.0,0.0012243121421266915,-0.0,0.03,-0.03,0
20-9-2017 3:00,0.0,0.004952380076777043,-0.0,0.03,-0.03,0
20-9-2017 4:00,0.02,0.005923500173660778,-0.0,0.03,-0.03,0
20-9-2017 5:00,0.0,-0.0031854682966211117,-0.0,0.03,-0.03,0
20-9-2017 6:00,0.0,-0.002086370398766858,-0.0,0.03,-0.03,0
20-9-2017 7:00,0.0,-0.00410560365391897,-0.0,0.02,-0.03,0
20-9-2017 8:00,0.0,-0.007302234625901571,-0.0,0.03,-0.03,0
20-9-2017 9:00,0.0,-0.00805921881596728,-0.0,0.02,-0.03,0
20-9-2017 10:00,0.03,-0.007234569146317749,-0.0,0.03,-0.03,0
20-9-2017 11:00,0.0,0.0023435111980687935,0.0,0.03,-0.03,0
20-9-2017 12:00,0.0,0.0025215435581420363,0.0,0.03,-0.03,0
20-9-2017 13:00,0.0,-0.005284853472210022,0.0,0.03,-0.03,0
20-9-2017 14:00,0.0,0.005231790208879683,0.0,0.03,-0.03,0
20-9-2017 15:00,0.0,0.004798642278899988,0.0,0.03,-0.03,0
20-9-2017 16:00,0.03,0.007547938745513719,0.0,0.03,-0.03,0
20-9-2017 17:00,0.0,4.183191256638217E-4,0.0,0.03,-0.02,0
20-9-2017 18:00,0.0,-0.0027098552682531278,0.0,0.03,-0.03,0
20-9-2017 19:00,0.0,-0.003379647945374838,0.0,0.03,-0.03,0
20-9-2017 20:00,0.0,-0.00867786003701805,0.0,0.03,-0.03,0
20-9-2017 21:00,0.0,0.005455525341966161,-0.0,0.03,-0.03,0
20-9-2017 22:00,0.02,0.010772612261814259,0.0,0.03,-0.03,0
20-9-2017 23:00,0.0,-0.0027088328378639817,0.0,0.03,-0.03,0
21-9-2017 0:00,0.0,0.003170175485768756,-0.0,0.03,-0.03,0
21-9-2017 1:00,0.0,9.221743004465804E-4,-0.0,0.03,-0.03,0
21-9-2017 2:00,0.0,3.8113813614827977E-4,-0.0,0.03,-0.03,0
21-9-2017 3:00,0.0,0.004091601407135293,-0.0,0.03,-0.03,0
21-9-2017 4:00,0.02,0.005154764740531796,-0.0,0.03,-0.03,0
21-9-2017 5:00,0.0,-0.005266240961208452,-0.0,0.03,-0.03,0
21-9-2017 6:00,0.0,-0.004595665777534577,-0.0,0.02,-0.03,0
21-9-2017 7:00,0.0,-0.007198689562553547,-0.0,0.02,-0.03,0
21-9-2017 8:00,0.0,-0.011056600954270333,-0.0,0.03,-0.03,0
21-9-2017 9:00,0.0,-0.012216356608125527,-0.0,0.02,-0.03,0
21-9-2017 10:00,0.03,-0.012217391157150067,-0.0,0.03,-0.03,0
21-9-2017 11:00,0.0,-0.002086050184835279,0.0,0.03,-0.03,0
21-9-2017 12:00,0.0,-0.0019747930759033503,0.0,0.03,-0.02,0
21-9-2017 13:00,0.0,-0.010638917794783216,0.0,0.03,-0.03,0
21-9-2017 14:00,0.0,3.825075329833734E-4,0.0,0.03,-0.03,0
21-9-2017 15:00,0.0,1.9403991263305595E-4,0.0,0.03,-0.03,0
21-9-2017 16:00,0.02,-0.008003752412894295,0.0,0.03,-0.03,0
21-9-2017 17:00,0.12,0.11517673406892553,0.0,0.03,-0.03,1
21-9-2017 18:00,0.0,-0.008103391288201253,0.03,0.06,0.0,0
21-9-2017 19:00,0.0,-0.008902059728256076,-0.0,0.03,-0.03,0
21-9-2017 20:00,0.0,-0.014270405438229496,-0.0,0.03,-0.03,0
21-9-2017 21:00,0.0,6.73391333029006E-4,-0.01,0.02,-0.04,0
21-9-2017 22:00,0.02,0.006255456177338385,-0.0,0.03,-0.03,0
21-9-2017 23:00,0.0,-0.007797598028280981,-0.0,0.03,-0.03,0
22-9-2017 0:00,0.0,-0.0014495529766189626,-0.0,0.03,-0.03,0
22-9-2017 1:00,0.0,-0.0032997426251403393,-0.0,0.03,-0.03,0
22-9-2017 2:00,0.0,-0.003306517009342826,-0.0,0.03,-0.03,0
22-9-2017 3:00,0.0,0.0011394421319464356,-0.0,0.03,-0.03,0
22-9-2017 4:00,0.02,0.00304775674190756,-0.0,0.03,-0.03,0
22-9-2017 5:00,0.0,-0.007384993712932079,-0.0,0.03,-0.03,0
22-9-2017 6:00,0.0,-0.005842648765079613,-0.0,0.02,-0.03,0
22-9-2017 7:00,0.0,-0.0077291695427709525,-0.0,0.02,-0.03,0
22-9-2017 8:00,0.0,-0.010948067817027441,-0.0,0.03,-0.03,0
22-9-2017 9:00,0.0,-0.011829718805794557,-0.0,0.03,-0.03,0
22-9-2017 10:00,0.03,-0.011975561296842931,-0.0,0.03,-0.03,0
22-9-2017 11:00,0.0,-6.100834199496766E-4,0.0,0.03,-0.03,0
22-9-2017 12:00,0.0,1.152747144911679E-4,0.0,0.03,-0.03,0
22-9-2017 13:00,0.02,0.010749063847383087,0.0,0.03,-0.03,0
22-9-2017 14:00,0.0,0.0024309123621261506,0.01,0.03,-0.02,0
22-9-2017 15:00,0.0,0.0026427665917047975,0.0,0.03,-0.03,0
22-9-2017 16:00,0.08,0.053653527014335956,0.0,0.03,-0.03,1
22-9-2017 17:00,0.0,-0.0028283917805839555,0.02,0.04,-0.01,0
22-9-2017 18:00,0.0,-0.006232979479330036,-0.0,0.03,-0.03,0
22-9-2017 19:00,0.0,-0.007133035060727436,-0.0,0.03,-0.03,0
22-9-2017 20:00,0.0,-0.012544025767440525,-0.0,0.03,-0.03,0
22-9-2017 21:00,0.0,0.003182632977279061,-0.0,0.03,-0.03,0
22-9-2017 22:00,0.02,0.009002126327236529,-0.0,0.03,-0.03,0
22-9-2017 23:00,0.0,-0.005650086403137159,0.0,0.03,-0.03,0
23-9-2017 0:00,0.0,0.0011394459577409397,-0.0,0.03,-0.03,0
23-9-2017 1:00,0.0,-6.268194221485824E-4,-0.0,0.03,-0.03,0
23-9-2017 2:00,0.0,-4.1321929442420056E-4,-0.0,0.03,-0.03,0
23-9-2017 3:00,0.0,0.004454348448998361,-0.0,0.03,-0.03,0
23-9-2017 4:00,0.02,0.006893927067355162,-0.0,0.03,-0.03,0
23-9-2017 5:00,0.0,-0.00423168570260511,-0.0,0.03,-0.03,0
23-9-2017 6:00,0.0,-0.0024986885525952957,-0.0,0.03,-0.03,0
23-9-2017 7:00,0.0,-0.00434982388498025,-0.0,0.03,-0.03,0
23-9-2017 8:00,0.0,-0.007610826603797681,-0.0,0.03,-0.03,0
23-9-2017 9:00,0.0,-0.00835508133100979,-0.0,0.03,-0.03,0
23-9-2017 10:00,0.03,-0.008786440167615064,-0.0,0.03,-0.03,0
23-9-2017 11:00,0.0,0.0036724662103235902,0.0,0.03,-0.03,0
23-9-2017 12:00,0.0,0.004871216966740281,0.0,0.03,-0.03,0
23-9-2017 13:00,0.0,-0.005091327531401011,0.0,0.03,-0.03,0
23-9-2017 14:00,0.0,0.007356696687513533,0.0,0.03,-0.03,0
23-9-2017 15:00,0.0,0.008074625284216149,0.0,0.03,-0.03,0
23-9-2017 16:00,0.02,-0.0016003090277991808,0.0,0.03,-0.03,0
23-9-2017 17:00,0.0,0.002276654343743191,-0.0,0.03,-0.03,0
23-9-2017 18:00,0.0,-0.0012311082534201673,-0.0,0.03,-0.03,0
23-9-2017 19:00,0.0,-0.002211263532958125,0.0,0.03,-0.03,0
23-9-2017 20:00,0.0,-0.007643611793208863,0.0,0.03,-0.03,0
23-9-2017 21:00,0.0,0.00853766626832731,-0.0,0.03,-0.03,0
23-9-2017 22:00,0.0,-0.005733654532711643,0.0,0.03,-0.03,0
23-9-2017 23:00,0.0,-0.0013132684444841583,-0.0,0.03,-0.03,0
24-9-2017 0:00,0.0,0.0055895085689655205,0.0,0.03,-0.03,0
24-9-2017 1:00,0.0,0.003267273476120253,0.0,0.03,-0.03,0
24-9-2017 2:00,0.0,0.003061354134183905,0.0,0.03,-0.03,0
24-9-2017 3:00,0.0,0.007710636498152172,0.0,0.03,-0.03,0
24-9-2017 4:00,0.0,-0.009958414856682953,0.0,0.03,-0.03,0
24-9-2017 5:00,0.0,-0.002263279198636393,-0.0,0.02,-0.03,0
24-9-2017 6:00,0.0,-8.26019103341768E-4,-0.0,0.03,-0.03,0
24-9-2017 7:00,0.0,-0.003128158247292872,-0.0,0.03,-0.03,0
24-9-2017 8:00,0.0,-0.006917654667543785,-0.0,0.03,-0.03,0
24-9-2017 9:00,0.0,-0.007988410465779403,-0.0,0.03,-0.03,0
24-9-2017 10:00,0.02,-0.0191691829805201,0.0,0.03,-0.03,0
24-9-2017 11:00,0.02,0.02391925456588543,-0.0,0.03,-0.03,0
24-9-2017 12:00,0.0,0.005127500611699453,0.01,0.04,-0.02,0
24-9-2017 13:00,0.0,-0.005894434883547547,0.0,0.03,-0.03,0
24-9-2017 14:00,0.0,0.0068567076734659844,-0.0,0.03,-0.03,0
24-9-2017 15:00,0.0,0.007617653271220076,0.0,0.03,-0.03,0
24-9-2017 16:00,0.02,-0.0032060331415142383,0.0,0.03,-0.03,0
24-9-2017 17:00,0.0,7.342788334665567E-4,-0.0,0.03,-0.03,0
24-9-2017 18:00,0.0,-0.0031721922251379403,-0.0,0.03,-0.03,0
24-9-2017 19:00,0.0,-0.004527980765840316,0.0,0.03,-0.03,0
24-9-2017 20:00,0.0,-0.010277220142652565,0.0,0.03,-0.03,0
24-9-2017 21:00,0.0,0.006525613050770746,-0.0,0.03,-0.03,0
24-9-2017 22:00,0.02,0.012330413913805936,0.0,0.03,-0.03,0
24-9-2017 23:00,0.0,-0.004009665364294851,0.0,0.03,-0.03,0
25-9-2017 0:00,0.0,0.003173292116796963,0.0,0.03,-0.03,0
25-9-2017 1:00,0.0,7.583299621336907E-4,0.0,0.03,-0.03,0
25-9-2017 2:00,0.0,5.961338016743515E-4,-0.0,0.03,-0.03,0
25-9-2017 3:00,0.0,0.005490373437326059,-0.0,0.03,-0.03,0
25-9-2017 4:00,0.02,0.008175934760436755,-0.0,0.03,-0.03,0
25-9-2017 5:00,0.0,-0.004917813202506186,0.0,0.03,-0.03,0
25-9-2017 6:00,0.0,-0.003385922210923078,-0.0,0.03,-0.03,0
25-9-2017 7:00,0.0,-0.005748697215436662,-0.0,0.03,-0.03,0
25-9-2017 8:00,0.0,-0.009676319386117386,-0.0,0.03,-0.03,0
25-9-2017 9:00,0.02,0.009286243158907874,-0.0,0.03,-0.03,0
25-9-2017 10:00,0.03,-0.01228412361968386,0.0,0.03,-0.02,0
25-9-2017 11:00,0.0,0.001793664509472946,-0.0,0.03,-0.03,0
25-9-2017 12:00,0.0,0.0033712252589686827,0.0,0.03,-0.03,0
25-9-2017 13:00,0.0,-0.008281325949312154,0.0,0.03,-0.03,0
25-9-2017 14:00,0.0,0.005201710229872229,-0.0,0.03,-0.03,0
25-9-2017 15:00,0.0,0.006434448112749666,0.0,0.03,-0.03,0
25-9-2017 16:00,0.02,-0.005109215693866793,0.0,0.03,-0.03,0
25-9-2017 17:00,0.0,-9.09810302573733E-4,-0.0,0.03,-0.03,0
25-9-2017 18:00,0.02,0.01498075499025447,-0.0,0.03,-0.03,0
25-9-2017 19:00,0.0,-0.006554927381508221,0.01,0.03,-0.02,0
25-9-2017 20:00,0.0,-0.012425318444777877,0.0,0.03,-0.03,0
25-9-2017 21:00,0.0,0.00477436094775799,-0.0,0.03,-0.03,0
25-9-2017 22:00,0.02,0.010430554902612677,0.0,0.03,-0.03,0
25-9-2017 23:00,0.0,-0.006894718314071019,0.0,0.03,-0.03,0
26-9-2017 0:00,0.0,3.436910624082905E-4,-0.0,0.03,-0.03,0
26-9-2017 1:00,0.0,-0.0024721488368787637,-0.0,0.03,-0.03,0
26-9-2017 2:00,0.0,-0.0028987724986668725,-0.0,0.03,-0.03,0
26-9-2017 3:00,0.0,0.0019322737258625003,-0.0,0.03,-0.03,0
26-9-2017 4:00,0.02,0.004664263602995428,-0.0,0.03,-0.03,0
26-9-2017 5:00,0.0,-0.009514763446752197,0.0,0.03,-0.03,0
26-9-2017 6:00,0.0,-0.008184637024695796,-0.0,0.03,-0.03,0
26-9-2017 7:00,0.0,-0.010904469830012238,-0.0,0.03,-0.03,0
26-9-2017 8:00,0.0,-0.01526663969136315,-0.0,0.03,-0.03,0
26-9-2017 9:00,0.07,0.05341686802930305,-0.0,0.03,-0.03,1
26-9-2017 10:00,0.05,0.001144519543688386,0.02,0.04,-0.01,0
26-9-2017 11:00,0.0,-0.004100729187575454,0.0,0.03,-0.03,0
26-9-2017 12:00,0.0,-0.002466241177569906,-0.0,0.03,-0.03,0
26-9-2017 13:00,0.0,-0.014867340312473701,-0.0,0.03,-0.03,0
26-9-2017 14:00,0.0,-7.703427247075824E-4,-0.0,0.03,-0.03,0
26-9-2017 15:00,0.0,8.16255229704077E-4,-0.0,0.03,-0.03,0
26-9-2017 16:00,0.03,-0.00156528406699245,-0.0,0.03,-0.03,0
26-9-2017 17:00,0.0,-0.007067977733632049,-0.0,0.03,-0.03,0
26-9-2017 18:00,0.05,0.038658431436383936,-0.0,0.03,-0.03,1
26-9-2017 19:00,0.03,0.016981707319810843,0.01,0.04,-0.02,0
26-9-2017 20:00,0.0,-0.0189709833436663,0.01,0.03,-0.02,0
26-9-2017 21:00,0.0,-0.001723112217520941,-0.01,0.02,-0.03,0
26-9-2017 22:00,0.02,0.0034358883598907854,-0.0,0.03,-0.03,0
26-9-2017 23:00,0.0,-0.015223165264638284,-0.0,0.03,-0.03,0
27-9-2017 0:00,0.0,-0.008273538497160195,-0.0,0.03,-0.03,0
27-9-2017 1:00,0.0,-0.011688798723456737,-0.0,0.03,-0.03,0
27-9-2017 2:00,0.0,-0.012561636208778868,-0.0,0.03,-0.03,0
27-9-2017 3:00,0.0,-0.007966988384975298,-0.0,0.03,-0.03,0
27-9-2017 4:00,0.02,-0.005373327583897431,-0.0,0.03,-0.03,0
27-9-2017 5:00,0.0,-0.020027318134086907,-0.0,0.03,-0.03,0
27-9-2017 6:00,0.0,-0.018261288891867233,-0.0,0.03,-0.03,0
27-9-2017 7:00,0.0,-0.020724945979186168,-0.0,0.03,-0.03,0
27-9-2017 8:00,0.0,-0.024895690511905953,-0.0,0.03,-0.03,0
27-9-2017 9:00,0.0,-0.02582644151541308,-0.0,0.03,-0.03,0
27-9-2017 10:00,0.33,0.2718743335596701,-0.0,0.03,-0.03,1
27-9-2017 11:00,0.0,-0.011952412168034152,0.07,0.1,0.03,0
27-9-2017 12:00,0.0,-0.009527120285892712,-0.01,0.03,-0.04,0
27-9-2017 13:00,0.0,-0.022258794557950136,-0.01,0.03,-0.04,0
27-9-2017 14:00,0.0,-0.007075262077517035,-0.01,0.03,-0.04,0
27-9-2017 15:00,0.0,-0.004672086337889644,-0.01,0.03,-0.04,0
27-9-2017 16:00,0.03,-0.007484416982683678,-0.0,0.03,-0.04,0
27-9-2017 17:00,0.03,0.018794962486812766,-0.0,0.03,-0.04,0
27-9-2017 18:00,0.0,-0.014184253762671337,-0.0,0.03,-0.03,0
27-9-2017 19:00,0.0,-0.014526278285054855,-0.01,0.03,-0.04,0
27-9-2017 20:00,0.0,-0.01905652685734551,-0.0,0.03,-0.04,0
27-9-2017 21:00,0.0,0.0012980142612048235,-0.0,0.03,-0.04,0
27-9-2017 22:00,0.0,-0.010978686164154093,-0.0,0.03,-0.03,0
27-9-2017 23:00,0.0,-0.007988596176457719,-0.0,0.03,-0.04,0
28-9-2017 0:00,0.0,0.0017383118624724444,-0.0,0.03,-0.03,0
28-9-2017 1:00,0.0,-9.182510705724161E-4,-0.0,0.03,-0.03,0
28-9-2017 2:00,0.0,-8.79184759167405E-4,-0.0,0.03,-0.03,0
28-9-2017 3:00,0.0,0.004837182284171536,-0.0,0.03,-0.03,0
28-9-2017 4:00,0.0,-0.011349425912177163,0.0,0.03,-0.03,0
28-9-2017 5:00,0.0,-0.007161142573162926,-0.0,0.03,-0.03,0
28-9-2017 6:00,0.0,-0.005641973121134425,0.0,0.03,-0.03,0
28-9-2017 7:00,0.0,-0.00853224998366961,0.0,0.03,-0.03,0
28-9-2017 8:00,0.0,-0.013194364680972017,0.0,0.03,-0.03,0
28-9-2017 9:00,0.0,-0.014596583319175002,0.0,0.03,-0.03,0
28-9-2017 10:00,0.0,-0.0477799093831289,0.0,0.03,-0.03,0
28-9-2017 11:00,0.0,-0.0010453768070085249,-0.01,0.02,-0.04,0
28-9-2017 12:00,0.02,0.021313494247533867,0.0,0.04,-0.03,0
28-9-2017 13:00,0.1,0.08726891709432139,0.01,0.04,-0.02,1
28-9-2017 14:00,0.0,0.002556656723420035,0.02,0.05,-0.01,0
28-9-2017 15:00,0.0,0.004794082504261721,0.0,0.03,-0.03,0
28-9-2017 16:00,0.07,0.040568665730289895,0.0,0.03,-0.03,0
28-9-2017 17:00,0.0,-0.00401875958071624,0.01,0.04,-0.03,0
28-9-2017 18:00,0.0,-0.008352479166339058,-0.0,0.03,-0.04,0
28-9-2017 19:00,0.0,-0.010008648216216264,-0.0,0.03,-0.03,0
28-9-2017 20:00,0.0,-0.015765298819003695,-0.0,0.03,-0.03,0
28-9-2017 21:00,0.0,0.004500046692173595,-0.0,0.03,-0.03,0
28-9-2017 22:00,0.0,-0.008408191618453494,-0.0,0.03,-0.03,0
28-9-2017 23:00,0.0,-0.006964794901029215,-0.0,0.03,-0.04,0
29-9-2017 0:00,0.0,0.0023435575268554937,-0.0,0.03,-0.03,0
29-9-2017 1:00,0.0,1.117741952795662E-4,-0.0,0.03,-0.03,0
29-9-2017 2:00,0.0,7.288266116289742E-4,-0.0,0.03,-0.03,0
29-9-2017 3:00,0.0,0.007232995182720534,-0.0,0.03,-0.03,0
29-9-2017 4:00,0.0,-0.008067787652580045,-0.0,0.03,-0.03,0
29-9-2017 5:00,0.0,-0.006157442202063833,-0.0,0.03,-0.04,0
29-9-2017 6:00,0.0,-0.00600534431792824,-0.0,0.03,-0.03,0
29-9-2017 7:00,0.0,-0.010442449529164344,-0.0,0.03,-0.03,0
29-9-2017 8:00,0.0,-0.016716142964534053,-0.0,0.03,-0.03,0
29-9-2017 9:00,0.02,-0.0026953479102664202,-0.0,0.03,-0.03,0
29-9-2017 10:00,0.0,-0.060868293029260716,0.0,0.03,-0.03,0
29-9-2017 11:00,0.0,-0.017678000065319006,-0.01,0.02,-0.04,0
29-9-2017 12:00,0.0,-0.01949106775437897,0.0,0.04,-0.03,0
29-9-2017 13:00,0.0,-0.04023471631356971,0.0,0.04,-0.03,0
29-9-2017 14:00,0.0,-0.030228938060628693,-0.0,0.03,-0.03,0
29-9-2017 15:00,0.0,-0.0335434307633959,0.0,0.04,-0.03,0
29-9-2017 16:00,0.0,-0.07456810228301154,0.0,0.04,-0.03,0
29-9-2017 17:00,0.0,-0.05575808122863285,-0.0,0.03,-0.04,0
29-9-2017 18:00,0.07,0.002817946995493009,0.0,0.03,-0.03,1
29-9-2017 19:00,0.13,0.05411188267194547,0.01,0.05,-0.02,1
29-9-2017 20:00,0.17,0.08139307929248463,0.02,0.06,-0.01,1
29-9-2017 21:00,0.1,0.02480121556954777,0.03,0.06,-0.0,0
29-9-2017 22:00,0.1,0.004493417548173145,0.01,0.04,-0.02,0
29-9-2017 23:00,0.2,0.09762209916984597,0.01,0.04,-0.03,1
30-9-2017 0:00,0.1,-2.5612583879415507E-4,0.03,0.06,-0.01,0
30-9-2017 1:00,0.13,0.021129884314132333,-0.0,0.03,-0.03,0
30-9-2017 2:00,0.13,0.01551793671845958,0.0,0.04,-0.03,0
30-9-2017 3:00,0.07,-0.04399707929966275,0.0,0.03,-0.03,0
30-9-2017 4:00,0.13,-0.005219037924427988,-0.01,0.02,-0.05,0
30-9-2017 5:00,0.17,0.035780053495472364,-0.0,0.03,-0.04,0
30-9-2017 6:00,0.13,-0.004068236330402791,0.0,0.04,-0.03,0
30-9-2017 7:00,0.17,0.03131450151696552,-0.01,0.03,-0.04,0
30-9-2017 8:00,0.2,0.05479590075083382,0.0,0.03,-0.03,0
30-9-2017 9:00,0.17,0.02268063872641915,0.0,0.04,-0.03,0
30-9-2017 10:00,0.13,-0.05204100314238219,-0.0,0.03,-0.04,0
30-9-2017 11:00,0.17,0.03604597251461414,-0.02,0.01,-0.06,0
30-9-2017 12:00,0.13,-0.0014981116128148508,-0.0,0.03,-0.03,0
30-9-2017 13:00,0.17,0.022444009733607495,-0.01,0.02,-0.04,0
30-9-2017 14:00,0.13,-0.00144733207801781,-0.0,0.03,-0.04,0
30-9-2017 15:00,0.13,0.001071098047197433,-0.01,0.03,-0.04,0
30-9-2017 16:00,0.2,0.03463201429823953,-0.01,0.03,-0.04,0
30-9-2017 17:00,0.13,-0.009746568822931706,0.0,0.03,-0.03,0
30-9-2017 18:00,0.17,0.025153156670008114,-0.01,0.02,-0.04,0
30-9-2017 19:00,0.17,0.022811151221630688,-0.0,0.03,-0.03,0
30-9-2017 20:00,0.17,0.01654414921433689,-0.0,0.03,-0.04,0
30-9-2017 21:00,0.07,-0.0624794965252127,-0.0,0.03,-0.04,0
30-9-2017 22:00,0.1,-0.04576140941136561,-0.02,0.02,-0.05,0
30-9-2017 23:00,0.13,-0.016521998039475017,-0.01,0.02,-0.05,0
