Time,Actual,STL processed,Forecasts,Upper Interval,Lower Interval,Is Anomalies
1-8-2017 0:00,8947.12,-192.32131243023105,0.0,0.0,0.0,0
1-8-2017 1:00,4958.93,-2062.0748452329008,0.0,0.0,0.0,0
1-8-2017 2:00,3219.02,-3316.0651286741995,0.0,0.0,0.0,0
1-8-2017 3:00,2568.95,-4210.56452259441,0.0,0.0,0.0,0
1-8-2017 4:00,2709.75,-4485.031388653406,0.0,0.0,0.0,0
1-8-2017 5:00,3372.85,-4373.193503412191,0.0,0.0,0.0,0
1-8-2017 6:00,6528.27,-3663.555771987567,0.0,0.0,0.0,0
1-8-2017 7:00,11061.73,-2669.1581990093473,0.0,0.0,0.0,0
1-8-2017 8:00,16459.38,-1143.3601570432947,0.0,0.0,0.0,0
1-8-2017 9:00,23884.72,1140.0668245726047,0.0,0.0,0.0,0
1-8-2017 10:00,29326.62,2410.031519304921,0.0,0.0,0.0,0
1-8-2017 11:00,41885.47,8498.444812028993,0.0,0.0,0.0,0
1-8-2017 12:00,38864.4,5647.134962411652,0.0,0.0,0.0,0
1-8-2017 13:00,39224.32,11632.351348127919,0.0,0.0,0.0,0
1-8-2017 14:00,32389.92,7005.540231260391,0.0,0.0,0.0,0
1-8-2017 15:00,30115.1,3609.6681797626698,0.0,0.0,0.0,0
1-8-2017 16:00,29549.28,2416.126431893528,0.0,0.0,0.0,0
1-8-2017 17:00,28651.38,1909.184808524249,0.0,0.0,0.0,0
1-8-2017 18:00,28581.1,2832.31355994154,0.0,0.0,0.0,0
1-8-2017 19:00,30515.18,5250.100699193357,0.0,0.0,0.0,0
1-8-2017 20:00,28402.25,3941.502210649407,0.0,0.0,0.0,0
1-8-2017 21:00,27675.58,4534.549740597009,0.0,0.0,0.0,0
1-8-2017 22:00,23787.05,1696.8948674974708,0.0,0.0,0.0,0
1-8-2017 23:00,17066.88,-1380.4920230893913,0.0,0.0,0.0,0
2-8-2017 0:00,9126.47,-4024.13704818079,0.0,0.0,0.0,0
2-8-2017 1:00,4636.6,-5777.422839610244,0.0,0.0,0.0,0
2-8-2017 2:00,3344.47,-5977.338126675184,0.0,0.0,0.0,0
2-8-2017 3:00,2811.63,-6158.2118289352875,0.0,0.0,0.0,0
2-8-2017 4:00,2514.23,-6283.696050861801,0.0,0.0,0.0,0
2-8-2017 5:00,3305.23,-5721.99942465333,0.0,0.0,0.0,0
2-8-2017 6:00,6158.47,-4982.086629909598,0.0,0.0,0.0,0
2-8-2017 7:00,11498.1,-2893.9384971700383,0.0,0.0,0.0,0
2-8-2017 8:00,17219.82,-748.4681418084401,0.0,0.0,0.0,0
2-8-2017 9:00,21950.85,-1051.5051248604905,0.0,0.0,0.0,0
2-8-2017 10:00,27766.05,598.4298979897285,0.0,0.0,0.0,0
2-8-2017 11:00,35834.83,2481.093526960627,0.0,0.0,0.0,0
2-8-2017 12:00,42160.5,9092.59829571989,0.0,0.0,0.0,0
2-8-2017 13:00,30412.78,2991.6654486116604,0.0,0.0,0.0,0
2-8-2017 14:00,27992.18,2929.0151961457086,0.0,0.0,0.0,0
2-8-2017 15:00,28867.18,2931.148819401031,0.0,0.0,0.0,0
2-8-2017 16:00,27047.15,709.1724814721674,0.0,0.0,0.0,0
2-8-2017 17:00,26756.0,911.7681676025313,0.0,0.0,0.0,0
2-8-2017 18:00,25656.63,868.5204483376474,0.0,0.0,0.0,0
2-8-2017 19:00,29692.65,5466.743598650719,0.0,0.0,0.0,0
2-8-2017 20:00,27450.28,4152.21536214379,0.0,0.0,0.0,0
2-8-2017 21:00,25938.53,3976.954303764309,0.0,0.0,0.0,0
2-8-2017 22:00,22374.85,1474.6605805175386,0.0,0.0,0.0,0
2-8-2017 23:00,16118.62,-1205.4821257975964,0.0,0.0,0.0,0
3-8-2017 0:00,11294.73,-743.3948323021505,0.0,0.0,0.0,0
3-8-2017 1:00,4712.98,-4652.0975797687515,0.0,0.0,0.0,0
3-8-2017 2:00,3064.4,-5283.852567867694,0.0,0.0,0.0,0
3-8-2017 3:00,2627.28,-5454.295275878065,0.0,0.0,0.0,0
3-8-2017 4:00,2366.28,-5637.909774563268,0.0,0.0,0.0,0
3-8-2017 5:00,3075.15,-5210.864014198702,0.0,0.0,0.0,0
3-8-2017 6:00,5742.42,-4698.94576294702,0.0,0.0,0.0,0
3-8-2017 7:00,10475.42,-3304.3296407119688,0.0,0.0,0.0,0
3-8-2017 8:00,15678.0,-1756.879542220675,0.0,0.0,0.0,0
3-8-2017 9:00,23787.72,1303.4796170046138,0.0,0.0,0.0,0
3-8-2017 10:00,30099.88,3333.902752885828,0.0,0.0,0.0,0
3-8-2017 11:00,37815.63,5024.714503016643,0.0,0.0,0.0,0
3-8-2017 12:00,33951.77,1439.6216750656167,0.0,0.0,0.0,0
3-8-2017 13:00,28359.62,1394.716752998651,0.0,0.0,0.0,0
3-8-2017 14:00,28791.83,4214.204522800035,0.0,0.0,0.0,0
3-8-2017 15:00,28057.8,2734.460978674164,0.0,0.0,0.0,0
3-8-2017 16:00,31465.57,5845.093818404734,0.0,0.0,0.0,0
3-8-2017 17:00,26657.8,1560.8484153313402,0.0,0.0,0.0,0
3-8-2017 18:00,26303.17,2252.0458266808564,0.0,0.0,0.0,0
3-8-2017 19:00,25867.6,2384.235056008518,0.0,0.0,0.0,0
3-8-2017 20:00,24101.73,1596.7771394919546,0.0,0.0,0.0,0
3-8-2017 21:00,23171.57,2199.246603549076,0.0,0.0,0.0,0
3-8-2017 22:00,20397.4,676.3947129594744,0.0,0.0,0.0,0
3-8-2017 23:00,15377.15,-655.0431262795319,0.0,0.0,0.0,0
4-8-2017 0:00,7900.67,-2676.9128313928377,0.0,0.0,0.0,0
4-8-2017 1:00,4551.37,-3212.362220566225,0.0,0.0,0.0,0
4-8-2017 2:00,2869.32,-3748.6365953688146,0.0,0.0,0.0,0
4-8-2017 3:00,2336.77,-3895.4579947990806,0.0,0.0,0.0,0
4-8-2017 4:00,2456.93,-3588.0876651172894,0.0,0.0,0.0,0
4-8-2017 5:00,3112.28,-3197.8152393868004,0.0,0.0,0.0,0
4-8-2017 6:00,5846.42,-2591.784000417354,0.0,0.0,0.0,0
4-8-2017 7:00,9778.55,-2015.6688127908383,0.0,0.0,0.0,0
4-8-2017 8:00,13314.58,-2144.377895273861,0.0,0.0,0.0,0
4-8-2017 9:00,18814.68,-1784.4348976605706,0.0,0.0,0.0,0
4-8-2017 10:00,32179.5,7106.674221963054,0.0,0.0,0.0,0
4-8-2017 11:00,27626.47,-3385.618036034779,0.0,0.0,0.0,0
4-8-2017 12:00,27384.42,-3431.4705899846867,0.0,0.0,0.0,0
4-8-2017 13:00,25048.77,-425.72855008153056,0.0,0.0,0.0,0
4-8-2017 14:00,29095.38,5931.176278916035,0.0,0.0,0.0,0
4-8-2017 15:00,23905.37,16.294604337817873,0.0,0.0,0.0,0
4-8-2017 16:00,28466.52,4278.805658656689,0.0,0.0,0.0,0
4-8-2017 17:00,27167.68,3377.0216487440193,0.0,0.0,0.0,0
4-8-2017 18:00,24782.88,1871.5066730724284,0.0,0.0,0.0,0
4-8-2017 19:00,25694.25,3199.944463779175,0.0,0.0,0.0,0
4-8-2017 20:00,23666.07,2044.4993496174538,0.0,0.0,0.0,0
4-8-2017 21:00,23086.85,2878.754239762944,0.0,0.0,0.0,0
4-8-2017 22:00,20325.72,1243.5790854822699,0.0,0.0,0.0,0
4-8-2017 23:00,12618.97,-2976.92898302884,0.0,0.0,0.0,0
5-8-2017 0:00,8669.52,-1618.4307830991274,0.0,0.0,0.0,0
5-8-2017 1:00,5349.1,-2282.0756409355236,0.0,0.0,0.0,0
5-8-2017 2:00,3871.08,-2783.248229397983,0.0,0.0,0.0,0
5-8-2017 3:00,3476.7,-2970.7271472043794,0.0,0.0,0.0,0
5-8-2017 4:00,3391.42,-3056.850816111819,0.0,0.0,0.0,0
5-8-2017 5:00,3980.38,-2785.3178549093027,0.0,0.0,0.0,0
5-8-2017 6:00,6477.32,-2458.339758115986,0.0,0.0,0.0,0
5-8-2017 7:00,11123.4,-1255.0016349918878,0.0,0.0,0.0,0
5-8-2017 8:00,14930.75,-1191.0960283431232,0.0,0.0,0.0,0
5-8-2017 9:00,19336.85,-1908.0994653846828,0.0,0.0,0.0,0
5-8-2017 10:00,25313.23,-489.5546350614968,0.0,0.0,0.0,0
5-8-2017 11:00,30615.83,-932.691174230833,0.0,0.0,0.0,0
5-8-2017 12:00,42978.58,11651.536272777532,0.0,0.0,0.0,0
5-8-2017 13:00,29290.45,3248.789839975918,0.0,0.0,0.0,0
5-8-2017 14:00,25837.7,2179.196293494788,0.0,0.0,0.0,0
5-8-2017 15:00,25363.07,1150.3810537893478,0.0,0.0,0.0,0
5-8-2017 16:00,30409.25,6046.264888021633,0.0,0.0,0.0,0
5-8-2017 17:00,23704.28,-141.68667772574918,0.0,0.0,0.0,0
5-8-2017 18:00,24475.52,1588.7270105861135,0.0,0.0,0.0,0
5-8-2017 19:00,23428.78,1054.7944136765,0.0,0.0,0.0,0
5-8-2017 20:00,24836.8,3476.303152874192,0.0,0.0,0.0,0
5-8-2017 21:00,10773.67,-8803.068407042698,0.0,0.0,0.0,0
5-8-2017 22:00,18097.6,10.891298834809277,0.0,0.0,0.0,0
5-8-2017 23:00,14895.85,582.251124900853,0.0,0.0,0.0,0
6-8-2017 0:00,8344.53,-318.3446462771717,0.0,0.0,0.0,0
6-8-2017 1:00,4840.53,-801.1097501035474,0.0,0.0,0.0,0
6-8-2017 2:00,3564.4,-747.7853295528457,0.0,0.0,0.0,0
6-8-2017 3:00,2690.23,-1072.3465430623328,0.0,0.0,0.0,0
6-8-2017 4:00,2250.0,-1179.938987885971,0.0,0.0,0.0,0
6-8-2017 5:00,3326.82,-296.66493863985124,0.0,0.0,0.0,0
6-8-2017 6:00,5867.5,208.43056854891256,0.0,0.0,0.0,0
6-8-2017 7:00,9278.42,266.1121797421638,0.0,0.0,0.0,0
6-8-2017 8:00,13331.65,673.4230280942957,0.0,0.0,0.0,0
6-8-2017 9:00,17762.52,-78.87371813782374,0.0,0.0,0.0,0
6-8-2017 10:00,20890.3,-1670.17005165079,0.0,0.0,0.0,0
6-8-2017 11:00,23771.87,-4417.927746527355,0.0,0.0,0.0,0
6-8-2017 12:00,25856.22,-2163.9371730964267,0.0,0.0,0.0,0
6-8-2017 13:00,22243.23,-678.7381561333441,0.0,0.0,0.0,0
6-8-2017 14:00,20697.07,99.9338443762972,0.0,0.0,0.0,0
6-8-2017 15:00,19694.75,-1417.0710379869033,0.0,0.0,0.0,0
6-8-2017 16:00,19360.72,-1884.2405013717362,0.0,0.0,0.0,0
6-8-2017 17:00,19861.7,-1053.301265158958,0.0,0.0,0.0,0
6-8-2017 18:00,21670.8,1487.8394449312218,0.0,0.0,0.0,0
6-8-2017 19:00,22588.28,2706.8448182001266,0.0,0.0,0.0,0
6-8-2017 20:00,21925.38,2891.165768552104,0.0,0.0,0.0,0
6-8-2017 21:00,19181.03,1606.5172291764356,0.0,0.0,0.0,0
6-8-2017 22:00,17563.75,1149.001265815732,0.0,0.0,0.0,0
6-8-2017 23:00,13776.58,727.468457062525,0.0,0.0,0.0,0
7-8-2017 0:00,7192.98,-556.9718146196301,0.0,0.0,0.0,0
7-8-2017 1:00,4273.7,-872.3292630981487,0.0,0.0,0.0,0
7-8-2017 2:00,2690.13,-1555.6099321964502,0.0,0.0,0.0,0
7-8-2017 3:00,2311.68,-1823.5155400711974,0.0,0.0,0.0,0
7-8-2017 4:00,2113.85,-2136.9988594731985,0.0,0.0,0.0,0
7-8-2017 5:00,2620.72,-2049.362003031518,0.0,0.0,0.0,0
7-8-2017 6:00,5080.5,-1840.3573662953422,0.0,0.0,0.0,0
7-8-2017 7:00,9136.52,-1397.6405478809756,0.0,0.0,0.0,0
7-8-2017 8:00,14338.08,-94.0427386735173,0.0,0.0,0.0,0
7-8-2017 9:00,26088.28,6382.281303125554,0.0,0.0,0.0,0
7-8-2017 10:00,28147.13,3530.167902998186,0.0,0.0,0.0,0
7-8-2017 11:00,28518.72,-1641.8068503638478,0.0,0.0,0.0,0
7-8-2017 12:00,35585.62,5512.250946711392,0.0,0.0,0.0,0
7-8-2017 13:00,25547.5,436.17468020455635,0.0,0.0,0.0,0
7-8-2017 14:00,23050.1,256.33149447034157,0.0,0.0,0.0,0
7-8-2017 15:00,23423.72,205.81623621476683,0.0,0.0,0.0,0
7-8-2017 16:00,24135.5,852.6564752275881,0.0,0.0,0.0,0
7-8-2017 17:00,21246.45,-1593.6678150915468,0.0,0.0,0.0,0
7-8-2017 18:00,22806.83,771.4455882848852,0.0,0.0,0.0,0
7-8-2017 19:00,20193.3,-1452.0486605531514,0.0,0.0,0.0,0
7-8-2017 20:00,15942.43,-4722.173091332334,0.0,0.0,0.0,0
7-8-2017 21:00,21971.2,3053.5532760898277,0.0,0.0,0.0,0
7-8-2017 22:00,20849.87,3372.950719018663,0.0,0.0,0.0,0
7-8-2017 23:00,14387.1,479.5743509739659,0.0,0.0,0.0,0
8-8-2017 0:00,6268.62,-2080.081345684568,0.0,0.0,0.0,0
8-8-2017 1:00,3645.77,-2013.1778878441692,0.0,0.0,0.0,0
8-8-2017 2:00,2740.78,-1943.9003956204087,0.0,0.0,0.0,0
8-8-2017 3:00,2255.35,-2254.707146889352,0.0,0.0,0.0,0
8-8-2017 4:00,2523.03,-2047.9600148950558,0.0,0.0,0.0,0
8-8-2017 5:00,3016.5,-2123.215819606372,0.0,0.0,0.0,0
8-8-2017 6:00,5373.47,-2156.017521671347,0.0,0.0,0.0,0
8-8-2017 7:00,10100.67,-1226.0824729113665,0.0,0.0,0.0,0
8-8-2017 8:00,14805.3,-595.3546797240851,0.0,0.0,0.0,0
8-8-2017 9:00,19329.18,-1530.7456646113678,0.0,0.0,0.0,0
8-8-2017 10:00,26156.2,98.72111828984634,0.0,0.0,0.0,0
8-8-2017 11:00,30415.18,-1194.8034439146686,0.0,0.0,0.0,0
8-8-2017 12:00,40455.83,8755.818826447867,0.0,0.0,0.0,0
8-8-2017 13:00,28777.43,1835.3308209857278,0.0,0.0,0.0,0
8-8-2017 14:00,26228.17,1528.365993522275,0.0,0.0,0.0,0
8-8-2017 15:00,25585.77,484.39390388892934,0.0,0.0,0.0,0
8-8-2017 16:00,26680.52,1514.5673246420956,0.0,0.0,0.0,0
8-8-2017 17:00,27201.18,2460.8679933357453,0.0,0.0,0.0,0
8-8-2017 18:00,25732.7,1739.9625755431261,0.0,0.0,0.0,0
8-8-2017 19:00,25945.75,2301.9169585213785,0.0,0.0,0.0,0
8-8-2017 20:00,25220.58,2561.3754005342525,0.0,0.0,0.0,0
8-8-2017 21:00,22769.82,2019.6507439348497,0.0,0.0,0.0,0
8-8-2017 22:00,20158.43,1005.0508421250379,0.0,0.0,0.0,0
8-8-2017 23:00,14744.85,-760.2798362393405,0.0,0.0,0.0,0
9-8-2017 0:00,7802.57,-1980.8126304719062,0.0,0.0,0.0,0
9-8-2017 1:00,4303.97,-2560.577023633039,0.0,0.0,0.0,0
9-8-2017 2:00,2863.88,-2818.9065095198457,0.0,0.0,0.0,0
9-8-2017 3:00,2575.65,-2739.5901532939515,0.0,0.0,0.0,0
9-8-2017 4:00,2289.1,-2906.5493606484924,0.0,0.0,0.0,0
9-8-2017 5:00,2932.57,-2685.547147605721,0.0,0.0,0.0,0
9-8-2017 6:00,5362.62,-2488.772116332155,0.0,0.0,0.0,0
9-8-2017 7:00,9714.9,-1831.9760760344288,0.0,0.0,0.0,0
9-8-2017 8:00,14252.0,-1258.063271317842,0.0,0.0,0.0,0
9-8-2017 9:00,19817.48,-1146.7061883919487,0.0,0.0,0.0,0
9-8-2017 10:00,26410.33,108.66997047628684,0.0,0.0,0.0,0
9-8-2017 11:00,38332.97,6711.769058030899,0.0,0.0,0.0,0
9-8-2017 12:00,31299.3,-396.85115438537105,0.0,0.0,0.0,0
9-8-2017 13:00,27744.85,664.5824121649603,0.0,0.0,0.0,0
9-8-2017 14:00,25662.1,798.6344470309923,0.0,0.0,0.0,0
9-8-2017 15:00,27201.2,2045.580694402779,0.0,0.0,0.0,0
9-8-2017 16:00,25579.98,416.007262177809,0.0,0.0,0.0,0
9-8-2017 17:00,24899.48,142.62478876163368,0.0,0.0,0.0,0
9-8-2017 18:00,25050.58,950.4425979812659,0.0,0.0,0.0,0
9-8-2017 19:00,26678.98,2846.87957745514,0.0,0.0,0.0,0
9-8-2017 20:00,25357.73,2502.6419026782896,0.0,0.0,0.0,0
9-8-2017 21:00,24146.63,3278.1235338151855,0.0,0.0,0.0,0
9-8-2017 22:00,20801.38,1597.5088741826985,0.0,0.0,0.0,0
9-8-2017 23:00,14133.43,-1412.6263767742166,0.0,0.0,0.0,0
10-8-2017 0:00,7874.07,-1891.347816460664,0.0,0.0,0.0,0
10-8-2017 1:00,4433.42,-2393.1844850398375,0.0,0.0,0.0,0
10-8-2017 2:00,3070.88,-2575.5753734537284,0.0,0.0,0.0,0
10-8-2017 3:00,2855.68,-2439.4103341495174,0.0,0.0,0.0,0
10-8-2017 4:00,2831.17,-2373.1082703594348,0.0,0.0,0.0,0
10-8-2017 5:00,3356.28,-2294.9667550438826,0.0,0.0,0.0,0
10-8-2017 6:00,5691.65,-2207.1337059130965,0.0,0.0,0.0,0
10-8-2017 7:00,10566.82,-1096.5333551810945,0.0,0.0,0.0,0
10-8-2017 8:00,15158.88,-527.8122200386788,0.0,0.0,0.0,0
10-8-2017 9:00,21473.25,278.71900054416983,0.0,0.0,0.0,0
10-8-2017 10:00,32873.15,6142.342676587152,0.0,0.0,0.0,0
10-8-2017 11:00,32009.7,133.43355510862602,0.0,0.0,0.0,0
10-8-2017 12:00,29439.12,-2555.9009988787147,0.0,0.0,0.0,0
10-8-2017 13:00,28338.83,836.3392388056272,0.0,0.0,0.0,0
10-8-2017 14:00,26383.1,1090.5932351226693,0.0,0.0,0.0,0
10-8-2017 15:00,27970.47,2513.9029186211155,0.0,0.0,0.0,0
10-8-2017 16:00,26622.93,1233.045133866406,0.0,0.0,0.0,0
10-8-2017 17:00,25821.57,884.8749277375864,0.0,0.0,0.0,0
10-8-2017 18:00,24400.28,94.0413733666428,0.0,0.0,0.0,0
10-8-2017 19:00,24221.25,166.91959952508842,0.0,0.0,0.0,0
10-8-2017 20:00,24966.53,1946.3344581474666,0.0,0.0,0.0,0
10-8-2017 21:00,23609.6,2724.5198468931812,0.0,0.0,0.0,0
10-8-2017 22:00,20017.67,936.1674576440382,0.0,0.0,0.0,0
10-8-2017 23:00,15631.08,288.054662300623,0.0,0.0,0.0,0
11-8-2017 0:00,8033.12,-1399.2783946336713,0.0,0.0,0.0,0
11-8-2017 1:00,4565.22,-1872.5722139706777,0.0,0.0,0.0,0
11-8-2017 2:00,3318.4,-1905.0393802514373,0.0,0.0,0.0,0
11-8-2017 3:00,2776.13,-2076.310533208689,0.0,0.0,0.0,0
11-8-2017 4:00,2803.4,-1951.159053566953,0.0,0.0,0.0,0
11-8-2017 5:00,3276.85,-1961.5104886321587,0.0,0.0,0.0,0
11-8-2017 6:00,5849.43,-1663.0616742976854,0.0,0.0,0.0,0
11-8-2017 7:00,10581.28,-777.1910372373459,0.0,0.0,0.0,0
11-8-2017 8:00,14676.22,-778.0655957750205,0.0,0.0,0.0,0
11-8-2017 9:00,21075.93,39.32965931136641,0.0,0.0,0.0,0
11-8-2017 10:00,24788.68,-2003.7587541260327,0.0,0.0,0.0,0
11-8-2017 11:00,37077.27,5292.694308707178,0.0,0.0,0.0,0
11-8-2017 12:00,29804.57,-2163.3241935063616,0.0,0.0,0.0,0
11-8-2017 13:00,27013.55,-610.0730140793021,0.0,0.0,0.0,0
11-8-2017 14:00,27645.2,2199.8372142974767,0.0,0.0,0.0,0
11-8-2017 15:00,27689.47,2183.234604531299,0.0,0.0,0.0,0
11-8-2017 16:00,26798.75,1409.3267378555684,0.0,0.0,0.0,0
11-8-2017 17:00,26981.07,2054.315678095343,0.0,0.0,0.0,0
11-8-2017 18:00,25170.72,811.5676392150672,0.0,0.0,0.0,0
11-8-2017 19:00,25085.6,925.6339911393225,0.0,0.0,0.0,0
11-8-2017 20:00,24959.07,1853.7682622421744,0.0,0.0,0.0,0
11-8-2017 21:00,22393.57,1637.2495213072689,0.0,0.0,0.0,0
11-8-2017 22:00,17929.13,-819.3384848479618,0.0,0.0,0.0,0
11-8-2017 23:00,14673.48,-190.5167118673271,0.0,0.0,0.0,0
12-8-2017 0:00,8378.55,-379.4992733389154,0.0,0.0,0.0,0
12-8-2017 1:00,5355.65,-133.60608264059556,0.0,0.0,0.0,0
12-8-2017 2:00,3863.52,-158.78536599507424,0.0,0.0,0.0,0
12-8-2017 3:00,3355.02,-58.25855042063631,0.0,0.0,0.0,0
12-8-2017 4:00,3163.07,73.13650586590666,0.0,0.0,0.0,0
12-8-2017 5:00,3604.83,255.96301051586124,0.0,0.0,0.0,0
12-8-2017 6:00,5881.87,493.97848014994815,0.0,0.0,0.0,0
12-8-2017 7:00,9496.97,443.3902936345621,0.0,0.0,0.0,0
12-8-2017 8:00,14589.25,1629.0809315127171,0.0,0.0,0.0,0
12-8-2017 9:00,19270.27,850.952444811046,0.0,0.0,0.0,0
12-8-2017 10:00,23590.38,-606.6958343983406,0.0,0.0,0.0,0
12-8-2017 11:00,24527.42,-4310.828363544992,0.0,0.0,0.0,0
12-8-2017 12:00,25811.72,-3076.768590276326,0.0,0.0,0.0,0
12-8-2017 13:00,24196.88,-401.9488699530484,0.0,0.0,0.0,0
12-8-2017 14:00,21879.0,-479.6448103630464,0.0,0.0,0.0,0
12-8-2017 15:00,21271.97,-950.7121142403576,0.0,0.0,0.0,0
12-8-2017 16:00,20705.18,-1256.9124636836132,0.0,0.0,0.0,0
12-8-2017 17:00,21021.13,-480.6515300015435,0.0,0.0,0.0,0
12-8-2017 18:00,21786.68,777.8087936825395,0.0,0.0,0.0,0
12-8-2017 19:00,22076.37,1202.1261184463056,0.0,0.0,0.0,0
12-8-2017 20:00,21211.48,1400.592649103326,0.0,0.0,0.0,0
12-8-2017 21:00,9533.28,-7882.309880594447,0.0,0.0,0.0,0
12-8-2017 22:00,14205.78,-1165.2331627380172,0.0,0.0,0.0,0
12-8-2017 23:00,12927.77,1419.6735194844296,0.0,0.0,0.0,0
13-8-2017 0:00,7164.9,1790.5217943933003,0.0,0.0,0.0,0
13-8-2017 1:00,5013.08,2885.8769765874786,0.0,0.0,0.0,0
13-8-2017 2:00,3791.08,3087.620557619821,0.0,0.0,0.0,0
13-8-2017 3:00,3342.75,3190.540323186495,0.0,0.0,0.0,0
13-8-2017 4:00,3176.63,3277.4239375783764,0.0,0.0,0.0,0
13-8-2017 5:00,3359.03,3075.1509097946073,0.0,0.0,0.0,0
13-8-2017 6:00,4934.83,2496.4255625794194,0.0,0.0,0.0,0
13-8-2017 7:00,7842.12,1567.7110803394135,0.0,0.0,0.0,0
13-8-2017 8:00,11538.23,1195.8494424845085,0.0,0.0,0.0,0
13-8-2017 9:00,15898.57,-85.25359542237675,0.0,0.0,0.0,0
13-8-2017 10:00,19528.9,-2560.06254982089,0.0,0.0,0.0,0
13-8-2017 11:00,20806.9,-5877.731480364551,0.0,0.0,0.0,0
13-8-2017 12:00,20500.77,-6406.484241030841,0.0,0.0,0.0,0
13-8-2017 13:00,20157.98,-2671.2679996153747,0.0,0.0,0.0,0
13-8-2017 14:00,17858.73,-2825.4521286161744,0.0,0.0,0.0,0
13-8-2017 15:00,17343.23,-3165.1961464086453,0.0,0.0,0.0,0
13-8-2017 16:00,16758.22,-3502.880998423456,0.0,0.0,0.0,0
13-8-2017 17:00,17605.98,-2369.5052575200116,0.0,0.0,0.0,0
13-8-2017 18:00,19207.92,-521.6837574924793,0.0,0.0,0.0,0
13-8-2017 19:00,19915.7,83.82735388988294,0.0,0.0,0.0,0
13-8-2017 20:00,20162.75,1230.5889578801543,0.0,0.0,0.0,0
13-8-2017 21:00,17739.87,843.4505991989481,0.0,0.0,0.0,0
13-8-2017 22:00,14845.85,-375.1399991535254,0.0,0.0,0.0,0
13-8-2017 23:00,11945.92,160.41955209016305,0.0,0.0,0.0,0
14-8-2017 0:00,6976.47,946.5866231589298,0.0,0.0,0.0,0
14-8-2017 1:00,4281.57,1008.2998520847286,0.0,0.0,0.0,0
14-8-2017 2:00,3199.75,838.0723527396622,0.0,0.0,0.0,0
14-8-2017 3:00,3043.3,706.151123534326,0.0,0.0,0.0,0
14-8-2017 4:00,2827.47,204.03935126731085,0.0,0.0,0.0,0
14-8-2017 5:00,3312.05,-49.545601531302964,0.0,0.0,0.0,0
14-8-2017 6:00,5114.47,-744.9041581768943,0.0,0.0,0.0,0
14-8-2017 7:00,8792.28,-1301.1673287226404,0.0,0.0,0.0,0
14-8-2017 8:00,13058.52,-1492.033634891728,0.0,0.0,0.0,0
14-8-2017 9:00,19826.45,-554.8850269819523,0.0,0.0,0.0,0
14-8-2017 10:00,47827.75,21006.85154045227,0.0,0.0,0.0,0
14-8-2017 11:00,28624.3,-2753.807594466536,0.0,0.0,0.0,0
14-8-2017 12:00,32570.67,790.5133079540974,0.0,0.0,0.0,0
14-8-2017 13:00,29312.32,1469.1325475070407,0.0,0.0,0.0,0
14-8-2017 14:00,25978.97,256.3467069607286,0.0,0.0,0.0,0
14-8-2017 15:00,25417.27,-19.187547701611038,0.0,0.0,0.0,0
14-8-2017 16:00,24424.53,-707.2578129192407,0.0,0.0,0.0,0
14-8-2017 17:00,24053.1,-513.9642936944438,0.0,0.0,0.0,0
14-8-2017 18:00,23700.52,-413.8886462234914,0.0,0.0,0.0,0
14-8-2017 19:00,23319.33,-680.4802743345172,0.0,0.0,0.0,0
14-8-2017 20:00,11972.47,-10837.510123122975,0.0,0.0,0.0,0
14-8-2017 21:00,21893.4,1874.5418325533974,0.0,0.0,0.0,0
14-8-2017 22:00,17890.63,292.89064772090205,0.0,0.0,0.0,0
14-8-2017 23:00,14248.82,773.9797977147136,0.0,0.0,0.0,0
15-8-2017 0:00,8402.25,1419.7623946722597,0.0,0.0,0.0,0
15-8-2017 1:00,5430.18,1905.7319320161605,0.0,0.0,0.0,0
15-8-2017 2:00,3609.8,1676.7816139801544,0.0,0.0,0.0,0
15-8-2017 3:00,3087.67,1844.4476516892828,0.0,0.0,0.0,0
15-8-2017 4:00,2949.0,2072.037232449924,0.0,0.0,0.0,0
15-8-2017 5:00,3579.88,2248.891319140974,0.0,0.0,0.0,0
15-8-2017 6:00,5418.88,1884.4905175694948,0.0,0.0,0.0,0
15-8-2017 7:00,8717.45,1188.4352432665783,0.0,0.0,0.0,0
15-8-2017 8:00,12825.22,1087.4808533318774,0.0,0.0,0.0,0
15-8-2017 9:00,17348.95,-236.15964886209076,0.0,0.0,0.0,0
15-8-2017 10:00,21766.82,-2419.5543264497483,0.0,0.0,0.0,0
15-8-2017 11:00,24372.37,-4160.030432598316,0.0,0.0,0.0,0
15-8-2017 12:00,23425.85,-5515.302633945381,0.0,0.0,0.0,0
15-8-2017 13:00,21461.77,-3735.9293897136904,0.0,0.0,0.0,0
15-8-2017 14:00,19162.53,-3991.5859352642583,0.0,0.0,0.0,0
15-8-2017 15:00,18732.87,-4077.1494202551985,0.0,0.0,0.0,0
15-8-2017 16:00,18774.6,-3725.7039790213694,0.0,0.0,0.0,0
15-8-2017 17:00,20746.28,-1438.2837197855642,0.0,0.0,0.0,0
15-8-2017 18:00,22683.13,629.9050368184708,0.0,0.0,0.0,0
15-8-2017 19:00,22651.22,401.6237879980563,0.0,0.0,0.0,0
15-8-2017 20:00,23094.42,1796.9356052148669,0.0,0.0,0.0,0
15-8-2017 21:00,21451.68,2444.485906978187,0.0,0.0,0.0,0
15-8-2017 22:00,18668.43,1572.1671322119946,0.0,0.0,0.0,0
15-8-2017 23:00,15090.25,1548.4188775022594,0.0,0.0,0.0,0
16-8-2017 0:00,8489.75,954.2054523856168,0.0,0.0,0.0,0
16-8-2017 1:00,5374.43,704.6809260458394,0.0,0.0,0.0,0
16-8-2017 2:00,3719.53,17.67714698106647,0.0,0.0,0.0,0
16-8-2017 3:00,3251.68,-405.0766986333583,0.0,0.0,0.0,0
16-8-2017 4:00,3112.22,-839.4456098340524,0.0,0.0,0.0,0
16-8-2017 5:00,3636.98,-1209.6567601960196,0.0,0.0,0.0,0
16-8-2017 6:00,5835.5,-1644.959479969766,0.0,0.0,0.0,0
16-8-2017 7:00,10694.12,-1277.4063948834773,0.0,0.0,0.0,0
16-8-2017 8:00,14593.83,-2073.3858812152357,0.0,0.0,0.0,0
16-8-2017 9:00,20583.73,-2190.2600620566336,0.0,0.0,0.0,0
16-8-2017 10:00,33458.3,3606.2862774289097,0.0,0.0,0.0,0
16-8-2017 11:00,46446.6,12291.486309812073,0.0,0.0,0.0,0
16-8-2017 12:00,33956.92,-836.682960172322,0.0,0.0,0.0,0
16-8-2017 13:00,31657.88,461.4973132102132,0.0,0.0,0.0,0
16-8-2017 14:00,30546.25,1357.0778083270452,0.0,0.0,0.0,0
16-8-2017 15:00,30110.22,1406.7012831561588,0.0,0.0,0.0,0
16-8-2017 16:00,28157.28,-172.95908437949038,0.0,0.0,0.0,0
16-8-2017 17:00,28214.48,551.4251294996684,0.0,0.0,0.0,0
16-8-2017 18:00,27534.32,250.1329235883495,0.0,0.0,0.0,0
16-8-2017 19:00,26134.3,-1099.6582321254718,0.0,0.0,0.0,0
16-8-2017 20:00,31082.92,5157.4207761411235,0.0,0.0,0.0,0
16-8-2017 21:00,24738.6,1901.4198513262781,0.0,0.0,0.0,0
16-8-2017 22:00,22152.72,2010.6626046596684,0.0,0.0,0.0,0
16-8-2017 23:00,16467.78,621.3990513652861,0.0,0.0,0.0,0
17-8-2017 0:00,8387.75,-663.3826779231567,0.0,0.0,0.0,0
17-8-2017 1:00,5317.58,-181.57208196855936,0.0,0.0,0.0,0
17-8-2017 2:00,3297.55,-578.8101360840519,0.0,0.0,0.0,0
17-8-2017 3:00,2689.25,-508.2846790439762,0.0,0.0,0.0,0
17-8-2017 4:00,2784.53,-90.90093066722329,0.0,0.0,0.0,0
17-8-2017 5:00,3095.27,-368.3466617084123,0.0,0.0,0.0,0
17-8-2017 6:00,4870.35,-909.7806433106125,0.0,0.0,0.0,0
17-8-2017 7:00,7023.58,-2996.4651418992144,0.0,0.0,0.0,0
17-8-2017 8:00,7986.3,-6468.80566769213,0.0,0.0,0.0,0
17-8-2017 9:00,14317.67,-6215.346400226928,0.0,0.0,0.0,0
17-8-2017 10:00,18327.85,-9471.709462553916,0.0,0.0,0.0,0
17-8-2017 11:00,28656.1,-3115.393710524746,0.0,0.0,0.0,0
17-8-2017 12:00,32612.53,261.0495319678121,0.0,0.0,0.0,0
17-8-2017 13:00,36506.17,7532.496701610427,0.0,0.0,0.0,0
17-8-2017 14:00,30652.62,3576.604104503909,0.0,0.0,0.0,0
17-8-2017 15:00,29949.32,3427.3344062623146,0.0,0.0,0.0,0
17-8-2017 16:00,27407.78,1249.6234348263424,0.0,0.0,0.0,0
17-8-2017 17:00,26482.9,713.0044677657825,0.0,0.0,0.0,0
17-8-2017 18:00,26612.92,839.0541637560491,0.0,0.0,0.0,0
17-8-2017 19:00,26184.05,76.82112823618445,0.0,0.0,0.0,0
17-8-2017 20:00,25854.88,782.2653546399197,0.0,0.0,0.0,0
17-8-2017 21:00,24512.75,2273.9496368031796,0.0,0.0,0.0,0
17-8-2017 22:00,21612.88,1800.9964893851247,0.0,0.0,0.0,0
17-8-2017 23:00,16533.02,705.6602086550702,0.0,0.0,0.0,0
18-8-2017 0:00,8740.67,-554.8772536562064,0.0,0.0,0.0,0
18-8-2017 1:00,5026.43,-806.7873390331515,0.0,0.0,0.0,0
18-8-2017 2:00,3589.7,-741.6654718252794,0.0,0.0,0.0,0
18-8-2017 3:00,3348.05,-446.596515756617,0.0,0.0,0.0,0
18-8-2017 4:00,3102.45,-528.87265520867,0.0,0.0,0.0,0
18-8-2017 5:00,3588.63,-674.6941334246585,0.0,0.0,0.0,0
18-8-2017 6:00,6008.45,-604.680543350918,0.0,0.0,0.0,0
18-8-2017 7:00,10800.37,-152.11268236901742,0.0,0.0,0.0,0
18-8-2017 8:00,15690.53,213.02569562230565,0.0,0.0,0.0,0
18-8-2017 9:00,19049.67,-2555.9684949158946,0.0,0.0,0.0,0
18-8-2017 10:00,28541.68,-598.1070979126343,0.0,0.0,0.0,0
18-8-2017 11:00,38891.17,6031.52823490532,0.0,0.0,0.0,0
18-8-2017 12:00,31176.58,-2283.6321489824004,0.0,0.0,0.0,0
18-8-2017 13:00,29842.07,-284.939758454555,0.0,0.0,0.0,0
18-8-2017 14:00,28587.95,423.8528768407232,0.0,0.0,0.0,0
18-8-2017 15:00,28584.77,1217.888330153568,0.0,0.0,0.0,0
18-8-2017 16:00,27287.53,449.8350794424259,0.0,0.0,0.0,0
18-8-2017 17:00,26548.83,287.0727472842773,0.0,0.0,0.0,0
18-8-2017 18:00,26064.27,-117.69583898174824,0.0,0.0,0.0,0
18-8-2017 19:00,26032.02,-400.300938465527,0.0,0.0,0.0,0
18-8-2017 20:00,24152.57,-1052.3816780825218,0.0,0.0,0.0,0
18-8-2017 21:00,22132.73,37.83742104990233,0.0,0.0,0.0,0
18-8-2017 22:00,18445.85,-959.5820171285486,0.0,0.0,0.0,0
18-8-2017 23:00,14821.03,-380.28141530321955,0.0,0.0,0.0,0
19-8-2017 0:00,8337.8,-64.38500064627078,0.0,0.0,0.0,0
19-8-2017 1:00,4867.47,51.32793900971592,0.0,0.0,0.0,0
19-8-2017 2:00,3579.28,357.41343390541806,0.0,0.0,0.0,0
19-8-2017 3:00,3008.15,394.25959536713344,0.0,0.0,0.0,0
19-8-2017 4:00,3086.28,690.2972744507497,0.0,0.0,0.0,0
19-8-2017 5:00,3594.8,607.68884122073,0.0,0.0,0.0,0
19-8-2017 6:00,5819.38,533.8587951311893,0.0,0.0,0.0,0
19-8-2017 7:00,9838.88,199.25780784435847,0.0,0.0,0.0,0
19-8-2017 8:00,14132.13,-37.7861182193119,0.0,0.0,0.0,0
19-8-2017 9:00,19310.65,-959.399709877398,0.0,0.0,0.0,0
19-8-2017 10:00,30274.75,2281.1702033396105,0.0,0.0,0.0,0
19-8-2017 11:00,35134.47,3751.339173829845,0.0,0.0,0.0,0
19-8-2017 12:00,32473.28,547.2192204453495,0.0,0.0,0.0,0
19-8-2017 13:00,28214.12,-440.8852909226771,0.0,0.0,0.0,0
19-8-2017 14:00,26619.18,-25.199546006715536,0.0,0.0,0.0,0
19-8-2017 15:00,25419.98,-201.54106392053654,0.0,0.0,0.0,0
19-8-2017 16:00,24958.38,13.86128331204236,0.0,0.0,0.0,0
19-8-2017 17:00,23953.02,-320.08386854995297,0.0,0.0,0.0,0
19-8-2017 18:00,24603.95,402.1998083214894,0.0,0.0,0.0,0
19-8-2017 19:00,24313.25,-148.04680973246104,0.0,0.0,0.0,0
19-8-2017 20:00,23414.17,280.7980300235595,0.0,0.0,0.0,0
19-8-2017 21:00,12707.95,-7012.657933327291,0.0,0.0,0.0,0
19-8-2017 22:00,4727.52,-12014.623541718574,0.0,0.0,0.0,0
19-8-2017 23:00,12743.92,451.95406320969596,0.0,0.0,0.0,0
20-8-2017 0:00,7318.77,2119.7044753824302,0.0,0.0,0.0,0
20-8-2017 1:00,4813.92,3477.598659786585,0.0,0.0,0.0,0
20-8-2017 2:00,3269.5,3772.8660020853677,0.0,0.0,0.0,0
20-8-2017 3:00,3224.03,4559.617588655372,0.0,0.0,0.0,0
20-8-2017 4:00,2552.45,4313.5173059899025,0.0,0.0,0.0,0
20-8-2017 5:00,3252.27,4430.273480825841,0.0,0.0,0.0,0
20-8-2017 6:00,5002.12,3900.3013616530116,0.0,0.0,0.0,0
20-8-2017 7:00,8074.8,2571.3230891774474,0.0,0.0,0.0,0
20-8-2017 8:00,11970.15,1898.298422138776,0.0,0.0,0.0,0
20-8-2017 9:00,16192.98,-211.56187396753194,0.0,0.0,0.0,0
20-8-2017 10:00,19233.58,-5344.430747865097,0.0,0.0,0.0,0
20-8-2017 11:00,22006.8,-5891.015443030901,0.0,0.0,0.0,0
20-8-2017 12:00,25314.2,-3329.4622692404937,0.0,0.0,0.0,0
20-8-2017 13:00,21652.35,-4009.6166609513675,0.0,0.0,0.0,0
20-8-2017 14:00,19522.77,-4308.070784861688,0.0,0.0,0.0,0
20-8-2017 15:00,18541.02,-4268.532252449144,0.0,0.0,0.0,0
20-8-2017 16:00,18427.82,-3784.127285719822,0.0,0.0,0.0,0
20-8-2017 17:00,18617.47,-3145.028386656737,0.0,0.0,0.0,0
20-8-2017 18:00,20670.68,-1346.3455760189172,0.0,0.0,0.0,0
20-8-2017 19:00,21455.32,-1147.8868420141116,0.0,0.0,0.0,0
20-8-2017 20:00,22448.37,956.200447743844,0.0,0.0,0.0,0
20-8-2017 21:00,18814.85,340.27769740470103,0.0,0.0,0.0,0
20-8-2017 22:00,15998.65,93.67419429557594,0.0,0.0,0.0,0
20-8-2017 23:00,13011.98,1105.3670778217784,0.0,0.0,0.0,0
21-8-2017 0:00,6948.58,1730.7697630052862,0.0,0.0,0.0,0
21-8-2017 1:00,4301.35,2432.9995315342494,0.0,0.0,0.0,0
21-8-2017 2:00,3215.8,2642.563060612745,0.0,0.0,0.0,0
21-8-2017 3:00,2946.05,2639.2944116676845,0.0,0.0,0.0,0
21-8-2017 4:00,2728.5,2264.810506629765,0.0,0.0,0.0,0
21-8-2017 5:00,3270.32,1850.4728086277064,0.0,0.0,0.0,0
21-8-2017 6:00,5320.63,1258.3901354676345,0.0,0.0,0.0,0
21-8-2017 7:00,9353.1,460.48609689937075,0.0,0.0,0.0,0
21-8-2017 8:00,12490.6,-1389.6277920182547,0.0,0.0,0.0,0
21-8-2017 9:00,17340.07,-3059.819184106733,0.0,0.0,0.0,0
21-8-2017 10:00,33567.23,4589.51876334718,0.0,0.0,0.0,0
21-8-2017 11:00,36961.42,4779.236010991386,0.0,0.0,0.0,0
21-8-2017 12:00,30552.3,-2533.0620795772593,0.0,0.0,0.0,0
21-8-2017 13:00,30090.18,-158.34567209928719,0.0,0.0,0.0,0
21-8-2017 14:00,27854.15,-598.2489853041916,0.0,0.0,0.0,0
21-8-2017 15:00,26883.23,-404.9497230335983,0.0,0.0,0.0,0
21-8-2017 16:00,26573.48,-51.999335451604566,0.0,0.0,0.0,0
21-8-2017 17:00,25812.55,-176.44262082503337,0.0,0.0,0.0,0
21-8-2017 18:00,24694.05,-1466.3469117824206,0.0,0.0,0.0,0
21-8-2017 19:00,24218.07,-2446.1819703347937,0.0,0.0,0.0,0
21-8-2017 20:00,23380.67,-1980.4713751908312,0.0,0.0,0.0,0
21-8-2017 21:00,21369.7,-390.0999554536029,0.0,0.0,0.0,0
21-8-2017 22:00,18639.52,19.249949733210087,0.0,0.0,0.0,0
21-8-2017 23:00,14653.42,558.4994148711266,0.0,0.0,0.0,0
22-8-2017 0:00,7523.2,691.7856760791947,0.0,0.0,0.0,0
22-8-2017 1:00,4247.5,1411.0331169232668,0.0,0.0,0.0,0
22-8-2017 2:00,3396.07,2468.9149209717834,0.0,0.0,0.0,0
22-8-2017 3:00,3046.9,2979.2581247019516,0.0,0.0,0.0,0
22-8-2017 4:00,2838.05,3189.6528165892123,0.0,0.0,0.0,0
22-8-2017 5:00,3439.67,3247.747075130792,0.0,0.0,0.0,0
22-8-2017 6:00,5682.1,3270.9396773651133,0.0,0.0,0.0,0
22-8-2017 7:00,9608.78,2724.1289559768757,0.0,0.0,0.0,0
22-8-2017 8:00,13846.93,2341.024928453009,0.0,0.0,0.0,0
22-8-2017 9:00,19050.42,1198.8619378617932,0.0,0.0,0.0,0
22-8-2017 10:00,24758.62,-1714.1616956383132,0.0,0.0,0.0,0
22-8-2017 11:00,31937.68,2736.709092510411,0.0,0.0,0.0,0
22-8-2017 12:00,21725.97,-8174.558664722772,0.0,0.0,0.0,0
22-8-2017 13:00,21257.33,-5837.163593163954,0.0,0.0,0.0,0
22-8-2017 14:00,19086.25,-6133.058230771463,0.0,0.0,0.0,0
22-8-2017 15:00,23165.47,-632.6303737508097,0.0,0.0,0.0,0
22-8-2017 16:00,21060.7,-1895.3403626921408,0.0,0.0,0.0,0
22-8-2017 17:00,22798.05,437.1407490784313,0.0,0.0,0.0,0
22-8-2017 18:00,17915.88,-4761.704061893644,0.0,0.0,0.0,0
22-8-2017 19:00,17844.07,-5483.148606755569,0.0,0.0,0.0,0
22-8-2017 20:00,20033.58,-2026.5603999779596,0.0,0.0,0.0,0
22-8-2017 21:00,17307.83,-1288.3842472572906,0.0,0.0,0.0,0
22-8-2017 22:00,15399.8,-207.7338405948649,0.0,0.0,0.0,0
22-8-2017 23:00,11520.85,244.86929933443935,0.0,0.0,0.0,0
23-8-2017 0:00,1891.33,-2233.4375016225804,0.0,0.0,0.0,0
23-8-2017 1:00,2905.43,2507.3368517470444,0.0,0.0,0.0,0
23-8-2017 2:00,2716.63,3917.064083485562,0.0,0.0,0.0,0
23-8-2017 3:00,2187.47,3907.8201872424306,0.0,0.0,0.0,0
23-8-2017 4:00,2459.95,4238.326296172019,0.0,0.0,0.0,0
23-8-2017 5:00,3142.77,4033.9181814530384,0.0,0.0,0.0,0
23-8-2017 6:00,5163.33,3500.8781738986036,0.0,0.0,0.0,0
23-8-2017 7:00,9231.53,2684.5162316912865,0.0,0.0,0.0,0
23-8-2017 8:00,13756.43,2185.0573282724636,0.0,0.0,0.0,0
23-8-2017 9:00,27648.78,9396.607974946479,0.0,0.0,0.0,0
23-8-2017 10:00,25062.1,-2446.7992627378135,0.0,0.0,0.0,0
23-8-2017 11:00,27736.73,-2443.9415725516283,0.0,0.0,0.0,0
23-8-2017 12:00,25147.37,-6004.863363628629,0.0,0.0,0.0,0
23-8-2017 13:00,24864.42,-3732.1001001367767,0.0,0.0,0.0,0
23-8-2017 14:00,24057.17,-2813.0066241355526,0.0,0.0,0.0,0
23-8-2017 15:00,24056.08,-1321.5423960291391,0.0,0.0,0.0,0
23-8-2017 16:00,23733.57,-821.5467486285288,0.0,0.0,0.0,0
23-8-2017 17:00,23222.15,-673.7468321059187,0.0,0.0,0.0,0
23-8-2017 18:00,21691.07,-2581.656383320016,0.0,0.0,0.0,0
23-8-2017 19:00,22152.75,-2859.0554863898906,0.0,0.0,0.0,0
23-8-2017 20:00,20985.72,-2688.6190471713726,0.0,0.0,0.0,0
23-8-2017 21:00,16883.78,-3095.1395201550295,0.0,0.0,0.0,0
23-8-2017 22:00,14337.85,-2442.6155437744637,0.0,0.0,0.0,0
23-8-2017 23:00,11082.4,-1186.5092753230037,0.0,0.0,0.0,0
24-8-2017 0:00,6668.85,1774.6842705152085,0.0,0.0,0.0,0
24-8-2017 1:00,4366.18,3367.8058420130365,0.0,0.0,0.0,0
24-8-2017 2:00,3026.12,3752.8788070442024,0.0,0.0,0.0,0
24-8-2017 3:00,2714.15,4058.6181164304107,0.0,0.0,0.0,0
24-8-2017 4:00,2671.15,4149.535137474042,0.0,0.0,0.0,0
24-8-2017 5:00,2991.55,3566.86935168134,0.0,0.0,0.0,0
24-8-2017 6:00,4918.03,2933.2514365249917,0.0,0.0,0.0,0
24-8-2017 7:00,8224.57,1271.8706886739128,0.0,0.0,0.0,0
24-8-2017 8:00,12193.57,141.11932453544796,0.0,0.0,0.0,0
24-8-2017 9:00,19782.23,870.2676642658407,0.0,0.0,0.0,0
24-8-2017 10:00,30802.92,2155.1313036777065,0.0,0.0,0.0,0
24-8-2017 11:00,27868.28,-3238.4596228183054,0.0,0.0,0.0,0
24-8-2017 12:00,29738.42,-2455.480966458781,0.0,0.0,0.0,0
24-8-2017 13:00,28329.42,-1543.6707208932003,0.0,0.0,0.0,0
24-8-2017 14:00,27858.12,-422.0503411425507,0.0,0.0,0.0,0
24-8-2017 15:00,25938.4,-762.4509518096875,0.0,0.0,0.0,0
24-8-2017 16:00,13454.47,-12427.820296545971,0.0,0.0,0.0,0
24-8-2017 17:00,25108.03,-114.1743610747144,0.0,0.0,0.0,0
24-8-2017 18:00,25332.18,-390.2314383342091,0.0,0.0,0.0,0
24-8-2017 19:00,24106.25,-2507.705979256989,0.0,0.0,0.0,0
24-8-2017 20:00,23019.38,-2249.742187242511,0.0,0.0,0.0,0
24-8-2017 21:00,21855.22,539.4491268431775,0.0,0.0,0.0,0
24-8-2017 22:00,18294.92,413.97230788638626,0.0,0.0,0.0,0
24-8-2017 23:00,13832.75,669.9573398045177,0.0,0.0,0.0,0
25-8-2017 0:00,8843.27,3305.3468673824755,0.0,0.0,0.0,0
25-8-2017 1:00,5500.45,4127.958369872729,0.0,0.0,0.0,0
25-8-2017 2:00,4059.88,4639.649781060787,0.0,0.0,0.0,0
25-8-2017 3:00,3469.13,4864.925008940572,0.0,0.0,0.0,0
25-8-2017 4:00,3343.65,5049.826125781608,0.0,0.0,0.0,0
25-8-2017 5:00,3834.83,4807.108300124197,0.0,0.0,0.0,0
25-8-2017 6:00,5823.58,4414.26810857495,0.0,0.0,0.0,0
25-8-2017 7:00,9440.9,3165.326956740417,0.0,0.0,0.0,0
25-8-2017 8:00,13207.85,1942.1515335426284,0.0,0.0,0.0,0
25-8-2017 9:00,16562.73,-1464.2807961585677,0.0,0.0,0.0,0
25-8-2017 10:00,20046.48,-7918.543804775572,0.0,0.0,0.0,0
25-8-2017 11:00,26879.92,-3054.3208730788137,0.0,0.0,0.0,0
25-8-2017 12:00,29884.05,-976.0392944077848,0.0,0.0,0.0,0
25-8-2017 13:00,22771.12,-5811.266142383123,0.0,0.0,0.0,0
25-8-2017 14:00,23469.05,-3462.0429344976983,0.0,0.0,0.0,0
25-8-2017 15:00,26767.6,1694.38754044696,0.0,0.0,0.0,0
25-8-2017 16:00,19743.9,-4322.90087204086,0.0,0.0,0.0,0
25-8-2017 17:00,19594.38,-3795.087881883672,0.0,0.0,0.0,0
25-8-2017 18:00,20010.07,-3986.601449451289,0.0,0.0,0.0,0
25-8-2017 19:00,20835.27,-4189.030392489687,0.0,0.0,0.0,0
25-8-2017 20:00,19445.1,-4210.618211941972,0.0,0.0,0.0,0
25-8-2017 21:00,17711.12,-1901.436665545889,0.0,0.0,0.0,0
25-8-2017 22:00,14937.35,-1172.135834598983,0.0,0.0,0.0,0
25-8-2017 23:00,11881.45,528.5964060268689,0.0,0.0,0.0,0
26-8-2017 0:00,7187.93,3541.9503605856153,0.0,0.0,0.0,0
26-8-2017 1:00,4674.02,5252.014907898034,0.0,0.0,0.0,0
26-8-2017 2:00,3612.8,6159.087879072693,0.0,0.0,0.0,0
26-8-2017 3:00,3191.78,6541.312139275777,0.0,0.0,0.0,0
26-8-2017 4:00,3113.43,6738.710465743945,0.0,0.0,0.0,0
26-8-2017 5:00,3379.25,6209.974232364388,0.0,0.0,0.0,0
26-8-2017 6:00,5094.55,5492.3653965648045,0.0,0.0,0.0,0
26-8-2017 7:00,8291.48,3694.867472889384,0.0,0.0,0.0,0
26-8-2017 8:00,12360.38,2653.4416227748316,0.0,0.0,0.0,0
26-8-2017 9:00,17530.98,926.5465715026021,0.0,0.0,0.0,0
26-8-2017 10:00,22061.13,-4917.885137282719,0.0,0.0,0.0,0
26-8-2017 11:00,23613.27,-5079.610399532632,0.0,0.0,0.0,0
26-8-2017 12:00,27045.32,-2646.47795068955,0.0,0.0,0.0,0
26-8-2017 13:00,22328.35,-5238.360480717276,0.0,0.0,0.0,0
26-8-2017 14:00,20434.25,-5532.303033208536,0.0,0.0,0.0,0
26-8-2017 15:00,19264.25,-4675.370061163541,0.0,0.0,0.0,0
26-8-2017 16:00,19195.62,-3659.2461299143724,0.0,0.0,0.0,0
26-8-2017 17:00,22271.0,132.63590622411357,0.0,0.0,0.0,0
26-8-2017 18:00,19734.92,-3095.722160356261,0.0,0.0,0.0,0
26-8-2017 19:00,20833.25,-3139.1835142149157,0.0,0.0,0.0,0
26-8-2017 20:00,18824.7,-3733.4809538385925,0.0,0.0,0.0,0
26-8-2017 21:00,4714.1,-13578.195900395362,0.0,0.0,0.0,0
26-8-2017 22:00,14064.98,-523.0841448080027,0.0,0.0,0.0,0
26-8-2017 23:00,11696.63,2036.5885792623249,0.0,0.0,0.0,0
27-8-2017 0:00,7234.82,5496.570235538624,0.0,0.0,0.0,0
27-8-2017 1:00,4668.87,7351.061567715971,0.0,0.0,0.0,0
27-8-2017 2:00,3552.27,8356.709838920007,0.0,0.0,0.0,0
27-8-2017 3:00,3206.52,8939.34687148916,0.0,0.0,0.0,0
27-8-2017 4:00,3068.22,9180.086147627228,0.0,0.0,0.0,0
27-8-2017 5:00,3186.15,8507.98198924448,0.0,0.0,0.0,0
27-8-2017 6:00,4693.57,7596.354991913515,0.0,0.0,0.0,0
27-8-2017 7:00,7248.97,5094.340779116164,0.0,0.0,0.0,0
27-8-2017 8:00,11189.28,3869.3049848038027,0.0,0.0,0.0,0
27-8-2017 9:00,14164.67,-224.12540359620834,0.0,0.0,0.0,0
27-8-2017 10:00,17846.43,-7388.65842810659,0.0,0.0,0.0,0
27-8-2017 11:00,18590.3,-8138.444499859917,0.0,0.0,0.0,0
27-8-2017 12:00,19152.12,-8683.753796401525,0.0,0.0,0.0,0
27-8-2017 13:00,18648.33,-7273.019194768536,0.0,0.0,0.0,0
27-8-2017 14:00,16517.32,-7912.954693923397,0.0,0.0,0.0,0
27-8-2017 15:00,15462.98,-6829.256411064971,0.0,0.0,0.0,0
27-8-2017 16:00,15764.93,-5422.157322365712,0.0,0.0,0.0,0
27-8-2017 17:00,16949.25,-3637.69688358432,0.0,0.0,0.0,0
27-8-2017 18:00,17849.65,-3670.1800925158313,0.0,0.0,0.0,0
27-8-2017 19:00,18482.9,-4448.414500533132,0.0,0.0,0.0,0
27-8-2017 20:00,17400.28,-4226.642203666592,0.0,0.0,0.0,0
27-8-2017 21:00,15784.2,-1786.989263327192,0.0,0.0,0.0,0
27-8-2017 22:00,13672.97,-425.7022032503628,0.0,0.0,0.0,0
27-8-2017 23:00,10855.63,1423.4953841134557,0.0,0.0,0.0,0
28-8-2017 0:00,6340.15,4611.8491219563275,0.0,0.0,0.0,0
28-8-2017 1:00,4366.35,6684.150555138214,0.0,0.0,0.0,0
28-8-2017 2:00,3479.45,7502.647442511237,0.0,0.0,0.0,0
28-8-2017 3:00,2921.23,7427.15056358607,0.0,0.0,0.0,0
28-8-2017 4:00,2873.78,7291.224105533647,0.0,0.0,0.0,0
28-8-2017 5:00,3314.88,6544.345744576716,0.0,0.0,0.0,0
28-8-2017 6:00,4974.78,5396.5943081433725,0.0,0.0,0.0,0
28-8-2017 7:00,8140.98,3039.9275286530956,0.0,0.0,0.0,0
28-8-2017 8:00,11511.28,787.3955125719294,0.0,0.0,0.0,0
28-8-2017 9:00,20092.08,1990.8628169701988,0.0,0.0,0.0,0
28-8-2017 10:00,23700.93,-5855.478493339189,0.0,0.0,0.0,0
28-8-2017 11:00,23247.57,-7719.472344669874,0.0,0.0,0.0,0
28-8-2017 12:00,35026.28,2706.7096433298866,0.0,0.0,0.0,0
28-8-2017 13:00,25771.62,-4845.883191894838,0.0,0.0,0.0,0
28-8-2017 14:00,24460.6,-4776.806206231711,0.0,0.0,0.0,0
28-8-2017 15:00,22407.3,-4582.857181078272,0.0,0.0,0.0,0
28-8-2017 16:00,24238.23,-1628.4392234684128,0.0,0.0,0.0,0
28-8-2017 17:00,24973.68,-139.9142506899534,0.0,0.0,0.0,0
28-8-2017 18:00,23605.62,-2412.1664706184565,0.0,0.0,0.0,0
28-8-2017 19:00,23245.12,-4185.408503774221,0.0,0.0,0.0,0
28-8-2017 20:00,22067.82,-3899.741041397274,0.0,0.0,0.0,0
28-8-2017 21:00,20125.23,-1316.439714084705,0.0,0.0,0.0,0
28-8-2017 22:00,17294.3,-228.41472439228164,0.0,0.0,0.0,0
28-8-2017 23:00,12407.32,-32.189648608848074,0.0,0.0,0.0,0
29-8-2017 0:00,7517.13,3241.6487959267142,0.0,0.0,0.0,0
29-8-2017 1:00,4643.8,4824.798173638763,0.0,0.0,0.0,0
29-8-2017 2:00,3536.43,5790.691520706401,0.0,0.0,0.0,0
29-8-2017 3:00,3152.45,6228.488573812549,0.0,0.0,0.0,0
29-8-2017 4:00,3079.67,6380.974831216372,0.0,0.0,0.0,0
29-8-2017 5:00,3462.3,5713.95644563805,0.0,0.0,0.0,0
29-8-2017 6:00,5549.3,5140.974748055134,0.0,0.0,0.0,0
29-8-2017 7:00,9535.43,3672.58095863754,0.0,0.0,0.0,0
29-8-2017 8:00,13217.62,1808.2482775531862,0.0,0.0,0.0,0
29-8-2017 9:00,15114.72,-3756.565938104988,0.0,0.0,0.0,0
29-8-2017 10:00,21213.63,-9498.500809995781,0.0,0.0,0.0,0
29-8-2017 11:00,25973.92,-5842.577716686232,0.0,0.0,0.0,0
29-8-2017 12:00,28618.23,-4572.949719927503,0.0,0.0,0.0,0
29-8-2017 13:00,28316.23,-3385.293862611783,0.0,0.0,0.0,0
29-8-2017 14:00,27201.98,-3230.378262732509,0.0,0.0,0.0,0
29-8-2017 15:00,28845.83,769.9776341141041,0.0,0.0,0.0,0
29-8-2017 16:00,27076.07,145.6341706507519,0.0,0.0,0.0,0
29-8-2017 17:00,25021.52,-1234.7988300131346,0.0,0.0,0.0,0
29-8-2017 18:00,24317.38,-3046.332568378026,0.0,0.0,0.0,0
29-8-2017 19:00,23861.65,-5142.839141098544,0.0,0.0,0.0,0
29-8-2017 20:00,23584.33,-4025.3934276374875,0.0,0.0,0.0,0
29-8-2017 21:00,20543.02,-2491.607418126103,0.0,0.0,0.0,0
29-8-2017 22:00,18496.35,-586.9076425806852,0.0,0.0,0.0,0
29-8-2017 23:00,13417.82,-579.5882221402353,0.0,0.0,0.0,0
30-8-2017 0:00,8381.58,3310.183130579284,0.0,0.0,0.0,0
30-8-2017 1:00,5226.38,5215.348360485594,0.0,0.0,0.0,0
30-8-2017 2:00,3675.45,6013.814788397314,0.0,0.0,0.0,0
30-8-2017 3:00,3421.67,6695.589994317721,0.0,0.0,0.0,0
30-8-2017 4:00,3287.85,6791.352755036234,0.0,0.0,0.0,0
30-8-2017 5:00,3904.4,6330.187853202438,0.0,0.0,0.0,0
30-8-2017 6:00,6055.35,5660.11830295519,0.0,0.0,0.0,0
30-8-2017 7:00,10342.9,4080.4669268727157,0.0,0.0,0.0,0
30-8-2017 8:00,14661.88,2401.041200141888,0.0,0.0,0.0,0
30-8-2017 9:00,19957.25,-494.89210492272105,0.0,0.0,0.0,0
30-8-2017 10:00,25918.17,-8660.61500629774,0.0,0.0,0.0,0
30-8-2017 11:00,28535.5,-5973.037738376341,0.0,0.0,0.0,0
30-8-2017 12:00,32712.93,-3302.305037957769,0.0,0.0,0.0,0
30-8-2017 13:00,33052.53,-1486.4688033806196,0.0,0.0,0.0,0
30-8-2017 14:00,28070.38,-5301.93070681559,0.0,0.0,0.0,0
30-8-2017 15:00,27144.27,-3422.000961744865,0.0,0.0,0.0,0
30-8-2017 16:00,28513.28,-720.6776988052807,0.0,0.0,0.0,0
30-8-2017 17:00,27074.97,-1463.2053351984869,0.0,0.0,0.0,0
30-8-2017 18:00,27190.92,-2638.4275281361606,0.0,0.0,0.0,0
30-8-2017 19:00,25137.38,-7220.444460209295,0.0,0.0,0.0,0
30-8-2017 20:00,23905.92,-6868.630796122192,0.0,0.0,0.0,0
30-8-2017 21:00,24804.27,-954.2287350354236,0.0,0.0,0.0,0
30-8-2017 22:00,19537.67,-1956.6648932179123,0.0,0.0,0.0,0
30-8-2017 23:00,15390.82,-411.0333949046035,0.0,0.0,0.0,0
31-8-2017 0:00,9119.8,2966.028250062769,0.0,0.0,0.0,0
31-8-2017 1:00,5315.55,4618.992908756434,0.0,0.0,0.0,0
31-8-2017 2:00,3957.62,5679.555994105343,0.0,0.0,0.0,0
31-8-2017 3:00,3363.85,5928.08292943312,0.0,0.0,0.0,0
31-8-2017 4:00,3256.52,5842.436296314012,0.0,0.0,0.0,0
31-8-2017 5:00,4092.33,5232.467499904618,0.0,0.0,0.0,0
31-8-2017 6:00,6722.3,4540.382718672936,0.0,0.0,0.0,0
31-8-2017 7:00,11413.38,2608.6542527849815,0.0,0.0,0.0,0
31-8-2017 8:00,17570.98,1973.0359772670963,0.0,0.0,0.0,0
31-8-2017 9:00,26731.3,1917.451231281375,0.0,0.0,0.0,0
31-8-2017 10:00,35539.07,-5983.152136130462,0.0,0.0,0.0,0
31-8-2017 11:00,35344.83,-5228.463130149823,0.0,0.0,0.0,0
31-8-2017 12:00,36399.92,-6108.01816262399,1938.34,6490.19,-2613.51,0
31-8-2017 13:00,35840.85,-5363.068724025587,1064.13,5610.76,-3482.5,0
31-8-2017 14:00,35701.53,-4596.97530401497,1177.86,5724.32,-3368.6,0
31-8-2017 15:00,39142.1,1940.371116039707,1397.65,5944.95,-3149.65,0
31-8-2017 16:00,36951.67,1113.5740727179618,2034.62,6590.59,-2521.35,0
31-8-2017 17:00,36272.28,1141.320864768666,1738.17,6289.9,-2813.57,0
31-8-2017 18:00,34886.65,-1729.5707185685533,901.29,5447.34,-3644.76,0
31-8-2017 19:00,36966.02,-3073.294757475909,383.1,4924.17,-4157.97,0
31-8-2017 20:00,35772.48,-2501.969890244345,634.63,5172.05,-3902.8,0
31-8-2017 21:00,32403.98,-236.2964387124557,336.28,4869.17,-4196.61,0
31-8-2017 22:00,28367.1,483.5616193568858,106.3,4634.33,-4421.73,0
31-8-2017 23:00,22270.55,865.9053455227731,-638.65,3888.85,-5166.15,0
1-9-2017 0:00,13216.7,2361.9874327177386,-1468.54,3063.59,-6000.67,0
1-9-2017 1:00,7121.02,2556.0735049964023,-2561.47,1990.8,-7113.74,0
1-9-2017 2:00,4877.05,3235.3952325801256,-3488.45,1088.44,-8065.33,0
1-9-2017 3:00,4002.78,3545.8658821129065,-3691.9,897.85,-8281.65,0
1-9-2017 4:00,3882.93,3676.361879887074,-3502.86,1091.3,-8097.02,0
1-9-2017 5:00,4884.93,3499.9855125056347,-3088.52,1504.41,-7681.44,0
1-9-2017 6:00,8881.12,4308.55182389306,-2478.78,2108.72,-7066.29,0
1-9-2017 7:00,16237.05,4921.759343619829,-1461.3,3118.49,-6041.09,0
1-9-2017 8:00,22509.22,4241.591594735077,-29.89,4547.85,-4607.63,0
1-9-2017 9:00,34750.55,6806.63847145209,903.89,5482.02,-3674.25,1
1-9-2017 10:00,35739.13,-10930.645287317606,2694.24,7295.9,-1907.43,0
1-9-2017 11:00,42189.33,-2088.594468598749,1867.42,6464.99,-2730.15,1
1-9-2017 12:00,44397.88,-1678.3971592866983,2747.96,7361.71,-1865.79,0
1-9-2017 13:00,37640.3,-6986.076635114619,2422.66,7031.58,-2186.25,0
1-9-2017 14:00,38233.37,-5430.770010106011,907.09,5513.05,-3698.88,0
1-9-2017 15:00,39517.7,-440.8290335149795,1032.64,5637.17,-3571.89,0
1-9-2017 16:00,40526.17,2280.6914984543546,1165.54,5768.31,-3437.23,0
1-9-2017 17:00,36642.15,-654.3806481664615,1757.7,6361.53,-2846.13,0
1-9-2017 18:00,37532.18,-1213.244989018669,407.78,5009.63,-4194.06,0
1-9-2017 19:00,38165.63,-4667.049501875681,472.04,5070.44,-4126.36,0
1-9-2017 20:00,35097.68,-5558.086798615102,495.27,5089.47,-4098.93,0
1-9-2017 21:00,32464.88,-1677.4805433234433,-220.4,4371.23,-4812.03,0
1-9-2017 22:00,27151.88,-1480.056855687646,-247.36,4340.18,-4834.91,0
1-9-2017 23:00,20137.0,-968.5194883545482,-1137.75,3451.99,-5727.49,0
2-9-2017 0:00,12326.88,2934.254454382637,-2065.22,2540.01,-6670.45,0
2-9-2017 1:00,7181.33,5147.264792453858,-2685.05,1928.87,-7298.97,0
2-9-2017 2:00,4967.38,6597.648014479979,-3096.39,1524.48,-7717.26,0
2-9-2017 3:00,4041.82,7435.515230425324,-3090.78,1532.62,-7714.19,0
2-9-2017 4:00,3768.92,7877.866711300332,-2834.81,1787.41,-7457.03,0
2-9-2017 5:00,4455.57,7854.529436972218,-2443.79,2174.82,-7062.41,0
2-9-2017 6:00,7433.82,7980.573505004126,-1952.47,2660.89,-6565.82,0
2-9-2017 7:00,13537.28,7422.383674370991,-1307.36,3299.94,-5914.66,0
2-9-2017 8:00,20355.65,7330.283116144736,-373.27,4229.41,-4975.95,0
2-9-2017 9:00,26704.88,3742.4784752368214,645.91,5248.16,-3956.34,0
2-9-2017 10:00,33004.4,-10501.728815218383,750.98,5349.32,-3847.36,0
2-9-2017 11:00,37638.45,-1833.2793240889769,1454.49,6055.44,-3146.47,0
2-9-2017 12:00,35018.45,-5915.712813318358,2185.6,6794.09,-2422.88,0
2-9-2017 13:00,32469.53,-6819.203325864943,638.83,5247.16,-3969.49,0
2-9-2017 14:00,28843.0,-9377.02561815066,438.18,5043.6,-4167.23,0
2-9-2017 15:00,27920.77,-5935.162207315589,-176.81,4426.76,-4780.37,0
2-9-2017 16:00,29017.52,-2726.2962223474988,-617.22,3984.86,-5219.3,0
2-9-2017 17:00,27416.97,-3359.3048895174325,138.97,4739.62,-4461.69,0
2-9-2017 18:00,27442.58,-4969.439569762206,-36.03,4561.98,-4634.03,0
2-9-2017 19:00,30231.58,-7155.07213844646,193.82,4789.22,-4401.59,0
2-9-2017 20:00,26443.12,-8577.789181034455,984.22,5580.09,-3611.65,0
2-9-2017 21:00,15974.2,-12088.031079582273,444.66,5037.42,-4148.1,0
2-9-2017 22:00,0.0,-22232.08271997925,-1595.35,3013.97,-6204.68,0
2-9-2017 23:00,15283.85,1191.7473309218258,-5499.8,-789.74,-10209.86,1
3-9-2017 0:00,10274.77,8624.562171601996,18.12,4773.1,-4736.86,0
3-9-2017 1:00,6258.27,12450.623372532937,1503.77,6266.51,-3258.96,0
3-9-2017 2:00,4383.25,14396.184686068587,1573.55,6336.53,-3189.42,0
3-9-2017 3:00,3511.43,15281.685065493653,1379.51,6141.05,-3382.03,0
3-9-2017 4:00,3347.85,15713.468626536665,1192.29,5951.96,-3567.38,0
3-9-2017 5:00,3710.23,15045.819293351899,1086.64,5844.31,-3671.03,0
3-9-2017 6:00,6079.82,14110.189966118305,933.85,5689.1,-3821.4,0
3-9-2017 7:00,10367.03,11028.39163321528,815.27,5567.97,-3937.42,0
3-9-2017 8:00,15173.27,8177.597113737556,617.24,5366.95,-4132.48,0
3-9-2017 9:00,20258.32,2246.4761984456018,457.91,5204.4,-4288.58,0
3-9-2017 10:00,24838.08,-16353.73938045424,-167.9,4576.56,-4912.37,0
3-9-2017 11:00,27777.85,-8555.405973673407,-88.47,4653.01,-4829.94,0
3-9-2017 12:00,27412.47,-10865.685018203345,-1.86,4736.33,-4740.05,0
3-9-2017 13:00,24149.77,-12730.820665856329,-840.21,3898.9,-5579.33,0
3-9-2017 14:00,23082.23,-13066.575973824114,-903.63,3833.45,-5640.71,0
3-9-2017 15:00,21156.2,-10413.42422713275,-663.59,4070.57,-5397.75,0
3-9-2017 16:00,21333.23,-8168.606887553644,-1159.66,3574.44,-5893.77,0
3-9-2017 17:00,22205.1,-6621.868254864916,-787.8,3943.42,-5519.03,0
3-9-2017 18:00,23456.48,-7504.349454094481,-222.83,4505.61,-4951.27,0
3-9-2017 19:00,25485.68,-11648.4262581982,474.15,5201.39,-4253.1,0
3-9-2017 20:00,24464.5,-10426.299226226984,944.43,5670.45,-3781.58,0
3-9-2017 21:00,22184.97,-5942.58099354072,1193.87,5919.61,-3531.87,0
3-9-2017 22:00,19348.55,-3269.8296768969158,1783.33,6511.63,-2944.97,0
3-9-2017 23:00,15755.83,1250.2913426457053,2354.5,7090.5,-2381.49,0
4-9-2017 0:00,9665.45,7690.105366342417,1509.61,6249.21,-3229.98,0
4-9-2017 1:00,5447.63,11037.726550377021,1105.54,5841.95,-3630.88,0
4-9-2017 2:00,3874.47,12680.275075666152,757.51,5491.13,-3976.12,0
4-9-2017 3:00,3275.48,13071.377738814888,568.29,5299.08,-4162.49,0
4-9-2017 4:00,3210.97,12721.222500269832,441.0,5168.9,-4286.9,0
4-9-2017 5:00,3878.63,11680.909707482078,331.63,5056.5,-4393.23,0
4-9-2017 6:00,6600.97,10287.115584236657,243.18,4964.98,-4478.63,0
4-9-2017 7:00,11803.73,7055.607348317419,199.28,4917.94,-4519.37,0
4-9-2017 8:00,18629.32,5119.697466841877,233.38,4948.81,-4482.04,0
4-9-2017 9:00,28070.15,2552.094079615639,605.24,5318.2,-4107.72,0
4-9-2017 10:00,33399.6,-17847.805985279072,1216.05,5928.62,-3496.52,0
4-9-2017 11:00,38365.73,-7112.074860397028,1424.88,6136.43,-3286.68,0
4-9-2017 12:00,56528.97,8710.674342222228,1756.54,6469.93,-2956.85,1
4-9-2017 13:00,53709.55,7211.518003093694,5923.96,10738.24,1109.68,1
4-9-2017 14:00,36642.32,-9290.285876925325,5977.32,10806.89,1147.75,0
4-9-2017 15:00,33367.5,-7600.271350746829,3.88,4859.64,-4851.88,0
4-9-2017 16:00,34203.83,-4569.981659024481,-1967.75,2898.88,-6834.38,0
4-9-2017 17:00,33616.25,-4188.771231733284,-1782.09,3085.05,-6649.22,0
4-9-2017 18:00,33234.5,-6615.904455203843,-1933.14,2933.92,-6800.2,0
4-9-2017 19:00,33894.35,-12741.703225042267,-1965.44,2901.83,-6832.72,0
4-9-2017 20:00,33130.8,-10798.10984882709,-2038.04,2830.67,-6906.74,0
4-9-2017 21:00,31006.35,-4812.584214420731,-1663.83,3202.29,-6529.96,0
4-9-2017 22:00,26267.77,-2821.5900932700715,-882.22,3980.8,-5745.23,0
4-9-2017 23:00,19338.25,-124.02825761984059,-757.75,4102.44,-5617.94,0
5-9-2017 0:00,11126.02,5823.614796559486,-2411.43,2460.73,-7283.59,0
5-9-2017 1:00,6055.45,10012.735175597656,-3050.04,1829.79,-7929.86,0
5-9-2017 2:00,4240.92,12780.410124540187,-3116.91,1764.37,-7998.2,0
5-9-2017 3:00,3449.52,14183.244283312495,-2786.41,2092.52,-7665.34,0
5-9-2017 4:00,3455.03,14992.270957001132,-2377.6,2497.17,-7252.36,0
5-9-2017 5:00,4144.17,14778.287077617242,-1893.47,2975.3,-6762.24,0
5-9-2017 6:00,7370.48,14560.34053136684,-1445.99,3416.09,-6308.07,0
5-9-2017 7:00,13558.37,12730.657544229398,-857.98,3997.18,-5713.14,0
5-9-2017 8:00,20944.2,11732.477452554067,-115.49,4733.97,-4964.95,0
5-9-2017 9:00,16455.87,-4998.8727061763875,727.08,5575.5,-4121.34,0
5-9-2017 10:00,23815.37,-25160.624107844345,-2764.9,2117.5,-7647.29,0
5-9-2017 11:00,42256.68,718.7978843605124,-1465.39,3411.78,-6342.55,1
5-9-2017 12:00,34826.07,-8690.421516649392,3721.14,8669.13,-1226.86,0
5-9-2017 13:00,27812.18,-14274.862171745608,-189.25,4766.48,-5144.98,0
5-9-2017 14:00,29068.0,-12433.488248307971,-1208.15,3751.0,-6167.3,0
5-9-2017 15:00,28860.98,-7103.534567134462,573.46,5533.54,-4386.62,0
5-9-2017 16:00,28304.25,-5152.463530044524,755.19,5713.68,-4203.29,0
5-9-2017 17:00,26425.5,-6237.629956868021,774.71,5729.66,-4180.24,0
5-9-2017 18:00,25280.43,-9808.733853296733,367.87,5320.11,-4584.36,0
5-9-2017 19:00,23049.08,-19905.49877711961,159.25,5108.55,-4790.05,0
5-9-2017 20:00,25492.78,-14758.213244910214,-778.77,4170.76,-5728.3,0
5-9-2017 21:00,21651.57,-10524.012468806768,614.71,5564.78,-4335.36,0
5-9-2017 22:00,21748.65,-3855.8788336704056,670.85,5617.96,-4276.27,0
5-9-2017 23:00,16904.28,1062.1505275662785,2268.89,7227.62,-2689.84,0
6-9-2017 0:00,9993.98,8866.410947661967,1309.62,6272.47,-3653.24,0
6-9-2017 1:00,6134.67,14317.386717155518,982.59,5942.4,-3977.23,0
6-9-2017 2:00,4130.83,16485.829400219434,923.69,5881.42,-4034.03,0
6-9-2017 3:00,3556.43,17507.517980227647,674.29,5629.21,-4280.63,0
6-9-2017 4:00,3488.88,17508.710010553907,602.28,5554.52,-4349.97,0
6-9-2017 5:00,4122.22,16531.378799415666,499.94,5449.3,-4449.43,0
6-9-2017 6:00,7190.38,15242.97820256267,403.87,5350.29,-4542.54,0
6-9-2017 7:00,11659.12,10466.59768497165,419.25,5362.69,-4524.19,0
6-9-2017 8:00,14076.35,3202.4072386492553,110.24,5050.48,-4830.0,0
6-9-2017 9:00,26697.15,2250.3630622500896,-1017.0,3925.27,-5959.28,0
6-9-2017 10:00,42817.33,-12159.62616060215,1173.38,6122.64,-3775.88,1
6-9-2017 11:00,38916.35,-7928.9335154707915,4611.98,9618.52,-394.56,0
6-9-2017 12:00,39217.42,-10109.593171917386,1068.06,6070.6,-3934.48,0
6-9-2017 13:00,36659.18,-11350.851343498205,-70.65,4932.39,-5073.69,0
6-9-2017 14:00,36200.7,-11342.814325151034,60.82,5060.54,-4938.9,0
6-9-2017 15:00,37139.52,-4459.767440815413,735.44,5733.87,-4262.99,0
6-9-2017 16:00,36496.43,-2520.2534887910188,926.07,5923.0,-4070.87,0
6-9-2017 17:00,35059.82,-3125.947333224518,573.64,5567.07,-4419.8,0
6-9-2017 18:00,35644.08,-5080.712610254268,123.03,5113.65,-4867.58,0
6-9-2017 19:00,35476.93,-14065.639969335556,259.57,5247.23,-4728.09,0
6-9-2017 20:00,31679.27,-14904.056979523659,-173.54,4811.57,-5158.65,0
6-9-2017 21:00,29242.98,-8408.137836528376,-1142.54,3843.47,-6128.54,0
6-9-2017 22:00,24998.57,-5425.386362464407,-638.93,4344.34,-5622.19,0
6-9-2017 23:00,17699.72,-1871.5366227357226,-673.41,4307.34,-5654.16,0
7-9-2017 0:00,10130.05,6678.173988261686,-2093.61,2894.79,-7082.0,0
7-9-2017 1:00,6000.85,13098.68493848179,-2254.86,2735.94,-7245.67,0
7-9-2017 2:00,4059.25,16108.275145938285,-2013.22,2975.79,-7002.24,0
7-9-2017 3:00,3589.47,17825.267937453595,-1832.51,3154.19,-6819.2,0
7-9-2017 4:00,3496.9,18253.77597984485,-1480.98,3502.2,-6464.17,0
7-9-2017 5:00,4465.27,18018.938327533986,-1221.83,3757.66,-6201.33,0
7-9-2017 6:00,7562.87,16962.6845706601,-861.19,4114.12,-5836.5,0
7-9-2017 7:00,13953.4,13994.566066837495,-558.54,4412.82,-5529.9,0
7-9-2017 8:00,19864.82,10041.17481009003,13.39,4981.48,-4954.7,0
7-9-2017 9:00,25713.88,1615.1080287557488,256.54,5221.7,-4708.62,0
7-9-2017 10:00,39796.13,-17214.40679747922,98.0,5060.09,-4864.09,1
7-9-2017 11:00,39475.43,-8082.551281619784,2665.63,7645.95,-2314.7,0
7-9-2017 12:00,39260.12,-10655.388975701506,946.14,5922.54,-4030.26,0
7-9-2017 13:00,33942.7,-14621.881336812967,-138.23,4835.62,-5112.08,0
7-9-2017 14:00,30042.08,-18028.60789660227,-597.06,4375.38,-5569.5,0
7-9-2017 15:00,32291.23,-9281.564482150563,-808.86,4161.83,-5779.55,0
7-9-2017 16:00,32736.68,-6031.238562718503,113.12,5081.77,-4855.54,0
7-9-2017 17:00,33897.85,-4072.2192879003524,307.77,5272.95,-4657.41,0
7-9-2017 18:00,32675.82,-8016.665408669483,1002.87,5968.37,-3962.63,0
7-9-2017 19:00,29496.18,-21035.754655798202,600.53,5562.9,-4361.84,0
7-9-2017 20:00,29102.23,-18284.113661172833,-569.55,4392.51,-5531.61,0
7-9-2017 21:00,29470.03,-8542.639318894648,-137.13,4822.21,-5096.47,0
7-9-2017 22:00,28026.9,-2517.019050050025,1113.06,6073.56,-3847.44,0
7-9-2017 23:00,19829.28,813.842024023681,1900.78,6865.23,-3063.67,0
8-9-2017 0:00,11797.82,9892.063781775858,42.44,4988.67,-4903.79,0
8-9-2017 1:00,6081.05,15241.11012600521,-377.51,4566.78,-5321.81,0
8-9-2017 2:00,4107.53,18274.368071136963,-854.09,4089.09,-5797.27,0
8-9-2017 3:00,3675.08,19896.055287442032,-828.52,4112.46,-5769.49,0
8-9-2017 4:00,3439.97,19911.299872563806,-666.5,4271.85,-5604.86,0
8-9-2017 5:00,4417.62,19491.465330784416,-617.08,4318.76,-5552.91,0
8-9-2017 6:00,7805.32,18326.277965593752,-410.3,4522.81,-5343.41,0
8-9-2017 7:00,14182.33,14629.448089819114,-169.81,4760.58,-5100.2,0
8-9-2017 8:00,19504.75,9302.002636926129,192.31,5120.25,-4735.63,0
8-9-2017 9:00,27426.88,2129.2977894316064,113.57,5038.83,-4811.69,0
8-9-2017 10:00,34698.63,-26009.729779549423,567.97,5491.95,-4356.01,0
8-9-2017 11:00,44247.05,-5805.288532325241,492.92,5414.37,-4428.52,0
8-9-2017 12:00,47376.48,-5026.601403405424,2278.47,7210.78,-2653.85,0
8-9-2017 13:00,45710.62,-5144.201836821227,1921.42,6853.99,-3011.15,0
8-9-2017 14:00,36262.17,-13907.99585752075,2417.83,7354.03,-2518.37,0
8-9-2017 15:00,34187.97,-8767.249795726664,28.3,4964.17,-4907.57,0
8-9-2017 16:00,33280.95,-6483.735791660645,-671.72,4263.37,-5606.81,0
8-9-2017 17:00,31745.65,-7027.151557537694,-1013.58,3921.9,-5949.06,0
8-9-2017 18:00,32970.53,-8480.976681993066,-1251.95,3682.68,-6186.59,0
8-9-2017 19:00,34027.02,-18058.505977116063,-642.45,4289.54,-5574.43,0
8-9-2017 20:00,29134.23,-19392.255137624074,-281.03,4648.39,-5210.45,0
8-9-2017 21:00,26321.75,-11843.208505485547,-1364.4,3566.72,-6295.51,0
8-9-2017 22:00,22476.33,-7431.902351282835,-1028.67,3900.75,-5958.1,0
8-9-2017 23:00,16768.03,-389.5528522866516,-845.43,4081.81,-5772.67,0
9-9-2017 0:00,2710.28,4199.067142797725,-1181.32,3744.89,-6107.52,0
9-9-2017 1:00,563.67,14411.563701350926,-3200.66,1744.63,-8145.94,0
9-9-2017 2:00,546.25,20233.69420447256,-1831.35,3108.51,-6771.22,0
9-9-2017 3:00,743.28,23129.410665882002,-991.49,3943.59,-5926.57,0
9-9-2017 4:00,896.95,24039.89661404891,-409.37,4521.57,-5340.31,0
9-9-2017 5:00,883.08,22933.68307635608,-81.01,4846.16,-5008.18,0
9-9-2017 6:00,4969.68,22567.779996403733,-119.25,4804.04,-5042.54,0
9-9-2017 7:00,13315.05,20623.536642232146,410.87,5331.26,-4509.53,0
9-9-2017 8:00,18767.32,15140.304886748734,1330.88,6253.0,-3591.23,0
9-9-2017 9:00,24550.58,4983.982599373525,1211.66,6132.34,-3709.02,0
9-9-2017 10:00,28842.8,-28658.627086074,886.43,5805.17,-4032.31,0
9-9-2017 11:00,31608.95,-14058.029481205507,-81.42,4835.52,-4998.36,0
9-9-2017 12:00,30774.9,-17261.076903004585,-492.66,4423.0,-5408.32,0
9-9-2017 13:00,35852.07,-10815.993782951358,-1634.69,3284.81,-6554.2,1
9-9-2017 14:00,29361.75,-16808.57363878769,1510.51,6440.55,-3419.53,0
9-9-2017 15:00,24898.55,-13717.45330387786,566.57,5493.88,-4360.74,0
9-9-2017 16:00,24742.68,-10674.80958940449,-611.6,4315.54,-5538.73,0
9-9-2017 17:00,24904.13,-9792.184977635581,-481.79,4442.84,-5406.42,0
9-9-2017 18:00,26262.55,-11533.50368743603,-48.94,4873.15,-4971.03,0
9-9-2017 19:00,27968.22,-21721.16761221214,477.55,5397.53,-4442.43,0
9-9-2017 20:00,26015.75,-20165.891509512367,971.85,5891.04,-3947.33,0
9-9-2017 21:00,13809.63,-21660.853705652386,884.66,5802.33,-4033.02,0
9-9-2017 22:00,15529.07,-11534.932784230466,-2015.94,2917.97,-6949.84,0
9-9-2017 23:00,14342.03,612.624021549309,262.48,5196.42,-4671.46,0
10-9-2017 0:00,9137.3,14952.731135827009,1112.6,6055.76,-3830.56,0
10-9-2017 1:00,5878.4,24649.7299930791,1904.6,6853.13,-3043.93,0
10-9-2017 2:00,4523.05,29270.20513856563,2016.18,6967.65,-2935.28,0
10-9-2017 3:00,3927.5,31321.392929454494,1838.93,6790.74,-3112.87,0
10-9-2017 4:00,3722.25,31682.922325041556,1545.99,6496.34,-3404.36,0
10-9-2017 5:00,3949.55,30683.154536289992,1226.43,6174.38,-3721.52,0
10-9-2017 6:00,6395.9,28337.52048643065,838.82,5783.82,-4106.17,0
10-9-2017 7:00,9878.58,20874.94839871682,373.05,5314.8,-4568.71,0
10-9-2017 8:00,15017.52,14352.88508549767,-634.94,4306.27,-5576.16,0
10-9-2017 9:00,19523.38,1996.1227592289142,-813.0,4126.9,-5752.9,0
10-9-2017 10:00,23446.05,-34618.38164169795,-1518.75,3422.65,-6460.15,0
10-9-2017 11:00,25528.27,-19601.58027819804,-2329.69,2619.34,-7278.71,0
10-9-2017 12:00,25204.03,-22391.364849728874,-2767.39,2189.25,-7724.03,0
10-9-2017 13:00,34842.07,-11331.024127756578,-3430.94,1537.68,-8399.57,1
10-9-2017 14:00,21417.42,-24210.115770279706,1095.1,6077.91,-3887.7,0
10-9-2017 15:00,20846.23,-16652.87711380409,-1910.13,3083.4,-6903.65,0
10-9-2017 16:00,19802.48,-14255.399640473352,-1262.64,3727.17,-6252.45,0
10-9-2017 17:00,21314.87,-12162.366725328378,-1395.25,3593.7,-6384.21,0
10-9-2017 18:00,22751.0,-14116.831094743791,-298.63,4686.7,-5283.96,0
10-9-2017 19:00,24476.97,-25413.331723442912,318.76,5301.5,-4663.98,0
10-9-2017 20:00,23567.72,-22735.952431805257,919.56,5901.45,-4062.33,0
10-9-2017 21:00,21703.12,-13693.607004006983,1315.87,6297.73,-3666.0,0
10-9-2017 22:00,18535.02,-8459.314863149026,2110.17,7095.86,-2875.51,0
10-9-2017 23:00,13497.03,267.39570163117605,2002.6,6988.01,-2982.81,0
11-9-2017 0:00,8249.35,15309.176387319025,1534.22,6517.83,-3449.39,0
11-9-2017 1:00,4920.7,25198.748657800523,2162.09,7148.94,-2824.77,0
11-9-2017 2:00,3786.43,29842.109560182496,2164.0,7151.55,-2823.54,0
11-9-2017 3:00,3343.43,31659.429795081294,2001.39,6987.85,-2985.06,0
11-9-2017 4:00,3177.23,31535.503752619046,1686.36,6670.07,-3297.35,0
11-9-2017 5:00,3863.68,30497.334127023245,1302.08,6281.96,-3677.8,0
11-9-2017 6:00,6230.5,27369.86152147143,991.02,5966.69,-3984.65,0
11-9-2017 7:00,11334.2,20509.843114429874,388.26,5359.42,-4582.9,0
11-9-2017 8:00,16457.87,12884.18065768951,-143.24,4824.81,-5111.3,0
11-9-2017 9:00,22029.72,416.1306002015772,-551.64,4413.95,-5517.22,0
11-9-2017 10:00,29615.38,-35391.966208530284,-968.12,3995.52,-5931.77,0
11-9-2017 11:00,33490.27,-17736.59877872455,-702.63,4258.13,-5663.4,0
11-9-2017 12:00,43430.4,-10612.798192312774,-851.23,4107.94,-5810.4,0
11-9-2017 13:00,33821.1,-18893.35779869293,1481.65,6450.24,-3486.94,0
11-9-2017 14:00,31590.8,-20678.229158174374,-1685.74,3295.69,-6667.17,0
11-9-2017 15:00,30982.25,-12732.1901104045,-237.28,4741.94,-5216.49,0
11-9-2017 16:00,31478.33,-8700.120356556865,-320.2,4656.5,-5296.89,0
11-9-2017 17:00,31004.28,-8541.589000015007,-164.59,4809.45,-5138.63,0
11-9-2017 18:00,30995.03,-12039.818891024563,-172.04,4799.4,-5143.47,0
11-9-2017 19:00,31451.4,-25542.602926865424,-309.73,4659.16,-5278.62,0
11-9-2017 20:00,31406.68,-21729.357149508593,-339.34,4626.99,-5305.68,0
11-9-2017 21:00,28583.72,-12766.039363355994,257.62,5221.87,-4706.64,0
11-9-2017 22:00,23589.78,-8678.169629045577,586.47,5548.72,-4375.78,0
11-9-2017 23:00,16410.72,-978.9189312485287,-32.79,4927.09,-4992.68,0
12-9-2017 0:00,9283.83,13611.781699865893,-972.25,3994.08,-5938.59,0
12-9-2017 1:00,5119.5,23902.574319863146,-815.61,4148.35,-5779.57,0
12-9-2017 2:00,3800.02,29137.107915426866,-747.18,4214.75,-5709.1,0
12-9-2017 3:00,3460.52,31646.08753062194,-589.91,4369.73,-5549.54,0
12-9-2017 4:00,3335.87,32013.725364475777,-452.25,4505.07,-5409.58,0
12-9-2017 5:00,4077.18,31418.961398631654,-402.05,4552.95,-5357.06,0
12-9-2017 6:00,7288.82,29320.09773398327,-303.37,4649.33,-5256.07,0
12-9-2017 7:00,12677.0,22612.154332635066,-234.86,4715.43,-5185.14,0
12-9-2017 8:00,18728.1,15711.654057394557,-360.0,4588.02,-5308.03,0
12-9-2017 9:00,25064.43,3362.316002503958,-196.35,4749.24,-5141.93,0
12-9-2017 10:00,29717.65,-37703.29038593136,-163.5,4779.74,-5106.74,0
12-9-2017 11:00,34527.53,-17735.524061718275,-764.95,4177.53,-5707.42,0
12-9-2017 12:00,40736.93,-14161.725489262353,-388.43,4550.91,-5327.77,0
12-9-2017 13:00,31246.05,-22193.002152361307,481.09,5422.24,-4460.06,0
12-9-2017 14:00,30623.32,-22246.009957167393,-1932.44,3020.31,-6885.19,0
12-9-2017 15:00,28727.08,-14937.077246469595,52.39,5004.18,-4899.4,0
12-9-2017 16:00,29028.38,-10780.524536254754,-284.45,4664.89,-5233.79,0
12-9-2017 17:00,27392.77,-11715.747582844495,-51.79,4895.7,-4999.27,0
12-9-2017 18:00,27890.92,-14789.095839976693,-311.5,4633.62,-5256.62,0
12-9-2017 19:00,29313.68,-28246.199601774326,-133.76,4808.92,-5076.43,0
12-9-2017 20:00,29631.67,-23782.93365751336,219.85,5160.52,-4720.82,0
12-9-2017 21:00,27028.22,-14003.549031406641,891.16,5831.34,-4049.01,0
12-9-2017 22:00,21498.15,-10055.035103040374,1265.54,6205.09,-3674.01,0
12-9-2017 23:00,15542.98,-300.92767162309974,544.41,5481.48,-4392.67,0
13-9-2017 0:00,6721.37,13760.117375187067,123.19,5058.02,-4811.64,0
13-9-2017 1:00,4301.23,26471.01577115111,-337.34,4595.39,-5270.08,0
13-9-2017 2:00,2823.37,31757.289238621954,290.71,5221.44,-4640.01,0
13-9-2017 3:00,2222.75,34027.64632075389,255.62,5183.87,-4672.64,0
13-9-2017 4:00,2252.9,34434.183168488686,217.27,5143.02,-4708.49,0
13-9-2017 5:00,2754.23,33436.31630090228,225.46,5148.71,-4697.79,0
13-9-2017 6:00,5647.85,30655.437404470074,145.65,5066.33,-4775.03,0
13-9-2017 7:00,11212.5,23437.14364913571,16.17,4934.35,-4902.01,0
13-9-2017 8:00,16146.95,14661.845709905574,-125.3,4790.55,-5041.16,0
13-9-2017 9:00,20576.95,-584.6375731848602,-414.85,4499.08,-5328.79,0
13-9-2017 10:00,29786.53,-39751.915053512384,-966.74,3946.36,-5879.84,0
13-9-2017 11:00,38952.5,-14422.631276942939,33.92,4945.07,-4877.23,0
13-9-2017 12:00,37982.48,-18180.4527020918,1586.79,6502.23,-3328.65,0
13-9-2017 13:00,35533.03,-19284.784226988315,-256.03,4659.34,-5171.39,0
13-9-2017 14:00,32557.43,-21792.310833777337,-13.89,4898.87,-4926.65,0
13-9-2017 15:00,31610.18,-13088.428891357005,670.63,5582.56,-4241.31,0
13-9-2017 16:00,29580.85,-11168.69826655055,610.33,5520.39,-4299.74,0
13-9-2017 17:00,28621.8,-11556.742747610679,-187.54,4720.66,-5095.73,0
13-9-2017 18:00,27744.17,-16304.557055811303,-218.83,4687.0,-5124.66,0
13-9-2017 19:00,28539.8,-31498.564681678454,-634.16,4270.21,-5538.53,0
13-9-2017 20:00,28299.75,-27517.08284723886,-524.47,4377.71,-5426.65,0
13-9-2017 21:00,25929.03,-16907.717730506753,-77.64,4822.24,-4977.53,0
13-9-2017 22:00,22220.87,-10758.352011832505,388.67,5286.5,-4509.16,0
13-9-2017 23:00,15537.35,-910.2022294715607,416.62,5312.25,-4479.02,0
14-9-2017 0:00,6642.9,14244.647329668463,-145.23,4754.18,-5044.64,0
14-9-2017 1:00,4780.05,28411.643626776542,-516.66,4380.81,-5414.13,0
14-9-2017 2:00,4021.05,34849.78909133176,237.21,5133.23,-4658.81,0
14-9-2017 3:00,3915.5,37860.60576557781,424.56,5318.84,-4469.72,0
14-9-2017 4:00,4318.72,38747.11464809286,518.47,5411.0,-4374.06,0
14-9-2017 5:00,4961.13,37923.33623993155,592.17,5482.94,-4298.6,0
14-9-2017 6:00,7308.13,34427.97347288291,495.51,5384.34,-4393.32,0
14-9-2017 7:00,13081.73,26927.89382161392,125.02,5011.64,-4761.59,0
14-9-2017 8:00,17475.62,17049.972676445694,4.96,4889.29,-4879.37,0
14-9-2017 9:00,21937.4,952.4555800101225,-488.95,4393.88,-5371.78,0
14-9-2017 10:00,33986.47,-37925.36017131754,-975.08,3906.87,-5857.03,0
14-9-2017 11:00,31093.18,-23541.906121499673,797.72,5681.12,-4085.69,0
14-9-2017 12:00,36851.97,-20615.11472336125,-1794.69,3099.33,-6688.7,0
14-9-2017 13:00,30930.63,-25172.862160793415,-857.16,4036.99,-5751.3,0
14-9-2017 14:00,29838.52,-25765.588620303508,-1761.83,3135.15,-6658.82,0
14-9-2017 15:00,29469.38,-15904.678496898763,-182.36,4712.97,-5077.69,0
14-9-2017 16:00,28262.15,-12936.010700160063,112.81,5006.04,-4780.41,0
14-9-2017 17:00,27754.03,-12872.111728436113,-169.64,4721.96,-5061.23,0
14-9-2017 18:00,28473.1,-16191.517200450697,30.84,4920.11,-4858.42,0
14-9-2017 19:00,29405.87,-32227.69095989852,219.91,5106.97,-4667.15,0
14-9-2017 20:00,26883.3,-30322.005504791472,309.34,5194.44,-4575.76,0
14-9-2017 21:00,26282.63,-17805.804030311516,-55.56,4827.3,-4938.41,0
14-9-2017 22:00,21552.85,-12759.525256002471,951.27,5834.11,-3931.57,0
14-9-2017 23:00,15590.33,-1828.3918573710362,607.05,5487.77,-4273.68,0
15-9-2017 0:00,9746.17,17082.983479425664,390.55,5269.14,-4488.04,0
15-9-2017 1:00,6116.77,29257.96649079617,1005.95,5884.28,-3872.38,0
15-9-2017 2:00,4526.55,34173.63276555416,937.14,5813.68,-3939.4,0
15-9-2017 3:00,4143.98,36028.54784503272,762.56,5636.85,-4111.74,0
15-9-2017 4:00,4008.08,35358.583316624936,655.6,5527.58,-4216.37,0
15-9-2017 5:00,4435.25,33636.68401650571,474.98,5344.42,-4394.47,0
15-9-2017 6:00,7318.17,29793.488027457606,285.83,5152.69,-4581.03,0
15-9-2017 7:00,12126.53,20121.548494641505,88.67,4953.0,-4775.67,0
15-9-2017 8:00,17374.63,9819.890157922673,-398.46,4464.19,-5261.12,0
15-9-2017 9:00,21995.27,-7128.242561943298,-564.46,4296.45,-5425.36,0
15-9-2017 10:00,30635.45,-52091.63755023253,-958.67,3900.79,-5818.14,0
15-9-2017 11:00,32454.37,-32009.204193127658,-537.22,4320.07,-5394.51,0
15-9-2017 12:00,44447.98,-23018.450937663372,-1174.65,3682.88,-6032.17,0
15-9-2017 13:00,93053.72,26939.85460279345,1408.86,6275.31,-3457.59,1
15-9-2017 14:00,155081.27,89468.59718098695,17968.47,23568.41,12368.52,1
15-9-2017 15:00,27804.1,-27029.10562419922,55990.73,62986.82,48994.63,0
15-9-2017 16:00,26014.98,-24444.991765103616,-16337.2,-8476.77,-24197.63,0
15-9-2017 17:00,25953.27,-23969.396818559446,3535.9,11306.86,-4235.05,0
15-9-2017 18:00,25853.97,-28311.19093235184,-4728.44,3116.88,-12573.75,0
15-9-2017 19:00,26194.27,-45954.86830334421,-1539.6,6294.44,-9373.64,0
15-9-2017 20:00,25838.85,-41711.036705533545,-3163.47,5064.15,-11391.08,0
15-9-2017 21:00,23863.83,-29096.474724691794,-4627.77,3626.12,-12881.66,0
15-9-2017 22:00,18732.93,-23196.858746134,-3417.96,4844.87,-11680.79,0
15-9-2017 23:00,20325.0,-3013.2275826181285,-3571.98,4700.29,-11844.25,0
16-9-2017 0:00,7652.3,11111.767680449204,-477.24,7801.85,-8756.33,0
16-9-2017 1:00,799.08,22457.93425051801,-2694.78,5587.94,-10977.49,0
16-9-2017 2:00,899.83,30993.778179914632,-2529.5,5751.81,-10810.82,0
16-9-2017 3:00,822.13,34895.14850906156,-1154.71,7119.72,-9429.13,0
16-9-2017 4:00,677.1,35819.16741416679,-901.19,7364.49,-9166.88,0
16-9-2017 5:00,29776.9,63410.37949835915,-469.82,7785.9,-8725.53,1
16-9-2017 6:00,18584.23,45931.202563581086,9196.02,17578.01,814.03,0
16-9-2017 7:00,31026.62,44010.03542548734,409.39,8782.28,-7963.49,1
16-9-2017 8:00,31176.97,28656.0421734874,4383.61,12789.42,-4022.19,0
16-9-2017 9:00,30490.75,5649.634878158446,1560.4,9962.76,-6841.96,0
16-9-2017 10:00,33165.98,-47697.338299124924,-395.86,8003.02,-8794.75,0
16-9-2017 11:00,30080.42,-31274.55458676563,-1112.59,7285.31,-9510.49,0
16-9-2017 12:00,31292.28,-32978.348426008066,-2876.08,5532.65,-11284.82,0
16-9-2017 13:00,43078.05,-19521.069170683208,-3137.57,5282.98,-11558.12,0
16-9-2017 14:00,29579.58,-32186.566817807066,494.52,8913.51,-7924.47,0
16-9-2017 15:00,35322.68,-14784.611814605116,-5932.52,2558.5,-14423.54,1
16-9-2017 16:00,31584.8,-13621.951156173582,4030.31,12556.46,-4495.84,0
16-9-2017 17:00,25964.07,-18210.150423841722,229.89,8753.08,-8293.31,0
16-9-2017 18:00,54384.12,6293.326631555527,-766.97,7751.37,-9285.31,1
16-9-2017 19:00,38381.35,-28178.514540013908,8687.85,17320.34,55.35,0
16-9-2017 20:00,23861.2,-37398.47698853219,-399.97,8228.48,-9028.42,0
16-9-2017 21:00,12634.85,-33393.10085813538,-2436.47,6197.15,-11070.1,0
16-9-2017 22:00,6428.8,-28144.74403213556,-4114.75,4537.47,-12766.97,0
16-9-2017 23:00,12290.02,-2824.6214605419846,-3602.22,5058.29,-12262.73,0
17-9-2017 0:00,7093.35,19987.99737198924,476.18,9133.39,-8181.02,0
17-9-2017 1:00,4064.4,35820.51834118104,631.99,9285.93,-8021.94,0
17-9-2017 2:00,2883.55,43271.050765641,1025.17,9676.36,-7626.02,0
17-9-2017 3:00,2600.38,46975.617184881026,962.66,9610.32,-7684.99,0
17-9-2017 4:00,2069.78,47384.26036392397,1020.86,9666.33,-7624.62,0
17-9-2017 5:00,2506.57,46636.62792505327,819.47,9462.37,-7823.43,0
17-9-2017 6:00,4208.12,42174.96413717058,-376.85,8263.29,-9016.98,0
17-9-2017 7:00,7879.12,31282.83348642457,215.52,8852.52,-8421.48,0
17-9-2017 8:00,12791.82,20420.289411768877,-870.83,7763.93,-9505.58,0
17-9-2017 9:00,18578.4,3046.7830554440043,-385.24,8245.93,-9016.41,0
17-9-2017 10:00,29776.73,-44284.20279636646,-7.85,8619.38,-8635.09,0
17-9-2017 11:00,23769.72,-29626.523214285677,1287.49,9912.87,-7337.88,0
17-9-2017 12:00,24187.23,-32125.948633767774,-2008.09,6620.61,-10636.79,0
17-9-2017 13:00,22584.3,-32440.193095185932,-2283.49,6346.08,-10913.06,0
17-9-2017 14:00,20335.22,-34226.28839923818,-3722.5,4920.42,-12365.43,0
17-9-2017 15:00,19352.28,-23372.75301925916,-3895.04,4764.02,-12554.1,0
17-9-2017 16:00,18890.32,-19108.63299310272,1922.91,10585.8,-6739.97,0
17-9-2017 17:00,20102.33,-17693.934943777644,560.62,9219.65,-8098.42,0
17-9-2017 18:00,22640.88,-20071.105187985217,1882.03,10543.2,-6779.14,0
17-9-2017 19:00,23127.9,-39863.3186289262,1047.87,9705.4,-7609.66,0
17-9-2017 20:00,23574.7,-34740.46359256788,1870.14,10528.54,-6788.26,0
17-9-2017 21:00,20186.23,-23671.53922732275,2705.76,11369.06,-5957.54,0
17-9-2017 22:00,16509.28,-16886.667468587653,2385.4,11049.86,-6279.07,0
17-9-2017 23:00,13377.07,-1109.1094036231043,2409.53,11075.99,-6256.94,0
18-9-2017 0:00,7554.52,20872.747083665276,2122.86,10795.97,-6550.25,0
18-9-2017 1:00,4520.67,35639.72865942649,2535.21,11210.0,-6139.58,0
18-9-2017 2:00,3469.67,41693.67578639617,2267.33,10941.1,-6406.44,0
18-9-2017 3:00,3197.83,43695.51450317565,1832.66,10503.23,-6837.91,0
18-9-2017 4:00,3012.87,42597.26816360273,1447.61,10113.46,-7218.24,0
18-9-2017 5:00,3526.17,39807.28805965003,1009.56,9670.05,-7650.93,0
18-9-2017 6:00,5780.77,33578.94427664385,-459.23,8196.32,-9114.79,0
18-9-2017 7:00,11203.48,21795.92697122667,-6.88,8643.13,-8656.88,0
18-9-2017 8:00,22636.55,14739.828931896314,-742.81,7903.78,-9389.41,0
18-9-2017 9:00,38740.82,4957.261417845366,1385.59,10029.93,-7258.74,1
18-9-2017 10:00,57726.92,-38979.919205222344,4041.11,12699.73,-4617.51,1
18-9-2017 11:00,56821.83,-19950.825850150228,6106.1,14792.32,-2580.12,0
18-9-2017 12:00,50725.97,-30851.754946602145,3174.05,11857.64,-5509.55,0
18-9-2017 13:00,51685.58,-29665.05120339299,-970.9,7710.8,-9652.61,0
18-9-2017 14:00,46618.73,-35317.67224300334,-1492.93,7187.25,-10173.11,0
18-9-2017 15:00,71300.0,698.925435123092,-3800.26,4898.87,-12499.39,1
18-9-2017 16:00,75869.35,9141.10609691569,9742.95,18589.86,896.03,1
18-9-2017 17:00,1332.63,-65600.28083639377,6098.75,14960.09,-2762.6,0
18-9-2017 18:00,72415.75,-9.540679833888134,-15283.94,-6340.47,-24227.41,1
18-9-2017 19:00,74909.17,-19183.13928144847,11718.88,21269.19,2168.57,0
18-9-2017 20:00,72514.83,-17103.179651515602,163.99,9705.52,-9377.54,1
18-9-2017 21:00,71518.8,-3573.4664799408783,3703.03,13266.41,-5860.36,0
18-9-2017 22:00,72994.88,8214.25158302809,2371.42,11937.9,-7195.06,1
18-9-2017 23:00,53614.1,8036.506512862194,3400.68,12980.06,-6178.69,0
19-9-2017 0:00,33496.42,16360.752026406313,-2611.91,6972.67,-12196.49,0
19-9-2017 1:00,22971.08,23460.433988156416,-4146.15,5465.56,-13757.87,0
19-9-2017 2:00,13814.25,20766.94559705533,-5299.43,4355.98,-14954.84,0
19-9-2017 3:00,9517.53,17914.676390793793,-6929.88,2790.5,-16650.26,0
19-9-2017 4:00,6147.75,12663.457679364867,-7011.23,2762.03,-16784.48,0
19-9-2017 5:00,7533.37,9727.942829423366,-7276.58,2539.43,-17092.59,0
19-9-2017 6:00,17128.93,9621.831970386833,-6996.62,2851.47,-16844.72,0
19-9-2017 7:00,38142.78,11888.033332297651,-3253.13,6584.58,-13090.85,0
19-9-2017 8:00,55761.55,9404.386650291795,1174.29,11006.87,-8658.28,0
19-9-2017 9:00,77714.33,3823.6399326236133,3863.23,13710.64,-5984.19,1
19-9-2017 10:00,80626.83,-59501.138579223596,7796.49,17712.95,-2119.97,0
19-9-2017 11:00,118666.25,-1178.0745686824375,3654.58,13570.63,-6261.47,1
19-9-2017 12:00,131710.32,6252.75954037359,16204.73,26393.91,6015.55,1
19-9-2017 13:00,132143.63,6610.767127162137,14747.98,25050.21,4445.75,1
19-9-2017 14:00,123799.97,-2608.2240090542036,11951.79,22280.17,1623.42,0
19-9-2017 15:00,123345.15,8530.331606171705,6534.29,16842.39,-3773.8,1
19-9-2017 16:00,108985.17,-2050.405077094576,8999.74,19332.98,-1333.5,0
19-9-2017 17:00,113519.65,2627.458410537307,547.96,10867.81,-9771.88,1
19-9-2017 18:00,110705.1,-5500.725628559536,5640.32,15978.07,-4697.43,0
19-9-2017 19:00,116070.27,-22434.280166440913,-2945.34,7400.18,-13290.86,0
19-9-2017 20:00,124190.87,-9285.056718526728,-557.58,9777.1,-10892.27,0
19-9-2017 21:00,128638.77,10721.423009723469,1291.99,11614.22,-9030.24,0
19-9-2017 22:00,122510.88,15720.386761100948,2214.93,12522.61,-8092.75,0
19-9-2017 23:00,95978.42,9649.62793997927,-497.2,9793.47,-10787.87,0
20-9-2017 0:00,62234.4,6041.344719315603,-8800.64,1570.52,-19171.8,0
20-9-2017 1:00,40997.72,2289.8567563947727,-16630.7,-6088.15,-27173.25,0
20-9-2017 2:00,22636.8,-10246.890748793478,-21431.8,-10717.45,-32146.16,0
20-9-2017 3:00,7435.13,-24849.526010711314,-26670.24,-15779.96,-37560.53,0
20-9-2017 4:00,6957.15,-28204.64034996336,-30446.27,-19417.01,-41475.53,0
20-9-2017 5:00,12563.97,-29799.9179070753,-26618.46,-15588.67,-37648.25,0
20-9-2017 6:00,33334.28,-21829.82472266593,-21752.75,-10749.83,-32755.67,0
20-9-2017 7:00,58386.38,-18969.13148404096,-9126.22,1826.4,-20078.84,0
20-9-2017 8:00,83247.87,-17732.45376334955,730.7,11678.7,-10217.3,1
20-9-2017 9:00,126468.23,-5558.148368186827,9876.99,20869.47,-1115.49,1
20-9-2017 10:00,178566.7,-25064.163141746365,25429.94,36663.95,14195.93,1
20-9-2017 11:00,176857.22,-7785.501452299592,44391.22,56069.09,32713.35,1
20-9-2017 12:00,157131.15,-35713.1656056006,35070.12,46739.66,23400.57,0
20-9-2017 13:00,204692.67,11113.835206436837,18433.48,30070.04,6796.91,1
20-9-2017 14:00,237516.68,42394.20981059648,38568.39,50507.45,26629.32,1
20-9-2017 15:00,244633.65,61028.084776802396,48358.99,60485.24,36232.73,1
20-9-2017 16:00,245913.72,65652.18882232581,49306.37,61505.06,37107.68,0
20-9-2017 17:00,254626.98,76138.3606099443,41092.34,53225.61,28959.08,1
20-9-2017 18:00,241228.05,58878.23947236469,41225.56,53401.46,29049.66,0
20-9-2017 19:00,249746.22,45649.82609297559,16207.67,28305.23,4110.11,0
20-9-2017 20:00,281904.55,84695.66187159749,14057.5,26109.87,2005.12,1
20-9-2017 21:00,213224.18,36379.25002428869,22629.85,34710.49,10549.21,0
20-9-2017 22:00,190279.22,29127.8397588456,-19653.71,-7196.64,-32110.77,0
20-9-2017 23:00,133635.17,-2010.0790586308576,-28939.73,-16370.79,-41508.67,0
21-9-2017 0:00,70756.27,-29347.877356563316,-59535.16,-46405.94,-72664.38,0
21-9-2017 1:00,34784.43,-40033.89057429449,-87565.22,-73860.48,-101269.95,0
21-9-2017 2:00,18109.22,-43583.63252370921,-98925.15,-84982.79,-112867.52,0
21-9-2017 3:00,12571.52,-41427.24917142275,-95668.22,-81713.21,-109623.23,0
21-9-2017 4:00,9696.9,-40234.92444547692,-84090.35,-70216.38,-97964.33,0
21-9-2017 5:00,9647.4,-39647.026925253595,-71701.55,-57919.22,-85483.89,0
21-9-2017 6:00,21857.13,-32615.601912892613,-60162.16,-46456.53,-73867.79,0
21-9-2017 7:00,44133.98,-25253.849744786174,-41068.9,-27463.77,-54674.03,1
21-9-2017 8:00,72755.77,-13059.200568630244,-21437.95,-7902.97,-34972.94,1
21-9-2017 9:00,104653.87,-8548.9476423632,402.69,13924.08,-13118.69,1
21-9-2017 10:00,144207.68,-38796.19330067432,19213.77,32768.89,5658.66,1
21-9-2017 11:00,169039.57,10898.971444638868,39126.27,52780.22,25472.32,1
21-9-2017 12:00,177616.7,15856.784405941711,52433.1,66185.15,38681.05,1
21-9-2017 13:00,166989.3,5373.7212688730215,54390.46,68202.55,40578.38,0
21-9-2017 14:00,178829.6,16540.154439053862,37640.22,51393.78,23886.66,1
21-9-2017 15:00,158021.18,8710.24158188481,41265.56,55017.94,27513.18,0
21-9-2017 16:00,156602.45,11738.834255277747,30207.73,43939.86,16475.61,0
21-9-2017 17:00,148212.23,4184.567412657867,27559.46,41281.63,13837.3,0
21-9-2017 18:00,159321.9,10319.00224637051,23896.12,37613.75,10178.49,0
21-9-2017 19:00,161871.65,-10891.724267268888,21632.76,35325.21,7940.3,0
21-9-2017 20:00,162637.5,-3945.5204506819427,18549.26,32224.55,4873.97,0
21-9-2017 21:00,172537.9,24201.721243316104,13087.25,26724.92,-550.41,1
21-9-2017 22:00,175587.35,40589.275311781676,21609.07,35275.09,7943.06,0
21-9-2017 23:00,135092.88,23723.224848679718,21351.29,34987.65,7714.92,0
22-9-2017 0:00,79935.4,2590.069824207734,-2059.57,11624.67,-15743.81,0
22-9-2017 1:00,40288.9,-16226.990467957614,-27931.14,-14113.22,-41749.05,0
22-9-2017 2:00,21587.03,-26759.118681222753,-44634.75,-30700.89,-58568.62,0
22-9-2017 3:00,15649.77,-30164.26853435581,-47521.13,-33561.85,-61480.42,0
22-9-2017 4:00,15290.2,-31769.71789074596,-42872.5,-28925.12,-56819.88,0
22-9-2017 5:00,12744.47,-39664.74430040314,-36055.13,-22130.7,-49979.56,0
22-9-2017 6:00,24221.0,-39570.79646730627,-33765.11,-19849.69,-47680.52,0
22-9-2017 7:00,49638.17,-35618.57280961191,-22627.14,-8741.76,-36512.53,0
22-9-2017 8:00,84875.2,-23437.169617884996,-7873.74,6002.76,-21750.23,1
22-9-2017 9:00,124359.93,-15458.224606469536,11399.38,25320.69,-2521.94,1
22-9-2017 10:00,180730.18,-34861.744110647356,28416.95,42416.96,14416.93,1
22-9-2017 11:00,205526.35,12896.690729417023,52685.36,66876.34,38494.38,1
22-9-2017 12:00,228186.22,28743.37784420853,57728.89,71954.04,43503.75,1
22-9-2017 13:00,217961.57,18175.220699769183,63025.97,77338.94,48712.99,0
22-9-2017 14:00,242060.38,41103.23237770653,40543.15,54799.37,26286.93,1
22-9-2017 15:00,225363.33,37479.591638897924,46837.79,61125.38,32550.21,0
22-9-2017 16:00,243108.28,59408.45288189576,33961.01,48213.48,19708.54,0
22-9-2017 17:00,268727.95,84804.48846296736,38601.09,52877.51,24324.67,1
22-9-2017 18:00,251761.92,61626.55032190215,51776.77,66172.24,37381.31,0
22-9-2017 19:00,215767.08,-265.28827205780544,20319.86,34692.46,5947.26,0
22-9-2017 20:00,214795.0,4113.204636424052,-12985.35,1477.93,-27448.63,0
22-9-2017 21:00,227113.3,31959.41264309315,-16476.98,-2016.54,-30937.43,0
22-9-2017 22:00,177846.63,-6926.416183168389,-4442.97,10014.78,-18900.71,0
22-9-2017 23:00,130612.25,-33011.9055205317,-38971.37,-24269.1,-53673.63,0
23-9-2017 0:00,89103.72,-42614.70450017898,-56547.2,-41708.8,-71385.6,0
23-9-2017 1:00,37732.6,-73721.79642340887,-62933.19,-48046.59,-77819.79,0
23-9-2017 2:00,20305.33,-84044.0754571547,-81499.05,-66419.24,-96578.85,0
23-9-2017 3:00,13501.38,-89586.9130723377,-75645.24,-60595.24,-90695.25,0
23-9-2017 4:00,18115.15,-87640.87106769418,-65509.17,-50512.02,-80506.33,0
23-9-2017 5:00,24017.75,-87137.0449818006,-49878.81,-34950.4,-64807.21,0
23-9-2017 6:00,27355.53,-95448.90790253667,-37567.15,-22693.97,-52440.32,0
23-9-2017 7:00,51032.0,-93850.01632982322,-30042.38,-15212.52,-44872.23,0
23-9-2017 8:00,83189.37,-85439.54269709409,-13566.94,1234.07,-28367.94,1
23-9-2017 9:00,181012.03,-20099.980756511155,5751.29,20561.86,-9059.29,1
23-9-2017 10:00,1048557.98,768840.1107374633,65473.52,80906.22,50040.82,1
23-9-2017 11:00,254254.8,-1261.1894837019208,569252.54,615246.16,523258.93,0
23-9-2017 12:00,322262.23,59879.81662859727,240452.72,289007.26,191898.18,0
23-9-2017 13:00,259271.7,-2255.850970215164,26412.31,75246.52,-22421.91,0
23-9-2017 14:00,267181.98,5672.912768476235,-11643.26,37264.99,-60551.5,0
23-9-2017 15:00,246451.98,-202.562298974226,-13661.14,35249.68,-62571.96,0
23-9-2017 16:00,176007.52,-65040.30893337395,-13926.1,35000.97,-62853.16,0
23-9-2017 17:00,191676.95,-43192.41706246158,-27250.06,21950.38,-76450.5,0
23-9-2017 18:00,194251.45,-40604.814312155446,-31394.41,17870.4,-80659.21,0
23-9-2017 19:00,526356.05,270927.9488797134,-28183.2,21119.07,-77485.47,1
23-9-2017 20:00,415319.37,171873.7447462394,31851.9,82927.85,-19224.05,0
23-9-2017 21:00,149853.08,-64955.43142163553,43588.6,94621.1,-7443.89,0
23-9-2017 22:00,65437.37,-126119.42362983924,-26017.67,26253.9,-78289.24,0
23-9-2017 23:00,125977.12,-31082.172328678862,-63158.08,-10066.89,-116249.27,0
24-9-2017 0:00,91784.62,-19659.395750716532,-33231.19,19937.88,-86400.26,0
24-9-2017 1:00,55532.33,-24377.009991503335,-26145.4,27073.78,-79364.58,0
24-9-2017 2:00,20040.48,-41992.56053222237,-29983.41,23297.5,-83264.33,0
24-9-2017 3:00,10270.37,-39936.496595947654,-31991.88,21333.53,-85317.3,0
24-9-2017 4:00,7172.5,-35287.883916762876,-28109.63,25180.11,-81399.37,0
24-9-2017 5:00,9565.3,-31922.557415988864,-21878.64,31331.32,-75088.6,0
24-9-2017 6:00,21592.82,-25390.963171228126,-15560.88,37546.32,-68668.08,0
24-9-2017 7:00,45187.05,-18066.165764165868,-8244.14,44751.36,-61239.63,0
24-9-2017 8:00,68696.7,-12573.90377110483,-991.08,51958.96,-53941.13,0
24-9-2017 9:00,90538.82,-22009.779065997354,4910.33,57836.41,-48015.75,0
24-9-2017 10:00,148242.72,-43561.4107385134,7149.75,60058.51,-45759.02,0
24-9-2017 11:00,170964.5,6784.27981444863,-2551.58,50375.07,-55478.23,1
24-9-2017 12:00,180468.25,11550.780759612622,18747.04,71869.63,-34375.56,1
24-9-2017 13:00,142456.22,-27575.220107010566,25731.84,78916.84,-27453.16,0
24-9-2017 14:00,133783.28,-38207.59712100265,15288.83,68442.33,-37864.66,0
24-9-2017 15:00,133947.48,-24574.959330532758,9113.72,62234.73,-44007.28,0
24-9-2017 16:00,113525.2,-41134.92665576762,11790.57,64912.98,-41331.84,0
24-9-2017 17:00,112705.07,-42764.580839097835,9593.95,62690.14,-43502.25,0
24-9-2017 18:00,138234.95,-24386.669541503594,8458.04,61522.8,-44606.72,0
24-9-2017 19:00,278658.55,87400.1730921107,11779.03,64828.26,-41270.21,1
24-9-2017 20:00,241838.12,55804.03957259758,33619.41,86956.8,-19717.98,0
24-9-2017 21:00,251806.6,82108.1452966136,28906.19,82221.33,-24408.95,1
24-9-2017 22:00,217752.43,58765.87577290257,30600.53,84013.24,-22812.17,0
24-9-2017 23:00,138986.38,2435.243779021461,24625.49,78016.91,-28765.92,0
25-9-2017 0:00,113202.22,10565.211981028318,3929.13,57289.24,-49430.97,0
25-9-2017 1:00,57511.45,-26590.271139528908,-2047.2,51276.15,-55370.55,0
25-9-2017 2:00,22581.17,-57142.97974943447,-9730.33,43589.42,-63050.08,0
25-9-2017 3:00,16860.9,-64742.05082391552,-16651.54,36687.66,-69990.75,0
25-9-2017 4:00,15472.37,-72239.92403240292,-16788.94,36552.32,-70130.21,0
25-9-2017 5:00,17460.6,-79800.10682411442,-15213.74,38122.45,-68549.92,0
25-9-2017 6:00,40018.87,-73476.28512122284,-13995.23,39332.44,-67322.91,0
25-9-2017 7:00,81001.58,-59847.10158717766,-9005.96,44296.2,-62308.11,0
25-9-2017 8:00,120191.17,-49837.63094115065,-1579.38,51701.52,-54860.27,0
25-9-2017 9:00,214981.82,7232.063053326798,4463.04,57733.93,-48807.85,1
25-9-2017 10:00,308474.67,13171.644739165582,19061.66,72450.5,-34327.17,0
25-9-2017 11:00,361494.07,89588.92259110045,15203.95,68520.62,-38112.73,1
25-9-2017 12:00,343537.65,61376.36489397471,37249.5,91002.63,-16503.64,0
25-9-2017 13:00,344928.95,60657.30219804266,33176.93,86959.27,-20605.41,0
25-9-2017 14:00,365325.57,78089.00586986903,25023.78,78819.43,-28771.87,0
25-9-2017 15:00,320452.05,46270.277956761245,23055.06,76862.87,-30752.75,0
25-9-2017 16:00,326026.22,54934.78010037588,11152.54,64921.3,-42616.23,0
25-9-2017 17:00,333902.42,65236.51031806765,7634.97,61377.51,-46107.56,0
25-9-2017 18:00,339992.3,67232.3906182145,7260.8,60976.54,-46454.94,0
25-9-2017 19:00,335382.45,36143.791238781414,3216.09,56900.68,-50468.51,0
25-9-2017 20:00,334214.97,43665.3568784362,-12178.86,41560.55,-65918.27,0
25-9-2017 21:00,360424.02,95391.84930124931,-14333.05,39402.89,-68069.0,0
25-9-2017 22:00,348785.98,103408.91888467572,-738.69,52983.07,-54460.46,0
25-9-2017 23:00,234978.9,21458.20001839791,2782.7,56475.34,-50909.94,0
26-9-2017 0:00,141026.38,-28798.313732905925,-21300.98,32676.78,-75278.74,0
26-9-2017 1:00,71312.33,-67710.52587945864,-42635.48,11649.99,-96920.95,0
26-9-2017 2:00,44441.25,-78436.8227047759,-53000.02,1548.97,-107549.02,0
26-9-2017 3:00,22140.63,-91055.2789362378,-51978.51,2688.89,-106645.91,0
26-9-2017 4:00,17432.65,-90462.93129068398,-49937.17,4810.01,-104684.35,0
26-9-2017 5:00,19194.72,-87479.62625730445,-44410.37,10338.49,-99159.23,0
26-9-2017 6:00,42234.08,-70122.64997870548,-37064.04,17637.82,-91765.89,0
26-9-2017 7:00,87658.53,-41845.55191894606,-25288.56,29325.05,-79902.18,0
26-9-2017 8:00,126713.1,-21843.56422122178,-10478.02,44064.75,-65020.79,0
26-9-2017 9:00,187529.72,8442.34593799038,1254.7,55749.52,-53240.12,0
26-9-2017 10:00,248695.78,-12609.48659891542,12429.32,66916.35,-42057.71,0
26-9-2017 11:00,265364.78,36864.47097089281,2864.4,57316.46,-51587.66,1
26-9-2017 12:00,286602.5,55960.2770503778,20641.81,75210.12,-33926.49,1
26-9-2017 13:00,303279.48,74805.9852910797,30239.25,84877.88,-24399.38,1
26-9-2017 14:00,283200.98,56032.57241466717,34768.17,89484.99,-19948.65,0
26-9-2017 15:00,232283.78,23032.00156392451,26136.55,80826.41,-28553.31,0
26-9-2017 16:00,230692.35,29034.839842681133,12852.27,67516.1,-41811.57,0
26-9-2017 17:00,219968.47,22061.611235651275,11186.61,65835.8,-43462.57,0
26-9-2017 18:00,219270.82,18417.997312607127,8651.86,63276.64,-45972.92,0
26-9-2017 19:00,235893.27,8810.408673809055,4603.38,59200.07,-49993.31,0
26-9-2017 20:00,233646.88,16808.516226314416,-3370.94,51216.54,-57958.41,0
26-9-2017 21:00,224112.43,33996.30852587969,-2582.02,51978.81,-57142.85,0
26-9-2017 22:00,195852.87,26358.923011524574,2554.76,57087.77,-51978.26,0
26-9-2017 23:00,121020.2,-15172.58693206901,1209.05,55707.48,-53289.38,0
27-9-2017 0:00,23983.77,-66611.19504972533,-10800.87,43717.83,-65319.57,0
27-9-2017 1:00,4872.2,-53779.71278230507,-27686.11,26948.02,-82320.25,0
27-9-2017 2:00,15156.67,-26748.352729042366,-24660.76,29958.86,-79280.37,0
27-9-2017 3:00,13673.93,-18168.986252502218,-12110.81,42473.94,-66695.55,0
27-9-2017 4:00,10171.88,-16152.210482993993,-5821.44,48735.69,-60378.57,0
27-9-2017 5:00,11461.35,-14076.24380257634,-4223.71,50307.41,-58754.84,0
27-9-2017 6:00,23388.45,-8507.780567402398,-3029.87,51473.88,-57533.63,0
27-9-2017 7:00,48343.3,-1741.9911315147183,-712.76,53764.51,-55190.03,0
27-9-2017 8:00,75196.88,4929.918343224737,1839.27,56294.49,-52615.95,0
27-9-2017 9:00,108806.7,5988.763604859429,4437.44,58873.82,-49998.94,0
27-9-2017 10:00,140935.02,-48118.08196829939,4483.02,58899.4,-49933.35,0
27-9-2017 11:00,189444.82,33561.092382869945,-15330.76,39185.15,-69846.66,1
27-9-2017 12:00,160762.63,1730.85007911321,8583.08,63189.16,-46023.0,0
27-9-2017 13:00,159052.08,1045.2919588136429,8266.67,62851.63,-46318.28,0
27-9-2017 14:00,166526.28,8664.647484089292,5817.9,60382.54,-48746.74,0
27-9-2017 15:00,146262.88,5763.166810528608,6686.45,61230.46,-47857.56,0
27-9-2017 16:00,134058.43,236.30390333689866,7260.33,61787.24,-47266.58,0
27-9-2017 17:00,134155.85,1967.067212261216,6138.98,60646.69,-48368.73,0
27-9-2017 18:00,131517.08,-5890.836719893996,6306.08,60795.12,-48182.95,0
27-9-2017 19:00,132645.32,-34261.02596234156,3545.16,58012.46,-50922.14,0
27-9-2017 20:00,137223.63,-21291.145007022133,-7327.13,47146.97,-61801.23,0
27-9-2017 21:00,138735.18,4149.27522300891,-4634.92,49816.99,-59086.84,0
27-9-2017 22:00,121161.65,4151.37994501568,4866.99,59313.96,-49579.98,0
27-9-2017 23:00,78480.58,-7758.895379159483,8015.18,62448.82,-46418.47,0
28-9-2017 0:00,43294.52,513.831569022208,5825.1,60336.72,-48686.51,0
28-9-2017 1:00,17908.0,4437.629072762342,6668.39,61169.72,-47832.94,0
28-9-2017 2:00,10747.32,10851.996826951974,7949.47,62443.54,-46544.61,0
28-9-2017 3:00,7147.68,13920.45683384109,9148.15,63636.21,-45339.91,0
28-9-2017 4:00,6538.2,15273.696000477066,9091.47,63569.62,-45386.69,0
28-9-2017 5:00,6893.0,14176.159516154774,8037.38,62501.64,-46426.88,0
28-9-2017 6:00,15809.07,14253.24489612566,6026.14,60473.31,-48421.04,0
28-9-2017 7:00,35306.3,12715.233924719854,4201.94,58630.14,-50226.27,0
28-9-2017 8:00,61533.55,15827.253393052684,2076.38,56484.27,-52331.5,0
28-9-2017 9:00,83910.18,3908.265904035652,1515.84,55903.62,-52871.93,0
28-9-2017 10:00,120583.82,-49395.00997255047,-3209.71,51163.05,-57582.47,0
28-9-2017 11:00,156221.88,20052.363892805617,-22639.91,31902.12,-77181.95,0
28-9-2017 12:00,140280.63,232.44593863280897,-4163.89,50383.44,-58711.22,0
28-9-2017 13:00,147380.8,8405.628719304907,-2363.79,52167.65,-56895.24,0
28-9-2017 14:00,121414.12,-17384.07009175814,-1396.18,53116.46,-55908.82,0
28-9-2017 15:00,111912.32,-8886.903326163694,-8455.11,46062.89,-62973.1,0
28-9-2017 16:00,113363.02,-483.1488146154297,-6591.39,47907.45,-61090.23,0
28-9-2017 17:00,110410.55,-2258.7823323178745,-1810.06,52669.32,-56289.44,0
28-9-2017 18:00,103299.97,-15200.865016164993,-469.43,53990.13,-54929.0,0
28-9-2017 19:00,100984.18,-48622.26144553172,-3602.26,50839.82,-58044.35,0
28-9-2017 20:00,100617.57,-40789.01367066783,-13872.94,40602.17,-68348.04,0
28-9-2017 21:00,91456.22,-25942.551868954135,-11425.64,43031.27,-65882.54,0
28-9-2017 22:00,90504.93,-9492.117420765659,-3894.4,50540.11,-58328.91,0
28-9-2017 23:00,67034.97,-1849.0186357025523,4460.01,58883.84,-49963.83,0
29-9-2017 0:00,37798.95,13107.342868136984,10162.79,64586.12,-44260.53,0
29-9-2017 1:00,18714.83,23440.75708610119,14324.8,68757.85,-40108.24,0
29-9-2017 2:00,10147.13,28016.21401912188,17109.79,71555.69,-37336.1,0
29-9-2017 3:00,6682.83,30565.959034264117,17368.97,71817.42,-37079.48,0
29-9-2017 4:00,6291.12,31320.91929448805,16123.32,70565.45,-38318.82,0
29-9-2017 5:00,7388.17,29865.889552298016,14033.57,68460.98,-40393.83,0
29-9-2017 6:00,14744.88,27042.35698393805,11133.99,65539.73,-43271.75,0
29-9-2017 7:00,31071.98,20627.154638510227,7721.32,62100.88,-46658.24,0
29-9-2017 8:00,52722.4,17367.903133707907,3395.79,57749.38,-50957.8,0
29-9-2017 9:00,80451.1,8953.369482340218,244.01,54572.74,-54084.72,0
29-9-2017 10:00,99102.57,-66216.79763055427,-4164.28,50146.69,-58475.24,0
29-9-2017 11:00,117884.45,-13088.635183892395,-27921.73,26601.78,-82445.23,0
29-9-2017 12:00,119489.72,-16195.619721362244,-16029.1,38472.91,-70531.1,0
29-9-2017 13:00,137441.0,2555.6076239396643,-9512.74,44972.2,-63997.68,0
29-9-2017 14:00,114868.15,-20129.521859803936,-3688.22,50776.19,-58152.63,0
29-9-2017 15:00,108140.35,-8542.393991396195,-8492.33,45967.4,-62952.07,0
29-9-2017 16:00,104436.17,-5339.146482329066,-5884.24,48555.31,-60323.79,0
29-9-2017 17:00,107088.92,-1895.7082111513155,-2618.99,51800.15,-57038.14,0
29-9-2017 18:00,106976.55,-8381.591031183496,-310.52,54088.47,-54709.51,0
29-9-2017 19:00,113456.75,-34543.85762357082,-1109.71,53268.55,-55487.97,0
29-9-2017 20:00,112952.22,-26969.92600526393,-8677.64,45697.15,-63052.44,0
29-9-2017 21:00,94135.42,-21358.50161685166,-6548.12,47801.28,-60897.52,0
29-9-2017 22:00,76947.07,-20977.668049430868,-2527.4,51797.39,-56852.18,0
29-9-2017 23:00,66330.15,202.1042379210994,363.12,54664.4,-53938.16,0
30-9-2017 0:00,39332.83,18472.129690469083,8454.99,62831.75,-45921.77,0
30-9-2017 1:00,18125.47,28046.84161395993,14458.77,68848.41,-39930.87,0
30-9-2017 2:00,10284.65,34174.608717114286,16644.47,71044.76,-37755.82,0
30-9-2017 3:00,6840.43,37347.69973181226,16691.79,71095.71,-37712.14,0
30-9-2017 4:00,6377.7,38472.752957942954,15449.51,69849.34,-38950.32,0
30-9-2017 5:00,7721.67,39220.70116878662,13261.36,67649.41,-41126.68,0
30-9-2017 6:00,13630.77,36664.10186299724,10380.96,64751.7,-43989.78,0
30-9-2017 7:00,29895.38,31535.036096461467,6547.48,60896.08,-47801.13,0
30-9-2017 8:00,52596.17,30587.401571438015,2092.4,56418.95,-52234.16,0
30-9-2017 9:00,69415.55,12244.90361090748,-878.03,53427.09,-55183.16,0
30-9-2017 10:00,111385.95,-40622.096446825584,-7984.16,46315.99,-62284.3,0
30-9-2017 11:00,100984.17,-13311.667127388137,-25175.98,29260.84,-79612.81,0
30-9-2017 12:00,109162.33,-7850.389956685285,-19986.89,34439.55,-74413.33,0
30-9-2017 13:00,101098.53,-12505.49070303292,-14039.36,40373.01,-68451.73,0
30-9-2017 14:00,94051.83,-17071.913515736407,-13846.13,40561.67,-68253.93,0
30-9-2017 15:00,83763.12,-5847.917200794764,-14546.15,39856.96,-68949.27,0
30-9-2017 16:00,80989.95,1122.5560853577772,-10196.3,44185.41,-64578.01,0
30-9-2017 17:00,80853.82,5429.816666214581,-5936.31,48422.33,-60294.96,0
30-9-2017 18:00,85178.58,6877.904230796219,-3372.94,50962.78,-57708.65,0
30-9-2017 19:00,91488.45,-16952.604103988408,-2122.76,52189.25,-56434.76,0
30-9-2017 20:00,86535.02,-9910.020221615217,-8206.67,46101.25,-62514.6,0
30-9-2017 21:00,35943.42,-31695.157841726425,-6722.92,47561.66,-61007.51,0
30-9-2017 22:00,44190.07,-1753.8197649310678,-10558.17,43714.84,-64831.18,0
30-9-2017 23:00,46505.35,36999.83141485201,-1705.44,52546.41,-55957.3,0
