Time,Actual,STL processed,Forecasts,Upper Interval,Lower Interval,Is Anomalies
1-8-2017 0:00,0.0,-0.4107561759953612,0.0,0.0,0.0,0
1-8-2017 1:00,0.0,-0.523263512673049,0.0,0.0,0.0,0
1-8-2017 2:00,0.0,-0.45078284446691086,0.0,0.0,0.0,0
1-8-2017 3:00,0.0,-0.4097199593592534,0.0,0.0,0.0,0
1-8-2017 4:00,0.0,-0.3487938545161278,0.0,0.0,0.0,0
1-8-2017 5:00,0.0,-0.21374148785999197,0.0,0.0,0.0,0
1-8-2017 6:00,0.0,-0.32075166668752464,0.0,0.0,0.0,0
1-8-2017 7:00,0.0,-0.5487932939365547,0.0,0.0,0.0,0
1-8-2017 8:00,0.0,0.13070867398875008,0.0,0.0,0.0,0
1-8-2017 9:00,0.0,0.5757788427596787,0.0,0.0,0.0,0
1-8-2017 10:00,0.0,4.061680750271267,0.0,0.0,0.0,0
1-8-2017 11:00,0.0,4.451438355606518,0.0,0.0,0.0,0
1-8-2017 12:00,0.0,2.552459551621838,0.0,0.0,0.0,0
1-8-2017 13:00,0.02,-1.2993288509233016,0.0,0.0,0.0,0
1-8-2017 14:00,0.07,-3.211963910519822,0.0,0.0,0.0,0
1-8-2017 15:00,0.08,-1.5002965155774335,0.0,0.0,0.0,0
1-8-2017 16:00,0.0,-1.6242002279241372,0.0,0.0,0.0,0
1-8-2017 17:00,0.0,-2.237921082542606,0.0,0.0,0.0,0
1-8-2017 18:00,0.0,-1.0536343994619115,0.0,0.0,0.0,0
1-8-2017 19:00,0.0,0.3555733786312051,0.0,0.0,0.0,0
1-8-2017 20:00,0.0,-1.3513559382905003,0.0,0.0,0.0,0
1-8-2017 21:00,0.0,0.5381115070337856,0.0,0.0,0.0,0
1-8-2017 22:00,0.18,-1.3946293898478932,0.0,0.0,0.0,0
1-8-2017 23:00,0.0,0.18723415495657475,0.0,0.0,0.0,0
2-8-2017 0:00,0.0,0.2589704057039594,0.0,0.0,0.0,0
2-8-2017 1:00,0.0,0.06468629100562838,0.0,0.0,0.0,0
2-8-2017 2:00,0.0,0.05462046024230731,0.0,0.0,0.0,0
2-8-2017 3:00,0.0,0.013140614567772976,0.0,0.0,0.0,0
2-8-2017 4:00,0.0,-0.013527678268173443,0.0,0.0,0.0,0
2-8-2017 5:00,0.0,0.04132597581641878,0.0,0.0,0.0,0
2-8-2017 6:00,0.0,-0.13556135650853626,0.0,0.0,0.0,0
2-8-2017 7:00,0.0,-0.4495440123025165,0.0,0.0,0.0,0
2-8-2017 8:00,0.0,0.1565492741977727,0.0,0.0,0.0,0
2-8-2017 9:00,0.03,0.5574520419887925,0.0,0.0,0.0,0
2-8-2017 10:00,0.0,3.7646892707778834,0.0,0.0,0.0,0
2-8-2017 11:00,0.48,4.445066451228904,0.0,0.0,0.0,0
2-8-2017 12:00,0.28,2.4765903784120074,0.0,0.0,0.0,0
2-8-2017 13:00,0.83,-0.6878651981641778,0.0,0.0,0.0,0
2-8-2017 14:00,0.05,-3.3722395626197863,0.0,0.0,0.0,0
2-8-2017 15:00,0.03,-1.7232145689565477,0.0,0.0,0.0,0
2-8-2017 16:00,0.12,-1.7146148879752996,0.0,0.0,0.0,0
2-8-2017 17:00,0.15,-2.2647985005487428,0.0,0.0,0.0,0
2-8-2017 18:00,1.57,0.3172161030484575,0.0,0.0,0.0,0
2-8-2017 19:00,1.05,0.9806899627862928,0.0,0.0,0.0,0
2-8-2017 20:00,0.28,-1.263994083247311,0.0,0.0,0.0,0
2-8-2017 21:00,0.18,0.4251467662261048,0.0,0.0,0.0,0
2-8-2017 22:00,1.0,-0.8304797330330241,0.0,0.0,0.0,0
2-8-2017 23:00,0.0,-0.13294864287391273,0.0,0.0,0.0,0
3-8-2017 0:00,0.0,-0.05661991097093416,0.0,0.0,0.0,0
3-8-2017 1:00,0.0,-0.312840758611034,0.0,0.0,0.0,0
3-8-2017 2:00,0.0,-0.38561304326493995,0.0,0.0,0.0,0
3-8-2017 3:00,0.0,-0.48979557464279155,0.0,0.0,0.0,0
3-8-2017 4:00,0.0,-0.5842050385563331,0.0,0.0,0.0,0
3-8-2017 5:00,0.0,-0.5856666928854849,0.0,0.0,0.0,0
3-8-2017 6:00,0.0,-0.8085477745500629,0.0,0.0,0.0,0
3-8-2017 7:00,0.0,-1.1845811116792198,0.0,0.0,0.0,0
3-8-2017 8:00,0.0,-0.6280061593941729,0.0,0.0,0.0,0
3-8-2017 9:00,0.02,-0.2879965691272174,0.0,0.0,0.0,0
3-8-2017 10:00,0.8,3.5038522643186187,0.0,0.0,0.0,0
3-8-2017 11:00,0.57,3.3081253032646503,0.0,0.0,0.0,0
3-8-2017 12:00,0.73,1.8534282449947783,0.0,0.0,0.0,0
3-8-2017 13:00,7.13,4.713592632594395,0.0,0.0,0.0,0
3-8-2017 14:00,6.67,2.424766101486545,0.0,0.0,0.0,0
3-8-2017 15:00,0.75,-1.8415641679225212,0.0,0.0,0.0,0
3-8-2017 16:00,2.02,-0.6731664443491636,0.0,0.0,0.0,0
3-8-2017 17:00,1.57,-1.6404042042912028,0.0,0.0,0.0,0
3-8-2017 18:00,0.83,-1.2112530695911188,0.0,0.0,0.0,0
3-8-2017 19:00,0.62,-0.43410774559807286,0.0,0.0,0.0,0
3-8-2017 20:00,2.47,0.2028588618669166,0.0,0.0,0.0,0
3-8-2017 21:00,0.23,-0.2210200394097781,0.0,0.0,0.0,0
3-8-2017 22:00,0.25,-2.112236505847215,0.0,0.0,0.0,0
3-8-2017 23:00,0.0,-0.6017422351343167,0.0,0.0,0.0,0
4-8-2017 0:00,0.0,-0.3935253868766015,0.0,0.0,0.0,0
4-8-2017 1:00,0.0,-0.47466277339611596,0.0,0.0,0.0,0
4-8-2017 2:00,0.0,-0.3731213178782525,0.0,0.0,0.0,0
4-8-2017 3:00,0.0,-0.3029863408970674,0.0,0.0,0.0,0
4-8-2017 4:00,0.0,-0.2281217430391364,0.0,0.0,0.0,0
4-8-2017 5:00,0.0,-0.12668301913188335,0.0,0.0,0.0,0
4-8-2017 6:00,0.0,-0.23634216348593495,0.0,0.0,0.0,0
4-8-2017 7:00,0.08,-0.43521255394958963,0.0,0.0,0.0,0
4-8-2017 8:00,0.0,0.15105769212089376,0.0,0.0,0.0,0
4-8-2017 9:00,1.05,1.5218073508825214,0.0,0.0,0.0,0
4-8-2017 10:00,1.27,4.5799007018599,0.0,0.0,0.0,0
4-8-2017 11:00,0.0,3.22970251217574,0.0,0.0,0.0,0
4-8-2017 12:00,0.0,1.8204173813276916,0.0,0.0,0.0,0
4-8-2017 13:00,0.07,-1.4682358226355747,0.0,0.0,0.0,0
4-8-2017 14:00,0.0,-3.2849520761343505,0.0,0.0,0.0,0
4-8-2017 15:00,0.0,-1.640075164354405,0.0,0.0,0.0,0
4-8-2017 16:00,0.03,-1.7253169539276216,0.0,0.0,0.0,0
4-8-2017 17:00,0.72,-1.529462248219898,0.0,0.0,0.0,0
4-8-2017 18:00,0.4,-0.7130279693985702,0.0,0.0,0.0,0
4-8-2017 19:00,1.9,1.5379354318680456,0.0,0.0,0.0,0
4-8-2017 20:00,0.03,-1.3233006941500125,0.0,0.0,0.0,0
4-8-2017 21:00,0.02,0.30573197627535076,0.0,0.0,0.0,0
4-8-2017 22:00,0.0,-1.6651431348882246,0.0,0.0,0.0,0
4-8-2017 23:00,0.02,-0.025754361169371687,0.0,0.0,0.0,0
5-8-2017 0:00,0.05,0.14028192589524885,0.0,0.0,0.0,0
5-8-2017 1:00,0.0,-0.2389811046088513,0.0,0.0,0.0,0
5-8-2017 2:00,0.0,-0.3863350140243897,0.0,0.0,0.0,0
5-8-2017 3:00,0.0,-0.5650916337893386,0.0,0.0,0.0,0
5-8-2017 4:00,0.0,-0.7441620792651062,0.0,0.0,0.0,0
5-8-2017 5:00,0.0,-0.9195006883429571,0.0,0.0,0.0,0
5-8-2017 6:00,0.0,-1.2956156066079916,0.0,0.0,0.0,0
5-8-2017 7:00,0.0,-1.8570007616276527,0.0,0.0,0.0,0
5-8-2017 8:00,0.0,-1.4607129329932413,0.0,0.0,0.0,0
5-8-2017 9:00,0.77,-0.5565857576269293,0.0,0.0,0.0,0
5-8-2017 10:00,0.0,1.1503895589920048,0.0,0.0,0.0,0
5-8-2017 11:00,1.87,2.6383575887876662,0.0,0.0,0.0,0
5-8-2017 12:00,1.63,1.0071218334714525,0.0,0.0,0.0,0
5-8-2017 13:00,0.08,-3.766666660452131,0.0,0.0,0.0,0
5-8-2017 14:00,14.6,9.042409665260733,0.0,0.0,0.0,0
5-8-2017 15:00,0.78,-3.1878239401677453,0.0,0.0,0.0,0
5-8-2017 16:00,10.18,6.036977058715028,0.0,0.0,0.0,0
5-8-2017 17:00,4.77,0.2024462560350906,0.0,0.0,0.0,0
5-8-2017 18:00,7.43,4.012685704940235,0.0,0.0,0.0,0
5-8-2017 19:00,14.0,11.143989209442996,0.0,0.0,0.0,0
5-8-2017 20:00,0.0,-3.5789276240955354,0.0,0.0,0.0,0
5-8-2017 21:00,0.0,-1.8448632486899654,0.0,0.0,0.0,0
5-8-2017 22:00,0.0,-3.5632768713015315,0.0,0.0,0.0,0
5-8-2017 23:00,0.0,-1.812873461298575,0.0,0.0,0.0,0
6-8-2017 0:00,0.0,-1.4768976021489009,0.0,0.0,0.0,0
6-8-2017 1:00,0.0,-1.4051661903816157,0.0,0.0,0.0,0
6-8-2017 2:00,0.0,-1.1522953784745846,0.0,0.0,0.0,0
6-8-2017 3:00,0.0,-0.9308235087296968,0.0,0.0,0.0,0
6-8-2017 4:00,0.0,-0.7147089112831919,0.0,0.0,0.0,0
6-8-2017 5:00,0.0,-0.4677536587657073,0.0,0.0,0.0,0
6-8-2017 6:00,0.0,-0.41125315636128473,0.0,0.0,0.0,0
6-8-2017 7:00,0.0,-0.5560818813565132,0.0,0.0,0.0,0
6-8-2017 8:00,0.0,0.2692947244222652,0.0,0.0,0.0,0
6-8-2017 9:00,0.0,0.5729829276586974,0.0,0.0,0.0,0
6-8-2017 10:00,0.0,3.0450237211846223,0.0,0.0,0.0,0
6-8-2017 11:00,0.0,2.71734148172554,0.0,0.0,0.0,0
6-8-2017 12:00,0.0,1.700338613206598,0.0,0.0,0.0,0
6-8-2017 13:00,0.0,-1.3104480841066846,0.0,0.0,0.0,0
6-8-2017 14:00,0.0,-2.9074420926115616,0.0,0.0,0.0,0
6-8-2017 15:00,0.0,-1.2946491286778432,0.0,0.0,0.0,0
6-8-2017 16:00,0.0,-1.4516682547684598,0.0,0.0,0.0,0
6-8-2017 17:00,0.0,-1.8707944616452898,0.0,0.0,0.0,0
6-8-2017 18:00,0.0,-0.7709597384655571,0.0,0.0,0.0,0
6-8-2017 19:00,0.0,-0.4635260265358832,0.0,0.0,0.0,0
6-8-2017 20:00,0.0,-0.9823334634041176,0.0,0.0,0.0,0
6-8-2017 21:00,0.0,0.5431407901559521,0.0,0.0,0.0,0
6-8-2017 22:00,0.0,-1.2464331707293104,0.0,0.0,0.0,0
6-8-2017 23:00,0.0,0.33136304873204314,0.0,0.0,0.0,0
7-8-2017 0:00,0.0,0.5636566531410648,0.0,0.0,0.0,0
7-8-2017 1:00,0.0,0.3988675932288675,0.0,0.0,0.0,0
7-8-2017 2:00,0.0,0.4144482125076001,0.0,0.0,0.0,0
7-8-2017 3:00,0.0,0.398633657811457,0.0,0.0,0.0,0
7-8-2017 4:00,0.0,0.37241838422936646,0.0,0.0,0.0,0
7-8-2017 5:00,0.0,0.36953936975866725,0.0,0.0,0.0,0
7-8-2017 6:00,0.0,0.18652716424902724,0.0,0.0,0.0,0
7-8-2017 7:00,0.0,-0.21387325930528775,0.0,0.0,0.0,0
7-8-2017 8:00,0.0,0.3684639950343384,0.0,0.0,0.0,0
7-8-2017 9:00,0.0,0.5229952594140128,0.0,0.0,0.0,0
7-8-2017 10:00,0.0,2.6713835631200498,0.0,0.0,0.0,0
7-8-2017 11:00,0.0,2.0793330876793465,0.0,0.0,0.0,0
7-8-2017 12:00,0.0,1.1178451392307978,0.0,0.0,0.0,0
7-8-2017 13:00,0.0,-1.7461475217310622,0.0,0.0,0.0,0
7-8-2017 14:00,0.0,-3.295419624712559,0.0,0.0,0.0,0
7-8-2017 15:00,0.0,-1.7258078516755238,0.0,0.0,0.0,0
7-8-2017 16:00,0.0,-1.9308560382649909,0.0,0.0,0.0,0
7-8-2017 17:00,0.0,-2.3168812480522147,0.0,0.0,0.0,0
7-8-2017 18:00,0.0,-1.2397548493113963,0.0,0.0,0.0,0
7-8-2017 19:00,3.98,2.8214995191435204,0.0,0.0,0.0,0
7-8-2017 20:00,5.43,3.9844919280439117,0.0,0.0,0.0,0
7-8-2017 21:00,1.15,1.1428507547671742,0.0,0.0,0.0,0
7-8-2017 22:00,0.17,-1.5764234552511356,0.0,0.0,0.0,0
7-8-2017 23:00,0.03,-0.189774337190735,0.0,0.0,0.0,0
8-8-2017 0:00,0.0,0.030297101618283695,0.0,0.0,0.0,0
8-8-2017 1:00,0.0,-0.1491286012308911,0.0,0.0,0.0,0
8-8-2017 2:00,0.0,-0.14895434583795197,0.0,0.0,0.0,0
8-8-2017 3:00,0.0,-0.18017149623262096,0.0,0.0,0.0,0
8-8-2017 4:00,0.23,0.003165931808181699,0.0,0.0,0.0,0
8-8-2017 5:00,0.0,-0.19331795022290021,0.0,0.0,0.0,0
8-8-2017 6:00,0.0,-0.3296134642188019,0.0,0.0,0.0,0
8-8-2017 7:00,0.0,-0.6993332722864078,0.0,0.0,0.0,0
8-8-2017 8:00,0.0,-0.07378305534013807,0.0,0.0,0.0,0
8-8-2017 9:00,0.38,0.49049055874737546,0.0,0.0,0.0,0
8-8-2017 10:00,0.53,2.6441577634038786,0.0,0.0,0.0,0
8-8-2017 11:00,0.0,1.436670442751907,0.0,0.0,0.0,0
8-8-2017 12:00,0.0,0.7096288051441038,0.0,0.0,0.0,0
8-8-2017 13:00,1.82,-0.1328715187104692,0.0,0.0,0.0,0
8-8-2017 14:00,1.17,-2.229723415412723,0.0,0.0,0.0,0
8-8-2017 15:00,6.7,4.881405467483494,0.0,0.0,0.0,0
8-8-2017 16:00,0.08,-1.9369497152273945,0.0,0.0,0.0,0
8-8-2017 17:00,0.2,-2.1426060564933227,0.0,0.0,0.0,0
8-8-2017 18:00,1.07,-0.19092011075972803,0.0,0.0,0.0,0
8-8-2017 19:00,0.95,-0.42856942117144275,0.0,0.0,0.0,0
8-8-2017 20:00,0.0,-1.4065015018943,0.0,0.0,0.0,0
8-8-2017 21:00,0.0,-0.003596362371056483,0.0,0.0,0.0,0
8-8-2017 22:00,0.0,-1.640904554843704,0.0,0.0,0.0,0
8-8-2017 23:00,0.0,-0.11373627150554744,0.0,0.0,0.0,0
9-8-2017 0:00,0.0,0.21099926746445663,0.0,0.0,0.0,0
9-8-2017 1:00,0.0,0.08675913732043955,0.0,0.0,0.0,0
9-8-2017 2:00,0.0,0.13633381640840536,0.0,0.0,0.0,0
9-8-2017 3:00,0.0,0.1546661849602246,0.0,0.0,0.0,0
9-8-2017 4:00,0.0,0.15270456766372542,0.0,0.0,0.0,0
9-8-2017 5:00,0.0,0.1665704305008613,0.0,0.0,0.0,0
9-8-2017 6:00,0.0,0.021265386794176055,0.0,0.0,0.0,0
9-8-2017 7:00,0.0,-0.3701315694242563,0.0,0.0,0.0,0
9-8-2017 8:00,0.0,0.23563139844550718,0.0,0.0,0.0,0
9-8-2017 9:00,0.0,0.32747415438428995,0.0,0.0,0.0,0
9-8-2017 10:00,0.0,2.015263177771828,0.0,0.0,0.0,0
9-8-2017 11:00,0.05,1.1903763588319918,0.0,0.0,0.0,0
9-8-2017 12:00,3.75,4.299805425187443,0.0,0.0,0.0,0
9-8-2017 13:00,0.18,-1.6904210831552957,0.0,0.0,0.0,0
9-8-2017 14:00,0.58,-2.6777311159301354,0.0,0.0,0.0,0
9-8-2017 15:00,0.0,-1.703409924437194,0.0,0.0,0.0,0
9-8-2017 16:00,1.08,-0.8615217640453611,0.0,0.0,0.0,0
9-8-2017 17:00,3.6,1.3671749373761815,0.0,0.0,0.0,0
9-8-2017 18:00,0.0,-1.1857431734599133,0.0,0.0,0.0,0
9-8-2017 19:00,0.0,-1.5444233515804051,0.0,0.0,0.0,0
9-8-2017 20:00,1.63,0.3003427798941657,0.0,0.0,0.0,0
9-8-2017 21:00,1.43,1.380089896417102,0.0,0.0,0.0,0
9-8-2017 22:00,0.0,-1.6380649869152435,0.0,0.0,0.0,0
9-8-2017 23:00,0.0,-0.20101152337461142,0.0,0.0,0.0,0
10-8-2017 0:00,0.0,0.11713696425523623,0.0,0.0,0.0,0
10-8-2017 1:00,0.0,-0.032457143549148526,0.0,0.0,0.0,0
10-8-2017 2:00,0.0,-0.01402159113168111,0.0,0.0,0.0,0
10-8-2017 3:00,0.0,-0.0266792539988987,0.0,0.0,0.0,0
10-8-2017 4:00,0.0,-0.06445742518047104,0.0,0.0,0.0,0
10-8-2017 5:00,0.0,-0.05285528818546248,0.0,0.0,0.0,0
10-8-2017 6:00,0.0,-0.18978333231327627,0.0,0.0,0.0,0
10-8-2017 7:00,0.0,-0.5854388710284397,0.0,0.0,0.0,0
10-8-2017 8:00,0.0,0.017955413418912713,0.0,0.0,0.0,0
10-8-2017 9:00,0.2,0.27273381458609536,0.0,0.0,0.0,0
10-8-2017 10:00,0.0,1.500044721409982,0.0,0.0,0.0,0
10-8-2017 11:00,6.13,6.613158468887594,0.0,0.0,0.0,0
10-8-2017 12:00,2.97,3.0544583039116135,0.0,0.0,0.0,0
10-8-2017 13:00,0.0,-2.079265216697445,0.0,0.0,0.0,0
10-8-2017 14:00,0.48,-2.912804213323025,0.0,0.0,0.0,0
10-8-2017 15:00,2.68,0.828938458988488,0.0,0.0,0.0,0
10-8-2017 16:00,0.0,-2.1146794522067096,0.0,0.0,0.0,0
10-8-2017 17:00,0.9,-1.44220872191601,0.0,0.0,0.0,0
10-8-2017 18:00,0.02,-1.2803099031401068,0.0,0.0,0.0,0
10-8-2017 19:00,0.37,-1.500604073987592,0.0,0.0,0.0,0
10-8-2017 20:00,0.45,-0.9337228553338097,0.0,0.0,0.0,0
10-8-2017 21:00,0.05,-0.09070588438966531,0.0,0.0,0.0,0
10-8-2017 22:00,1.85,0.25669573414564106,0.0,0.0,0.0,0
10-8-2017 23:00,1.27,1.1100375706160988,0.0,0.0,0.0,0
11-8-2017 0:00,0.0,0.23800219963313984,0.0,0.0,0.0,0
11-8-2017 1:00,0.0,0.1276759273676188,0.0,0.0,0.0,0
11-8-2017 2:00,0.0,0.17959416631381886,0.0,0.0,0.0,0
11-8-2017 3:00,0.0,0.20056828522679548,0.0,0.0,0.0,0
11-8-2017 4:00,0.0,0.19158372440499616,0.0,0.0,0.0,0
11-8-2017 5:00,0.0,0.19600620703536775,0.0,0.0,0.0,0
11-8-2017 6:00,0.0,0.06253923396391581,0.0,0.0,0.0,0
11-8-2017 7:00,0.0,-0.34229537664371124,0.0,0.0,0.0,0
11-8-2017 8:00,0.0,0.25380973498549775,0.0,0.0,0.0,0
11-8-2017 9:00,0.02,0.28897119622650935,0.0,0.0,0.0,0
11-8-2017 10:00,1.93,3.3632506717709596,0.0,0.0,0.0,0
11-8-2017 11:00,0.0,0.27181167095023606,0.0,0.0,0.0,0
11-8-2017 12:00,0.8,0.8624289599270396,0.0,0.0,0.0,0
11-8-2017 13:00,2.47,0.6333857600489333,0.0,0.0,0.0,0
11-8-2017 14:00,0.4,-2.6682048674301164,0.0,0.0,0.0,0
11-8-2017 15:00,0.88,-0.6508633813027607,0.0,0.0,0.0,0
11-8-2017 16:00,1.08,-0.7318100310877174,0.0,0.0,0.0,0
11-8-2017 17:00,1.42,-0.5841955552647976,0.0,0.0,0.0,0
11-8-2017 18:00,0.2,-0.7961100902138339,0.0,0.0,0.0,0
11-8-2017 19:00,0.8,-1.0066485371252498,0.0,0.0,0.0,0
11-8-2017 20:00,0.0,-1.076282514629193,0.0,0.0,0.0,0
11-8-2017 21:00,0.52,0.5879368523545567,0.0,0.0,0.0,0
11-8-2017 22:00,0.77,-0.5411724856240874,0.0,0.0,0.0,0
11-8-2017 23:00,0.0,0.056390265394593186,0.0,0.0,0.0,0
12-8-2017 0:00,0.0,0.47210357741722553,0.0,0.0,0.0,0
12-8-2017 1:00,0.0,0.38141149487062465,0.0,0.0,0.0,0
12-8-2017 2:00,0.0,0.44717877452561394,0.0,0.0,0.0,0
12-8-2017 3:00,0.0,0.48215102939884164,0.0,0.0,0.0,0
12-8-2017 4:00,0.0,0.4823264331168718,0.0,0.0,0.0,0
12-8-2017 5:00,0.0,0.49249706044335984,0.0,0.0,0.0,0
12-8-2017 6:00,0.0,0.37541895748902293,0.0,0.0,0.0,0
12-8-2017 7:00,0.0,-0.0256669259503145,0.0,0.0,0.0,0
12-8-2017 8:00,0.0,0.5760768119215045,0.0,0.0,0.0,0
12-8-2017 9:00,0.25,0.7869374506979065,0.0,0.0,0.0,0
12-8-2017 10:00,0.43,1.8535016124244836,0.0,0.0,0.0,0
12-8-2017 11:00,0.47,0.5728259807669851,0.0,0.0,0.0,0
12-8-2017 12:00,0.28,0.3480768411581341,0.0,0.0,0.0,0
12-8-2017 13:00,1.15,-0.43178500405077186,0.0,0.0,0.0,0
12-8-2017 14:00,0.18,-2.566926228445041,0.0,0.0,0.0,0
12-8-2017 15:00,0.0,-1.2294848945635943,0.0,0.0,0.0,0
12-8-2017 16:00,0.0,-1.5432592490000614,0.0,0.0,0.0,0
12-8-2017 17:00,0.0,-1.6966907804982716,0.0,0.0,0.0,0
12-8-2017 18:00,0.0,-0.7186084220255979,0.0,0.0,0.0,0
12-8-2017 19:00,3.52,1.7544191021457052,0.0,0.0,0.0,0
12-8-2017 20:00,0.0,-0.787919824369314,0.0,0.0,0.0,0
12-8-2017 21:00,0.0,0.2603376796612361,0.0,0.0,0.0,0
12-8-2017 22:00,0.0,-1.0424468738241641,0.0,0.0,0.0,0
12-8-2017 23:00,0.0,0.26217253274993435,0.0,0.0,0.0,0
13-8-2017 0:00,0.0,0.6984702687853522,0.0,0.0,0.0,0
13-8-2017 1:00,0.0,0.612841240476873,0.0,0.0,0.0,0
13-8-2017 2:00,0.0,0.677886425359853,0.0,0.0,0.0,0
13-8-2017 3:00,0.0,0.7122856807125331,0.0,0.0,0.0,0
13-8-2017 4:00,0.0,0.7070499134895942,0.0,0.0,0.0,0
13-8-2017 5:00,0.0,0.7262136999674764,0.0,0.0,0.0,0
13-8-2017 6:00,0.0,0.6287694815855323,0.0,0.0,0.0,0
13-8-2017 7:00,0.0,0.2346773397697625,0.0,0.0,0.0,0
13-8-2017 8:00,0.0,0.8453047183394689,0.0,0.0,0.0,0
13-8-2017 9:00,0.0,0.7722238449134169,0.0,0.0,0.0,0
13-8-2017 10:00,0.0,1.401432003084275,0.0,0.0,0.0,0
13-8-2017 11:00,0.0,-0.05812094914784226,0.0,0.0,0.0,0
13-8-2017 12:00,0.0,0.10212279291980747,0.0,0.0,0.0,0
13-8-2017 13:00,0.0,-1.2902835864580013,0.0,0.0,0.0,0
13-8-2017 14:00,0.0,-2.3807012966055945,0.0,0.0,0.0,0
13-8-2017 15:00,0.0,-0.8748860038081602,0.0,0.0,0.0,0
13-8-2017 16:00,0.0,-1.2132139517342408,0.0,0.0,0.0,0
13-8-2017 17:00,0.0,-1.3304171983344995,0.0,0.0,0.0,0
13-8-2017 18:00,0.0,-0.38506365422103395,0.0,0.0,0.0,0
13-8-2017 19:00,0.0,-1.67119586674793,0.0,0.0,0.0,0
13-8-2017 20:00,0.0,-0.4489654500549435,0.0,0.0,0.0,0
13-8-2017 21:00,0.0,0.48976350670649443,0.0,0.0,0.0,0
13-8-2017 22:00,0.0,-0.7502629466015741,0.0,0.0,0.0,0
13-8-2017 23:00,0.0,0.47784643121202974,0.0,0.0,0.0,0
14-8-2017 0:00,0.0,0.9211619069443213,0.0,0.0,0.0,0
14-8-2017 1:00,0.0,0.8117546572115901,0.0,0.0,0.0,0
14-8-2017 2:00,0.0,0.8472364716601873,0.0,0.0,0.0,0
14-8-2017 3:00,0.0,0.8522214518299464,0.0,0.0,0.0,0
14-8-2017 4:00,0.0,0.8127332380036649,0.0,0.0,0.0,0
14-8-2017 5:00,0.0,0.787954352650898,0.0,0.0,0.0,0
14-8-2017 6:00,0.0,0.6572081878593037,0.0,0.0,0.0,0
14-8-2017 7:00,0.0,0.21717395668505807,0.0,0.0,0.0,0
14-8-2017 8:00,0.0,0.7837491449706089,0.0,0.0,0.0,0
14-8-2017 9:00,0.0,0.6361074586167452,0.0,0.0,0.0,0
14-8-2017 10:00,0.78,1.7473403125065272,0.0,0.0,0.0,0
14-8-2017 11:00,0.13,-0.5417092610255672,0.0,0.0,0.0,0
14-8-2017 12:00,0.48,0.1229080619932256,0.0,0.0,0.0,0
14-8-2017 13:00,0.02,-1.4797376967308682,0.0,0.0,0.0,0
14-8-2017 14:00,0.37,-2.1531267378091674,0.0,0.0,0.0,0
14-8-2017 15:00,0.37,-0.6666323312731276,0.0,0.0,0.0,0
14-8-2017 16:00,0.08,-1.3272109135710974,0.0,0.0,0.0,0
14-8-2017 17:00,0.37,-1.104027532616881,0.0,0.0,0.0,0
14-8-2017 18:00,0.17,-0.37724446020609925,0.0,0.0,0.0,0
14-8-2017 19:00,0.87,-1.1883889463222945,0.0,0.0,0.0,0
14-8-2017 20:00,1.18,0.6025582766875983,0.0,0.0,0.0,0
14-8-2017 21:00,0.18,0.46223008528287807,0.0,0.0,0.0,0
14-8-2017 22:00,0.0,-0.8645932080814772,0.0,0.0,0.0,0
14-8-2017 23:00,0.0,0.31745120073801336,0.0,0.0,0.0,0
15-8-2017 0:00,0.0,0.7982294759335595,0.0,0.0,0.0,0
15-8-2017 1:00,0.0,0.675141633099271,0.0,0.0,0.0,0
15-8-2017 2:00,0.0,0.6911577054361797,0.0,0.0,0.0,0
15-8-2017 3:00,0.0,0.676826038745712,0.0,0.0,0.0,0
15-8-2017 4:00,0.0,0.613171882938287,0.0,0.0,0.0,0
15-8-2017 5:00,0.0,0.5422572134073205,0.0,0.0,0.0,0
15-8-2017 6:00,0.0,0.37601598985852525,0.0,0.0,0.0,0
15-8-2017 7:00,0.0,-0.11212549698284846,0.0,0.0,0.0,0
15-8-2017 8:00,0.0,0.4082323347098946,0.0,0.0,0.0,0
15-8-2017 9:00,0.0,0.18526288729279938,0.0,0.0,0.0,0
15-8-2017 10:00,0.0,0.21780182364538403,0.0,0.0,0.0,0
15-8-2017 11:00,0.75,-0.8514629844428073,0.0,0.0,0.0,0
15-8-2017 12:00,0.0,-1.1331906937289926,0.0,0.0,0.0,0
15-8-2017 13:00,1.17,-0.8630694116571874,0.0,0.0,0.0,0
15-8-2017 14:00,1.72,-1.276423363524008,0.0,0.0,0.0,0
15-8-2017 15:00,1.27,-0.2662434231071784,0.0,0.0,0.0,0
15-8-2017 16:00,2.85,0.9039780040522798,0.0,0.0,0.0,0
15-8-2017 17:00,2.72,0.7524505969090627,0.0,0.0,0.0,0
15-8-2017 18:00,5.23,4.165565781965251,0.0,0.0,0.0,0
15-8-2017 19:00,0.0,-2.805663698064379,0.0,0.0,0.0,0
15-8-2017 20:00,0.0,-1.071072389061715,0.0,0.0,0.0,0
15-8-2017 21:00,0.18,-0.09635702000631308,0.0,0.0,0.0,0
15-8-2017 22:00,0.38,-0.9358545994280482,0.0,0.0,0.0,0
15-8-2017 23:00,0.0,-0.16575260560376381,0.0,0.0,0.0,0
16-8-2017 0:00,0.0,0.37741746296765855,0.0,0.0,0.0,0
16-8-2017 1:00,0.98,1.3172003446778318,0.0,0.0,0.0,0
16-8-2017 2:00,0.0,0.4239697920242662,0.0,0.0,0.0,0
16-8-2017 3:00,0.0,0.48046103812790353,0.0,0.0,0.0,0
16-8-2017 4:00,0.0,0.4832945883678531,0.0,0.0,0.0,0
16-8-2017 5:00,0.0,0.4930283194351073,0.0,0.0,0.0,0
16-8-2017 6:00,0.0,0.4163536221360489,0.0,0.0,0.0,0
16-8-2017 7:00,0.0,0.008207042748754168,0.0,0.0,0.0,0
16-8-2017 8:00,0.0,0.6049008684196141,0.0,0.0,0.0,0
16-8-2017 9:00,0.0,0.3496384106974955,0.0,0.0,0.0,0
16-8-2017 10:00,0.0,0.05964459240611342,0.0,0.0,0.0,0
16-8-2017 11:00,0.2,-1.6927754320119075,0.0,0.0,0.0,0
16-8-2017 12:00,0.42,-0.7761238505796355,0.0,0.0,0.0,0
16-8-2017 13:00,2.77,1.0421488421464233,0.0,0.0,0.0,0
16-8-2017 14:00,3.42,0.7788187434097041,0.0,0.0,0.0,0
16-8-2017 15:00,0.73,-0.46969531596700537,0.0,0.0,0.0,0
16-8-2017 16:00,0.2,-1.4525719544941844,0.0,0.0,0.0,0
16-8-2017 17:00,0.32,-1.4294778209788528,0.0,0.0,0.0,0
16-8-2017 18:00,0.03,-0.9594702552899752,0.0,0.0,0.0,0
16-8-2017 19:00,0.47,-2.6083957762586003,0.0,0.0,0.0,0
16-8-2017 20:00,0.0,-1.214561017886565,0.0,0.0,0.0,0
16-8-2017 21:00,0.0,-0.8026330103948518,0.0,0.0,0.0,0
16-8-2017 22:00,0.0,-2.030710532896396,0.0,0.0,0.0,0
16-8-2017 23:00,0.67,-0.5599604148429052,0.0,0.0,0.0,0
17-8-2017 0:00,1.15,0.2040102842816931,0.0,0.0,0.0,0
17-8-2017 1:00,0.0,-1.6323593026788696,0.0,0.0,0.0,0
17-8-2017 2:00,0.0,-2.203859673538107,0.0,0.0,0.0,0
17-8-2017 3:00,0.0,-2.8055687078555627,0.0,0.0,0.0,0
17-8-2017 4:00,0.0,-3.4652481530654797,0.0,0.0,0.0,0
17-8-2017 5:00,0.0,-4.382239317797435,0.0,0.0,0.0,0
17-8-2017 6:00,5.2,-0.17672078524418744,0.0,0.0,0.0,0
17-8-2017 7:00,13.17,6.45779431751921,0.0,0.0,0.0,0
17-8-2017 8:00,0.78,-6.266509088135201,0.0,0.0,0.0,0
17-8-2017 9:00,2.82,-5.286968199555673,0.0,0.0,0.0,0
17-8-2017 10:00,6.53,-2.96234816935677,0.0,0.0,0.0,0
17-8-2017 11:00,8.22,-4.130776806970369,0.0,0.0,0.0,0
17-8-2017 12:00,14.75,2.55140066831461,0.0,0.0,0.0,0
17-8-2017 13:00,3.77,-8.81092513298219,0.0,0.0,0.0,0
17-8-2017 14:00,20.53,6.867018716734082,0.0,0.0,0.0,0
17-8-2017 15:00,15.62,3.161060752886721,0.0,0.0,0.0,0
17-8-2017 16:00,34.93,21.75637597627314,0.0,0.0,0.0,0
17-8-2017 17:00,44.63,31.682197906879548,0.0,0.0,0.0,0
17-8-2017 18:00,14.25,2.3172041096336358,0.0,0.0,0.0,0
17-8-2017 19:00,6.62,-7.351308259608935,0.0,0.0,0.0,0
17-8-2017 20:00,23.08,11.499879140797521,0.0,0.0,0.0,0
17-8-2017 21:00,7.55,-3.012304830943787,0.0,0.0,0.0,0
17-8-2017 22:00,34.58,23.589682252505003,0.0,0.0,0.0,0
17-8-2017 23:00,11.3,1.7497250438178522,0.0,0.0,0.0,0
18-8-2017 0:00,0.58,-7.956859077474227,0.0,0.0,0.0,0
18-8-2017 1:00,0.0,-7.994151187769316,0.0,0.0,0.0,0
18-8-2017 2:00,0.0,-7.348691431498018,0.0,0.0,0.0,0
18-8-2017 3:00,0.0,-6.733370800900357,0.0,0.0,0.0,0
18-8-2017 4:00,0.0,-6.180350103933157,0.0,0.0,0.0,0
18-8-2017 5:00,0.0,-5.601530951562648,0.0,0.0,0.0,0
18-8-2017 6:00,0.0,-5.091283976255419,0.0,0.0,0.0,0
18-8-2017 7:00,1.08,-3.8515780409672273,0.0,0.0,0.0,0
18-8-2017 8:00,0.0,-3.774349527572806,0.0,0.0,0.0,0
18-8-2017 9:00,3.75,-0.07674538024984123,0.0,0.0,0.0,0
18-8-2017 10:00,0.22,-4.274252544943008,0.0,0.0,0.0,0
18-8-2017 11:00,0.03,-6.4154308391345385,0.0,0.0,0.0,0
18-8-2017 12:00,4.15,-0.8744685133792025,0.0,0.0,0.0,0
18-8-2017 13:00,7.75,3.076487274236833,0.0,0.0,0.0,0
18-8-2017 14:00,30.37,25.02958515534179,0.0,0.0,0.0,0
18-8-2017 15:00,7.02,3.2300633699594687,0.0,0.0,0.0,0
18-8-2017 16:00,4.25,0.0674505381951791,0.0,0.0,0.0,0
18-8-2017 17:00,2.12,-1.8909177069589054,0.0,0.0,0.0,0
18-8-2017 18:00,2.4,-0.7178308399911617,0.0,0.0,0.0,0
18-8-2017 19:00,0.65,-4.832848030359237,0.0,0.0,0.0,0
18-8-2017 20:00,0.28,-2.6612259607699174,0.0,0.0,0.0,0
18-8-2017 21:00,4.15,1.7075156842037225,0.0,0.0,0.0,0
18-8-2017 22:00,0.0,-3.1953950304491747,0.0,0.0,0.0,0
18-8-2017 23:00,0.05,-2.1910219699290057,0.0,0.0,0.0,0
19-8-2017 0:00,0.0,-1.6231233156897893,0.0,0.0,0.0,0
19-8-2017 1:00,0.0,-1.7045940601740845,0.0,0.0,0.0,0
19-8-2017 2:00,0.0,-1.6954302876269283,0.0,0.0,0.0,0
19-8-2017 3:00,0.0,-1.71633610296883,0.0,0.0,0.0,0
19-8-2017 4:00,0.0,-1.8038713746791928,0.0,0.0,0.0,0
19-8-2017 5:00,0.0,-1.9458793735872821,0.0,0.0,0.0,0
19-8-2017 6:00,0.0,-2.1475414239071373,0.0,0.0,0.0,0
19-8-2017 7:00,0.0,-2.7092821244752154,0.0,0.0,0.0,0
19-8-2017 8:00,0.0,-2.2771591604130252,0.0,0.0,0.0,0
19-8-2017 9:00,0.0,-2.809960643488158,0.0,0.0,0.0,0
19-8-2017 10:00,0.0,-4.248063892214925,0.0,0.0,0.0,0
19-8-2017 11:00,14.07,7.28953926787408,0.0,0.0,0.0,0
19-8-2017 12:00,26.65,21.070817554958236,0.0,0.0,0.0,0
19-8-2017 13:00,13.7,8.756025273859947,0.0,0.0,0.0,0
19-8-2017 14:00,8.02,2.375247528726427,0.0,0.0,0.0,0
19-8-2017 15:00,8.38,4.183132264181991,0.0,0.0,0.0,0
19-8-2017 16:00,0.0,-4.716438280360168,0.0,0.0,0.0,0
19-8-2017 17:00,1.58,-2.8404812120352037,0.0,0.0,0.0,0
19-8-2017 18:00,0.45,-3.020798191614269,0.0,0.0,0.0,0
19-8-2017 19:00,6.15,0.1661952861316882,0.0,0.0,0.0,0
19-8-2017 20:00,1.9,-1.2132324858565935,0.0,0.0,0.0,0
19-8-2017 21:00,0.0,-2.4097643793371293,0.0,0.0,0.0,0
19-8-2017 22:00,0.0,-2.763772047260839,0.0,0.0,0.0,0
19-8-2017 23:00,0.12,-1.4512678727024686,0.0,0.0,0.0,0
20-8-2017 0:00,0.0,-0.6250855981010814,0.0,0.0,0.0,0
20-8-2017 1:00,0.0,-0.34046508425476296,0.0,0.0,0.0,0
20-8-2017 2:00,0.0,0.02267259708807101,0.0,0.0,0.0,0
20-8-2017 3:00,0.0,0.35581022832642617,0.0,0.0,0.0,0
20-8-2017 4:00,0.0,0.617988880458321,0.0,0.0,0.0,0
20-8-2017 5:00,0.0,0.6694148190555134,0.0,0.0,0.0,0
20-8-2017 6:00,0.0,0.6701048318924556,0.0,0.0,0.0,0
20-8-2017 7:00,0.0,0.30117858425198907,0.0,0.0,0.0,0
20-8-2017 8:00,0.0,0.922457087765828,0.0,0.0,0.0,0
20-8-2017 9:00,0.0,0.4039755496931098,0.0,0.0,0.0,0
20-8-2017 10:00,0.0,-1.3099982076667465,0.0,0.0,0.0,0
20-8-2017 11:00,0.17,-3.7588880178966946,0.0,0.0,0.0,0
20-8-2017 12:00,5.88,3.4274318059167985,0.0,0.0,0.0,0
20-8-2017 13:00,0.7,-0.7439010191574431,0.0,0.0,0.0,0
20-8-2017 14:00,0.12,-1.969346865791068,0.0,0.0,0.0,0
20-8-2017 15:00,0.0,-0.65484808475925,0.0,0.0,0.0,0
20-8-2017 16:00,0.0,-1.2121688173409044,0.0,0.0,0.0,0
20-8-2017 17:00,0.0,-1.0115244743509695,0.0,0.0,0.0,0
20-8-2017 18:00,0.0,-0.22488333929092302,0.0,0.0,0.0,0
20-8-2017 19:00,0.0,-3.1055172322450137,0.0,0.0,0.0,0
20-8-2017 20:00,0.33,0.2043671153750259,0.0,0.0,0.0,0
20-8-2017 21:00,0.0,0.1690845400325064,0.0,0.0,0.0,0
20-8-2017 22:00,0.0,-0.39949722456982556,0.0,0.0,0.0,0
20-8-2017 23:00,0.0,0.41766092061893734,0.0,0.0,0.0,0
21-8-2017 0:00,0.0,1.0786496721746868,0.0,0.0,0.0,0
21-8-2017 1:00,0.0,1.0422129378778084,0.0,0.0,0.0,0
21-8-2017 2:00,0.0,1.0721760215425096,0.0,0.0,0.0,0
21-8-2017 3:00,0.0,1.0722085928873115,0.0,0.0,0.0,0
21-8-2017 4:00,0.0,0.9969526623876529,0.0,0.0,0.0,0
21-8-2017 5:00,0.0,0.8667516290836954,0.0,0.0,0.0,0
21-8-2017 6:00,0.0,0.694732795671003,0.0,0.0,0.0,0
21-8-2017 7:00,0.0,0.14356009155171612,0.0,0.0,0.0,0
21-8-2017 8:00,0.0,0.578933225110772,0.0,0.0,0.0,0
21-8-2017 9:00,0.0,-0.12377977951940344,0.0,0.0,0.0,0
21-8-2017 10:00,0.0,-2.312175457072221,0.0,0.0,0.0,0
21-8-2017 11:00,6.25,1.0338903508190072,0.0,0.0,0.0,0
21-8-2017 12:00,0.6,-3.0632997001980375,0.0,0.0,0.0,0
21-8-2017 13:00,2.02,-0.3064882039795027,0.0,0.0,0.0,0
21-8-2017 14:00,0.7,-2.2619172868445023,0.0,0.0,0.0,0
21-8-2017 15:00,2.9,1.313880405032299,0.0,0.0,0.0,0
21-8-2017 16:00,3.23,1.0034911812592635,0.0,0.0,0.0,0
21-8-2017 17:00,0.92,-1.06634677076386,0.0,0.0,0.0,0
21-8-2017 18:00,0.0,-1.227917090742731,0.0,0.0,0.0,0
21-8-2017 19:00,2.83,-1.5113632964535428,0.0,0.0,0.0,0
21-8-2017 20:00,0.0,-1.1173517712818581,0.0,0.0,0.0,0
21-8-2017 21:00,0.0,-0.864150701080373,0.0,0.0,0.0,0
21-8-2017 22:00,11.37,10.089890783807327,0.0,0.0,0.0,0
21-8-2017 23:00,0.1,-0.37109975420486063,0.0,0.0,0.0,0
22-8-2017 0:00,0.0,0.2718928204739066,0.0,0.0,0.0,0
22-8-2017 1:00,0.0,0.37007856136377626,0.0,0.0,0.0,0
22-8-2017 2:00,0.0,0.5225467706802889,0.0,0.0,0.0,0
22-8-2017 3:00,0.0,0.6451540054614819,0.0,0.0,0.0,0
22-8-2017 4:00,0.0,0.6881248902764197,0.0,0.0,0.0,0
22-8-2017 5:00,0.0,0.71482444198215,0.0,0.0,0.0,0
22-8-2017 6:00,0.0,0.7086243192306614,0.0,0.0,0.0,0
22-8-2017 7:00,0.0,0.3137694258908754,0.0,0.0,0.0,0
22-8-2017 8:00,0.0,0.9018014567534699,0.0,0.0,0.0,0
22-8-2017 9:00,0.23,0.5111945736271961,0.0,0.0,0.0,0
22-8-2017 10:00,4.17,2.0547815574610726,0.0,0.0,0.0,0
22-8-2017 11:00,0.0,-5.0377924349468675,0.0,0.0,0.0,0
22-8-2017 12:00,0.23,-2.9120877792147937,0.0,0.0,0.0,0
22-8-2017 13:00,0.0,-1.3557432068370843,0.0,0.0,0.0,0
22-8-2017 14:00,0.0,-1.8597667710670611,0.0,0.0,0.0,0
22-8-2017 15:00,0.55,0.12871858652112178,0.0,0.0,0.0,0
22-8-2017 16:00,0.0,-1.023288563844417,0.0,0.0,0.0,0
22-8-2017 17:00,0.1,-0.6335750612691968,0.0,0.0,0.0,0
22-8-2017 18:00,0.0,0.006676913324417555,0.0,0.0,0.0,0
22-8-2017 19:00,0.0,-3.3295121690212492,0.0,0.0,0.0,0
22-8-2017 20:00,0.38,0.528695969823948,0.0,0.0,0.0,0
22-8-2017 21:00,0.0,0.206105117065018,0.0,0.0,0.0,0
22-8-2017 22:00,0.0,-0.21147494216400858,0.0,0.0,0.0,0
22-8-2017 23:00,0.0,0.4351410430160897,0.0,0.0,0.0,0
23-8-2017 0:00,0.0,1.1229274347053269,0.0,0.0,0.0,0
23-8-2017 1:00,0.0,1.0378934660972745,0.0,0.0,0.0,0
23-8-2017 2:00,0.0,0.9896048426705899,0.0,0.0,0.0,0
23-8-2017 3:00,0.0,0.9115643200763516,0.0,0.0,0.0,0
23-8-2017 4:00,0.0,0.7500401985248792,0.0,0.0,0.0,0
23-8-2017 5:00,0.0,0.5944365673199714,0.0,0.0,0.0,0
23-8-2017 6:00,0.0,0.4129819626528226,0.0,0.0,0.0,0
23-8-2017 7:00,0.03,-0.13575927621268624,0.0,0.0,0.0,0
23-8-2017 8:00,0.0,0.23406501739008378,0.0,0.0,0.0,0
23-8-2017 9:00,0.0,-0.5875471117006403,0.0,0.0,0.0,0
23-8-2017 10:00,1.6,-1.9579114172549295,0.0,0.0,0.0,0
23-8-2017 11:00,0.2,-6.601691599575105,0.0,0.0,0.0,0
23-8-2017 12:00,1.08,-3.708516557584846,0.0,0.0,0.0,0
23-8-2017 13:00,22.93,20.432425901033888,0.0,0.0,0.0,0
23-8-2017 14:00,2.17,-0.810906064691217,0.0,0.0,0.0,0
23-8-2017 15:00,0.8,-0.7683422896748779,0.0,0.0,0.0,0
23-8-2017 16:00,0.78,-1.4515177476620975,0.0,0.0,0.0,0
23-8-2017 17:00,0.0,-1.862901956863007,0.0,0.0,0.0,0
23-8-2017 18:00,0.3,-0.807708344048756,0.0,0.0,0.0,0
23-8-2017 19:00,0.77,-3.853484369399147,0.0,0.0,0.0,0
23-8-2017 20:00,0.0,-0.8780312279348652,0.0,0.0,0.0,0
23-8-2017 21:00,1.9,1.1651583111568522,0.0,0.0,0.0,0
23-8-2017 22:00,0.02,-0.8504140799079356,0.0,0.0,0.0,0
23-8-2017 23:00,0.0,-0.10358704558117593,0.0,0.0,0.0,0
24-8-2017 0:00,0.0,0.7899022026772022,0.0,0.0,0.0,0
24-8-2017 1:00,0.0,0.9836630675338804,0.0,0.0,0.0,0
24-8-2017 2:00,0.0,1.1966321543266494,0.0,0.0,0.0,0
24-8-2017 3:00,0.0,1.379958417319631,0.0,0.0,0.0,0
24-8-2017 4:00,0.0,1.4759847128144403,0.0,0.0,0.0,0
24-8-2017 5:00,0.0,1.431468533145035,0.0,0.0,0.0,0
24-8-2017 6:00,0.0,1.3681500810083667,0.0,0.0,0.0,0
24-8-2017 7:00,0.0,0.8989671628846247,0.0,0.0,0.0,0
24-8-2017 8:00,0.0,1.40402838549506,0.0,0.0,0.0,0
24-8-2017 9:00,0.0,0.5058069016200643,0.0,0.0,0.0,0
24-8-2017 10:00,0.35,-2.5640430629068973,0.0,0.0,0.0,0
24-8-2017 11:00,0.37,-5.984563804723815,0.0,0.0,0.0,0
24-8-2017 12:00,0.03,-4.069452746059878,0.0,0.0,0.0,0
24-8-2017 13:00,2.32,1.031719124445536,0.0,0.0,0.0,0
24-8-2017 14:00,0.33,-1.4052897171290417,0.0,0.0,0.0,0
24-8-2017 15:00,0.02,-0.3130159990388923,0.0,0.0,0.0,0
24-8-2017 16:00,0.0,-1.041672766110886,0.0,0.0,0.0,0
24-8-2017 17:00,0.03,-0.7182913533090527,0.0,0.0,0.0,0
24-8-2017 18:00,0.97,0.8377072315047067,0.0,0.0,0.0,0
24-8-2017 19:00,0.4,-3.5817874613183647,0.0,0.0,0.0,0
24-8-2017 20:00,3.6,3.476778958297047,0.0,0.0,0.0,0
24-8-2017 21:00,0.0,-0.4454780624724082,0.0,0.0,0.0,0
24-8-2017 22:00,0.0,-0.850312924661784,0.0,0.0,0.0,0
24-8-2017 23:00,0.0,-0.5145449804771896,0.0,0.0,0.0,0
25-8-2017 0:00,0.0,0.03337698506150377,0.0,0.0,0.0,0
25-8-2017 1:00,0.05,-0.17069455777202291,0.0,0.0,0.0,0
25-8-2017 2:00,0.0,-0.4730950019147344,0.0,0.0,0.0,0
25-8-2017 3:00,0.0,-0.7550291944894671,0.0,0.0,0.0,0
25-8-2017 4:00,0.0,-1.1281043260202277,0.0,0.0,0.0,0
25-8-2017 5:00,0.0,-1.5381864811257255,0.0,0.0,0.0,0
25-8-2017 6:00,0.0,-1.960022207703507,0.0,0.0,0.0,0
25-8-2017 7:00,5.88,3.0836911072059907,0.0,0.0,0.0,0
25-8-2017 8:00,0.0,-2.6626728288844355,0.0,0.0,0.0,0
25-8-2017 9:00,0.0,-3.849307260782437,0.0,0.0,0.0,0
25-8-2017 10:00,0.07,-7.860447850379314,0.0,0.0,0.0,0
25-8-2017 11:00,45.25,33.47048588220978,0.0,0.0,0.0,0
25-8-2017 12:00,0.8,-8.694272008549845,0.0,0.0,0.0,0
25-8-2017 13:00,0.25,-5.907535929453291,0.0,0.0,0.0,0
25-8-2017 14:00,10.05,3.487113149827117,0.0,0.0,0.0,0
25-8-2017 15:00,13.38,8.214431607695538,0.0,0.0,0.0,0
25-8-2017 16:00,0.0,-5.91437167175677,0.0,0.0,0.0,0
25-8-2017 17:00,4.9,-0.4243430600258975,0.0,0.0,0.0,0
25-8-2017 18:00,6.57,2.094342073713668,0.0,0.0,0.0,0
25-8-2017 19:00,21.85,13.563010290344216,0.0,0.0,0.0,0
25-8-2017 20:00,8.02,4.076571565037052,0.0,0.0,0.0,0
25-8-2017 21:00,0.18,-3.5553605022509878,0.0,0.0,0.0,0
25-8-2017 22:00,0.0,-3.4136863222223632,0.0,0.0,0.0,0
25-8-2017 23:00,0.0,-2.513205954837346,0.0,0.0,0.0,0
26-8-2017 0:00,0.0,-1.315079758675751,0.0,0.0,0.0,0
26-8-2017 1:00,0.0,-0.8042445838489019,0.0,0.0,0.0,0
26-8-2017 2:00,0.0,-0.30927543357651466,0.0,0.0,0.0,0
26-8-2017 3:00,0.0,0.15626904363161742,0.0,0.0,0.0,0
26-8-2017 4:00,0.0,0.5268316104258657,0.0,0.0,0.0,0
26-8-2017 5:00,0.0,0.727230742561761,0.0,0.0,0.0,0
26-8-2017 6:00,0.0,0.9229250042203507,0.0,0.0,0.0,0
26-8-2017 7:00,0.0,0.6955818148405735,0.0,0.0,0.0,0
26-8-2017 8:00,0.0,1.4338399827267696,0.0,0.0,0.0,0
26-8-2017 9:00,0.0,0.4568512862569196,0.0,0.0,0.0,0
26-8-2017 10:00,0.15,-3.6375212449587164,0.0,0.0,0.0,0
26-8-2017 11:00,0.0,-7.547074354512449,0.0,0.0,0.0,0
26-8-2017 12:00,0.0,-4.733642511244483,0.0,0.0,0.0,0
26-8-2017 13:00,0.0,-0.8450568873642812,0.0,0.0,0.0,0
26-8-2017 14:00,0.0,-1.182464551036377,0.0,0.0,0.0,0
26-8-2017 15:00,0.03,0.26618398280282196,0.0,0.0,0.0,0
26-8-2017 16:00,0.0,-0.5264804728372912,0.0,0.0,0.0,0
26-8-2017 17:00,0.0,-0.0998592866707383,0.0,0.0,0.0,0
26-8-2017 18:00,0.0,0.5214577715012721,0.0,0.0,0.0,0
26-8-2017 19:00,0.03,-3.6817657269079245,0.0,0.0,0.0,0
26-8-2017 20:00,0.0,0.6567357783689809,0.0,0.0,0.0,0
26-8-2017 21:00,0.0,0.3727650065685401,0.0,0.0,0.0,0
26-8-2017 22:00,0.97,1.3685845708213482,0.0,0.0,0.0,0
26-8-2017 23:00,0.0,0.8414137034129715,0.0,0.0,0.0,0
27-8-2017 0:00,0.0,1.667380472203654,0.0,0.0,0.0,0
27-8-2017 1:00,0.0,1.7864739591204946,0.0,0.0,0.0,0
27-8-2017 2:00,0.0,1.8721642982375981,0.0,0.0,0.0,0
27-8-2017 3:00,0.0,1.9285390396582118,0.0,0.0,0.0,0
27-8-2017 4:00,0.0,1.886090899207086,0.0,0.0,0.0,0
27-8-2017 5:00,0.0,1.79484208538782,0.0,0.0,0.0,0
27-8-2017 6:00,0.0,1.7059371020862266,0.0,0.0,0.0,0
27-8-2017 7:00,0.0,1.18540817522062,0.0,0.0,0.0,0
27-8-2017 8:00,0.0,1.6261592138868852,0.0,0.0,0.0,0
27-8-2017 9:00,1.75,2.1646660244701446,0.0,0.0,0.0,0
27-8-2017 10:00,0.0,-4.437088676739293,0.0,0.0,0.0,0
27-8-2017 11:00,3.82,-4.731278856810895,0.0,0.0,0.0,0
27-8-2017 12:00,0.0,-5.653807507890379,0.0,0.0,0.0,0
27-8-2017 13:00,0.18,-1.0679399581340814,0.0,0.0,0.0,0
27-8-2017 14:00,0.0,-1.551971983666233,0.0,0.0,0.0,0
27-8-2017 15:00,0.0,-0.14656099276380635,0.0,0.0,0.0,0
27-8-2017 16:00,0.0,-0.9576542434992761,0.0,0.0,0.0,0
27-8-2017 17:00,0.0,-0.4758009469246438,0.0,0.0,0.0,0
27-8-2017 18:00,0.0,0.13678757165221223,0.0,0.0,0.0,0
27-8-2017 19:00,2.2,-2.099688105824327,0.0,0.0,0.0,0
27-8-2017 20:00,0.0,0.31239316600904476,0.0,0.0,0.0,0
27-8-2017 21:00,0.0,-0.060070311688243616,0.0,0.0,0.0,0
27-8-2017 22:00,4.73,4.803440635404302,0.0,0.0,0.0,0
27-8-2017 23:00,0.0,0.46216453181808426,0.0,0.0,0.0,0
28-8-2017 0:00,0.0,1.319517871853407,0.0,0.0,0.0,0
28-8-2017 1:00,0.0,1.4287618449187776,0.0,0.0,0.0,0
28-8-2017 2:00,0.0,1.4870655469391358,0.0,0.0,0.0,0
28-8-2017 3:00,0.0,1.5161627266307698,0.0,0.0,0.0,0
28-8-2017 4:00,0.0,1.4425960529928092,0.0,0.0,0.0,0
28-8-2017 5:00,0.0,1.3363102250634946,0.0,0.0,0.0,0
28-8-2017 6:00,0.0,1.2394169286468306,0.0,0.0,0.0,0
28-8-2017 7:00,0.0,0.7023131961405075,0.0,0.0,0.0,0
28-8-2017 8:00,0.0,1.1221680374319543,0.0,0.0,0.0,0
28-8-2017 9:00,0.23,0.07250831681700542,0.0,0.0,0.0,0
28-8-2017 10:00,1.68,-3.77029059263755,0.0,0.0,0.0,0
28-8-2017 11:00,3.05,-6.70277988147834,0.0,0.0,0.0,0
28-8-2017 12:00,4.6,-2.0049310651565904,0.0,0.0,0.0,0
28-8-2017 13:00,1.85,0.20596728253077867,0.0,0.0,0.0,0
28-8-2017 14:00,1.27,-0.6069402328064548,0.0,0.0,0.0,0
28-8-2017 15:00,1.7,1.2529820872141737,0.0,0.0,0.0,0
28-8-2017 16:00,3.03,1.7611636393128505,0.0,0.0,0.0,0
28-8-2017 17:00,0.0,-0.7286942097758705,0.0,0.0,0.0,0
28-8-2017 18:00,2.02,1.898222513134398,0.0,0.0,0.0,0
28-8-2017 19:00,0.23,-4.528661824581826,0.0,0.0,0.0,0
28-8-2017 20:00,0.0,0.09984273263567112,0.0,0.0,0.0,0
28-8-2017 21:00,0.0,-0.34735425062885406,0.0,0.0,0.0,0
28-8-2017 22:00,0.67,0.5770994493582626,0.0,0.0,0.0,0
28-8-2017 23:00,0.03,0.28496947964903985,0.0,0.0,0.0,0
29-8-2017 0:00,0.0,1.1569607609838366,0.0,0.0,0.0,0
29-8-2017 1:00,0.0,1.2752416840004595,0.0,0.0,0.0,0
29-8-2017 2:00,0.0,1.3250452127267933,0.0,0.0,0.0,0
29-8-2017 3:00,0.0,1.3457512944921697,0.0,0.0,0.0,0
29-8-2017 4:00,0.0,1.2597903087447093,0.0,0.0,0.0,0
29-8-2017 5:00,0.0,1.083331064830084,0.0,0.0,0.0,0
29-8-2017 6:00,0.0,0.9233130534230867,0.0,0.0,0.0,0
29-8-2017 7:00,0.0,0.3151525706842546,0.0,0.0,0.0,0
29-8-2017 8:00,0.03,0.6896292700090898,0.0,0.0,0.0,0
29-8-2017 9:00,0.0,-0.8034702990520375,0.0,0.0,0.0,0
29-8-2017 10:00,0.0,-6.651532168557429,0.0,0.0,0.0,0
29-8-2017 11:00,11.88,0.6234606820268775,0.0,0.0,0.0,0
29-8-2017 12:00,0.6,-7.372531786055858,0.0,0.0,0.0,0
29-8-2017 13:00,1.67,-0.8523835334290681,0.0,0.0,0.0,0
29-8-2017 14:00,9.17,6.420052568436967,0.0,0.0,0.0,0
29-8-2017 15:00,0.0,-1.3612946754158513,0.0,0.0,0.0,0
29-8-2017 16:00,3.55,1.2912428899389141,0.0,0.0,0.0,0
29-8-2017 17:00,7.8,6.134832814347852,0.0,0.0,0.0,0
29-8-2017 18:00,0.03,-1.0387633392474545,0.0,0.0,0.0,0
29-8-2017 19:00,0.0,-5.910484962572215,0.0,0.0,0.0,0
29-8-2017 20:00,0.42,-0.3899857453394451,0.0,0.0,0.0,0
29-8-2017 21:00,1.02,-0.21990250058735938,0.0,0.0,0.0,0
29-8-2017 22:00,5.32,4.547801063502462,0.0,0.0,0.0,0
29-8-2017 23:00,0.93,0.5571243388783649,0.0,0.0,0.0,0
30-8-2017 0:00,0.0,0.940933006823419,0.0,0.0,0.0,0
30-8-2017 1:00,0.0,1.2486378988340592,0.0,0.0,0.0,0
30-8-2017 2:00,0.0,1.5019547313989532,0.0,0.0,0.0,0
30-8-2017 3:00,0.0,1.699274420561319,0.0,0.0,0.0,0
30-8-2017 4:00,0.0,1.788031782075386,0.0,0.0,0.0,0
30-8-2017 5:00,0.0,1.7608972655489108,0.0,0.0,0.0,0
30-8-2017 6:00,0.0,1.7556819279956888,0.0,0.0,0.0,0
30-8-2017 7:00,0.0,1.310413238401389,0.0,0.0,0.0,0
30-8-2017 8:00,0.0,1.7569892874756228,0.0,0.0,0.0,0
30-8-2017 9:00,0.0,-0.11698777168404251,0.0,0.0,0.0,0
30-8-2017 10:00,0.25,-7.823863062883633,0.0,0.0,0.0,0
30-8-2017 11:00,2.97,-10.525933228312157,0.0,0.0,0.0,0
30-8-2017 12:00,4.15,-5.211337399680459,0.0,0.0,0.0,0
30-8-2017 13:00,1.05,0.06043968928505816,0.0,0.0,0.0,0
30-8-2017 14:00,3.47,2.2437393758598567,0.0,0.0,0.0,0
30-8-2017 15:00,1.77,1.9981962448200612,0.0,0.0,0.0,0
30-8-2017 16:00,2.58,1.8541791849014593,0.0,0.0,0.0,0
30-8-2017 17:00,0.33,0.22363271906392657,0.0,0.0,0.0,0
30-8-2017 18:00,0.02,0.4146023931999203,0.0,0.0,0.0,0
30-8-2017 19:00,0.03,-4.583073678473709,0.0,0.0,0.0,0
30-8-2017 20:00,0.03,0.49037343101213204,0.0,0.0,0.0,0
30-8-2017 21:00,0.0,-0.01387707735396504,0.0,0.0,0.0,0
30-8-2017 22:00,0.0,0.5022715357803196,0.0,0.0,0.0,0
30-8-2017 23:00,0.0,0.7222057886272306,0.0,0.0,0.0,0
31-8-2017 0:00,0.0,2.04293826545311,0.0,0.0,0.0,0
31-8-2017 1:00,0.0,2.2727661590315753,0.0,0.0,0.0,0
31-8-2017 2:00,2.05,4.512295328008837,0.0,0.0,0.0,0
31-8-2017 3:00,0.0,2.568927657142001,0.0,0.0,0.0,0
31-8-2017 4:00,0.0,2.5657043121615937,0.0,0.0,0.0,0
31-8-2017 5:00,0.0,2.240791294638668,0.0,0.0,0.0,0
31-8-2017 6:00,0.0,1.9432754025546186,0.0,0.0,0.0,0
31-8-2017 7:00,0.0,1.2147141247777298,0.0,0.0,0.0,0
31-8-2017 8:00,0.0,1.3172051422742406,0.0,0.0,0.0,0
31-8-2017 9:00,0.15,-1.2362652257016524,0.0,0.0,0.0,0
31-8-2017 10:00,1.25,-10.61947601009046,0.0,0.0,0.0,0
31-8-2017 11:00,1.12,-17.40613126302683,0.0,0.0,0.0,0
31-8-2017 12:00,1.33,-12.62846920917571,-0.9,5.33,-7.14,0
31-8-2017 13:00,1.72,-1.1542293079181416,-0.05,6.19,-6.28,0
31-8-2017 14:00,1.63,-1.6992320606812568,-0.23,6.0,-6.46,0
31-8-2017 15:00,3.53,1.5118628970452939,-0.01,6.21,-6.24,0
31-8-2017 16:00,2.9,-0.337103257030702,0.1,6.32,-6.13,0
31-8-2017 17:00,0.03,-2.611233682180158,0.17,6.39,-6.05,0
31-8-2017 18:00,3.43,1.1448542506216834,0.15,6.37,-6.07,0
31-8-2017 19:00,46.3,38.791762166802044,0.32,6.54,-5.89,1
31-8-2017 20:00,2.0,-0.5113043952561727,4.66,11.41,-2.08,0
31-8-2017 21:00,2.98,0.002301957001725974,-0.59,6.19,-7.37,0
31-8-2017 22:00,0.23,-2.1316360500026126,1.41,8.19,-5.37,0
31-8-2017 23:00,1.92,-0.34962248886778236,-1.66,5.13,-8.44,0
1-9-2017 0:00,0.98,0.0895021276558321,0.05,6.83,-6.73,0
1-9-2017 1:00,8.62,8.196404706365236,0.1,6.89,-6.69,0
1-9-2017 2:00,2.43,2.4470978953179783,0.34,7.19,-6.51,0
1-9-2017 3:00,0.65,0.9979945479850514,0.92,7.47,-5.63,0
1-9-2017 4:00,0.0,0.5673601018754932,-0.6,6.26,-7.45,0
1-9-2017 5:00,2.73,3.51820543450032,0.44,7.2,-6.31,0
1-9-2017 6:00,0.0,1.041925839029648,0.78,7.53,-5.97,0
1-9-2017 7:00,1.93,2.8034766293273696,-0.56,6.29,-7.41,0
1-9-2017 8:00,0.0,1.4752872715033574,-0.32,6.52,-7.17,0
1-9-2017 9:00,0.52,-0.727849451787144,-0.42,6.42,-7.27,0
1-9-2017 10:00,0.52,-12.927588366753758,-0.18,6.56,-6.92,0
1-9-2017 11:00,1.35,-19.17902134458656,0.76,7.5,-5.97,0
1-9-2017 12:00,2.28,-12.43848570290462,-0.17,6.58,-6.92,0
1-9-2017 13:00,1.28,0.7908889419183011,-0.1,6.65,-6.84,0
1-9-2017 14:00,0.6,-0.12974431890942806,-1.12,5.62,-7.85,0
1-9-2017 15:00,0.93,1.8006606588567684,-1.2,5.53,-7.93,0
1-9-2017 16:00,6.12,5.939417341896677,0.13,6.85,-6.6,0
1-9-2017 17:00,3.05,3.616365889898408,0.68,7.5,-6.14,0
1-9-2017 18:00,0.32,1.2722350138292078,0.31,7.12,-6.51,0
1-9-2017 19:00,1.17,-3.1416101496733173,-0.01,6.8,-6.82,0
1-9-2017 20:00,0.0,0.7834725491875083,-0.9,5.93,-7.73,0
1-9-2017 21:00,0.58,0.89251806731858,0.34,7.17,-6.49,0
1-9-2017 22:00,0.4,1.4160757454247923,0.36,7.19,-6.46,0
1-9-2017 23:00,0.72,1.687750920096718,0.83,7.55,-5.88,0
2-9-2017 0:00,0.0,2.392849981567247,0.82,7.54,-5.9,0
2-9-2017 1:00,0.0,2.773231175967425,0.31,7.14,-6.51,0
2-9-2017 2:00,0.0,3.141492315455482,0.1,6.93,-6.72,0
2-9-2017 3:00,0.0,3.3730572222163033,0.22,7.04,-6.6,0
2-9-2017 4:00,0.0,3.4914156055374317,0.26,7.07,-6.55,0
2-9-2017 5:00,0.0,3.482699085859233,0.2,7.01,-6.6,0
2-9-2017 6:00,0.0,3.5123355845511592,0.12,6.92,-6.69,0
2-9-2017 7:00,1.17,4.298678240472712,0.17,6.97,-6.63,0
2-9-2017 8:00,0.22,3.674488304877396,0.18,6.98,-6.61,0
2-9-2017 9:00,1.3,1.3039066624307365,0.1,6.89,-6.69,0
2-9-2017 10:00,0.83,-13.790138946955235,0.17,6.96,-6.61,0
2-9-2017 11:00,5.15,-17.68412821352602,0.04,6.82,-6.75,0
2-9-2017 12:00,0.0,-16.488497547854806,-0.23,6.54,-7.01,0
2-9-2017 13:00,0.0,0.539903932478563,-0.16,6.61,-6.93,0
2-9-2017 14:00,0.05,0.21753225553131672,-0.21,6.56,-6.98,0
2-9-2017 15:00,1.07,2.7811393452822557,-0.24,6.53,-7.01,0
2-9-2017 16:00,0.07,0.5515109573831667,-0.01,6.75,-6.77,0
2-9-2017 17:00,0.38,1.6407365427728,-0.17,6.58,-6.93,0
2-9-2017 18:00,0.0,1.5575849220692735,0.01,6.76,-6.74,0
2-9-2017 19:00,1.48,-2.3858152568794293,0.01,6.75,-6.74,0
2-9-2017 20:00,2.87,4.078614767137158,-0.74,5.99,-7.47,0
2-9-2017 21:00,2.2,2.961440586269384,0.23,6.89,-6.44,0
2-9-2017 22:00,0.0,1.5808350846141281,0.36,7.12,-6.4,0
2-9-2017 23:00,2.77,4.190513007951131,0.25,6.9,-6.4,0
3-9-2017 0:00,0.0,2.919927649496552,0.46,7.22,-6.3,0
3-9-2017 1:00,0.0,3.3178298345852286,0.11,6.86,-6.65,0
3-9-2017 2:00,0.0,3.717701299606328,-0.07,6.68,-6.82,0
3-9-2017 3:00,0.0,3.9539768354586196,0.07,6.81,-6.68,0
3-9-2017 4:00,0.0,4.0753704232081605,0.1,6.84,-6.64,0
3-9-2017 5:00,0.0,4.081153282336203,0.07,6.81,-6.67,0
3-9-2017 6:00,0.0,4.130767106299997,0.01,6.74,-6.73,0
3-9-2017 7:00,1.35,5.125962858954652,0.08,6.81,-6.65,0
3-9-2017 8:00,0.0,4.069833576697301,0.12,6.84,-6.61,0
3-9-2017 9:00,0.0,0.1532694971777433,0.0,6.72,-6.72,0
3-9-2017 10:00,0.0,-16.633620324544324,-0.04,6.68,-6.76,0
3-9-2017 11:00,0.45,-25.268703397769844,-0.06,6.65,-6.77,0
3-9-2017 12:00,0.0,-18.576515226026082,-0.7,6.01,-7.42,0
3-9-2017 13:00,0.05,1.4108757040811908,0.02,6.73,-6.7,0
3-9-2017 14:00,0.02,0.9867282252778853,-0.08,6.63,-6.78,0
3-9-2017 15:00,0.13,2.693500041277025,-0.14,6.56,-6.85,0
3-9-2017 16:00,4.6,5.8654491967023965,-0.04,6.66,-6.74,0
3-9-2017 17:00,0.97,3.046106493589612,0.45,7.15,-6.25,0
3-9-2017 18:00,0.05,2.333088802361436,0.06,6.76,-6.63,0
3-9-2017 19:00,0.1,-3.2007117179237654,-0.03,6.66,-6.72,0
3-9-2017 20:00,0.67,2.4222203053582634,-0.88,5.83,-7.58,0
3-9-2017 21:00,0.47,1.6923985739902485,0.26,6.97,-6.44,0
3-9-2017 22:00,0.12,2.171202041072132,0.17,6.87,-6.53,0
3-9-2017 23:00,1.92,3.5924548615728167,0.0,6.7,-6.7,0
4-9-2017 0:00,0.0,3.1397572316917395,0.32,7.02,-6.38,0
4-9-2017 1:00,0.0,3.455395371208096,0.14,6.84,-6.56,0
4-9-2017 2:00,0.0,3.787092125501417,-0.0,6.69,-6.7,0
4-9-2017 3:00,0.0,3.928293254184363,0.1,6.79,-6.59,0
4-9-2017 4:00,0.0,3.9529370101014947,0.13,6.82,-6.55,0
4-9-2017 5:00,0.0,3.874889136076194,0.1,6.79,-6.58,0
4-9-2017 6:00,0.0,3.846150173352266,0.04,6.72,-6.64,0
4-9-2017 7:00,0.0,3.4218689107804314,0.09,6.77,-6.58,0
4-9-2017 8:00,1.23,4.815470169901459,-0.03,6.64,-6.7,0
4-9-2017 9:00,0.02,-0.8806440775938448,0.19,6.85,-6.48,0
4-9-2017 10:00,0.25,-19.703945842554862,-0.03,6.63,-6.7,0
4-9-2017 11:00,2.23,-27.78369045333794,-0.04,6.62,-6.7,0
4-9-2017 12:00,2.8,-19.3785125064245,-0.4,6.25,-7.06,0
4-9-2017 13:00,12.6,13.2419865468991,0.27,6.93,-6.38,1
4-9-2017 14:00,4.77,4.970181939682154,1.23,7.92,-5.45,0
4-9-2017 15:00,0.0,1.8242371553719146,-0.01,6.67,-6.69,0
4-9-2017 16:00,2.77,3.201878605347792,-0.45,6.23,-7.13,0
4-9-2017 17:00,1.18,2.5135987073341752,0.0,6.68,-6.67,0
4-9-2017 18:00,1.98,3.490346039182939,-0.11,6.56,-6.79,0
4-9-2017 19:00,1.75,-2.4242385219334066,-0.08,6.59,-6.75,0
4-9-2017 20:00,2.25,3.166811801119417,-0.92,5.76,-7.6,0
4-9-2017 21:00,3.0,3.490134657409296,0.13,6.81,-6.55,0
4-9-2017 22:00,0.0,1.5141111778970018,0.16,6.84,-6.52,0
4-9-2017 23:00,0.13,1.2327029802300533,-0.32,6.36,-6.99,0
5-9-2017 0:00,0.0,2.723657163591158,-0.17,6.5,-6.84,0
5-9-2017 1:00,0.1,3.2553393024154396,-0.03,6.63,-6.7,0
5-9-2017 2:00,0.0,3.617169390861229,-0.18,6.48,-6.84,0
5-9-2017 3:00,0.0,3.861604157255071,-0.09,6.57,-6.74,0
5-9-2017 4:00,0.0,3.987808690629654,-0.0,6.65,-6.66,0
5-9-2017 5:00,0.0,3.8635032318969835,-0.0,6.65,-6.65,0
5-9-2017 6:00,0.07,3.8639846309313115,-0.03,6.61,-6.68,0
5-9-2017 7:00,0.0,3.337845939914313,0.06,6.7,-6.59,0
5-9-2017 8:00,0.0,3.4087973271950425,-0.04,6.6,-6.67,0
5-9-2017 9:00,0.0,-1.6680674706795897,0.02,6.66,-6.61,0
5-9-2017 10:00,0.57,-22.438917428428958,0.03,6.66,-6.6,0
5-9-2017 11:00,10.38,-23.68445982631903,0.07,6.7,-6.56,0
5-9-2017 12:00,2.52,-23.03742835378531,0.62,7.25,-6.01,0
5-9-2017 13:00,3.87,3.985490834532899,0.07,6.7,-6.56,0
5-9-2017 14:00,1.35,0.9453411106805976,0.01,6.63,-6.62,0
5-9-2017 15:00,3.98,5.195991737839263,-0.04,6.58,-6.66,0
5-9-2017 16:00,5.0,4.698670745004875,0.31,6.92,-6.31,0
5-9-2017 17:00,4.73,5.325756632781017,0.17,6.78,-6.44,0
5-9-2017 18:00,7.25,7.8965719683973115,0.27,6.88,-6.34,0
5-9-2017 19:00,17.38,12.145517263391168,0.5,7.11,-6.11,0
5-9-2017 20:00,0.02,-0.18100021684386158,0.77,7.39,-5.84,0
5-9-2017 21:00,0.07,-0.7487827936353373,0.51,6.84,-5.82,0
5-9-2017 22:00,3.27,3.3761207587571875,0.02,6.36,-6.31,0
5-9-2017 23:00,0.9,0.2678055214216011,0.38,6.7,-5.95,0
6-9-2017 0:00,0.0,0.8827951191154515,-0.72,5.61,-7.04,0
6-9-2017 1:00,0.0,1.189631796439043,-0.1,6.22,-6.42,0
6-9-2017 2:00,0.0,1.5758907729501042,-0.64,5.68,-6.96,0
6-9-2017 3:00,0.0,1.7006961044230522,-0.6,5.72,-6.91,0
6-9-2017 4:00,0.0,1.7088744835895353,-0.55,5.76,-6.86,0
6-9-2017 5:00,0.0,1.7168073656150789,-0.52,5.79,-6.83,0
6-9-2017 6:00,0.0,1.7826851598262294,-0.48,5.83,-6.79,0
6-9-2017 7:00,0.0,1.4794314049451245,-0.09,6.51,-6.69,0
6-9-2017 8:00,0.17,1.7975415727676487,-0.14,6.46,-6.73,0
6-9-2017 9:00,2.53,-1.3050376134338593,-0.04,6.55,-6.64,0
6-9-2017 10:00,24.33,-2.992406422501045,0.25,6.84,-6.34,1
6-9-2017 11:00,16.98,-22.197509789572397,3.97,10.37,-2.44,0
6-9-2017 12:00,6.42,-23.361165731917893,2.64,9.05,-3.77,0
6-9-2017 13:00,21.45,20.46586933091999,2.4,8.81,-4.01,1
6-9-2017 14:00,0.43,-1.0411194643204236,4.52,10.96,-1.92,0
6-9-2017 15:00,0.8,1.067200626520075,-0.22,6.24,-6.69,0
6-9-2017 16:00,13.95,12.704846537883995,0.62,7.08,-5.84,0
6-9-2017 17:00,0.0,-0.0631852084837341,1.14,7.61,-5.32,0
6-9-2017 18:00,0.0,0.15206096228813415,-1.3,5.17,-7.77,0
6-9-2017 19:00,1.38,-4.199714798430229,-0.32,6.14,-6.79,0
6-9-2017 20:00,0.55,0.16873013353212718,-2.63,3.87,-9.12,0
6-9-2017 21:00,0.8,0.39328988095853923,-2.02,4.47,-8.51,0
6-9-2017 22:00,1.93,3.0606557741431244,-1.75,4.74,-8.23,0
6-9-2017 23:00,1.9,2.6950975018214094,-1.22,5.26,-7.71,0
7-9-2017 0:00,0.0,2.953910429080792,-0.72,5.76,-7.21,0
7-9-2017 1:00,0.0,3.716044761028423,-0.99,5.49,-7.47,0
7-9-2017 2:00,0.0,4.606875741729487,-0.69,5.79,-7.17,0
7-9-2017 3:00,0.0,5.192194754406273,-1.06,5.41,-7.54,0
7-9-2017 4:00,0.0,5.662534657355891,-0.72,5.75,-7.19,0
7-9-2017 5:00,0.0,5.780268893495221,-0.84,5.62,-7.31,0
7-9-2017 6:00,0.0,5.959106096238765,-0.63,5.84,-7.09,0
7-9-2017 7:00,0.0,5.786355576180581,-0.65,5.81,-7.11,0
7-9-2017 8:00,0.0,5.98924282323193,-0.56,5.89,-7.02,0
7-9-2017 9:00,0.13,0.11410829802752731,-0.59,5.86,-7.04,0
7-9-2017 10:00,0.02,-25.786555966613008,-0.53,5.92,-6.98,0
7-9-2017 11:00,0.65,-37.96799690712119,-1.23,5.21,-7.68,0
7-9-2017 12:00,0.13,-28.359116868601422,-1.76,4.69,-8.21,0
7-9-2017 13:00,0.68,3.9723057943818545,-1.17,5.28,-7.62,0
7-9-2017 14:00,0.15,2.8487496533790546,-1.84,4.61,-8.29,0
7-9-2017 15:00,0.0,4.415010933527111,-0.6,5.85,-7.04,0
7-9-2017 16:00,0.83,3.597920881143265,-0.4,6.04,-6.84,0
7-9-2017 17:00,2.13,5.870206539536823,-0.74,5.69,-7.18,0
7-9-2017 18:00,3.55,7.1753185843694265,0.56,7.0,-5.87,0
7-9-2017 19:00,0.57,-1.881761863097704,0.35,6.79,-6.08,0
7-9-2017 20:00,0.0,2.4170618500254912,-0.73,5.71,-7.17,0
7-9-2017 21:00,0.68,2.582532993336085,0.27,6.71,-6.16,0
7-9-2017 22:00,3.35,6.320878191238368,-0.23,6.21,-6.66,0
7-9-2017 23:00,0.6,2.55659384785616,0.62,7.05,-5.82,0
8-9-2017 0:00,1.13,4.807747068606713,0.75,7.14,-5.65,0
8-9-2017 1:00,0.07,4.068325402001328,0.69,7.08,-5.7,0
8-9-2017 2:00,0.0,4.4968747337153365,0.59,6.98,-5.79,0
8-9-2017 3:00,0.0,4.645853774418901,0.19,6.58,-6.19,0
8-9-2017 4:00,0.0,4.681480549246151,0.55,6.93,-5.83,0
8-9-2017 5:00,0.0,4.5360623693224635,0.17,6.54,-6.21,0
8-9-2017 6:00,0.0,4.454905210421595,0.48,6.85,-5.9,0
8-9-2017 7:00,0.0,4.039699731511474,0.24,6.61,-6.13,0
8-9-2017 8:00,0.03,3.954405864116787,0.36,6.73,-6.01,0
8-9-2017 9:00,0.0,-2.7455856768569453,0.2,6.56,-6.16,0
8-9-2017 10:00,12.1,-18.86184718062042,0.23,6.59,-6.13,0
8-9-2017 11:00,17.15,-27.70192747811501,1.61,7.98,-4.76,0
8-9-2017 12:00,6.02,-28.09281324227959,2.34,8.72,-4.04,0
8-9-2017 13:00,2.27,2.9642744625578437,1.92,8.3,-4.46,0
8-9-2017 14:00,0.68,0.7154284175014118,0.72,7.11,-5.67,0
8-9-2017 15:00,1.58,3.350908328665784,0.13,6.51,-6.26,0
8-9-2017 16:00,0.67,0.7003597542429256,-0.29,6.09,-6.67,0
8-9-2017 17:00,0.02,1.2292135581369754,-1.08,5.3,-7.46,0
8-9-2017 18:00,0.17,1.3504422177695186,-0.36,6.02,-6.73,0
8-9-2017 19:00,42.25,37.424307824292825,-1.01,5.36,-7.38,1
8-9-2017 20:00,0.0,0.12976105931605986,5.91,12.54,-0.72,0
8-9-2017 21:00,0.0,0.031626601235899,1.2,7.85,-5.46,0
8-9-2017 22:00,0.0,1.5364341065809421,2.11,8.76,-4.55,0
8-9-2017 23:00,0.0,0.7489066948633072,0.72,7.38,-5.94,0
9-9-2017 0:00,0.0,2.9378832118300946,-1.92,4.74,-8.58,0
9-9-2017 1:00,0.0,3.6614764817817216,-0.01,6.64,-6.67,0
9-9-2017 2:00,0.0,4.612315099618708,-1.47,5.18,-8.12,0
9-9-2017 3:00,0.0,5.169525103459085,-0.34,6.31,-6.99,0
9-9-2017 4:00,0.0,5.615009685273997,-1.06,5.58,-7.71,0
9-9-2017 5:00,0.0,5.882346717972384,-0.45,6.19,-7.09,0
9-9-2017 6:00,0.08,6.297102826112198,-0.84,5.8,-7.47,0
9-9-2017 7:00,0.0,6.235350017035234,-0.42,6.22,-7.05,0
9-9-2017 8:00,0.05,6.527782663879604,-0.7,5.93,-7.33,0
9-9-2017 9:00,0.07,-0.3947250339991356,-0.49,6.14,-7.12,0
9-9-2017 10:00,0.48,-30.23424291802123,-0.63,6.0,-7.25,0
9-9-2017 11:00,0.0,-45.29062171363791,-1.27,5.36,-7.9,0
9-9-2017 12:00,0.0,-33.5489324216225,-2.14,4.5,-8.77,0
9-9-2017 13:00,4.87,9.195572815855419,-1.37,5.26,-8.01,0
9-9-2017 14:00,0.0,3.643189357531701,-1.13,5.5,-7.76,0
9-9-2017 15:00,0.0,5.43964039049873,-0.5,6.12,-7.13,0
9-9-2017 16:00,0.0,3.647385784823202,-0.18,6.44,-6.8,0
9-9-2017 17:00,0.03,4.799104537324835,-0.75,5.86,-7.37,0
9-9-2017 18:00,7.4,11.962746614864407,-0.22,6.39,-6.84,1
9-9-2017 19:00,0.0,-1.636144921514766,0.8,7.42,-5.82,0
9-9-2017 20:00,0.7,3.842234638515605,-1.93,4.72,-8.58,0
9-9-2017 21:00,0.0,2.9088188064298777,0.18,6.84,-6.47,0
9-9-2017 22:00,0.0,4.298412846602872,-0.66,5.99,-7.31,0
9-9-2017 23:00,0.0,3.1859665939349977,-0.36,6.28,-7.01,0
10-9-2017 0:00,0.0,5.291090634503208,0.6,7.25,-6.05,0
10-9-2017 1:00,0.0,5.862557269533722,-0.06,6.59,-6.7,0
10-9-2017 2:00,0.0,6.710543602015558,0.52,7.17,-6.12,0
10-9-2017 3:00,0.0,7.12084299751462,0.14,6.78,-6.5,0
10-9-2017 4:00,0.0,7.421043814839068,0.56,7.2,-6.08,0
10-9-2017 5:00,0.0,7.571861029437383,0.31,6.94,-6.33,0
10-9-2017 6:00,0.0,7.793255373895731,0.5,7.13,-6.12,0
10-9-2017 7:00,0.0,7.715680203929774,0.35,6.98,-6.27,0
10-9-2017 8:00,0.0,7.786564334291054,0.43,7.06,-6.19,0
10-9-2017 9:00,0.0,0.24422780825801843,0.32,6.94,-6.3,0
10-9-2017 10:00,0.4,-31.96585912727199,0.32,6.94,-6.29,0
10-9-2017 11:00,0.75,-47.20584909226004,-0.48,6.14,-7.09,0
10-9-2017 12:00,0.0,-35.53889741531393,-1.04,5.58,-7.66,0
10-9-2017 13:00,0.0,5.375386204743892,-0.62,5.99,-7.24,0
10-9-2017 14:00,0.0,4.641826183092297,-1.24,5.37,-7.85,0
10-9-2017 15:00,0.0,6.471609187801395,-0.16,6.45,-6.77,0
10-9-2017 16:00,0.0,4.60000940081261,-0.06,6.55,-6.67,0
10-9-2017 17:00,0.0,5.757945216940001,-0.39,6.22,-6.99,0
10-9-2017 18:00,0.0,5.4673528274047785,0.31,6.91,-6.29,0
10-9-2017 19:00,0.0,-0.8309437368586915,-0.37,6.23,-6.97,0
10-9-2017 20:00,0.0,3.8637142631969903,-1.63,4.98,-8.25,0
10-9-2017 21:00,0.0,3.637233060221253,-0.31,6.31,-6.92,0
10-9-2017 22:00,0.0,5.053829638337752,-0.57,6.04,-7.18,0
10-9-2017 23:00,1.85,5.6086805478351955,0.09,6.7,-6.52,0
11-9-2017 0:00,0.0,5.922168115120386,0.92,7.53,-5.69,0
11-9-2017 1:00,0.0,6.439492115238116,0.34,6.95,-6.26,0
11-9-2017 2:00,0.0,7.282610162373129,0.69,7.3,-5.91,0
11-9-2017 3:00,0.0,7.643982949539206,0.4,7.0,-6.2,0
11-9-2017 4:00,0.0,7.896884002381521,0.55,7.15,-6.04,0
11-9-2017 5:00,0.0,7.981457332071804,0.47,7.07,-6.12,0
11-9-2017 6:00,0.0,8.139765846040726,0.54,7.13,-6.05,0
11-9-2017 7:00,0.0,8.016644248377819,0.49,7.08,-6.1,0
11-9-2017 8:00,0.0,7.966255795448049,0.51,7.09,-6.07,0
11-9-2017 9:00,0.0,-0.24853941182236705,0.44,7.02,-6.14,0
11-9-2017 10:00,0.77,-34.52182525194336,0.41,6.98,-6.17,0
11-9-2017 11:00,0.02,-51.94805623938588,-0.26,6.31,-6.84,0
11-9-2017 12:00,3.78,-35.16847203059217,-0.91,5.67,-7.48,0
11-9-2017 13:00,0.0,4.8786387350390985,0.21,6.79,-6.36,0
11-9-2017 14:00,0.0,3.966950913053157,-0.86,5.71,-7.44,0
11-9-2017 15:00,0.0,5.703114652497855,0.25,6.83,-6.32,0
11-9-2017 16:00,0.0,3.6252192839831174,0.16,6.73,-6.41,0
11-9-2017 17:00,0.0,4.788985120130636,-0.38,6.19,-6.95,0
11-9-2017 18:00,0.08,4.463771219914991,0.4,6.97,-6.16,0
11-9-2017 19:00,0.17,-1.8743135569594207,-0.4,6.16,-6.97,0
11-9-2017 20:00,1.52,4.056239698394929,-1.4,5.17,-7.97,0
11-9-2017 21:00,0.22,2.6055662506529678,-0.11,6.47,-6.68,0
11-9-2017 22:00,1.15,5.048048248954654,-0.43,6.14,-7.0,0
11-9-2017 23:00,29.48,31.969079202859092,0.34,6.91,-6.23,1
12-9-2017 0:00,0.0,4.779813179102945,5.56,12.29,-1.17,0
12-9-2017 1:00,0.0,5.309736600776699,1.66,8.4,-5.09,0
12-9-2017 2:00,0.0,6.2147284190336975,2.79,9.53,-3.96,0
12-9-2017 3:00,0.0,6.593916654335596,0.64,7.38,-6.1,0
12-9-2017 4:00,0.0,6.866260002550946,-0.44,6.29,-7.18,0
12-9-2017 5:00,0.0,6.803720544711206,0.38,7.11,-6.35,0
12-9-2017 6:00,0.0,6.818074325568713,-0.32,6.41,-7.04,0
12-9-2017 7:00,0.0,6.568517186433071,0.19,6.91,-6.54,0
12-9-2017 8:00,0.0,6.315967036436463,-0.25,6.47,-6.97,0
12-9-2017 9:00,0.0,-2.4721866347405084,0.04,6.76,-6.67,0
12-9-2017 10:00,0.0,-39.84959958563991,-0.27,6.44,-6.98,0
12-9-2017 11:00,1.05,-56.462999801724294,-0.76,5.96,-7.47,0
12-9-2017 12:00,0.0,-43.791711267270394,-1.24,5.47,-7.96,0
12-9-2017 13:00,0.0,3.098066630170307,-0.94,5.77,-7.65,0
12-9-2017 14:00,0.0,2.1580909940860122,-1.38,5.33,-8.1,0
12-9-2017 15:00,0.0,3.9504754545023038,-0.37,6.34,-7.08,0
12-9-2017 16:00,0.0,1.8161044951009204,-0.46,6.25,-7.16,0
12-9-2017 17:00,0.0,3.0204059057280372,-0.51,6.19,-7.21,0
12-9-2017 18:00,0.0,2.5352760492914346,-0.12,6.58,-6.82,0
12-9-2017 19:00,65.07,61.08210315225617,-0.56,6.13,-7.26,1
12-9-2017 20:00,1.48,1.9932517553592701,9.33,16.61,2.05,0
12-9-2017 21:00,0.3,0.7231241071879717,3.82,11.13,-3.5,0
12-9-2017 22:00,0.0,2.0162303956207346,4.93,12.25,-2.38,0
12-9-2017 23:00,0.0,0.47818026387806256,1.19,8.51,-6.13,0
13-9-2017 0:00,15.3,18.174346390169738,-1.8,5.52,-9.12,1
13-9-2017 1:00,0.0,3.5958929432100497,1.33,9.01,-6.35,0
13-9-2017 2:00,0.0,4.735813656271688,0.24,7.59,-7.12,0
13-9-2017 3:00,0.0,5.306225056756548,1.32,9.03,-6.39,0
13-9-2017 4:00,0.0,5.77232938445305,-1.45,6.26,-9.17,0
13-9-2017 5:00,0.0,5.915385915083769,0.42,8.13,-7.29,0
13-9-2017 6:00,0.0,6.136000726410663,0.01,7.71,-7.68,0
13-9-2017 7:00,0.0,6.112738242223246,-0.71,7.0,-8.42,0
13-9-2017 8:00,0.0,6.009312909547228,2.33,10.02,-5.36,0
13-9-2017 9:00,0.0,-3.35521959055707,0.1,7.8,-7.61,0
13-9-2017 10:00,4.28,-38.75316874471879,-0.36,7.34,-8.06,0
13-9-2017 11:00,0.02,-61.64764543499899,0.21,7.89,-7.47,0
13-9-2017 12:00,0.0,-47.289229507796406,-0.33,7.37,-8.02,0
13-9-2017 13:00,0.0,2.4882602433414034,-0.1,7.59,-7.78,0
13-9-2017 14:00,0.08,1.4569405471507908,-0.1,7.58,-7.78,0
13-9-2017 15:00,0.88,3.980256694002617,0.45,8.13,-7.23,0
13-9-2017 16:00,0.18,0.963465947687804,-0.08,7.59,-7.76,0
13-9-2017 17:00,0.45,2.49796563790568,0.11,7.78,-7.57,0
13-9-2017 18:00,1.62,3.133681607865702,0.12,7.79,-7.55,0
13-9-2017 19:00,40.85,35.77961600734735,-0.01,7.66,-7.68,1
13-9-2017 20:00,0.78,0.15355189503977318,1.97,9.73,-5.8,0
13-9-2017 21:00,63.35,62.70825897756186,-0.55,7.21,-8.32,1
13-9-2017 22:00,1.22,2.2844289177779267,2.5,10.85,-5.84,0
13-9-2017 23:00,0.02,-0.5581609229090665,1.22,9.54,-7.1,0
14-9-2017 0:00,0.0,1.953511324517489,3.89,11.94,-4.17,0
14-9-2017 1:00,0.0,2.7819582321856586,-0.69,7.37,-8.74,0
14-9-2017 2:00,0.0,4.07208506331323,-0.9,7.14,-8.93,0
14-9-2017 3:00,0.0,4.748996852242346,-0.81,7.22,-8.83,0
14-9-2017 4:00,0.0,5.324118071419184,-0.8,7.21,-8.82,0
14-9-2017 5:00,0.0,5.959072339434948,-0.83,7.18,-8.84,0
14-9-2017 6:00,0.0,6.672249930145808,-0.99,7.02,-9.0,0
14-9-2017 7:00,0.0,7.161555997865987,-0.98,7.03,-8.99,0
14-9-2017 8:00,0.0,7.493529379469933,-1.08,6.93,-9.09,0
14-9-2017 9:00,0.0,-1.757613690744633,-1.1,6.92,-9.11,0
14-9-2017 10:00,0.0,-43.04636029634807,-1.16,6.85,-9.17,0
14-9-2017 11:00,0.0,-61.96217470900349,-1.52,6.5,-9.53,0
14-9-2017 12:00,1.65,-44.5868926372316,-2.14,5.87,-10.16,0
14-9-2017 13:00,0.42,7.206301600902109,-1.79,6.23,-9.8,0
14-9-2017 14:00,0.0,5.861630477903988,-1.68,6.33,-9.69,0
14-9-2017 15:00,0.0,7.873870944490156,-1.21,6.8,-9.21,0
14-9-2017 16:00,0.0,5.732634722551587,-1.19,6.8,-9.19,0
14-9-2017 17:00,0.15,7.20920237368019,-1.23,6.76,-9.22,0
14-9-2017 18:00,8.52,14.997633851356802,-1.15,6.82,-9.13,1
14-9-2017 19:00,0.33,0.16454748442392364,0.04,8.03,-7.95,0
14-9-2017 20:00,0.07,4.293142593774231,-2.67,5.37,-10.71,0
14-9-2017 21:00,0.4,4.517418804582796,-2.46,5.6,-10.52,0
14-9-2017 22:00,0.0,5.771407132020078,-2.88,5.19,-10.94,0
14-9-2017 23:00,3.97,7.829032317826666,-1.35,6.71,-9.42,0
15-9-2017 0:00,0.0,6.360965421826,-0.66,7.4,-8.72,0
15-9-2017 1:00,0.0,6.819094384586524,-0.29,7.77,-8.34,0
15-9-2017 2:00,0.0,7.782209034244528,-0.08,7.97,-8.12,0
15-9-2017 3:00,0.0,8.088402912082401,0.08,8.12,-7.97,0
15-9-2017 4:00,0.0,8.295333380528309,0.39,8.43,-7.66,0
15-9-2017 5:00,0.0,8.373859268320105,0.47,8.51,-7.57,0
15-9-2017 6:00,0.0,8.53127352080592,0.5,8.54,-7.53,0
15-9-2017 7:00,0.0,8.484825843225394,0.47,8.5,-7.57,0
15-9-2017 8:00,0.0,8.203875641900996,0.54,8.57,-7.49,0
15-9-2017 9:00,0.0,-1.969626692393181,0.52,8.55,-7.5,0
15-9-2017 10:00,5.3,-40.604918901668576,0.49,8.51,-7.54,0
15-9-2017 11:00,0.7,-65.43781918892942,0.68,8.7,-7.34,0
15-9-2017 12:00,2.22,-47.88141912481849,0.3,8.32,-7.71,0
15-9-2017 13:00,1.6,7.485899814665212,0.41,8.42,-7.61,0
15-9-2017 14:00,25.12,29.986297479213658,0.3,8.31,-7.71,1
15-9-2017 15:00,0.0,6.885882479888242,3.56,11.65,-4.53,0
15-9-2017 16:00,2.78,7.418620996679992,3.33,11.44,-4.78,0
15-9-2017 17:00,0.0,6.067318219092291,2.11,10.22,-6.0,0
15-9-2017 18:00,0.07,5.548526814858467,0.62,8.72,-7.49,0
15-9-2017 19:00,8.37,7.1864812918840295,-0.04,8.06,-8.14,0
15-9-2017 20:00,0.85,4.039797233265189,-1.45,6.66,-9.56,0
15-9-2017 21:00,0.3,3.5759697976172116,-1.4,6.7,-9.51,0
15-9-2017 22:00,0.0,5.160103737532677,-1.65,6.46,-9.77,0
15-9-2017 23:00,0.0,3.2602711750898123,-1.16,6.95,-9.27,0
16-9-2017 0:00,0.0,6.014792360918897,-1.08,7.04,-9.19,0
16-9-2017 1:00,0.0,6.662772846706179,-1.08,7.04,-9.19,0
16-9-2017 2:00,0.0,7.859044782829017,-0.53,7.58,-8.64,0
16-9-2017 3:00,0.0,8.354690217510047,-0.38,7.72,-8.49,0
16-9-2017 4:00,0.0,8.753599403159427,-0.07,8.03,-8.17,0
16-9-2017 5:00,0.0,8.894796827712788,-0.19,7.91,-8.29,0
16-9-2017 6:00,0.0,9.115547658959098,-0.07,8.02,-8.17,0
16-9-2017 7:00,0.03,9.182446153063399,-0.06,8.03,-8.15,0
16-9-2017 8:00,0.0,8.877672285796196,0.01,8.09,-8.08,0
16-9-2017 9:00,1.57,-0.24752730557328928,-0.01,8.07,-8.09,0
16-9-2017 10:00,0.33,-47.66870311151633,0.19,8.27,-7.88,0
16-9-2017 11:00,9.82,-59.32802726637834,-0.24,7.83,-8.32,0
16-9-2017 12:00,2.65,-49.74984720292403,0.55,8.63,-7.54,0
16-9-2017 13:00,1.38,7.958668633073678,0.86,8.94,-7.22,0
16-9-2017 14:00,0.02,5.51120728033271,0.55,8.63,-7.53,0
16-9-2017 15:00,1.73,9.275209010259733,-0.09,7.98,-8.17,0
16-9-2017 16:00,12.52,17.738994460945822,0.01,8.09,-8.06,0
16-9-2017 17:00,13.33,20.029782602900422,1.68,9.77,-6.41,0
16-9-2017 18:00,0.05,6.103729665014763,3.28,11.38,-4.83,0
16-9-2017 19:00,0.63,-0.04731366574262896,2.16,10.27,-5.95,0
16-9-2017 20:00,0.0,3.6306844559279856,-1.63,6.53,-9.8,0
16-9-2017 21:00,0.12,3.9303972824239195,-1.97,6.2,-10.13,0
16-9-2017 22:00,0.0,5.826320743418022,-2.08,6.08,-10.25,0
16-9-2017 23:00,0.0,3.8406743413261655,-0.99,7.18,-9.15,0
17-9-2017 0:00,0.0,6.749427517585458,-0.92,7.24,-9.09,0
17-9-2017 1:00,0.0,7.557045507897961,-0.86,7.3,-9.02,0
17-9-2017 2:00,0.0,8.956260711984093,-0.44,7.71,-8.6,0
17-9-2017 3:00,0.0,9.611143685006745,-0.26,7.89,-8.41,0
17-9-2017 4:00,0.0,10.171817569358062,-0.03,8.12,-8.18,0
17-9-2017 5:00,0.0,10.507003869506475,-0.11,8.04,-8.25,0
17-9-2017 6:00,0.0,10.922408618346761,-0.02,8.12,-8.16,0
17-9-2017 7:00,0.0,11.173970622969376,0.01,8.14,-8.13,0
17-9-2017 8:00,0.0,11.036690428592854,0.07,8.2,-8.06,0
17-9-2017 9:00,0.0,-0.1132635507714509,0.05,8.18,-8.08,0
17-9-2017 10:00,0.0,-48.47338008430165,0.03,8.15,-8.1,0
17-9-2017 11:00,0.0,-70.47218523768431,-0.42,7.7,-8.54,0
17-9-2017 12:00,0.27,-52.67528230580615,-1.24,6.69,-9.17,0
17-9-2017 13:00,0.0,9.019123705804871,-0.65,7.47,-8.76,0
17-9-2017 14:00,0.57,8.428496614873804,-0.46,7.65,-8.58,0
17-9-2017 15:00,0.02,9.961608353152577,-0.3,7.81,-8.41,0
17-9-2017 16:00,0.0,7.531134016832319,-0.02,8.09,-8.12,0
17-9-2017 17:00,0.15,9.10301199075059,-0.15,7.95,-8.25,0
17-9-2017 18:00,0.07,8.208696431634465,-0.12,7.98,-8.22,0
17-9-2017 19:00,0.02,1.2476542055154916,-0.18,7.91,-8.28,0
17-9-2017 20:00,0.83,6.189333419896932,-2.15,5.98,-10.27,0
17-9-2017 21:00,0.0,5.274004671529222,-1.59,6.53,-9.72,0
17-9-2017 22:00,0.0,7.063135816594404,-1.4,6.73,-9.52,0
17-9-2017 23:00,2.17,6.803093737845994,-0.45,7.67,-8.57,0
18-9-2017 0:00,0.0,7.337497067527934,-0.0,8.12,-8.12,0
18-9-2017 1:00,0.0,7.713996018676517,-1.48,6.45,-9.42,0
18-9-2017 2:00,0.0,8.725397947036805,0.32,8.43,-7.8,0
18-9-2017 3:00,0.0,8.948761914711937,0.38,8.49,-7.74,0
18-9-2017 4:00,0.0,9.080443954076053,0.6,8.71,-7.51,0
18-9-2017 5:00,0.0,8.997810893300793,0.57,8.68,-7.53,0
18-9-2017 6:00,0.0,8.996061323216331,0.51,8.59,-7.57,0
18-9-2017 7:00,0.0,8.850478601838534,0.61,8.52,-7.3,0
18-9-2017 8:00,4.12,12.358883843833963,0.71,8.81,-7.39,0
18-9-2017 9:00,2.67,-1.025398596606362,1.21,9.31,-6.89,0
18-9-2017 10:00,4.52,-50.044029930804925,1.46,9.56,-6.63,0
18-9-2017 11:00,5.78,-71.96189015578943,1.29,9.39,-6.8,0
18-9-2017 12:00,11.32,-48.445838428568635,1.24,9.33,-6.86,0
18-9-2017 13:00,3.73,8.829532203220193,2.22,10.33,-5.88,0
18-9-2017 14:00,13.42,17.200813818663512,2.11,10.21,-5.99,0
18-9-2017 15:00,7.97,13.778110009858514,2.63,10.74,-5.48,0
18-9-2017 16:00,2.67,5.898443518684293,2.87,10.98,-5.24,0
18-9-2017 17:00,0.6,5.374117665101268,1.85,9.96,-6.25,0
18-9-2017 18:00,12.88,16.854245825289723,0.68,8.78,-7.43,0
18-9-2017 19:00,3.1,0.1658788027773701,1.34,9.45,-6.78,0
18-9-2017 20:00,4.6,5.8039132088378445,-0.32,7.82,-8.46,0
18-9-2017 21:00,23.33,24.76304317179888,-0.51,7.63,-8.64,1
18-9-2017 22:00,2.7,6.274805307535349,1.67,9.83,-6.49,0
18-9-2017 23:00,1.65,2.9297908587305965,1.97,10.13,-6.18,0
19-9-2017 0:00,2.77,7.129267648435393,0.91,9.07,-7.25,0
19-9-2017 1:00,0.0,5.162382680673901,-0.44,7.72,-8.59,0
19-9-2017 2:00,0.0,6.643706453562194,-0.74,7.42,-8.89,0
19-9-2017 3:00,0.0,7.293286536143653,-0.76,7.39,-8.91,0
19-9-2017 4:00,0.0,7.85368086958294,-0.88,7.27,-9.03,0
19-9-2017 5:00,0.0,8.2261428085405,-0.98,7.17,-9.12,0
19-9-2017 6:00,0.08,8.760153280187785,-0.95,7.2,-9.1,0
19-9-2017 7:00,0.28,9.290429944564377,-0.92,7.22,-9.07,0
19-9-2017 8:00,3.82,12.617524734686562,-0.88,7.26,-9.02,0
19-9-2017 9:00,7.97,4.662544016179741,-0.49,7.64,-8.63,0
19-9-2017 10:00,3.88,-52.19081872415123,0.41,8.55,-7.72,0
19-9-2017 11:00,9.7,-70.11395062620164,0.24,8.37,-7.89,0
19-9-2017 12:00,2.4,-58.37496670910224,0.5,8.63,-7.63,0
19-9-2017 13:00,1.92,9.13184336774852,-0.01,8.11,-8.14,0
19-9-2017 14:00,3.22,9.175508514450339,-0.42,7.7,-8.55,0
19-9-2017 15:00,4.48,12.627463983445702,-0.65,7.47,-8.77,0
19-9-2017 16:00,5.13,10.7492118233618,-0.32,7.8,-8.44,0
19-9-2017 17:00,5.65,12.888703809178415,0.12,8.24,-7.99,0
19-9-2017 18:00,2.63,9.033297355572362,0.46,8.57,-7.65,0
19-9-2017 19:00,2.88,2.3276963915608944,0.08,8.19,-8.03,0
19-9-2017 20:00,2.77,6.312176844194658,-1.82,6.31,-9.95,0
19-9-2017 21:00,2.32,6.090866827705285,-1.56,6.57,-9.68,0
19-9-2017 22:00,3.53,9.480414440712405,-1.89,6.24,-10.02,0
19-9-2017 23:00,1.13,4.6055821084506725,-0.79,7.34,-8.92,0
20-9-2017 0:00,1.5,8.156045898816812,-0.65,7.48,-8.78,0
20-9-2017 1:00,0.33,7.5384556823937,-0.62,7.51,-8.75,0
20-9-2017 2:00,0.07,8.554794002269094,-0.39,7.73,-8.51,0
20-9-2017 3:00,0.0,8.88272829064002,-0.43,7.69,-8.55,0
20-9-2017 4:00,0.0,9.194379070118545,-0.22,7.89,-8.34,0
20-9-2017 5:00,0.0,9.119476938753689,-0.32,7.79,-8.43,0
20-9-2017 6:00,0.42,9.54453363565662,-0.08,8.03,-8.19,0
20-9-2017 7:00,2.65,11.676872300022282,-0.18,7.92,-8.29,0
20-9-2017 8:00,0.68,8.988299374603812,0.23,8.34,-7.87,0
20-9-2017 9:00,3.18,-1.6807286202953797,0.15,8.25,-7.95,0
20-9-2017 10:00,3.6,-56.99814146368318,0.24,8.34,-7.86,0
20-9-2017 11:00,3.47,-82.37877090599072,0.12,8.21,-7.98,0
20-9-2017 12:00,3.73,-62.778272715865626,-0.07,8.02,-8.16,0
20-9-2017 13:00,5.55,10.09501976211064,0.1,8.19,-7.99,0
20-9-2017 14:00,13.07,15.999676972718543,0.54,8.63,-7.54,0
20-9-2017 15:00,6.3,11.192704404242754,1.75,9.85,-6.34,0
20-9-2017 16:00,12.98,14.99157809586364,2.06,10.15,-6.04,0
20-9-2017 17:00,19.08,22.63036621332633,2.53,10.63,-5.57,0
20-9-2017 18:00,8.32,10.854807535060434,3.69,11.81,-4.44,0
20-9-2017 19:00,12.83,8.242115941005355,3.13,11.25,-4.99,0
20-9-2017 20:00,9.75,9.007963567944577,1.55,9.68,-6.57,0
20-9-2017 21:00,8.83,8.400385685348205,1.22,9.34,-6.9,0
20-9-2017 22:00,16.63,18.467329880742653,0.63,8.75,-7.48,0
20-9-2017 23:00,13.02,12.268811404257185,2.05,10.18,-6.08,0
21-9-2017 0:00,6.62,9.17296018230604,2.53,10.66,-5.6,0
21-9-2017 1:00,2.67,6.139636327139664,1.96,10.08,-6.17,0
21-9-2017 2:00,3.97,9.12596080392051,0.81,8.93,-7.32,0
21-9-2017 3:00,0.63,6.547220907999263,0.03,8.15,-8.09,0
21-9-2017 4:00,0.13,6.725180722043533,-0.4,7.72,-8.52,0
21-9-2017 5:00,0.02,7.163064724598945,-0.98,7.14,-9.1,0
21-9-2017 6:00,0.42,8.18931785100021,-1.28,6.84,-9.39,0
21-9-2017 7:00,0.52,8.833996765907575,-1.41,6.71,-9.53,0
21-9-2017 8:00,3.48,11.640034375501084,-1.38,6.73,-9.5,0
21-9-2017 9:00,4.97,-0.0064312151588707955,-1.18,6.94,-9.29,0
21-9-2017 10:00,6.72,-55.87112553095621,-0.8,7.31,-8.91,0
21-9-2017 11:00,7.17,-81.08248388287359,-0.59,7.52,-8.69,0
21-9-2017 12:00,4.4,-63.11370278907551,-0.55,7.55,-8.65,0
21-9-2017 13:00,4.08,11.318618131040699,-0.72,7.38,-8.82,0
21-9-2017 14:00,9.27,15.166813446569119,-0.82,7.28,-8.91,0
21-9-2017 15:00,6.85,15.113458881636623,-0.47,7.62,-8.56,0
21-9-2017 16:00,3.5,9.162122502212696,-0.08,8.01,-8.17,0
21-9-2017 17:00,2.93,10.319894310801363,-0.52,7.56,-8.6,0
21-9-2017 18:00,4.6,11.063870967355518,-1.07,7.01,-9.15,0
21-9-2017 19:00,9.58,9.023781007596394,-1.2,6.88,-9.28,0
21-9-2017 20:00,7.68,10.990688073180642,-1.55,6.51,-9.61,0
21-9-2017 21:00,2.87,6.572136962186198,-0.73,7.34,-8.81,0
21-9-2017 22:00,2.15,8.201671595871066,-1.28,6.8,-9.36,0
21-9-2017 23:00,1.23,4.574660831064945,-1.26,6.82,-9.34,0
22-9-2017 0:00,0.83,7.5976884526996,-1.48,6.6,-9.57,0
22-9-2017 1:00,0.05,7.598391262659259,-1.38,6.7,-9.46,0
22-9-2017 2:00,0.0,9.144462200214862,-0.97,7.1,-9.05,0
22-9-2017 3:00,0.0,9.768808423870738,-0.84,7.23,-8.91,0
22-9-2017 4:00,0.0,10.312781596450243,-0.52,7.55,-8.59,0
22-9-2017 5:00,0.0,10.613958614891889,-0.49,7.58,-8.55,0
22-9-2017 6:00,0.13,11.121915052757455,-0.36,7.71,-8.42,0
22-9-2017 7:00,0.13,11.439421952566667,-0.32,7.74,-8.38,0
22-9-2017 8:00,0.85,11.700557831532297,-0.25,7.81,-8.3,0
22-9-2017 9:00,2.52,-0.6428757397179208,-0.29,7.77,-8.34,0
22-9-2017 10:00,3.77,-59.79438478199893,-0.2,7.85,-8.24,0
22-9-2017 11:00,2.47,-88.07600529760028,-0.18,7.87,-8.22,0
22-9-2017 12:00,6.62,-62.698474554203344,-0.36,7.68,-8.41,0
22-9-2017 13:00,15.95,24.49265587833682,0.19,8.23,-7.86,1
22-9-2017 14:00,3.8,10.684170369069776,2.01,10.07,-6.06,0
22-9-2017 15:00,2.98,12.04421487796458,1.67,9.74,-6.39,0
22-9-2017 16:00,3.78,9.932449497779855,0.89,8.96,-7.17,0
22-9-2017 17:00,1.67,3.9347078795075667,0.11,8.17,-7.94,0
22-9-2017 18:00,2.05,-2.3262772471051587,-0.28,7.78,-8.34,0
22-9-2017 19:00,1.22,-15.87826269055526,-0.46,7.6,-8.51,0
22-9-2017 20:00,11.8,-7.21479330431292,-1.97,6.1,-10.03,1
22-9-2017 21:00,1.85,-40.29802122457628,-0.44,7.63,-8.52,0
22-9-2017 22:00,1.75,-61.569599733471854,-0.53,7.55,-8.62,0
22-9-2017 23:00,11.68,-78.06880636746946,-0.36,7.72,-8.44,0
23-9-2017 0:00,10.22,-99.59060348311988,0.46,8.54,-7.63,0
23-9-2017 1:00,0.02,-131.90496668154682,1.64,9.73,-6.44,0
23-9-2017 2:00,0.0,-153.1782419567291,1.42,9.31,-6.47,0
23-9-2017 3:00,0.0,-175.4499022870087,0.64,8.54,-7.26,0
23-9-2017 4:00,0.0,-197.79900842940663,0.31,8.2,-7.59,0
23-9-2017 5:00,0.0,-207.16199447253825,0.21,8.09,-7.68,0
23-9-2017 6:00,0.0,-216.4497908006679,0.1,7.98,-7.79,0
23-9-2017 7:00,0.12,-225.65691199341634,-0.23,7.84,-8.3,0
23-9-2017 8:00,0.2,-235.75813392253812,-0.2,7.87,-8.27,0
23-9-2017 9:00,273.42,21.912968415309365,-0.38,7.68,-8.45,1
23-9-2017 10:00,1444.77,1129.4161485362324,38.38,53.07,23.69,1
23-9-2017 11:00,1932.05,1587.7357697466352,1256.9965244880582,351.98,0.0,0
23-9-2017 12:00,1551.48,1228.2235540293188,741.3994354452964,-1361.17,0.0,0
23-9-2017 13:00,9.85,-227.80090834501053,301.46,20.04,250.94,0
23-9-2017 14:00,3.75,-231.2404769983666,-1422.65,-53.62,-1484.14,1
23-9-2017 15:00,4.13,-224.23143573493803,-42.35,392.88,-104.74,0
23-9-2017 16:00,40.55,-186.39803243517713,-115.45,-87.3,-177.27,0
23-9-2017 17:00,2.75,-205.56253182728264,-429.18582080831567,-295.22,0.0,0
23-9-2017 18:00,3.63,-188.8997230840345,324.74,139.2,256.6,0
23-9-2017 19:00,9.53,-173.28484835814783,-161.96,-55.58,-236.61,0
23-9-2017 20:00,39.47,-122.90606099821966,-370.93,-70.4,-446.65,1
23-9-2017 21:00,0.8,-134.8827089599953,64.29,112.1,-10.62,0
23-9-2017 22:00,0.72,-106.30414384371471,-132.57,5.18,-209.55,0
23-9-2017 23:00,0.65,-83.17428957914723,-147.41,35.33,-224.42,0
24-9-2017 0:00,0.02,-53.99965466432605,35.34,71.94,-41.41,0
24-9-2017 1:00,0.38,-38.17995009435214,-71.7,77.62,-148.59,0
24-9-2017 2:00,0.28,-21.91343780548484,-41.35,96.91,-118.04,0
24-9-2017 3:00,0.0,-6.8919709129125355,-4.54,113.79,-81.03,0
24-9-2017 4:00,0.0,8.334977406499629,1.33,122.03,-74.96,0
24-9-2017 5:00,0.0,9.543612567034874,20.82,132.14,-55.27,0
24-9-2017 6:00,0.02,10.845847738150166,37.91,138.1,-37.97,0
24-9-2017 7:00,0.03,12.119882718084206,46.35,113.39,-29.33,0
24-9-2017 8:00,0.03,12.452087246115214,56.39,10.82,-19.36,0
24-9-2017 9:00,0.78,-1.9412139002430011,62.27,43.45,-13.57,0
24-9-2017 10:00,1.78,-66.29228400941882,37.49,136.56,-38.4,0
24-9-2017 11:00,1.37,-95.70036046631553,-65.19,239.43,-141.21,0
24-9-2017 12:00,0.88,-73.3612620376484,-32.56,156.0,-108.58,0
24-9-2017 13:00,1.82,12.010216446582156,60.51,141.2,-15.55,1
24-9-2017 14:00,3.53,11.781098314566636,162.87,172.22,86.31,0
24-9-2017 15:00,3.07,13.480669997958504,79.69,110.1,3.38,0
24-9-2017 16:00,2.52,9.750775643094645,64.92,115.98,-11.36,0
24-9-2017 17:00,3.2,11.998878706085577,95.85,109.54,19.48,0
24-9-2017 18:00,5.55,12.964841548124214,33.89,95.72,-42.31,0
24-9-2017 19:00,5.58,5.555936672277287,39.78,93.5,-36.41,0
24-9-2017 20:00,4.6,7.779402234820941,33.36,94.62,-42.82,0
24-9-2017 21:00,4.85,8.418943502244396,19.6,106.04,-56.53,0
24-9-2017 22:00,6.58,12.507261514412614,17.4,69.38,-58.71,0
24-9-2017 23:00,28.42,31.045785948256643,18.54,77.35,-57.53,0
25-9-2017 0:00,5.43,11.5964621642608,29.99,84.27,-46.06,0
25-9-2017 1:00,3.18,10.142936706374808,-6.64,65.49,-82.66,0
25-9-2017 2:00,0.68,9.391938763030925,1.35,74.06,-74.65,0
25-9-2017 3:00,0.47,9.819235082194421,8.3,75.97,-67.66,0
25-9-2017 4:00,0.0,9.914940067155875,-10.45,68.49,-86.38,0
25-9-2017 5:00,2.85,13.163828340124478,-1.84,70.06,-77.74,0
25-9-2017 6:00,2.97,13.75472691925119,0.1,73.82,-75.78,0
25-9-2017 7:00,3.6,14.858549980634205,-7.35,36.19,-83.2,0
25-9-2017 8:00,7.93,18.65281287458446,-5.76,-60.98,-81.57,0
25-9-2017 9:00,3.25,-1.6206510100113114,-1.97,-24.46,-77.75,0
25-9-2017 10:00,3.5,-69.08173060331809,-39.6,62.72,-115.39,0
25-9-2017 11:00,2.9,-99.57326398154605,-136.99,171.51,-213.0,0
25-9-2017 12:00,1.38,-77.34861066092735,-100.42,99.2,-176.37,0
25-9-2017 13:00,3.7,12.976613239354995,-13.22,88.4,-89.15,0
25-9-2017 14:00,4.77,12.25575018617185,95.44,131.79,19.37,0
25-9-2017 15:00,1.57,11.493656847018862,23.16,80.42,-52.88,0
25-9-2017 16:00,1.55,8.448263952387652,12.39,91.69,-63.62,0
25-9-2017 17:00,1.18,9.84912267861661,55.77,119.7,-20.26,0
25-9-2017 18:00,1.95,9.338392827587347,4.44,82.24,-71.53,0
25-9-2017 19:00,26.03,26.09583656482386,15.72,76.63,-60.26,0
25-9-2017 20:00,10.62,13.924108544800017,43.71,98.6,-32.28,0
25-9-2017 21:00,2.35,6.1040703454369725,6.29,76.11,-69.66,0
25-9-2017 22:00,1.2,7.376314065131931,0.7,77.88,-75.22,0
25-9-2017 23:00,2.95,5.687681479891637,22.69,105.94,-53.22,0
26-9-2017 0:00,0.77,7.148571808717918,0.17,63.55,-75.76,0
26-9-2017 1:00,20.08,27.162844941622694,1.97,70.08,-73.94,0
26-9-2017 2:00,0.38,9.165365384718289,30.04,84.92,-45.85,0
26-9-2017 3:00,0.98,10.30951974912363,-12.32,62.47,-88.2,0
26-9-2017 4:00,0.0,9.804988091055897,-5.76,72.28,-81.61,0
26-9-2017 5:00,0.0,10.276182089016206,9.1,74.29,-66.72,0
26-9-2017 6:00,1.2,12.017796688712696,-13.33,64.82,-89.12,0
26-9-2017 7:00,1.9,13.283530610196646,-3.48,43.03,-79.24,0
26-9-2017 8:00,1.47,12.33197464871811,-1.44,-47.7,-77.18,0
26-9-2017 9:00,1.18,-3.9636982759224217,-10.89,5.73,-86.6,0
26-9-2017 10:00,1.98,-73.19671581457216,-32.66,55.52,-108.36,0
26-9-2017 11:00,28.7,-77.2236345753434,-123.59,153.58,-199.49,0
26-9-2017 12:00,5.47,-75.75535482398516,-70.1,125.57,-145.93,0
26-9-2017 13:00,1.95,12.226215191879481,-20.35,69.02,-96.21,0
26-9-2017 14:00,22.25,30.806207917059183,77.6,120.85,1.61,0
26-9-2017 15:00,1.58,12.775050254891816,49.64,91.77,-26.28,0
26-9-2017 16:00,2.75,10.996858343555502,-6.86,77.72,-82.75,0
26-9-2017 17:00,1.58,11.796408428288583,44.94,90.83,-30.98,0
26-9-2017 18:00,0.87,9.904921579457517,15.89,90.56,-59.98,0
26-9-2017 19:00,1.02,2.8447015351792535,1.87,83.6,-73.97,0
26-9-2017 20:00,0.97,6.063767537989708,15.0,88.62,-60.84,0
26-9-2017 21:00,0.77,6.721546859647935,14.75,81.17,-61.05,0
26-9-2017 22:00,1.43,10.215152550618196,7.82,81.17,-67.96,0
26-9-2017 23:00,0.25,5.806799210042134,12.86,82.74,-62.89,0
27-9-2017 0:00,0.0,9.68069915248773,5.44,78.01,-70.28,0
27-9-2017 1:00,0.0,10.719376591862115,5.47,78.32,-70.23,0
27-9-2017 2:00,0.02,12.832892822207716,7.07,75.86,-68.6,0
27-9-2017 3:00,0.0,13.695984484666297,2.37,73.78,-73.27,0
27-9-2017 4:00,0.0,14.513855240188068,2.71,73.01,-72.9,0
27-9-2017 5:00,0.0,14.946874290741409,0.28,71.66,-75.3,0
27-9-2017 6:00,0.28,15.727591789056158,-1.77,72.82,-77.32,0
27-9-2017 7:00,0.07,16.063848802194457,-2.51,44.86,-78.03,0
27-9-2017 8:00,3.65,19.025863712441215,-3.83,-42.85,-79.33,0
27-9-2017 9:00,1.3,-0.16205958598810255,-2.65,-15.33,-78.12,0
27-9-2017 10:00,2.28,-72.09793649190627,-30.6,67.93,-106.06,0
27-9-2017 11:00,1.42,-105.02671216380371,-118.46,160.55,-194.07,0
27-9-2017 12:00,0.45,-80.66128563032797,-90.91,92.11,-166.49,0
27-9-2017 13:00,0.6,14.435669870985544,-7.62,93.2,-83.16,0
27-9-2017 14:00,0.97,12.834738533953324,84.92,126.47,9.29,0
27-9-2017 15:00,1.55,15.947177741517686,16.5,78.04,-59.1,0
27-9-2017 16:00,1.4,12.614983399395237,17.61,92.08,-57.98,0
27-9-2017 17:00,0.82,13.890283397078296,50.88,95.52,-24.71,0
27-9-2017 18:00,0.98,12.661054690329296,2.5,83.44,-73.05,0
27-9-2017 19:00,4.93,9.228192045758798,16.54,88.15,-59.01,0
27-9-2017 20:00,0.82,8.060184214985876,19.99,88.92,-55.53,0
27-9-2017 21:00,2.03,9.956830528923746,7.95,78.58,-67.54,0
27-9-2017 22:00,0.55,11.095161120709811,12.68,82.4,-62.79,0
27-9-2017 23:00,0.98,7.904755132892734,13.48,81.43,-61.97,0
28-9-2017 0:00,0.07,10.970852942937814,3.13,77.83,-72.32,0
28-9-2017 1:00,0.02,11.75919390606175,6.98,77.52,-68.45,0
28-9-2017 2:00,0.85,14.538965140937293,6.04,74.57,-69.36,0
28-9-2017 3:00,0.32,14.696253318729049,2.46,73.18,-72.91,0
28-9-2017 4:00,0.0,15.00184727120956,2.18,71.77,-73.16,0
28-9-2017 5:00,0.0,15.420475591868433,-0.74,70.81,-76.05,0
28-9-2017 6:00,0.0,15.904080206313944,-2.1,68.95,-77.38,0
28-9-2017 7:00,0.0,16.45474203059834,-3.48,47.43,-78.73,0
28-9-2017 8:00,0.52,16.28420953206212,-4.42,-35.36,-79.65,0
28-9-2017 9:00,1.12,-0.5721045382747094,-6.25,-8.5,-81.45,0
28-9-2017 10:00,1.33,-75.94685951589778,-27.76,71.58,-102.95,0
28-9-2017 11:00,3.67,-106.78351080335793,-110.68,151.84,-186.01,0
28-9-2017 12:00,4.43,-79.83695619220117,-83.8,88.53,-159.09,0
28-9-2017 13:00,2.17,16.438582884904026,-3.7,90.79,-78.98,0
28-9-2017 14:00,0.45,12.639925576002655,76.5,121.35,1.15,0
28-9-2017 15:00,0.05,14.809159743641532,13.21,77.26,-62.1,0
28-9-2017 16:00,0.67,12.15624899933871,15.49,89.7,-59.81,0
28-9-2017 17:00,0.55,13.917260425114664,46.06,94.28,-29.24,0
28-9-2017 18:00,0.05,11.96025137559065,2.0,85.16,-73.25,0
28-9-2017 19:00,5.08,9.574709569357399,14.45,84.94,-60.8,0
28-9-2017 20:00,3.42,10.669591343630573,19.05,87.17,-56.18,0
28-9-2017 21:00,2.0,10.004492171393613,9.97,82.68,-65.23,0
28-9-2017 22:00,0.32,10.966857476731317,9.77,78.49,-65.41,0
28-9-2017 23:00,4.58,11.453708654409054,12.02,79.83,-63.13,0
29-9-2017 0:00,0.0,10.94131414478945,7.56,78.59,-67.57,0
29-9-2017 1:00,0.0,11.775999787187278,3.39,75.32,-71.71,0
29-9-2017 2:00,0.0,13.778707182117095,4.76,74.63,-70.3,0
29-9-2017 3:00,0.0,14.46687303076637,3.55,73.28,-71.49,0
29-9-2017 4:00,0.0,15.096829589070737,0.31,71.18,-74.7,0
29-9-2017 5:00,0.0,15.553763958463936,-0.36,70.78,-75.34,0
29-9-2017 6:00,0.0,16.072952467668998,-1.68,68.48,-76.64,0
29-9-2017 7:00,0.0,16.68070221378546,-3.75,48.77,-78.68,0
29-9-2017 8:00,0.0,15.970305417152252,-4.12,-29.2,-79.02,0
29-9-2017 9:00,1.28,-0.7735932634880415,-6.4,-4.08,-81.27,0
29-9-2017 10:00,2.32,-77.9364220777555,-26.09,75.65,-100.96,0
29-9-2017 11:00,5.27,-109.22014474571782,-104.18,143.37,-179.16,0
29-9-2017 12:00,10.12,-77.2816578218195,-79.02,87.19,-153.97,0
29-9-2017 13:00,1.08,15.839558214719373,0.74,92.34,-74.17,0
29-9-2017 14:00,0.92,13.530268317590872,68.43,115.32,-6.51,0
29-9-2017 15:00,0.9,16.15339082894627,12.27,77.7,-62.64,0
29-9-2017 16:00,0.77,12.696855913676435,17.44,89.17,-57.46,0
29-9-2017 17:00,1.27,15.143207841080137,40.43,87.14,-34.46,0
29-9-2017 18:00,0.32,12.708047522315958,2.85,85.09,-72.0,0
29-9-2017 19:00,0.42,5.399450662333214,14.33,86.09,-60.51,0
29-9-2017 20:00,1.57,9.156846149565753,12.32,84.46,-62.5,0
29-9-2017 21:00,1.43,9.952253052463288,10.3,82.68,-64.49,0
29-9-2017 22:00,0.23,11.530893590275284,11.32,78.8,-63.45,0
29-9-2017 23:00,4.13,11.61724245237049,9.72,78.71,-65.02,0
30-9-2017 0:00,0.0,11.758596142008855,7.95,78.2,-66.78,0
30-9-2017 1:00,0.0,12.674071725742817,4.1,75.47,-70.61,0
30-9-2017 2:00,0.0,14.814160542789164,4.03,74.22,-70.65,0
30-9-2017 3:00,0.0,15.587649324358196,3.55,73.16,-71.1,0
30-9-2017 4:00,0.0,16.30641007605584,0.85,71.29,-73.77,0
30-9-2017 5:00,0.0,16.330151051477646,-0.38,70.73,-74.97,0
30-9-2017 6:00,0.0,16.413424012736545,-1.41,68.65,-75.98,0
30-9-2017 7:00,0.0,16.60677597276676,-3.25,49.06,-77.79,0
30-9-2017 8:00,0.0,15.405029170118246,-3.79,-23.77,-78.3,0
30-9-2017 9:00,0.0,-3.356097400000401,-5.85,2.02,-80.34,0
30-9-2017 10:00,0.0,-84.34661365959309,-25.42,67.49,-99.9,0
30-9-2017 11:00,4.4,-115.40702131673845,-98.35,143.53,-172.93,0
30-9-2017 12:00,1.42,-90.56621568877948,-72.52,89.02,-147.07,0
30-9-2017 13:00,1.17,15.254578030794892,-7.03,88.57,-81.55,0
30-9-2017 14:00,0.47,12.618556269041068,68.96,115.09,-5.61,0
30-9-2017 15:00,2.22,17.3694678477148,14.48,76.45,-60.06,0
30-9-2017 16:00,0.28,12.333215000734118,14.05,90.85,-60.48,0
30-9-2017 17:00,0.33,14.948070855624797,40.57,91.15,-33.95,0
30-9-2017 18:00,2.9,16.55792269347968,1.97,79.38,-72.52,0
30-9-2017 19:00,6.37,13.179448912856822,16.37,83.62,-58.1,0
30-9-2017 20:00,1.22,11.0425362461581,16.69,89.42,-57.76,0
30-9-2017 21:00,0.03,10.577885316156365,4.95,,-69.47,0
30-9-2017 22:00,3.53,16.60226248734359,9.22,,-65.18,0
30-9-2017 23:00,0.17,8.997570434757208,15.04,,-59.34,0
