Time,Actual,STL processed,Forecasts,Upper Interval,Lower Interval,Is Anomalies
1-8-2017 0:00,1182.5,394.43398507642996,0.0,0.0,0.0,0
1-8-2017 1:00,365.1,-97.43538922675225,0.0,0.0,0.0,0
1-8-2017 2:00,171.82,-160.89077274752253,0.0,0.0,0.0,0
1-8-2017 3:00,95.04,-66.55677588012645,0.0,0.0,0.0,0
1-8-2017 4:00,106.43,-114.42369235777846,0.0,0.0,0.0,0
1-8-2017 5:00,634.34,204.57581863586074,0.0,0.0,0.0,0
1-8-2017 6:00,1356.77,454.32825510893576,0.0,0.0,0.0,0
1-8-2017 7:00,1783.8,719.4591305794743,0.0,0.0,0.0,0
1-8-2017 8:00,471.24,-402.7779497038375,0.0,0.0,0.0,0
1-8-2017 9:00,658.74,-653.794909444897,0.0,0.0,0.0,0
1-8-2017 10:00,791.62,-1128.0752900929783,0.0,0.0,0.0,0
1-8-2017 11:00,1190.94,-487.52395109769463,0.0,0.0,0.0,0
1-8-2017 12:00,1270.58,-516.2976453637007,0.0,0.0,0.0,0
1-8-2017 13:00,2665.76,790.3985431818428,0.0,0.0,0.0,0
1-8-2017 14:00,2194.72,370.2956100102597,0.0,0.0,0.0,0
1-8-2017 15:00,2127.93,624.9432314794008,0.0,0.0,0.0,0
1-8-2017 16:00,2177.76,708.2997684439779,0.0,0.0,0.0,0
1-8-2017 17:00,1101.81,-631.8445356379727,0.0,0.0,0.0,0
1-8-2017 18:00,2397.04,408.1528710391317,0.0,0.0,0.0,0
1-8-2017 19:00,1575.94,-434.17735819492714,0.0,0.0,0.0,0
1-8-2017 20:00,830.72,-857.2908373440509,0.0,0.0,0.0,0
1-8-2017 21:00,942.38,-307.09527439601925,0.0,0.0,0.0,0
1-8-2017 22:00,1551.05,-411.0921691210185,0.0,0.0,0.0,0
1-8-2017 23:00,24727.1,6023.281208763982,0.0,0.0,0.0,0
2-8-2017 0:00,431.69,-772.810273887271,0.0,0.0,0.0,0
2-8-2017 1:00,397.84,-434.5608105048468,0.0,0.0,0.0,0
2-8-2017 2:00,273.21,-389.3063826069824,0.0,0.0,0.0,0
2-8-2017 3:00,179.77,-273.0193711619138,0.0,0.0,0.0,0
2-8-2017 4:00,398.1,-70.35354815204073,0.0,0.0,0.0,0
2-8-2017 5:00,489.35,-113.98107160025324,0.0,0.0,0.0,0
2-8-2017 6:00,421.98,-591.0672763034768,0.0,0.0,0.0,0
2-8-2017 7:00,417.4,-692.0144352661241,0.0,0.0,0.0,0
2-8-2017 8:00,590.45,-266.88287863960227,0.0,0.0,0.0,0
2-8-2017 9:00,916.67,-252.08259668601363,0.0,0.0,0.0,0
2-8-2017 10:00,923.64,-726.3339916361256,0.0,0.0,0.0,0
2-8-2017 11:00,2642.58,1345.0681838132077,0.0,0.0,0.0,0
2-8-2017 12:00,1748.88,466.3622958867568,0.0,0.0,0.0,0
2-8-2017 13:00,2339.41,1056.784672545961,0.0,0.0,0.0,0
2-8-2017 14:00,1016.08,-111.83771047541313,0.0,0.0,0.0,0
2-8-2017 15:00,954.99,243.90834421639056,0.0,0.0,0.0,0
2-8-2017 16:00,1409.31,828.8903674953046,0.0,0.0,0.0,0
2-8-2017 17:00,2374.3,1555.8791236531324,0.0,0.0,0.0,0
2-8-2017 18:00,1261.71,230.92176044473717,0.0,0.0,0.0,0
2-8-2017 19:00,694.82,-354.1319658916141,0.0,0.0,0.0,0
2-8-2017 20:00,1630.68,940.0411606522671,0.0,0.0,0.0,0
2-8-2017 21:00,676.81,401.0068258542617,0.0,0.0,0.0,0
2-8-2017 22:00,815.19,-186.46624320874878,0.0,0.0,0.0,0
2-8-2017 23:00,5777.38,-12022.578400960207,0.0,0.0,0.0,0
3-8-2017 0:00,669.21,389.40028139143124,0.0,0.0,0.0,0
3-8-2017 1:00,342.55,411.8022355496387,0.0,0.0,0.0,0
3-8-2017 2:00,290.14,499.73012795631485,0.0,0.0,0.0,0
3-8-2017 3:00,203.07,591.3938070692327,0.0,0.0,0.0,0
3-8-2017 4:00,188.56,535.2111137592815,0.0,0.0,0.0,0
3-8-2017 5:00,235.46,368.19596651892016,0.0,0.0,0.0,0
3-8-2017 6:00,407.52,40.43053128910128,0.0,0.0,0.0,0
3-8-2017 7:00,1362.9,811.9081864200627,0.0,0.0,0.0,0
3-8-2017 8:00,598.64,208.42122848321173,0.0,0.0,0.0,0
3-8-2017 9:00,3293.31,2406.9543202488157,0.0,0.0,0.0,0
3-8-2017 10:00,1973.64,420.1886719982242,0.0,0.0,0.0,0
3-8-2017 11:00,2527.45,1125.8784449031589,0.0,0.0,0.0,0
3-8-2017 12:00,1353.1,-221.8828756821854,0.0,0.0,0.0,0
3-8-2017 13:00,980.96,-746.6822491528724,0.0,0.0,0.0,0
3-8-2017 14:00,949.23,-760.8620202675911,0.0,0.0,0.0,0
3-8-2017 15:00,1492.01,53.22452940332232,0.0,0.0,0.0,0
3-8-2017 16:00,1604.16,152.24593852961561,0.0,0.0,0.0,0
3-8-2017 17:00,781.61,-940.7361280227735,0.0,0.0,0.0,0
3-8-2017 18:00,771.91,-1178.5621440666637,0.0,0.0,0.0,0
3-8-2017 19:00,1103.79,-920.4032147554512,0.0,0.0,0.0,0
3-8-2017 20:00,863.77,-824.527329768709,0.0,0.0,0.0,0
3-8-2017 21:00,791.92,-500.22597437562354,0.0,0.0,0.0,0
3-8-2017 22:00,7766.51,5740.3388596388595,0.0,0.0,0.0,0
3-8-2017 23:00,19014.21,138.12524366643902,0.0,0.0,0.0,0
4-8-2017 0:00,1212.91,-117.18183156352188,0.0,0.0,0.0,0
4-8-2017 1:00,322.8,-670.4162761159967,0.0,0.0,0.0,0
4-8-2017 2:00,471.36,-400.21380868697497,0.0,0.0,0.0,0
4-8-2017 3:00,784.68,71.69764860732585,0.0,0.0,0.0,0
4-8-2017 4:00,162.29,-607.5248090259097,0.0,0.0,0.0,0
4-8-2017 5:00,1408.3,480.8325711898806,0.0,0.0,0.0,0
4-8-2017 6:00,501.73,-880.3719433182325,0.0,0.0,0.0,0
4-8-2017 7:00,1294.39,-223.85086672120406,0.0,0.0,0.0,0
4-8-2017 8:00,1739.55,426.0722681510315,0.0,0.0,0.0,0
4-8-2017 9:00,1497.64,-152.93436505550335,0.0,0.0,0.0,0
4-8-2017 10:00,4026.38,1866.5927719337787,0.0,0.0,0.0,0
4-8-2017 11:00,1666.35,-198.38281916533288,0.0,0.0,0.0,0
4-8-2017 12:00,1962.59,79.79746613078169,0.0,0.0,0.0,0
4-8-2017 13:00,3292.15,1366.546714036312,0.0,0.0,0.0,0
4-8-2017 14:00,1532.49,-250.32007366564335,0.0,0.0,0.0,0
4-8-2017 15:00,1428.87,34.2373424904888,0.0,0.0,0.0,0
4-8-2017 16:00,1466.1,176.9485089702689,0.0,0.0,0.0,0
4-8-2017 17:00,1108.61,-392.89025348999303,0.0,0.0,0.0,0
4-8-2017 18:00,3021.57,1366.6992044329663,0.0,0.0,0.0,0
4-8-2017 19:00,1779.27,85.63491619408614,0.0,0.0,0.0,0
4-8-2017 20:00,1339.86,50.21768642603297,0.0,0.0,0.0,0
4-8-2017 21:00,1620.91,764.8501452822227,0.0,0.0,0.0,0
4-8-2017 22:00,1811.98,269.8382956462103,0.0,0.0,0.0,0
4-8-2017 23:00,11753.23,-6634.321365275152,0.0,0.0,0.0,0
5-8-2017 0:00,576.48,-183.11878481470308,0.0,0.0,0.0,0
5-8-2017 1:00,809.52,430.3850987329515,0.0,0.0,0.0,0
5-8-2017 2:00,292.08,71.66686799513013,0.0,0.0,0.0,0
5-8-2017 3:00,162.75,136.5608302816256,0.0,0.0,0.0,0
5-8-2017 4:00,197.71,155.30333513591722,0.0,0.0,0.0,0
5-8-2017 5:00,185.24,-2.9852955687056237,0.0,0.0,0.0,0
5-8-2017 6:00,525.93,-116.16742773167925,0.0,0.0,0.0,0
5-8-2017 7:00,565.49,-209.41146804514847,0.0,0.0,0.0,0
5-8-2017 8:00,505.74,-64.83677874039154,0.0,0.0,0.0,0
5-8-2017 9:00,805.99,-154.15154258217035,0.0,0.0,0.0,0
5-8-2017 10:00,3093.82,1570.83997398388,0.0,0.0,0.0,0
5-8-2017 11:00,1860.72,564.460613217617,0.0,0.0,0.0,0
5-8-2017 12:00,3394.79,2024.3140987320853,0.0,0.0,0.0,0
5-8-2017 13:00,2103.78,620.7482230960486,0.0,0.0,0.0,0
5-8-2017 14:00,1203.35,-191.2393261109264,0.0,0.0,0.0,0
5-8-2017 15:00,677.5,-391.6347883873598,0.0,0.0,0.0,0
5-8-2017 16:00,901.05,-123.5876094718758,0.0,0.0,0.0,0
5-8-2017 17:00,690.62,-571.168290914482,0.0,0.0,0.0,0
5-8-2017 18:00,1177.86,-245.42858209914516,0.0,0.0,0.0,0
5-8-2017 19:00,645.75,-864.2313109625894,0.0,0.0,0.0,0
5-8-2017 20:00,957.73,-163.04687855990915,0.0,0.0,0.0,0
5-8-2017 21:00,536.97,-151.30727865511835,0.0,0.0,0.0,0
5-8-2017 22:00,971.27,-393.6597743561283,0.0,0.0,0.0,0
5-8-2017 23:00,18027.58,-216.76944264093504,0.0,0.0,0.0,0
6-8-2017 0:00,428.75,-144.2011689045812,0.0,0.0,0.0,0
6-8-2017 1:00,268.01,87.22584412375159,0.0,0.0,0.0,0
6-8-2017 2:00,288.84,271.9717165996369,0.0,0.0,0.0,0
6-8-2017 3:00,160.13,341.2329852588773,0.0,0.0,0.0,0
6-8-2017 4:00,147.23,320.8452539812454,0.0,0.0,0.0,0
6-8-2017 5:00,524.97,567.3441801552731,0.0,0.0,0.0,0
6-8-2017 6:00,385.53,-22.46200186349688,0.0,0.0,0.0,0
6-8-2017 7:00,475.51,-59.20759128840041,0.0,0.0,0.0,0
6-8-2017 8:00,565.42,237.33222024794122,0.0,0.0,0.0,0
6-8-2017 9:00,777.94,127.26558171348142,0.0,0.0,0.0,0
6-8-2017 10:00,751.27,-396.422266201138,0.0,0.0,0.0,0
6-8-2017 11:00,683.7,-186.15914069198948,0.0,0.0,0.0,0
6-8-2017 12:00,952.87,72.08380098339558,0.0,0.0,0.0,0
6-8-2017 13:00,1415.99,466.596919603855,0.0,0.0,0.0,0
6-8-2017 14:00,865.34,63.73272668992331,0.0,0.0,0.0,0
6-8-2017 15:00,753.91,328.72850377898794,0.0,0.0,0.0,0
6-8-2017 16:00,976.28,648.3058129282385,0.0,0.0,0.0,0
6-8-2017 17:00,697.4,128.95655923170955,0.0,0.0,0.0,0
6-8-2017 18:00,1726.23,1009.6398656678462,0.0,0.0,0.0,0
6-8-2017 19:00,811.79,-17.937957091740373,0.0,0.0,0.0,0
6-8-2017 20:00,482.53,48.70148421009492,0.0,0.0,0.0,0
6-8-2017 21:00,758.03,713.6106147634273,0.0,0.0,0.0,0
6-8-2017 22:00,1812.31,1058.659862597361,0.0,0.0,0.0,0
6-8-2017 23:00,6725.15,-10983.937423450952,0.0,0.0,0.0,0
7-8-2017 0:00,385.52,349.26893316125063,0.0,0.0,0.0,0
7-8-2017 1:00,485.46,812.8122539279394,0.0,0.0,0.0,0
7-8-2017 2:00,255.13,711.3254078752091,0.0,0.0,0.0,0
7-8-2017 3:00,260.43,878.0771611648706,0.0,0.0,0.0,0
7-8-2017 4:00,212.96,791.5823720129927,0.0,0.0,0.0,0
7-8-2017 5:00,174.62,576.590199513359,0.0,0.0,0.0,0
7-8-2017 6:00,551.09,446.2113120864815,0.0,0.0,0.0,0
7-8-2017 7:00,399.45,113.93551799783268,0.0,0.0,0.0,0
7-8-2017 8:00,983.8,847.2317962134478,0.0,0.0,0.0,0
7-8-2017 9:00,705.11,148.48310518271842,0.0,0.0,0.0,0
7-8-2017 10:00,1443.24,290.9657149838415,0.0,0.0,0.0,0
7-8-2017 11:00,882.12,-105.65885103518713,0.0,0.0,0.0,0
7-8-2017 12:00,963.49,-136.3766310024737,0.0,0.0,0.0,0
7-8-2017 13:00,999.65,-259.68107225761355,0.0,0.0,0.0,0
7-8-2017 14:00,605.24,-581.7684630105975,0.0,0.0,0.0,0
7-8-2017 15:00,993.67,99.25199931186921,0.0,0.0,0.0,0
7-8-2017 16:00,1129.41,250.10276331866658,0.0,0.0,0.0,0
7-8-2017 17:00,1971.74,823.663505319051,0.0,0.0,0.0,0
7-8-2017 18:00,1075.29,-232.56102267317738,0.0,0.0,0.0,0
7-8-2017 19:00,1248.83,-223.5856805530575,0.0,0.0,0.0,0
7-8-2017 20:00,2581.84,1487.037028423782,0.0,0.0,0.0,0
7-8-2017 21:00,1265.53,526.31008641517,0.0,0.0,0.0,0
7-8-2017 22:00,1245.91,-225.8550756995919,0.0,0.0,0.0,0
7-8-2017 23:00,14339.57,-4154.386132995055,0.0,0.0,0.0,0
8-8-2017 0:00,804.23,-6.187846990640082,0.0,0.0,0.0,0
8-8-2017 1:00,434.11,-37.661031807362406,0.0,0.0,0.0,0
8-8-2017 2:00,1378.05,1003.656590289524,0.0,0.0,0.0,0
8-8-2017 3:00,873.63,627.7760148878401,0.0,0.0,0.0,0
8-8-2017 4:00,347.8,34.99120979756981,0.0,0.0,0.0,0
8-8-2017 5:00,586.73,95.78894281676435,0.0,0.0,0.0,0
8-8-2017 6:00,711.53,-298.8116458257323,0.0,0.0,0.0,0
8-8-2017 7:00,343.15,-857.805500133335,0.0,0.0,0.0,0
8-8-2017 8:00,1064.26,-1.5006107936551416,0.0,0.0,0.0,0
8-8-2017 9:00,1991.21,511.9317373527674,0.0,0.0,0.0,0
8-8-2017 10:00,1726.84,-342.6995838519631,0.0,0.0,0.0,0
8-8-2017 11:00,1451.78,-462.5862301207644,0.0,0.0,0.0,0
8-8-2017 12:00,4390.61,2367.0108795476817,0.0,0.0,0.0,0
8-8-2017 13:00,1264.21,-929.0606039214633,0.0,0.0,0.0,0
8-8-2017 14:00,1535.15,-580.6106748519055,0.0,0.0,0.0,0
8-8-2017 15:00,1568.61,-257.74500963444234,0.0,0.0,0.0,0
8-8-2017 16:00,1387.96,-424.7267876041983,0.0,0.0,0.0,0
8-8-2017 17:00,4977.24,2902.556355622599,0.0,0.0,0.0,0
8-8-2017 18:00,1857.41,-353.60360126849355,0.0,0.0,0.0,0
8-8-2017 19:00,1319.96,-1071.9707482980116,0.0,0.0,0.0,0
8-8-2017 20:00,4124.73,2127.1995743244875,0.0,0.0,0.0,0
8-8-2017 21:00,1583.61,-25.462483245815747,0.0,0.0,0.0,0
8-8-2017 22:00,1761.95,-536.2806361343899,0.0,0.0,0.0,0
8-8-2017 23:00,20793.52,1473.0459544978871,0.0,0.0,0.0,0
9-8-2017 0:00,1062.64,-495.31485492928005,0.0,0.0,0.0,0
9-8-2017 1:00,719.01,-425.0331195861256,0.0,0.0,0.0,0
9-8-2017 2:00,352.26,-623.3037232525298,0.0,0.0,0.0,0
9-8-2017 3:00,637.74,-141.3623795751928,0.0,0.0,0.0,0
9-8-2017 4:00,800.24,29.640467268231532,0.0,0.0,0.0,0
9-8-2017 5:00,921.75,66.45177962156686,0.0,0.0,0.0,0
9-8-2017 6:00,1157.59,-132.67222488857306,0.0,0.0,0.0,0
9-8-2017 7:00,736.26,-659.0615196795934,0.0,0.0,0.0,0
9-8-2017 8:00,1704.9,524.1405750266049,0.0,0.0,0.0,0
9-8-2017 9:00,1561.61,23.481880470644228,0.0,0.0,0.0,0
9-8-2017 10:00,2893.01,820.4399886946198,0.0,0.0,0.0,0
9-8-2017 11:00,2393.66,517.7279061104769,0.0,0.0,0.0,0
9-8-2017 12:00,997.57,-934.488244405467,0.0,0.0,0.0,0
9-8-2017 13:00,1129.84,-970.9202003412081,0.0,0.0,0.0,0
9-8-2017 14:00,1541.21,-468.28260743675355,0.0,0.0,0.0,0
9-8-2017 15:00,1194.48,-520.2383695796937,0.0,0.0,0.0,0
9-8-2017 16:00,1370.79,-324.5381179536935,0.0,0.0,0.0,0
9-8-2017 17:00,1572.6,-389.67974259720927,0.0,0.0,0.0,0
9-8-2017 18:00,1458.11,-631.3172963651739,0.0,0.0,0.0,0
9-8-2017 19:00,1694.42,-598.6195655913141,0.0,0.0,0.0,0
9-8-2017 20:00,1745.99,-154.40370566252886,0.0,0.0,0.0,0
9-8-2017 21:00,1746.09,210.80526980686,0.0,0.0,0.0,0
9-8-2017 22:00,1460.42,-777.7996665742576,0.0,0.0,0.0,0
9-8-2017 23:00,25641.95,6341.744701985397,0.0,0.0,0.0,0
10-8-2017 0:00,1223.06,-303.9810064089638,0.0,0.0,0.0,0
10-8-2017 1:00,693.91,-453.13923676262493,0.0,0.0,0.0,0
10-8-2017 2:00,1033.25,16.597047950986052,0.0,0.0,0.0,0
10-8-2017 3:00,683.26,-178.19457514935038,0.0,0.0,0.0,0
10-8-2017 4:00,296.7,-589.9745226993432,0.0,0.0,0.0,0
10-8-2017 5:00,338.23,-644.6458701570359,0.0,0.0,0.0,0
10-8-2017 6:00,2122.03,683.6904703200139,0.0,0.0,0.0,0
10-8-2017 7:00,1448.5,-114.27603731266845,0.0,0.0,0.0,0
10-8-2017 8:00,1443.39,69.61149040180453,0.0,0.0,0.0,0
10-8-2017 9:00,1244.38,-458.70085412195044,0.0,0.0,0.0,0
10-8-2017 10:00,2714.06,504.2775663973057,0.0,0.0,0.0,0
10-8-2017 11:00,2065.37,65.61093036439706,0.0,0.0,0.0,0
10-8-2017 12:00,1174.11,-856.7475974693618,0.0,0.0,0.0,0
10-8-2017 13:00,1823.89,-355.47468554038596,0.0,0.0,0.0,0
10-8-2017 14:00,1614.8,-440.31408846972295,0.0,0.0,0.0,0
10-8-2017 15:00,1636.06,-99.68593764175375,0.0,0.0,0.0,0
10-8-2017 16:00,1505.73,-185.67507307262758,0.0,0.0,0.0,0
10-8-2017 17:00,1453.0,-486.80432645860583,0.0,0.0,0.0,0
10-8-2017 18:00,2829.29,795.027662024409,0.0,0.0,0.0,0
10-8-2017 19:00,1442.7,-794.3612681793215,0.0,0.0,0.0,0
10-8-2017 20:00,1428.4,-394.26140972521716,0.0,0.0,0.0,0
10-8-2017 21:00,1510.29,57.65402108343369,0.0,0.0,0.0,0
10-8-2017 22:00,1616.1,-524.982914862333,0.0,0.0,0.0,0
10-8-2017 23:00,22475.98,3261.4340155525897,0.0,0.0,0.0,0
11-8-2017 0:00,1892.49,490.0181921189328,0.0,0.0,0.0,0
11-8-2017 1:00,1636.91,622.3735300450257,0.0,0.0,0.0,0
11-8-2017 2:00,955.1,74.74023711522295,0.0,0.0,0.0,0
11-8-2017 3:00,231.56,-493.0008187862154,0.0,0.0,0.0,0
11-8-2017 4:00,257.65,-483.9923188890357,0.0,0.0,0.0,0
11-8-2017 5:00,355.99,-477.74592558827476,0.0,0.0,0.0,0
11-8-2017 6:00,472.83,-821.2588395545552,0.0,0.0,0.0,0
11-8-2017 7:00,1239.32,-182.97382272672894,0.0,0.0,0.0,0
11-8-2017 8:00,808.67,-434.58212470181206,0.0,0.0,0.0,0
11-8-2017 9:00,2354.56,793.2039510274158,0.0,0.0,0.0,0
11-8-2017 10:00,1379.27,-677.9157312007719,0.0,0.0,0.0,0
11-8-2017 11:00,2482.64,631.9946642748291,0.0,0.0,0.0,0
11-8-2017 12:00,1642.24,-231.3446559194697,0.0,0.0,0.0,0
11-8-2017 13:00,1910.73,-118.79931499212489,0.0,0.0,0.0,0
11-8-2017 14:00,1924.69,24.76184737839958,0.0,0.0,0.0,0
11-8-2017 15:00,1799.15,215.55147231093088,0.0,0.0,0.0,0
11-8-2017 16:00,1529.76,-12.179489043164722,0.0,0.0,0.0,0
11-8-2017 17:00,1657.45,-145.73605627001825,0.0,0.0,0.0,0
11-8-2017 18:00,1431.21,-465.1442106344366,0.0,0.0,0.0,0
11-8-2017 19:00,3147.02,1017.2805130858301,0.0,0.0,0.0,0
11-8-2017 20:00,1492.77,-232.21531503315805,0.0,0.0,0.0,0
11-8-2017 21:00,1701.25,327.73676932479657,0.0,0.0,0.0,0
11-8-2017 22:00,2337.46,266.51803202442306,0.0,0.0,0.0,0
11-8-2017 23:00,17054.76,-2124.5922774953406,0.0,0.0,0.0,0
12-8-2017 0:00,1255.23,-96.6080177582553,0.0,0.0,0.0,0
12-8-2017 1:00,2273.95,1295.38356376725,0.0,0.0,0.0,0
12-8-2017 2:00,657.92,-205.29663148630925,0.0,0.0,0.0,0
12-8-2017 3:00,301.11,-428.31444486919054,0.0,0.0,0.0,0
12-8-2017 4:00,1162.66,401.68517779482,0.0,0.0,0.0,0
12-8-2017 5:00,284.8,-601.7882569764934,0.0,0.0,0.0,0
12-8-2017 6:00,2564.39,1174.9320057833693,0.0,0.0,0.0,0
12-8-2017 7:00,1341.67,-217.38902175882367,0.0,0.0,0.0,0
12-8-2017 8:00,1115.99,-311.6107222539895,0.0,0.0,0.0,0
12-8-2017 9:00,1339.68,-502.3666309445648,0.0,0.0,0.0,0
12-8-2017 10:00,1630.03,-804.5148205929827,0.0,0.0,0.0,0
12-8-2017 11:00,1469.11,-869.9177982816586,0.0,0.0,0.0,0
12-8-2017 12:00,1830.06,-631.2883155092832,0.0,0.0,0.0,0
12-8-2017 13:00,1796.83,-898.7638554130356,0.0,0.0,0.0,0
12-8-2017 14:00,5700.03,3068.524562427884,0.0,0.0,0.0,0
12-8-2017 15:00,2067.44,-321.637648364489,0.0,0.0,0.0,0
12-8-2017 16:00,1472.16,-948.8037454712721,0.0,0.0,0.0,0
12-8-2017 17:00,1569.76,-1108.292352274547,0.0,0.0,0.0,0
12-8-2017 18:00,3373.3,620.3746247780555,0.0,0.0,0.0,0
12-8-2017 19:00,1845.02,-1154.8717233132268,0.0,0.0,0.0,0
12-8-2017 20:00,1526.23,-1061.5479637408548,0.0,0.0,0.0,0
12-8-2017 21:00,1016.14,-1193.6655258811184,0.0,0.0,0.0,0
12-8-2017 22:00,1156.83,-1714.3323645836217,0.0,0.0,0.0,0
12-8-2017 23:00,37821.61,17852.143785914413,0.0,0.0,0.0,0
13-8-2017 0:00,1173.92,-907.5381712252874,0.0,0.0,0.0,0
13-8-2017 1:00,485.62,-1161.4690220455636,0.0,0.0,0.0,0
13-8-2017 2:00,199.19,-1275.614795568073,0.0,0.0,0.0,0
13-8-2017 3:00,126.99,-1160.268042377593,0.0,0.0,0.0,0
13-8-2017 4:00,337.58,-919.9359728919458,0.0,0.0,0.0,0
13-8-2017 5:00,216.7,-1043.11113185016,0.0,0.0,0.0,0
13-8-2017 6:00,902.23,-746.1295884789829,0.0,0.0,0.0,0
13-8-2017 7:00,947.79,-754.728556506022,0.0,0.0,0.0,0
13-8-2017 8:00,1182.07,-279.7355516360981,0.0,0.0,0.0,0
13-8-2017 9:00,673.94,-950.6684552138961,0.0,0.0,0.0,0
13-8-2017 10:00,1706.58,-259.2101627499642,0.0,0.0,0.0,0
13-8-2017 11:00,1315.74,-317.57152407033595,0.0,0.0,0.0,0
13-8-2017 12:00,1453.34,-53.68824879870613,0.0,0.0,0.0,0
13-8-2017 13:00,1490.35,-77.61401263217954,0.0,0.0,0.0,0
13-8-2017 14:00,3094.48,1776.7023175805123,0.0,0.0,0.0,0
13-8-2017 15:00,1488.55,590.9089279646112,0.0,0.0,0.0,0
13-8-2017 16:00,1785.67,1034.2083520065164,0.0,0.0,0.0,0
13-8-2017 17:00,1580.29,612.8106615161723,0.0,0.0,0.0,0
13-8-2017 18:00,2217.01,1229.8657258751468,0.0,0.0,0.0,0
13-8-2017 19:00,1306.07,95.29126186166741,0.0,0.0,0.0,0
13-8-2017 20:00,1405.94,651.5475650147521,0.0,0.0,0.0,0
13-8-2017 21:00,1528.89,1130.6399151665212,0.0,0.0,0.0,0
13-8-2017 22:00,1678.55,606.6845338521389,0.0,0.0,0.0,0
13-8-2017 23:00,3365.77,-14842.623296841786,0.0,0.0,0.0,0
14-8-2017 0:00,1112.83,804.6080879319861,0.0,0.0,0.0,0
14-8-2017 1:00,1059.23,1147.4430599529023,0.0,0.0,0.0,0
14-8-2017 2:00,641.27,859.6699633484179,0.0,0.0,0.0,0
14-8-2017 3:00,439.38,800.0495382992344,0.0,0.0,0.0,0
14-8-2017 4:00,112.09,464.7623097934927,0.0,0.0,0.0,0
14-8-2017 5:00,204.85,452.0464925417698,0.0,0.0,0.0,0
14-8-2017 6:00,556.58,303.0503824176553,0.0,0.0,0.0,0
14-8-2017 7:00,405.27,-13.475460200837233,0.0,0.0,0.0,0
14-8-2017 8:00,403.08,107.8033159275692,0.0,0.0,0.0,0
14-8-2017 9:00,1426.35,775.5721956105897,0.0,0.0,0.0,0
14-8-2017 10:00,1928.84,743.8557483349141,0.0,0.0,0.0,0
14-8-2017 11:00,916.24,-143.64521846911225,0.0,0.0,0.0,0
14-8-2017 12:00,1514.42,385.0806274498143,0.0,0.0,0.0,0
14-8-2017 13:00,1422.13,93.14764904964932,0.0,0.0,0.0,0
14-8-2017 14:00,3196.54,1991.8249009971414,0.0,0.0,0.0,0
14-8-2017 15:00,710.31,-208.57665807925855,0.0,0.0,0.0,0
14-8-2017 16:00,1640.69,734.0311065694143,0.0,0.0,0.0,0
14-8-2017 17:00,1429.5,281.392287867993,0.0,0.0,0.0,0
14-8-2017 18:00,992.34,-186.7266049906675,0.0,0.0,0.0,0
14-8-2017 19:00,1072.26,-373.6119872004274,0.0,0.0,0.0,0
14-8-2017 20:00,521.57,-490.1459427407142,0.0,0.0,0.0,0
14-8-2017 21:00,1305.21,633.4224072509892,0.0,0.0,0.0,0
14-8-2017 22:00,971.13,-380.91719493351684,0.0,0.0,0.0,0
14-8-2017 23:00,13814.2,-4706.984685077643,0.0,0.0,0.0,0
15-8-2017 0:00,853.17,249.93436335135175,0.0,0.0,0.0,0
15-8-2017 1:00,229.42,19.934383264025882,0.0,0.0,0.0,0
15-8-2017 2:00,171.0,84.85318862813051,0.0,0.0,0.0,0
15-8-2017 3:00,338.57,384.66481038984807,0.0,0.0,0.0,0
15-8-2017 4:00,647.77,683.3741753602137,0.0,0.0,0.0,0
15-8-2017 5:00,689.87,621.9212051922441,0.0,0.0,0.0,0
15-8-2017 6:00,838.89,263.1409469500986,0.0,0.0,0.0,0
15-8-2017 7:00,990.29,243.36877066503166,0.0,0.0,0.0,0
15-8-2017 8:00,787.02,151.42385897679992,0.0,0.0,0.0,0
15-8-2017 9:00,894.11,-99.52315754082565,0.0,0.0,0.0,0
15-8-2017 10:00,1380.52,-150.18377323979894,0.0,0.0,0.0,0
15-8-2017 11:00,1015.77,-407.05377421116987,0.0,0.0,0.0,0
15-8-2017 12:00,1464.07,-33.78478632863698,0.0,0.0,0.0,0
15-8-2017 13:00,1539.83,-184.11258141592498,0.0,0.0,0.0,0
15-8-2017 14:00,1520.1,-93.23200985406334,0.0,0.0,0.0,0
15-8-2017 15:00,1166.53,-183.01934051139324,0.0,0.0,0.0,0
15-8-2017 16:00,1140.82,-218.18796340585732,0.0,0.0,0.0,0
15-8-2017 17:00,3248.46,1620.2799224326777,0.0,0.0,0.0,0
15-8-2017 18:00,1402.43,-270.2950948925852,0.0,0.0,0.0,0
15-8-2017 19:00,1544.21,-440.77830246739995,0.0,0.0,0.0,0
15-8-2017 20:00,1481.08,-94.26942386983228,0.0,0.0,0.0,0
15-8-2017 21:00,1630.81,361.94343446383755,0.0,0.0,0.0,0
15-8-2017 22:00,2423.25,450.25547891027054,0.0,0.0,0.0,0
15-8-2017 23:00,18630.93,-561.0358031829956,0.0,0.0,0.0,0
16-8-2017 0:00,1204.03,-67.76713430040218,0.0,0.0,0.0,0
16-8-2017 1:00,880.52,-4.049584884081469,0.0,0.0,0.0,0
16-8-2017 2:00,980.85,211.21111067665925,0.0,0.0,0.0,0
16-8-2017 3:00,135.23,-516.5692297829316,0.0,0.0,0.0,0
16-8-2017 4:00,1430.17,764.7214748140309,0.0,0.0,0.0,0
16-8-2017 5:00,580.78,-155.50976489966706,0.0,0.0,0.0,0
16-8-2017 6:00,1632.01,412.1171610943434,0.0,0.0,0.0,0
16-8-2017 7:00,1234.16,-132.56483105741336,0.0,0.0,0.0,0
16-8-2017 8:00,1849.03,611.8430092533267,0.0,0.0,0.0,0
16-8-2017 9:00,1212.84,-356.11897678512787,0.0,0.0,0.0,0
16-8-2017 10:00,2334.79,255.00126572477302,0.0,0.0,0.0,0
16-8-2017 11:00,1858.64,-100.24324471262798,0.0,0.0,0.0,0
16-8-2017 12:00,1401.16,-609.4074394175891,0.0,0.0,0.0,0
16-8-2017 13:00,1273.45,-951.2022833833075,0.0,0.0,0.0,0
16-8-2017 14:00,1475.9,-619.3726165805888,0.0,0.0,0.0,0
16-8-2017 15:00,3264.46,1446.9717149750586,0.0,0.0,0.0,0
16-8-2017 16:00,825.91,-988.2310031672198,0.0,0.0,0.0,0
16-8-2017 17:00,1112.31,-934.2908567547963,0.0,0.0,0.0,0
16-8-2017 18:00,4406.03,2362.100691699633,0.0,0.0,0.0,0
16-8-2017 19:00,1339.54,-996.7632363879864,0.0,0.0,0.0,0
16-8-2017 20:00,1016.6,-872.5938898929171,0.0,0.0,0.0,0
16-8-2017 21:00,1023.02,-526.7012437151066,0.0,0.0,0.0,0
16-8-2017 22:00,1141.81,-1068.314409257899,0.0,0.0,0.0,0
16-8-2017 23:00,27048.47,7632.7308526545785,0.0,0.0,0.0,0
17-8-2017 0:00,684.62,-738.4809388032972,0.0,0.0,0.0,0
17-8-2017 1:00,903.76,-102.89640200275016,0.0,0.0,0.0,0
17-8-2017 2:00,652.57,-211.82435836479226,0.0,0.0,0.0,0
17-8-2017 3:00,184.46,-540.7572031651127,0.0,0.0,0.0,0
17-8-2017 4:00,457.41,-248.88339217066937,0.0,0.0,0.0,0
17-8-2017 5:00,151.46,-586.8462504890133,0.0,0.0,0.0,0
17-8-2017 6:00,480.68,-710.9154893177645,0.0,0.0,0.0,0
17-8-2017 7:00,919.97,-388.00555321836964,0.0,0.0,0.0,0
17-8-2017 8:00,472.05,-682.0632167908159,0.0,0.0,0.0,0
17-8-2017 9:00,1615.38,163.17033917873823,0.0,0.0,0.0,0
17-8-2017 10:00,329.68,-1599.7101823815024,0.0,0.0,0.0,0
17-8-2017 11:00,1537.7,-250.35082456394957,0.0,0.0,0.0,0
17-8-2017 12:00,1973.71,164.73017586457945,0.0,0.0,0.0,0
17-8-2017 13:00,2685.31,652.5338884143034,0.0,0.0,0.0,0
17-8-2017 14:00,1592.79,-313.55174414824864,0.0,0.0,0.0,0
17-8-2017 15:00,1445.07,-191.20014498575028,0.0,0.0,0.0,0
17-8-2017 16:00,1678.11,36.281141178656526,0.0,0.0,0.0,0
17-8-2017 17:00,1494.78,-413.8615344880229,0.0,0.0,0.0,0
17-8-2017 18:00,1526.23,-403.58850290689315,0.0,0.0,0.0,0
17-8-2017 19:00,1481.7,-791.664489580267,0.0,0.0,0.0,0
17-8-2017 20:00,1559.72,-300.1260132606476,0.0,0.0,0.0,0
17-8-2017 21:00,2138.74,582.3103904873828,0.0,0.0,0.0,0
17-8-2017 22:00,1782.13,-460.02018793182106,0.0,0.0,0.0,0
17-8-2017 23:00,25665.46,6162.009415099213,0.0,0.0,0.0,0
18-8-2017 0:00,1118.36,-389.02503958631564,0.0,0.0,0.0,0
18-8-2017 1:00,783.81,-310.64490598137627,0.0,0.0,0.0,0
18-8-2017 2:00,724.23,-233.3629048460357,0.0,0.0,0.0,0
18-8-2017 3:00,902.12,72.31035543308008,0.0,0.0,0.0,0
18-8-2017 4:00,679.18,-131.86193899151613,0.0,0.0,0.0,0
18-8-2017 5:00,394.16,-424.4953583640861,0.0,0.0,0.0,0
18-8-2017 6:00,552.12,-703.9397044651791,0.0,0.0,0.0,0
18-8-2017 7:00,1321.76,-34.655811378784165,0.0,0.0,0.0,0
18-8-2017 8:00,1293.85,101.193049901432,0.0,0.0,0.0,0
18-8-2017 9:00,1082.5,-351.43640368626984,0.0,0.0,0.0,0
18-8-2017 10:00,2014.72,160.39395141089744,0.0,0.0,0.0,0
18-8-2017 11:00,1870.52,201.1088182109529,0.0,0.0,0.0,0
18-8-2017 12:00,1391.74,-244.70334549947802,0.0,0.0,0.0,0
18-8-2017 13:00,2746.19,927.9623231431692,0.0,0.0,0.0,0
18-8-2017 14:00,1581.71,-61.30520920717231,0.0,0.0,0.0,0
18-8-2017 15:00,715.14,-613.7929428603422,0.0,0.0,0.0,0
18-8-2017 16:00,1081.1,-210.5742528117696,0.0,0.0,0.0,0
18-8-2017 17:00,982.05,-552.5303591588508,0.0,0.0,0.0,0
18-8-2017 18:00,934.86,-586.4864530523189,0.0,0.0,0.0,0
18-8-2017 19:00,1259.78,-598.0251069127464,0.0,0.0,0.0,0
18-8-2017 20:00,1137.23,-282.38810936987556,0.0,0.0,0.0,0
18-8-2017 21:00,1453.6,325.41713849055554,0.0,0.0,0.0,0
18-8-2017 22:00,1151.58,-663.5657662628782,0.0,0.0,0.0,0
18-8-2017 23:00,19713.36,605.3032644288978,0.0,0.0,0.0,0
19-8-2017 0:00,886.61,-197.87876694210559,0.0,0.0,0.0,0
19-8-2017 1:00,594.15,-128.27184113601015,0.0,0.0,0.0,0
19-8-2017 2:00,650.9,12.591312893477152,0.0,0.0,0.0,0
19-8-2017 3:00,828.11,258.8418736487947,0.0,0.0,0.0,0
19-8-2017 4:00,164.46,-433.54533079807766,0.0,0.0,0.0,0
19-8-2017 5:00,1125.56,355.1212857875953,0.0,0.0,0.0,0
19-8-2017 6:00,1168.75,-212.4275705733712,0.0,0.0,0.0,0
19-8-2017 7:00,1151.82,-502.90912348750726,0.0,0.0,0.0,0
19-8-2017 8:00,1041.12,-629.17314034216,0.0,0.0,0.0,0
19-8-2017 9:00,2000.2,-102.50507482904186,0.0,0.0,0.0,0
19-8-2017 10:00,2402.36,-311.89331441639024,0.0,0.0,0.0,0
19-8-2017 11:00,2203.21,-530.5024099757561,0.0,0.0,0.0,0
19-8-2017 12:00,2249.53,-645.2672091670715,0.0,0.0,0.0,0
19-8-2017 13:00,1147.79,-2025.9435226760577,0.0,0.0,0.0,0
19-8-2017 14:00,1564.37,-1524.5368930587442,0.0,0.0,0.0,0
19-8-2017 15:00,1894.05,-975.9278977721387,0.0,0.0,0.0,0
19-8-2017 16:00,1580.56,-1348.5057420839566,0.0,0.0,0.0,0
19-8-2017 17:00,2503.72,-657.6636303605987,0.0,0.0,0.0,0
19-8-2017 18:00,1583.9,-1543.157200977825,0.0,0.0,0.0,0
19-8-2017 19:00,20339.13,16869.383126725537,0.0,0.0,0.0,0
19-8-2017 20:00,7269.8,4249.590294242498,0.0,0.0,0.0,0
19-8-2017 21:00,903.27,-1767.6593424893838,0.0,0.0,0.0,0
19-8-2017 22:00,259.07,-3030.238302281761,0.0,0.0,0.0,0
19-8-2017 23:00,28236.53,7692.526427366036,0.0,0.0,0.0,0
20-8-2017 0:00,514.69,-1908.4169093951498,0.0,0.0,0.0,0
20-8-2017 1:00,295.99,-1608.0648664702242,0.0,0.0,0.0,0
20-8-2017 2:00,162.63,-1502.212234628917,0.0,0.0,0.0,0
20-8-2017 3:00,385.82,-1060.8760484797256,0.0,0.0,0.0,0
20-8-2017 4:00,165.82,-1149.2698380312002,0.0,0.0,0.0,0
20-8-2017 5:00,176.53,-1014.5797152046839,0.0,0.0,0.0,0
20-8-2017 6:00,1899.87,385.92038845707657,0.0,0.0,0.0,0
20-8-2017 7:00,532.74,-966.7231401749896,0.0,0.0,0.0,0
20-8-2017 8:00,645.39,-587.7265648819102,0.0,0.0,0.0,0
20-8-2017 9:00,1149.26,-345.5358765420451,0.0,0.0,0.0,0
20-8-2017 10:00,653.72,-1281.917607087982,0.0,0.0,0.0,0
20-8-2017 11:00,570.87,-1226.735561280841,0.0,0.0,0.0,0
20-8-2017 12:00,584.26,-1206.617892227113,0.0,0.0,0.0,0
20-8-2017 13:00,858.96,-1235.822303957588,0.0,0.0,0.0,0
20-8-2017 14:00,990.11,-1038.0476284424767,0.0,0.0,0.0,0
20-8-2017 15:00,611.28,-1220.9180202859516,0.0,0.0,0.0,0
20-8-2017 16:00,2543.77,628.3214849719843,0.0,0.0,0.0,0
20-8-2017 17:00,807.95,-1436.6710009562642,0.0,0.0,0.0,0
20-8-2017 18:00,984.22,-1312.4248640192932,0.0,0.0,0.0,0
20-8-2017 19:00,664.75,-2088.2583704741924,0.0,0.0,0.0,0
20-8-2017 20:00,888.95,-1510.6138487051826,0.0,0.0,0.0,0
20-8-2017 21:00,660.74,-1512.9669141687525,0.0,0.0,0.0,0
20-8-2017 22:00,747.11,-2157.660473139449,0.0,0.0,0.0,0
20-8-2017 23:00,44111.89,23809.371411325,0.0,0.0,0.0,0
21-8-2017 0:00,488.75,-1776.811774965749,0.0,0.0,0.0,0
21-8-2017 1:00,185.19,-1698.3002037151384,0.0,0.0,0.0,0
21-8-2017 2:00,197.49,-1585.6536828551555,0.0,0.0,0.0,0
21-8-2017 3:00,212.29,-1497.5674601052335,0.0,0.0,0.0,0
21-8-2017 4:00,290.9,-1420.9734235544547,0.0,0.0,0.0,0
21-8-2017 5:00,347.64,-1345.0615707109414,0.0,0.0,0.0,0
21-8-2017 6:00,3357.41,1228.5457167497007,0.0,0.0,0.0,0
21-8-2017 7:00,8382.94,6155.378436175859,0.0,0.0,0.0,0
21-8-2017 8:00,893.12,-1187.4061726071757,0.0,0.0,0.0,0
21-8-2017 9:00,542.11,-1755.1953664356497,0.0,0.0,0.0,0
21-8-2017 10:00,1147.73,-1545.543092935262,0.0,0.0,0.0,0
21-8-2017 11:00,1858.29,-665.2924107567005,0.0,0.0,0.0,0
21-8-2017 12:00,792.53,-1682.3447784530158,0.0,0.0,0.0,0
21-8-2017 13:00,2476.12,-177.13475508719966,0.0,0.0,0.0,0
21-8-2017 14:00,779.21,-1675.129500356509,0.0,0.0,0.0,0
21-8-2017 15:00,2938.23,807.373253987716,0.0,0.0,0.0,0
21-8-2017 16:00,1054.85,-1032.927449396706,0.0,0.0,0.0,0
21-8-2017 17:00,1370.59,-915.3303554782897,0.0,0.0,0.0,0
21-8-2017 18:00,977.75,-1218.6603334888507,0.0,0.0,0.0,0
21-8-2017 19:00,3284.97,746.4058995859104,0.0,0.0,0.0,0
21-8-2017 20:00,713.68,-1339.6486507051143,0.0,0.0,0.0,0
21-8-2017 21:00,637.24,-1098.7551917742587,0.0,0.0,0.0,0
21-8-2017 22:00,3163.97,799.1249675729077,0.0,0.0,0.0,0
21-8-2017 23:00,31297.33,11606.582324350193,0.0,0.0,0.0,0
22-8-2017 0:00,193.0,-1329.8323939739387,0.0,0.0,0.0,0
22-8-2017 1:00,446.01,-637.3076944818524,0.0,0.0,0.0,0
22-8-2017 2:00,700.77,-226.6436846874035,0.0,0.0,0.0,0
22-8-2017 3:00,266.35,-538.2138254209613,0.0,0.0,0.0,0
22-8-2017 4:00,170.67,-575.1120787946988,0.0,0.0,0.0,0
22-8-2017 5:00,133.56,-562.9054897191097,0.0,0.0,0.0,0
22-8-2017 6:00,175.29,-935.7080122445072,0.0,0.0,0.0,0
22-8-2017 7:00,457.3,-730.6299241085019,0.0,0.0,0.0,0
22-8-2017 8:00,1351.92,326.66340368397323,0.0,0.0,0.0,0
22-8-2017 9:00,629.81,-631.3507481443621,0.0,0.0,0.0,0
22-8-2017 10:00,1160.86,-515.4227159346424,0.0,0.0,0.0,0
22-8-2017 11:00,1406.36,-132.60164272165366,0.0,0.0,0.0,0
22-8-2017 12:00,1558.53,46.22770749499546,0.0,0.0,0.0,0
22-8-2017 13:00,811.18,-955.869160580053,0.0,0.0,0.0,0
22-8-2017 14:00,1243.66,-394.0746531709401,0.0,0.0,0.0,0
22-8-2017 15:00,618.4,-770.2200791761718,0.0,0.0,0.0,0
22-8-2017 16:00,1198.99,-222.1113273652836,0.0,0.0,0.0,0
22-8-2017 17:00,652.74,-1054.5143969942847,0.0,0.0,0.0,0
22-8-2017 18:00,671.38,-1023.8702333464598,0.0,0.0,0.0,0
22-8-2017 19:00,993.87,-1148.360088486733,0.0,0.0,0.0,0
22-8-2017 20:00,806.51,-937.7295385824873,0.0,0.0,0.0,0
22-8-2017 21:00,896.88,-625.9821365135078,0.0,0.0,0.0,0
22-8-2017 22:00,2163.8,-73.12413452465762,0.0,0.0,0.0,0
22-8-2017 23:00,19786.68,108.27281888927746,0.0,0.0,0.0,0
23-8-2017 0:00,10510.0,8942.666965801609,0.0,0.0,0.0,0
23-8-2017 1:00,1818.63,623.6454887333712,0.0,0.0,0.0,0
23-8-2017 2:00,691.14,-418.7535632975719,0.0,0.0,0.0,0
23-8-2017 3:00,747.03,-320.64206882047256,0.0,0.0,0.0,0
23-8-2017 4:00,162.38,-908.6241870381828,0.0,0.0,0.0,0
23-8-2017 5:00,553.85,-506.15999902434214,0.0,0.0,0.0,0
23-8-2017 6:00,565.21,-953.9468857000859,0.0,0.0,0.0,0
23-8-2017 7:00,2816.49,1171.5963825236859,0.0,0.0,0.0,0
23-8-2017 8:00,885.68,-643.8963168658765,0.0,0.0,0.0,0
23-8-2017 9:00,1377.64,-336.99688851054725,0.0,0.0,0.0,0
23-8-2017 10:00,4440.09,2361.183767055944,0.0,0.0,0.0,0
23-8-2017 11:00,1660.93,-242.06472803125098,0.0,0.0,0.0,0
23-8-2017 12:00,2643.42,815.4983432056929,0.0,0.0,0.0,0
23-8-2017 13:00,3137.02,1152.2107892309687,0.0,0.0,0.0,0
23-8-2017 14:00,812.66,-939.3386932602673,0.0,0.0,0.0,0
23-8-2017 15:00,1133.3,-272.0968187219271,0.0,0.0,0.0,0
23-8-2017 16:00,1100.64,-239.71421571217456,0.0,0.0,0.0,0
23-8-2017 17:00,833.69,-693.0167217428045,0.0,0.0,0.0,0
23-8-2017 18:00,702.36,-706.9704097750378,0.0,0.0,0.0,0
23-8-2017 19:00,1777.62,-1.8427231339446735,0.0,0.0,0.0,0
23-8-2017 20:00,793.29,-485.91215157352735,0.0,0.0,0.0,0
23-8-2017 21:00,564.41,-414.46556486809277,0.0,0.0,0.0,0
23-8-2017 22:00,772.86,-832.1206499174604,0.0,0.0,0.0,0
23-8-2017 23:00,16880.97,-2112.3676487922858,0.0,0.0,0.0,0
24-8-2017 0:00,671.13,-86.86338016176228,0.0,0.0,0.0,0
24-8-2017 1:00,1077.23,744.7670792557665,0.0,0.0,0.0,0
24-8-2017 2:00,1312.48,1114.6430784455254,0.0,0.0,0.0,0
24-8-2017 3:00,335.29,219.39432117937508,0.0,0.0,0.0,0
24-8-2017 4:00,123.73,62.727575922591996,0.0,0.0,0.0,0
24-8-2017 5:00,405.73,346.3427833929318,0.0,0.0,0.0,0
24-8-2017 6:00,1098.0,563.7949530850908,0.0,0.0,0.0,0
24-8-2017 7:00,355.13,-324.679747330124,0.0,0.0,0.0,0
24-8-2017 8:00,480.36,-102.55162262847739,0.0,0.0,0.0,0
24-8-2017 9:00,781.81,-18.173520390110298,0.0,0.0,0.0,0
24-8-2017 10:00,1777.04,580.781060069985,0.0,0.0,0.0,0
24-8-2017 11:00,1269.93,205.31429821943948,0.0,0.0,0.0,0
24-8-2017 12:00,1674.05,650.0623920135108,0.0,0.0,0.0,0
24-8-2017 13:00,1787.49,573.0288107596957,0.0,0.0,0.0,0
24-8-2017 14:00,871.39,-138.21000301130402,0.0,0.0,0.0,0
24-8-2017 15:00,1025.55,328.5938306911928,0.0,0.0,0.0,0
24-8-2017 16:00,317.99,-347.84424916456567,0.0,0.0,0.0,0
24-8-2017 17:00,759.24,-107.80879344538425,0.0,0.0,0.0,0
24-8-2017 18:00,1425.04,666.0770649937635,0.0,0.0,0.0,0
24-8-2017 19:00,1803.2,636.2923995963458,0.0,0.0,0.0,0
24-8-2017 20:00,732.31,53.27309899305669,0.0,0.0,0.0,0
24-8-2017 21:00,761.85,342.60450277341624,0.0,0.0,0.0,0
24-8-2017 22:00,1239.36,162.4853974445607,0.0,0.0,0.0,0
24-8-2017 23:00,9179.55,-9352.036486960296,0.0,0.0,0.0,0
25-8-2017 0:00,388.38,96.92697014714827,0.0,0.0,0.0,0
25-8-2017 1:00,238.19,345.5770687792917,0.0,0.0,0.0,0
25-8-2017 2:00,894.08,1105.755821918599,0.0,0.0,0.0,0
25-8-2017 3:00,818.42,1071.8845156380455,0.0,0.0,0.0,0
25-8-2017 4:00,856.87,1143.5834257203537,0.0,0.0,0.0,0
25-8-2017 5:00,1010.47,1268.9967896160883,0.0,0.0,0.0,0
25-8-2017 6:00,278.29,25.9051526450462,0.0,0.0,0.0,0
25-8-2017 7:00,282.85,-155.4290375994865,0.0,0.0,0.0,0
25-8-2017 8:00,500.83,120.6083900030385,0.0,0.0,0.0,0
25-8-2017 9:00,593.75,-52.74909384111879,0.0,0.0,0.0,0
25-8-2017 10:00,922.78,-169.19453712444692,0.0,0.0,0.0,0
25-8-2017 11:00,918.36,-103.43351437537035,0.0,0.0,0.0,0
25-8-2017 12:00,1429.87,397.06565333880144,0.0,0.0,0.0,0
25-8-2017 13:00,2695.85,1439.8998347863308,0.0,0.0,0.0,0
25-8-2017 14:00,1427.32,349.1954797160031,0.0,0.0,0.0,0
25-8-2017 15:00,1411.9,613.3750625630926,0.0,0.0,0.0,0
25-8-2017 16:00,655.42,-144.98991017774142,0.0,0.0,0.0,0
25-8-2017 17:00,2515.06,1519.7322745117715,0.0,0.0,0.0,0
25-8-2017 18:00,689.67,-185.70355335717886,0.0,0.0,0.0,0
25-8-2017 19:00,909.66,-390.311803572587,0.0,0.0,0.0,0
25-8-2017 20:00,647.25,-156.08220911906233,0.0,0.0,0.0,0
25-8-2017 21:00,1004.45,457.3930576307803,0.0,0.0,0.0,0
25-8-2017 22:00,1514.76,315.5689779169943,0.0,0.0,0.0,0
25-8-2017 23:00,11875.79,-6807.448746123332,0.0,0.0,0.0,0
26-8-2017 0:00,335.31,-65.98705464441446,0.0,0.0,0.0,0
26-8-2017 1:00,418.25,431.76978482641084,0.0,0.0,0.0,0
26-8-2017 2:00,256.81,386.94839353933367,0.0,0.0,0.0,0
26-8-2017 3:00,719.77,894.2116398684448,0.0,0.0,0.0,0
26-8-2017 4:00,181.03,409.74330691391015,0.0,0.0,0.0,0
26-8-2017 5:00,175.53,402.86164748694773,0.0,0.0,0.0,0
26-8-2017 6:00,407.15,144.08302410461056,0.0,0.0,0.0,0
26-8-2017 7:00,379.15,-53.493835717332786,0.0,0.0,0.0,0
26-8-2017 8:00,422.51,65.68971503797775,0.0,0.0,0.0,0
26-8-2017 9:00,574.8,-24.518325628687762,0.0,0.0,0.0,0
26-8-2017 10:00,1305.9,284.89123660457653,0.0,0.0,0.0,0
26-8-2017 11:00,1028.54,89.23507321329066,0.0,0.0,0.0,0
26-8-2017 12:00,1302.98,374.01034410757893,0.0,0.0,0.0,0
26-8-2017 13:00,1221.44,51.140338382326945,0.0,0.0,0.0,0
26-8-2017 14:00,3957.77,2952.748492138544,0.0,0.0,0.0,0
26-8-2017 15:00,677.41,-66.56812574389983,0.0,0.0,0.0,0
26-8-2017 16:00,557.31,-207.07194124393527,0.0,0.0,0.0,0
26-8-2017 17:00,1082.96,81.82137589096101,0.0,0.0,0.0,0
26-8-2017 18:00,1457.7,540.2482651889641,0.0,0.0,0.0,0
26-8-2017 19:00,648.72,-758.119166369383,0.0,0.0,0.0,0
26-8-2017 20:00,701.79,-247.77627338399247,0.0,0.0,0.0,0
26-8-2017 21:00,136.57,-601.4838878030089,0.0,0.0,0.0,0
26-8-2017 22:00,952.74,-473.1996860400668,0.0,0.0,0.0,0
26-8-2017 23:00,10538.81,-8441.759993854212,0.0,0.0,0.0,0
27-8-2017 0:00,1072.29,374.22318785784614,0.0,0.0,0.0,0
27-8-2017 1:00,724.82,414.9125618935884,0.0,0.0,0.0,0
27-8-2017 2:00,434.28,210.68681990636173,0.0,0.0,0.0,0
27-8-2017 3:00,1305.45,1086.0404125713726,0.0,0.0,0.0,0
27-8-2017 4:00,1485.45,1298.7006303062308,0.0,0.0,0.0,0
27-8-2017 5:00,2081.46,1850.7395670555889,0.0,0.0,0.0,0
27-8-2017 6:00,3351.71,2581.709576760976,0.0,0.0,0.0,0
27-8-2017 7:00,1194.81,202.15566686064017,0.0,0.0,0.0,0
27-8-2017 8:00,766.73,-201.72903973224606,0.0,0.0,0.0,0
27-8-2017 9:00,949.88,-331.0461095570404,0.0,0.0,0.0,0
27-8-2017 10:00,1927.28,154.69998585719622,0.0,0.0,0.0,0
27-8-2017 11:00,1429.66,-343.44183601007194,0.0,0.0,0.0,0
27-8-2017 12:00,1410.13,-425.0389342712874,0.0,0.0,0.0,0
27-8-2017 13:00,2250.08,148.43148966128547,0.0,0.0,0.0,0
27-8-2017 14:00,2724.23,768.3467690746547,0.0,0.0,0.0,0
27-8-2017 15:00,1729.29,8.928567293283777,0.0,0.0,0.0,0
27-8-2017 16:00,1380.99,-385.25947413534686,0.0,0.0,0.0,0
27-8-2017 17:00,1257.17,-710.156670864377,0.0,0.0,0.0,0
27-8-2017 18:00,2825.3,982.9112892912699,0.0,0.0,0.0,0
27-8-2017 19:00,1355.89,-963.1569699193258,0.0,0.0,0.0,0
27-8-2017 20:00,1355.4,-468.2224247113795,0.0,0.0,0.0,0
27-8-2017 21:00,1607.94,15.781797315763924,0.0,0.0,0.0,0
27-8-2017 22:00,2778.38,527.2989981704527,0.0,0.0,0.0,0
27-8-2017 23:00,19979.3,167.72082419751223,0.0,0.0,0.0,0
28-8-2017 0:00,1425.88,-37.91978624227659,0.0,0.0,0.0,0
28-8-2017 1:00,1306.97,267.1206682440511,0.0,0.0,0.0,0
28-8-2017 2:00,887.26,-34.13087855765616,0.0,0.0,0.0,0
28-8-2017 3:00,891.76,-3.1183936710772286,0.0,0.0,0.0,0
28-8-2017 4:00,808.11,-13.271079361157263,0.0,0.0,0.0,0
28-8-2017 5:00,976.17,185.90305370705164,0.0,0.0,0.0,0
28-8-2017 6:00,1286.78,26.026296642692614,0.0,0.0,0.0,0
28-8-2017 7:00,1978.01,559.1999368064944,0.0,0.0,0.0,0
28-8-2017 8:00,1980.01,651.4415730079422,0.0,0.0,0.0,0
28-8-2017 9:00,1483.75,-58.827055760591975,0.0,0.0,0.0,0
28-8-2017 10:00,1601.46,-334.30695695099485,0.0,0.0,0.0,0
28-8-2017 11:00,1451.38,-398.7069670798571,0.0,0.0,0.0,0
28-8-2017 12:00,1739.19,-76.93896428218795,0.0,0.0,0.0,0
28-8-2017 13:00,1912.08,-122.56289416057871,0.0,0.0,0.0,0
28-8-2017 14:00,2649.77,814.4947274411547,0.0,0.0,0.0,0
28-8-2017 15:00,1645.67,93.5101582920679,0.0,0.0,0.0,0
28-8-2017 16:00,1586.01,35.59730438497127,0.0,0.0,0.0,0
28-8-2017 17:00,1671.42,-60.61477790688923,0.0,0.0,0.0,0
28-8-2017 18:00,1390.55,-191.52011859250206,0.0,0.0,0.0,0
28-8-2017 19:00,2388.22,326.0083993865437,0.0,0.0,0.0,0
28-8-2017 20:00,1421.29,-123.55779834106352,0.0,0.0,0.0,0
28-8-2017 21:00,1598.49,294.07327778922127,0.0,0.0,0.0,0
28-8-2017 22:00,2820.61,875.2585252210047,0.0,0.0,0.0,0
28-8-2017 23:00,15412.47,-4110.222467425385,0.0,0.0,0.0,0
29-8-2017 0:00,1155.52,34.90817746832886,0.0,0.0,0.0,0
29-8-2017 1:00,937.06,245.25294795168475,0.0,0.0,0.0,0
29-8-2017 2:00,862.37,290.22883188193964,0.0,0.0,0.0,0
29-8-2017 3:00,999.68,445.4434445365291,0.0,0.0,0.0,0
29-8-2017 4:00,711.16,240.30592201783043,0.0,0.0,0.0,0
29-8-2017 5:00,779.01,325.7338287877308,0.0,0.0,0.0,0
29-8-2017 6:00,769.95,-173.64111766353403,0.0,0.0,0.0,0
29-8-2017 7:00,1145.67,19.979365984804645,0.0,0.0,0.0,0
29-8-2017 8:00,920.93,-137.11336159901566,0.0,0.0,0.0,0
29-8-2017 9:00,2369.61,1055.6705299254168,0.0,0.0,0.0,0
29-8-2017 10:00,925.78,-823.2528664187607,0.0,0.0,0.0,0
29-8-2017 11:00,1450.95,-266.568563358353,0.0,0.0,0.0,0
29-8-2017 12:00,1330.25,-397.65295805093547,0.0,0.0,0.0,0
29-8-2017 13:00,2341.31,338.5593812964039,0.0,0.0,0.0,0
29-8-2017 14:00,1723.4,-130.68003187680551,0.0,0.0,0.0,0
29-8-2017 15:00,1738.1,110.42965464308509,0.0,0.0,0.0,0
29-8-2017 16:00,1558.85,-123.74051819001079,0.0,0.0,0.0,0
29-8-2017 17:00,3099.24,1193.725919523396,0.0,0.0,0.0,0
29-8-2017 18:00,1385.88,-405.39931643537875,0.0,0.0,0.0,0
29-8-2017 19:00,1892.38,-443.29208448947224,0.0,0.0,0.0,0
29-8-2017 20:00,1971.84,114.70291162458534,0.0,0.0,0.0,0
29-8-2017 21:00,1065.69,-593.7758969944789,0.0,0.0,0.0,0
29-8-2017 22:00,2644.71,310.5596252290734,0.0,0.0,0.0,0
29-8-2017 23:00,18516.38,-1463.6919578760867,0.0,0.0,0.0,0
30-8-2017 0:00,1393.07,-219.46944048434443,0.0,0.0,0.0,0
30-8-2017 1:00,1273.27,91.10263628569919,0.0,0.0,0.0,0
30-8-2017 2:00,1943.83,915.7122554703174,0.0,0.0,0.0,0
30-8-2017 3:00,2061.3,982.4739238648235,0.0,0.0,0.0,0
30-8-2017 4:00,939.66,2.425807692424769,0.0,0.0,0.0,0
30-8-2017 5:00,556.86,-357.31315775132043,0.0,0.0,0.0,0
30-8-2017 6:00,2308.55,938.272463831096,0.0,0.0,0.0,0
30-8-2017 7:00,787.62,-765.4350210990401,0.0,0.0,0.0,0
30-8-2017 8:00,3444.46,1964.7528760710652,0.0,0.0,0.0,0
30-8-2017 9:00,1557.77,-151.1483518766613,0.0,0.0,0.0,0
30-8-2017 10:00,2267.97,140.86941036848975,0.0,0.0,0.0,0
30-8-2017 11:00,2076.1,14.089782091926736,0.0,0.0,0.0,0
30-8-2017 12:00,1999.11,-52.718156613586416,0.0,0.0,0.0,0
30-8-2017 13:00,1577.21,-678.284438530017,0.0,0.0,0.0,0
30-8-2017 14:00,1607.84,-463.964797593766,0.0,0.0,0.0,0
30-8-2017 15:00,2230.26,425.53447665525846,0.0,0.0,0.0,0
30-8-2017 16:00,2243.74,427.3417694266186,0.0,0.0,0.0,0
30-8-2017 17:00,1877.12,-126.26308806162297,0.0,0.0,0.0,0
30-8-2017 18:00,1857.45,13.635154858089663,0.0,0.0,0.0,0
30-8-2017 19:00,1806.25,-548.9808659216203,0.0,0.0,0.0,0
30-8-2017 20:00,1633.46,-213.08047248610546,0.0,0.0,0.0,0
30-8-2017 21:00,1240.77,-402.4398666648967,0.0,0.0,0.0,0
30-8-2017 22:00,1803.38,-507.56977442147286,0.0,0.0,0.0,0
30-8-2017 23:00,18825.29,-1142.291084008747,0.0,0.0,0.0,0
31-8-2017 0:00,1609.97,15.507819296757134,0.0,0.0,0.0,0
31-8-2017 1:00,968.59,-194.14623489423093,0.0,0.0,0.0,0
31-8-2017 2:00,770.36,-204.15631770296977,0.0,0.0,0.0,0
31-8-2017 3:00,1169.6,75.54896918373379,0.0,0.0,0.0,0
31-8-2017 4:00,2123.43,1228.9459201554405,0.0,0.0,0.0,0
31-8-2017 5:00,1158.62,247.97309049543492,0.0,0.0,0.0,0
31-8-2017 6:00,818.03,-559.2177118910834,0.0,0.0,0.0,0
31-8-2017 7:00,785.9,-819.5308701014685,0.0,0.0,0.0,0
31-8-2017 8:00,1300.71,-270.4000528792144,0.0,0.0,0.0,0
31-8-2017 9:00,2992.81,1141.6546056630345,0.0,0.0,0.0,0
31-8-2017 10:00,2870.47,540.5030082814419,0.0,0.0,0.0,0
31-8-2017 11:00,4750.96,2442.118930451835,0.0,0.0,0.0,0
31-8-2017 12:00,2102.57,-253.06307048268263,-203.69,3532.56,-3939.94,0
31-8-2017 13:00,1567.98,-984.074990740696,-290.17,3443.52,-4023.86,0
31-8-2017 14:00,1743.27,-654.0133127727972,-268.69,3462.96,-4000.33,0
31-8-2017 15:00,2335.48,182.0085321275492,48.08,3777.38,-3681.22,0
31-8-2017 16:00,1645.33,-540.4984622208385,102.55,3829.28,-3624.18,0
31-8-2017 17:00,2903.97,546.9942519406172,35.69,3760.0,-3688.61,0
31-8-2017 18:00,1614.9,-557.2751594098381,31.15,3753.03,-3690.74,0
31-8-2017 19:00,1593.83,-1076.8730817731098,7.88,3727.36,-3711.6,0
31-8-2017 20:00,2790.51,638.564060125917,-7.94,3709.2,-3725.08,0
31-8-2017 21:00,4194.3,2281.546916420417,120.81,3836.01,-3594.39,0
31-8-2017 22:00,4566.18,2022.843441440627,32.83,3748.44,-3682.79,0
31-8-2017 23:00,18956.69,-1223.7757318718495,-235.5,3478.51,-3949.51,0
1-9-2017 0:00,992.93,-778.6185798956667,-289.35,3422.53,-4001.23,0
1-9-2017 1:00,1413.05,115.64180995848801,-185.33,3525.84,-3896.5,0
1-9-2017 2:00,1076.2,42.24260016256949,30.62,3739.59,-3678.35,0
1-9-2017 3:00,186.01,-995.2479194523532,192.21,3899.56,-3515.15,0
1-9-2017 4:00,350.77,-531.8824598281899,140.87,3849.02,-3567.28,0
1-9-2017 5:00,708.72,-153.2740527934452,275.43,3982.68,-3431.81,0
1-9-2017 6:00,569.24,-693.8061782378884,327.88,4033.36,-3377.61,0
1-9-2017 7:00,1092.67,-367.91919444915357,234.57,3938.85,-3469.71,0
1-9-2017 8:00,1649.47,260.22035810461875,221.6,3923.43,-3480.24,0
1-9-2017 9:00,1837.87,244.70925303435388,188.75,3887.94,-3510.45,0
1-9-2017 10:00,1776.59,-229.04338088029044,68.91,3765.47,-3627.64,0
1-9-2017 11:00,1649.74,-251.76358516924847,9.49,3703.39,-3684.41,0
1-9-2017 12:00,2994.9,1116.5986747609227,1.77,3693.02,-3689.47,0
1-9-2017 13:00,1884.65,-126.45958932043732,21.24,3711.15,-3668.66,0
1-9-2017 14:00,2435.33,606.4434201973463,-87.92,3599.39,-3775.22,0
1-9-2017 15:00,2770.52,1218.5471302672504,-138.52,3546.65,-3823.69,0
1-9-2017 16:00,2622.74,1074.09514331735,-71.24,3612.33,-3754.81,0
1-9-2017 17:00,3132.47,1404.806840013876,-173.57,3508.49,-3855.63,0
1-9-2017 18:00,1294.09,-247.24881472137395,-205.65,3474.63,-3885.93,0
1-9-2017 19:00,1111.84,-938.8472277828346,-202.34,3475.54,-3880.21,0
1-9-2017 20:00,2533.9,988.3280734650766,-108.5,3566.36,-3783.35,0
1-9-2017 21:00,1593.77,284.08095674224796,47.78,3720.62,-3625.05,0
1-9-2017 22:00,2972.92,1030.6316910486255,-4.56,3665.92,-3675.04,0
1-9-2017 23:00,9888.53,-9710.557569479664,-49.25,3618.63,-3717.13,0
2-9-2017 0:00,1513.67,320.1256076765717,27.06,3711.6,-3657.49,0
2-9-2017 1:00,1554.51,866.2189998530237,463.67,4145.86,-3218.53,0
2-9-2017 2:00,1481.05,1120.1392213470763,579.97,4259.67,-3099.73,0
2-9-2017 3:00,668.06,120.78145350767863,-58.41,3618.89,-3735.71,0
2-9-2017 4:00,922.67,761.7339800614518,-53.91,3621.06,-3728.88,0
2-9-2017 5:00,573.82,381.9881755630413,-34.84,3637.95,-3707.63,0
2-9-2017 6:00,1065.11,449.39927883276937,-57.29,3613.22,-3727.8,0
2-9-2017 7:00,783.41,-87.57904360728162,-65.41,3602.86,-3733.67,0
2-9-2017 8:00,1091.62,240.61379605010325,-45.02,3620.96,-3711.01,0
2-9-2017 9:00,1464.22,208.37669854057367,-46.99,3616.68,-3710.67,0
2-9-2017 10:00,1280.82,-598.2172007338729,-28.66,3632.76,-3690.09,0
2-9-2017 11:00,1407.99,-560.9737603089343,-50.93,3608.15,-3710.0,0
2-9-2017 12:00,1501.54,-651.2874683408261,-43.06,3613.68,-3699.8,0
2-9-2017 13:00,2457.16,26.24622736463334,-8.9,3645.53,-3663.34,0
2-9-2017 14:00,896.73,-1533.4011279575327,-25.47,3627.25,-3678.18,0
2-9-2017 15:00,1170.44,-1158.5672491079054,-96.8,3553.78,-3747.39,0
2-9-2017 16:00,885.2,-1613.6859250491516,-63.55,3584.75,-3711.86,0
2-9-2017 17:00,2846.9,78.24010817713997,40.38,3686.38,-3605.63,0
2-9-2017 18:00,2350.08,-313.6164359482091,6.45,3650.64,-3637.75,0
2-9-2017 19:00,1758.56,-1508.189985713162,-76.51,3566.2,-3719.21,0
2-9-2017 20:00,1229.92,-1628.2411711216707,-199.88,3440.57,-3840.33,0
2-9-2017 21:00,816.71,-1875.8616682846693,-153.09,3485.04,-3791.22,0
2-9-2017 22:00,0.0,-3394.1701321149662,-34.78,3601.13,-3670.69,0
2-9-2017 23:00,44934.33,23796.707112718086,35.9,3672.76,-3600.96,1
3-9-2017 0:00,1309.86,-1492.577092368465,-99.58,3948.29,-4147.44,0
3-9-2017 1:00,1321.52,-1001.2237593229474,-1535.68,2512.84,-5584.2,0
3-9-2017 2:00,1120.5,-867.6071679921533,-2459.28,1586.29,-6504.86,0
3-9-2017 3:00,1445.12,-825.0952455092565,246.61,4289.74,-3796.52,0
3-9-2017 4:00,2373.98,521.1712865208951,121.27,4167.71,-3925.16,0
3-9-2017 5:00,1040.0,-766.6787212378104,310.76,4357.06,-3735.53,0
3-9-2017 6:00,1148.63,-976.1743809810514,596.46,4646.9,-3453.99,0
3-9-2017 7:00,1310.74,-998.4980013770269,572.48,4627.7,-3482.75,0
3-9-2017 8:00,1669.91,-542.1218663431678,697.38,4754.73,-3359.97,0
3-9-2017 9:00,2050.41,-313.48534990757935,653.17,4712.46,-3406.13,0
3-9-2017 10:00,3645.9,901.9890918425549,563.23,4622.82,-3496.35,0
3-9-2017 11:00,1406.73,-1167.2642166342264,479.19,4536.37,-3577.99,0
3-9-2017 12:00,1519.08,-991.944286243797,341.77,4399.46,-3715.93,0
3-9-2017 13:00,3433.63,886.3527261808595,303.49,4359.67,-3752.68,0
3-9-2017 14:00,2877.27,536.446362951121,397.06,4450.23,-3656.12,0
3-9-2017 15:00,1634.07,-394.3082324871507,212.27,4262.27,-3837.73,0
3-9-2017 16:00,1745.99,-238.36224048736585,68.82,4115.41,-3977.76,0
3-9-2017 17:00,1747.82,-430.16206940338225,119.8,4162.78,-3923.18,0
3-9-2017 18:00,1489.98,-497.49970159090276,150.41,4189.73,-3888.91,0
3-9-2017 19:00,2324.5,-192.83858673142186,102.76,4138.18,-3932.66,0
3-9-2017 20:00,1322.59,-715.7864574684238,83.36,4115.35,-3948.62,0
3-9-2017 21:00,1894.99,50.778499261462,-36.9,3992.5,-4066.31,0
3-9-2017 22:00,1604.55,-911.390328372454,-84.79,3942.5,-4112.09,0
3-9-2017 23:00,20404.87,157.69225615498908,-43.87,3981.08,-4068.81,0
4-9-2017 0:00,1552.66,-330.8204968412879,-87.81,3940.94,-4116.57,0
4-9-2017 1:00,1177.19,-211.77811077046954,-67.34,3959.29,-4093.98,0
4-9-2017 2:00,1551.57,544.8739625532999,-146.65,3877.74,-4171.04,0
4-9-2017 3:00,1208.84,-135.32531248527266,-134.26,3888.11,-4156.63,0
4-9-2017 4:00,1223.46,368.1443371774935,-148.81,3871.27,-4168.88,0
4-9-2017 5:00,971.0,95.99629808452755,-155.82,3861.79,-4173.42,0
4-9-2017 6:00,1288.17,57.95004725435183,-108.08,3907.07,-4123.23,0
4-9-2017 7:00,1651.37,164.71730082848535,-92.39,3920.2,-4104.99,0
4-9-2017 8:00,1632.59,177.52290316485187,-89.19,3921.04,-4099.42,0
4-9-2017 9:00,2465.65,790.1353991551377,-92.75,3914.94,-4100.45,0
4-9-2017 10:00,2530.42,396.5105475394312,-98.42,3906.94,-4103.78,0
4-9-2017 11:00,3813.44,1787.7328557705096,-83.21,3919.7,-4086.12,0
4-9-2017 12:00,2294.64,257.17879019283873,-134.03,3867.6,-4135.67,0
4-9-2017 13:00,2330.32,270.97739301856427,-160.94,3838.28,-4160.16,0
4-9-2017 14:00,1401.7,-472.97970443687404,-168.01,3828.9,-4164.91,0
4-9-2017 15:00,1650.43,72.05549951882767,9.57,4004.43,-3985.28,0
4-9-2017 16:00,2391.22,843.3223057673194,82.55,4075.15,-3910.04,0
4-9-2017 17:00,2672.25,966.2269618251789,97.18,4087.4,-3893.04,0
4-9-2017 18:00,1557.53,86.90858869166868,30.58,4018.38,-3957.23,0
4-9-2017 19:00,1618.55,-349.35227845801614,-12.86,3972.6,-3998.32,0
4-9-2017 20:00,1303.11,-156.0734811571108,45.02,4028.26,-3938.23,0
4-9-2017 21:00,1926.24,690.292464547658,72.72,4053.74,-3908.29,0
4-9-2017 22:00,2885.15,1007.8666334483514,79.54,4058.14,-3899.06,0
4-9-2017 23:00,8203.45,-11392.332081991579,58.97,4035.36,-3917.43,0
5-9-2017 0:00,1177.51,-25.54002255935802,252.92,4286.84,-3780.99,0
5-9-2017 1:00,846.15,148.6094899498969,744.66,4776.2,-3286.89,0
5-9-2017 2:00,1576.77,1305.3151186797795,997.67,5026.6,-3031.26,0
5-9-2017 3:00,968.26,300.15271953287356,-30.51,3996.21,-4057.23,0
5-9-2017 4:00,727.82,616.192074623272,-48.09,3976.9,-4073.08,0
5-9-2017 5:00,1656.71,1464.3050631193303,-147.62,3875.31,-4170.54,0
5-9-2017 6:00,1227.91,647.9272801255047,-231.23,3791.66,-4254.12,0
5-9-2017 7:00,1557.54,653.8475928166708,-275.63,3745.93,-4297.19,0
5-9-2017 8:00,1267.38,334.3748476024689,-351.1,3669.53,-4371.74,0
5-9-2017 9:00,750.76,-485.50778062955214,-293.27,3725.37,-4311.91,0
5-9-2017 10:00,118.63,-1668.6692090405484,-248.97,3767.28,-4265.22,0
5-9-2017 11:00,1731.55,-23.51856753105949,-97.69,3916.63,-4112.01,0
5-9-2017 12:00,1425.65,-430.1539125062802,21.25,4033.22,-3990.72,0
5-9-2017 13:00,5334.67,3442.243647936374,17.43,4026.98,-3992.12,0
5-9-2017 14:00,1994.31,235.64318347109383,-166.84,3845.4,-4179.08,0
5-9-2017 15:00,1952.52,444.9055540366285,-299.38,3710.47,-4309.24,0
5-9-2017 16:00,3474.16,1954.3208543192577,-399.29,3608.14,-4406.73,0
5-9-2017 17:00,2669.37,972.1316661482006,-172.86,3833.63,-4179.34,0
5-9-2017 18:00,1577.51,105.79422286590898,-222.21,3781.52,-4225.93,0
5-9-2017 19:00,1257.53,-733.7249944992068,-211.45,3789.58,-4212.48,0
5-9-2017 20:00,3610.36,2102.744102633341,-8.11,3989.98,-4006.21,0
5-9-2017 21:00,2164.35,860.1226676642807,1.11,3997.53,-3995.31,0
5-9-2017 22:00,3329.25,1365.1016792220153,-44.02,3950.07,-4038.11,0
5-9-2017 23:00,7458.51,-12260.376490062863,-99.43,3892.31,-4091.17,0
6-9-2017 0:00,1151.94,-256.39915654846345,280.88,4320.92,-3759.17,0
6-9-2017 1:00,1092.1,222.69239798643343,716.61,4754.22,-3321.0,0
6-9-2017 2:00,1079.96,785.4294010161266,1051.7,5086.89,-2983.48,0
6-9-2017 3:00,419.43,-307.9825876303321,122.79,4155.88,-3910.29,0
6-9-2017 4:00,375.36,302.5456252569761,137.49,4168.14,-3893.15,0
6-9-2017 5:00,1128.36,978.6937970465174,115.7,4143.85,-3912.45,0
6-9-2017 6:00,1145.21,648.994743849868,20.98,4047.02,-4005.07,0
6-9-2017 7:00,1332.22,515.7407897133148,-47.06,3976.82,-4070.94,0
6-9-2017 8:00,1447.02,604.6449788879127,-146.8,3875.1,-4168.7,0
6-9-2017 9:00,1406.39,249.4607680110421,-166.2,3853.6,-4185.99,0
6-9-2017 10:00,1957.12,226.3629688520541,-174.72,3842.82,-4192.25,0
6-9-2017 11:00,1718.71,15.378189150693743,-155.99,3859.6,-4171.58,0
6-9-2017 12:00,1904.44,80.20511110074722,-141.92,3871.38,-4155.22,0
6-9-2017 13:00,1904.24,57.03011049746374,-143.83,3867.44,-4155.1,0
6-9-2017 14:00,1928.71,190.626611847199,-88.77,3920.38,-4097.92,0
6-9-2017 15:00,1673.26,170.10981966103736,-80.48,3926.45,-4087.41,0
6-9-2017 16:00,1575.25,49.91799227027468,-35.47,3969.2,-4040.14,0
6-9-2017 17:00,3732.77,2019.7581449901613,-89.53,3912.86,-4091.93,0
6-9-2017 18:00,1624.64,131.0518840017462,-75.08,3925.75,-4075.9,0
6-9-2017 19:00,4526.82,2501.0245899597794,-115.28,3883.17,-4113.72,0
6-9-2017 20:00,2173.66,607.7249810696012,-243.4,3757.02,-4243.82,0
6-9-2017 21:00,2095.99,718.5928758495174,-233.23,3764.87,-4231.32,0
6-9-2017 22:00,3393.52,1339.5977548084556,-296.28,3699.45,-4292.02,0
6-9-2017 23:00,7933.28,-11981.397544725069,-29.9,3963.64,-4023.44,0
7-9-2017 0:00,1430.12,-204.37135197591897,174.74,4194.63,-3845.15,0
7-9-2017 1:00,1024.39,-74.2617430062212,506.04,4523.57,-3511.48,0
7-9-2017 2:00,810.51,399.01264673243986,807.35,4822.63,-3207.93,0
7-9-2017 3:00,1281.48,364.3570809955877,93.89,4107.37,-3919.6,0
7-9-2017 4:00,707.68,506.7531958796412,130.74,4142.12,-3880.64,0
7-9-2017 5:00,656.84,370.77994602185527,88.56,4097.64,-3920.53,0
7-9-2017 6:00,1809.14,1205.3530176815698,-25.24,3981.53,-4032.02,0
7-9-2017 7:00,1215.39,282.5572392759518,-6.59,3998.54,-4011.72,0
7-9-2017 8:00,1388.99,421.4508053980044,-76.84,3926.05,-4079.73,0
7-9-2017 9:00,1814.94,453.31512088252384,-145.88,3854.72,-4146.48,0
7-9-2017 10:00,2011.09,-15.429351757294171,-87.09,3911.33,-4085.51,0
7-9-2017 11:00,3417.98,1345.8101445976563,-94.77,3901.48,-4091.02,0
7-9-2017 12:00,2527.48,245.96903074014517,-143.21,3851.64,-4138.06,0
7-9-2017 13:00,1994.01,-366.45653173474557,-182.37,3810.48,-4175.22,0
7-9-2017 14:00,1144.05,-1201.5510653956642,-193.46,3797.38,-4184.29,0
7-9-2017 15:00,1448.93,-747.4850211591906,-40.14,3948.72,-4029.0,0
7-9-2017 16:00,3016.42,718.2140807721635,81.82,4068.53,-3904.9,0
7-9-2017 17:00,1603.66,-914.652873184262,35.09,4019.68,-3949.5,0
7-9-2017 18:00,1575.86,-751.274399446057,-2.95,3980.12,-3986.02,0
7-9-2017 19:00,1134.49,-1759.6782442351694,-6.58,3974.21,-3987.38,0
7-9-2017 20:00,1074.18,-1406.065033218367,118.76,4097.34,-3859.83,0
7-9-2017 21:00,1941.94,-350.8107163796458,55.77,4032.49,-3920.96,0
7-9-2017 22:00,4522.36,1550.2829885739275,110.57,4085.1,-3863.96,0
7-9-2017 23:00,30077.3,9152.253517385187,38.15,4011.74,-3935.45,1
8-9-2017 0:00,1364.48,-1296.9384720374767,-365.69,3690.68,-4422.07,0
8-9-2017 1:00,881.6,-1243.385375913583,-1097.38,2957.03,-5151.79,0
8-9-2017 2:00,1271.07,-50.79816674655831,-1453.38,2598.72,-5505.47,0
8-9-2017 3:00,724.28,-1172.2718768544091,185.58,4235.55,-3864.38,0
8-9-2017 4:00,1010.56,-104.5046859586123,153.73,4205.09,-3897.62,0
8-9-2017 5:00,964.73,-212.7637648579589,277.4,4328.96,-3774.15,0
8-9-2017 6:00,1502.76,67.34702426388685,517.67,4569.43,-3534.09,0
8-9-2017 7:00,1428.72,-313.52794644294227,456.22,4507.49,-3595.04,0
8-9-2017 8:00,2362.4,607.6276285944182,433.52,4483.76,-3616.72,0
8-9-2017 9:00,2391.74,387.5058537645341,370.46,4418.9,-3677.99,0
8-9-2017 10:00,1898.92,-637.1177929885885,287.31,4333.97,-3759.36,0
8-9-2017 11:00,1593.53,-837.076521209802,208.62,4253.77,-3836.53,0
8-9-2017 12:00,2296.69,-207.53817150735313,236.18,4280.25,-3807.89,0
8-9-2017 13:00,4794.36,2373.335660775276,283.64,4325.42,-3758.15,0
8-9-2017 14:00,1724.07,-558.2099512671698,216.79,4257.15,-3823.57,0
8-9-2017 15:00,2015.75,15.04888602106621,-3.7,4034.32,-4041.72,0
8-9-2017 16:00,1493.41,-470.55112609633534,-71.13,3964.45,-4106.7,0
8-9-2017 17:00,1724.34,-409.13835399573145,101.03,4134.24,-3932.18,0
8-9-2017 18:00,3651.68,1764.151687202435,82.63,4113.57,-3948.31,0
8-9-2017 19:00,1942.55,-463.821875600481,116.21,4146.61,-3914.18,0
8-9-2017 20:00,1628.9,-326.46901194335715,-40.36,3988.05,-4068.78,0
8-9-2017 21:00,1432.12,-297.8547067964232,-236.94,3789.32,-4263.2,0
8-9-2017 22:00,3695.02,1321.861390401195,-21.8,4002.33,-4045.93,0
8-9-2017 23:00,19180.43,-1198.9686861933542,-15.58,4006.76,-4037.93,0
9-9-2017 0:00,867.42,-1225.9652915384227,-106.15,3920.39,-4132.69,0
9-9-2017 1:00,482.48,-1033.244516474284,-268.39,3756.07,-4292.86,0
9-9-2017 2:00,175.77,-380.24029609284594,-257.35,3765.13,-4279.82,0
9-9-2017 3:00,131.43,-1027.6879587856452,87.21,4107.95,-3933.53,0
9-9-2017 4:00,404.84,133.1344999079438,121.13,4140.13,-3897.87,0
9-9-2017 5:00,190.35,-174.151322743955,179.42,4196.41,-3837.57,0
9-9-2017 6:00,2447.94,1832.2562691290304,180.52,4195.58,-3834.55,0
9-9-2017 7:00,1137.49,184.11119140999836,122.87,4136.37,-3890.64,0
9-9-2017 8:00,1037.3,40.50786065167449,19.12,4030.46,-3992.23,0
9-9-2017 9:00,1544.1,163.9280168551627,-118.19,3891.07,-4127.46,0
9-9-2017 10:00,2274.29,216.8632173365072,21.63,4028.75,-3985.48,0
9-9-2017 11:00,2008.0,-71.45571411309629,18.5,4023.7,-3986.7,0
9-9-2017 12:00,1649.85,-646.0498795029143,-68.18,3934.85,-4071.21,0
9-9-2017 13:00,2346.77,20.09871352695336,-83.42,3917.46,-4084.29,0
9-9-2017 14:00,1587.06,-753.1226109073025,-11.46,3987.29,-4010.22,0
9-9-2017 15:00,2159.68,-42.665614577585984,-3.84,3992.86,-4000.54,0
9-9-2017 16:00,1518.8,-784.4093747540255,-16.31,3978.5,-4011.11,0
9-9-2017 17:00,1534.59,-1016.6270103714085,-85.14,3907.56,-4077.83,0
9-9-2017 18:00,1633.22,-746.3555354882974,-63.64,3926.98,-4054.27,0
9-9-2017 19:00,1562.89,-1416.4189500800333,43.74,4032.25,-3944.77,0
9-9-2017 20:00,1349.01,-1271.2965675576042,17.94,4004.3,-3968.42,0
9-9-2017 21:00,928.54,-1498.8897428192436,-61.25,3923.04,-4045.53,0
9-9-2017 22:00,1705.38,-1399.508722094368,-30.62,3951.64,-4012.89,0
9-9-2017 23:00,35972.92,14738.103127188488,48.44,4029.03,-3932.15,1
10-9-2017 0:00,1503.81,-1493.0255627957733,-227.99,3892.23,-4348.2,0
10-9-2017 1:00,801.7,-1615.760478642208,-1151.61,2966.22,-5269.44,0
10-9-2017 2:00,1297.44,-43.22261689717561,-2006.02,2109.06,-6121.09,0
10-9-2017 3:00,1059.29,-952.4176020257437,90.84,4203.51,-4021.83,0
10-9-2017 4:00,2991.28,1933.3967546148192,33.09,4145.57,-4079.39,0
10-9-2017 5:00,905.77,-201.38544625665145,102.84,4212.81,-4007.12,0
10-9-2017 6:00,2447.55,1169.8393139004538,330.73,4440.97,-3779.52,0
10-9-2017 7:00,1763.41,191.03449470219994,259.29,4368.18,-3849.59,0
10-9-2017 8:00,1274.53,-298.2573763188275,444.59,4552.57,-3663.39,0
10-9-2017 9:00,1138.12,-634.1635497961202,382.66,4491.59,-3726.26,0
10-9-2017 10:00,3297.03,1019.8422372055402,469.31,4579.11,-3640.5,0
10-9-2017 11:00,1045.6,-1063.2751581866069,535.06,4642.81,-3572.68,0
10-9-2017 12:00,1422.94,-727.4000993828436,425.33,4534.02,-3683.35,0
10-9-2017 13:00,991.34,-976.5334632254121,334.74,4442.12,-3772.63,0
10-9-2017 14:00,1727.84,-78.58721767115094,518.93,4626.28,-3588.42,0
10-9-2017 15:00,1123.02,-362.0987799196282,424.15,4528.98,-3680.68,0
10-9-2017 16:00,3224.95,1828.5769942252196,381.7,4484.05,-3720.65,0
10-9-2017 17:00,1258.71,-325.0425137867587,134.61,4235.13,-3965.9,0
10-9-2017 18:00,1152.27,-195.03106989531148,61.85,4159.36,-4035.65,0
10-9-2017 19:00,1038.34,-850.465800952476,-60.88,4033.53,-4155.29,0
10-9-2017 20:00,1473.85,-8.835364241350135,64.77,4157.04,-4027.5,0
10-9-2017 21:00,572.02,-742.3568385237093,-56.67,4033.54,-4146.88,0
10-9-2017 22:00,2076.95,58.78828711627784,-104.93,3983.0,-4192.86,0
10-9-2017 23:00,14604.45,-5659.378756335605,-93.03,3992.81,-4178.86,0
11-9-2017 0:00,1565.19,-500.74034957120534,27.7,4118.66,-4063.26,0
11-9-2017 1:00,803.59,-739.9743535564514,119.31,4209.73,-3971.11,0
11-9-2017 2:00,936.66,528.2537523239371,156.83,4245.81,-3932.16,0
11-9-2017 3:00,567.39,-638.7219524686357,-328.56,3758.86,-4415.98,0
11-9-2017 4:00,971.77,727.1709048906628,-257.73,3828.4,-4343.86,0
11-9-2017 5:00,1184.01,749.1881495444159,-261.11,3823.46,-4345.69,0
11-9-2017 6:00,1147.46,438.2359017304375,-291.05,3792.34,-4374.44,0
11-9-2017 7:00,3059.15,1913.817164797756,-281.05,3800.29,-4362.39,0
11-9-2017 8:00,3122.62,1835.4025772588202,-303.75,3778.41,-4385.92,0
11-9-2017 9:00,3814.71,2137.147919189194,-337.89,3743.72,-4419.5,0
11-9-2017 10:00,944.55,-1440.2978622003839,-509.4,3571.83,-4590.62,0
11-9-2017 11:00,1881.45,-519.4758764466264,-396.66,3682.67,-4475.98,0
11-9-2017 12:00,2357.22,-284.92374836083536,-215.18,3861.98,-4292.34,0
11-9-2017 13:00,4746.2,2209.8967968579645,74.16,4149.06,-4000.74,0
11-9-2017 14:00,2241.13,-248.633521665452,-40.55,4032.34,-4113.45,0
11-9-2017 15:00,2149.78,-125.0677765583182,-109.3,3961.29,-4179.88,0
11-9-2017 16:00,2507.19,220.83430261279318,-112.23,3956.29,-4180.75,0
11-9-2017 17:00,1713.48,-738.0479323677787,58.35,4124.93,-4008.24,0
11-9-2017 18:00,1879.91,-308.7773740419934,116.55,4182.03,-3948.92,0
11-9-2017 19:00,3853.55,1143.168171122998,193.65,4257.3,-3870.0,0
11-9-2017 20:00,2152.92,-142.6417452895953,207.07,4269.36,-3855.21,0
11-9-2017 21:00,2235.18,165.93277304792218,30.83,4091.34,-4029.69,0
11-9-2017 22:00,1878.83,-837.9511465886374,-62.39,3996.16,-4120.94,0
11-9-2017 23:00,22555.97,1560.3597670330805,163.45,4221.28,-3894.38,0
12-9-2017 0:00,782.64,-1972.577879645517,128.87,4193.15,-3935.41,0
12-9-2017 1:00,762.74,-1400.5659813054735,72.34,4135.42,-3990.75,0
12-9-2017 2:00,941.1,97.86735917437272,-144.8,3916.6,-4206.21,0
12-9-2017 3:00,836.02,-805.0240748181047,292.15,4351.6,-3767.29,0
12-9-2017 4:00,168.68,-376.60800127189077,217.25,4275.0,-3840.49,0
12-9-2017 5:00,1149.19,473.13181323582967,212.02,4268.78,-3844.74,0
12-9-2017 6:00,557.03,-296.87431822048893,257.47,4312.19,-3797.26,0
12-9-2017 7:00,1687.8,456.74350377888095,257.57,4310.81,-3795.66,0
12-9-2017 8:00,2041.94,727.9266763885157,142.81,4194.0,-3908.38,0
12-9-2017 9:00,1327.63,-297.01632228449535,152.51,4201.69,-3896.67,0
12-9-2017 10:00,1323.44,-940.3186274958357,8.29,4055.61,-4039.03,0
12-9-2017 11:00,5547.21,3353.5377839733,33.8,4079.09,-4011.5,0
12-9-2017 12:00,3028.75,664.6620259105935,15.19,4063.67,-4033.29,0
12-9-2017 13:00,1664.34,-522.389500580194,-238.09,3808.89,-4285.06,0
12-9-2017 14:00,3398.04,1291.0876360477537,-441.91,3603.57,-4487.39,0
12-9-2017 15:00,2039.35,189.06470773954243,-90.27,3954.81,-4135.34,0
12-9-2017 16:00,1476.74,-337.16772706648226,-40.25,4002.85,-4083.36,0
12-9-2017 17:00,1360.19,-602.3322201849999,-217.0,3824.61,-4258.62,0
12-9-2017 18:00,2922.18,1243.2379214057714,61.38,4101.29,-3978.54,0
12-9-2017 19:00,1031.15,-1155.330671390188,123.26,4161.44,-3914.93,0
12-9-2017 20:00,2351.01,582.3946448903926,21.22,4058.05,-4015.62,0
12-9-2017 21:00,3428.36,1927.6070452029521,-52.52,3982.34,-4087.39,0
12-9-2017 22:00,1616.69,-491.80692804921796,30.71,4064.33,-4002.91,0
12-9-2017 23:00,14658.34,-5778.6090656929655,-127.75,3904.87,-4160.36,0
13-9-2017 0:00,3390.76,1213.2529893252574,29.04,4072.12,-4014.03,0
13-9-2017 1:00,623.55,-913.5704080426881,411.95,4455.3,-3631.4,0
13-9-2017 2:00,295.99,255.79349651008351,294.26,4335.77,-3747.24,0
13-9-2017 3:00,182.52,-673.8168276481117,-167.15,3872.62,-4206.92,0
13-9-2017 4:00,186.96,539.5309435047639,141.23,4178.97,-3896.5,0
13-9-2017 5:00,163.15,376.6229185328634,124.59,4160.44,-3911.27,0
13-9-2017 6:00,266.32,329.92868837058904,76.38,4110.28,-3957.52,0
13-9-2017 7:00,1123.36,800.3605572387232,114.98,4146.93,-3916.98,0
13-9-2017 8:00,806.61,392.6466768600194,77.68,4107.75,-3952.38,0
13-9-2017 9:00,506.42,-255.03688716877105,41.04,4069.17,-3987.09,0
13-9-2017 10:00,1267.89,-180.93352799216177,-1.65,4024.59,-4027.89,0
13-9-2017 11:00,1356.35,-52.31873018476517,52.67,4077.06,-3971.71,0
13-9-2017 12:00,1883.14,257.6280789930272,19.89,4042.35,-4002.56,0
13-9-2017 13:00,1331.46,-142.0751194097204,-63.91,3956.93,-4084.75,0
13-9-2017 14:00,1182.04,-279.63065790994665,-48.58,3970.35,-4067.52,0
13-9-2017 15:00,947.51,-313.54979131492996,-91.22,3925.89,-4108.33,0
13-9-2017 16:00,2174.02,899.4936277856998,-21.95,3993.3,-4037.21,0
13-9-2017 17:00,1098.23,-409.6109279321731,-116.72,3897.0,-4130.45,0
13-9-2017 18:00,1021.26,-289.55128353626515,-136.4,3875.42,-4148.22,0
13-9-2017 19:00,1226.44,-682.3812785275393,-148.33,3861.58,-4158.25,0
13-9-2017 20:00,1178.88,-411.8616681662752,-76.74,3931.53,-4085.01,0
13-9-2017 21:00,1443.52,21.978868245957983,-111.74,3894.6,-4118.07,0
13-9-2017 22:00,3312.76,1183.6795861055489,-132.07,3872.35,-4136.5,0
13-9-2017 23:00,17180.11,-3487.0793685801,-109.25,3893.93,-4112.43,0
14-9-2017 0:00,1978.68,-536.2040546947742,-147.05,3859.21,-4153.32,0
14-9-2017 1:00,1411.52,-539.765945574861,-147.26,3857.64,-4152.15,0
14-9-2017 2:00,867.26,464.485325246681,-67.38,3935.98,-4070.73,0
14-9-2017 3:00,890.8,-471.70708688138484,-209.12,3792.26,-4210.51,0
14-9-2017 4:00,1172.98,1007.2616964557674,-136.48,3863.07,-4136.02,0
14-9-2017 5:00,1327.24,938.8253235266652,-58.4,3939.26,-4056.05,0
14-9-2017 6:00,1532.93,947.362486180853,-79.66,3916.13,-4075.44,0
14-9-2017 7:00,2895.77,1838.8605311169822,-63.4,3930.43,-4057.24,0
14-9-2017 8:00,2155.31,924.1517269491687,-75.67,3916.68,-4068.02,0
14-9-2017 9:00,1985.13,367.942960200754,-96.94,3893.53,-4087.41,0
14-9-2017 10:00,2727.44,372.9509877765586,-113.44,3875.23,-4102.11,0
14-9-2017 11:00,1708.77,-637.1768240665365,14.95,4001.77,-3971.88,0
14-9-2017 12:00,1394.1,-1216.7984436369995,39.92,4025.82,-3945.97,0
14-9-2017 13:00,1824.27,-571.9036775450218,99.8,4084.59,-3885.0,0
14-9-2017 14:00,2574.07,209.9777452332628,288.04,4271.87,-3695.79,0
14-9-2017 15:00,2907.23,775.8220431381915,259.52,4241.4,-3722.37,0
14-9-2017 16:00,1503.61,-602.9820761379401,160.05,4140.17,-3820.07,0
14-9-2017 17:00,1741.84,-520.7199406363939,10.46,3989.37,-3968.46,0
14-9-2017 18:00,1627.55,-362.4840396165737,67.31,4044.42,-3909.8,0
14-9-2017 19:00,4296.3,1779.8313285250233,190.27,4165.57,-3785.03,0
14-9-2017 20:00,3335.96,1199.8319982951543,41.08,4016.73,-3934.57,0
14-9-2017 21:00,2952.43,1059.1395707303654,-134.4,3839.77,-4108.57,0
14-9-2017 22:00,4989.87,2461.546098266283,-328.2,3644.18,-4300.59,0
14-9-2017 23:00,18316.79,-2786.998554896701,-196.56,3775.03,-4168.14,0
15-9-2017 0:00,355.43,-2530.8888635797084,-179.6,3793.96,-4153.16,0
15-9-2017 1:00,860.59,-1379.993601520704,-108.4,3864.46,-4081.26,0
15-9-2017 2:00,318.61,-162.9493179791575,195.7,4166.91,-3775.5,0
15-9-2017 3:00,803.77,-622.1881716258615,273.78,4243.97,-3696.41,0
15-9-2017 4:00,1025.06,942.7008766579547,206.03,4174.57,-3762.5,0
15-9-2017 5:00,751.32,526.349664715056,242.32,4209.17,-3724.53,0
15-9-2017 6:00,1007.78,702.051729129113,158.81,4124.03,-3806.41,0
15-9-2017 7:00,764.91,66.7918164071043,147.82,4111.33,-3815.7,0
15-9-2017 8:00,1293.5,501.5339547240478,159.35,4121.4,-3802.7,0
15-9-2017 9:00,1649.15,515.6821434892836,164.17,4124.48,-3796.13,0
15-9-2017 10:00,2472.42,634.7776273002769,166.21,4124.67,-3792.26,0
15-9-2017 11:00,1673.22,-104.43000635731869,70.03,4026.89,-3886.83,0
15-9-2017 12:00,1919.96,-87.68726684004514,-10.49,3944.55,-3965.53,0
15-9-2017 13:00,1457.27,-327.37510072231885,-35.49,3917.76,-3988.74,0
15-9-2017 14:00,2417.43,630.6127188655009,43.68,3995.1,-3907.75,0
15-9-2017 15:00,715.93,-860.6001163886326,-5.38,3944.59,-3955.34,0
15-9-2017 16:00,701.66,-866.2423385105017,13.25,3961.49,-3934.99,0
15-9-2017 17:00,807.44,-944.5166865180615,-42.95,3903.71,-3989.62,0
15-9-2017 18:00,1314.57,-194.79770360285534,119.85,4064.72,-3825.02,0
15-9-2017 19:00,1326.9,-742.7601470569139,89.99,4033.07,-3853.1,0
15-9-2017 20:00,3239.25,1506.7584073935604,-9.83,3931.54,-3951.2,0
15-9-2017 21:00,753.0,-744.1916927626921,-109.7,3831.25,-4050.65,0
15-9-2017 22:00,984.59,-1156.3040641648904,-189.75,3749.49,-4129.0,0
15-9-2017 23:00,20811.45,-23.43912441965813,-181.09,3756.87,-4119.04,0
16-9-2017 0:00,801.7,-1831.7297642854328,29.04,3972.6,-3914.52,0
16-9-2017 1:00,5647.13,3638.4311289367324,-150.3,3791.47,-4092.07,1
16-9-2017 2:00,452.89,310.5869034223533,-496.28,3452.87,-4445.44,0
16-9-2017 3:00,428.63,-745.8799135189183,-350.47,3596.69,-4297.63,0
16-9-2017 4:00,558.91,771.6678779356312,-535.18,3410.07,-4480.44,0
16-9-2017 5:00,183.46,208.87784063751997,12.55,3955.96,-3930.86,0
16-9-2017 6:00,1029.93,966.170820470029,60.29,4002.31,-3881.73,0
16-9-2017 7:00,887.16,385.14896374846467,115.83,4056.11,-3824.44,0
16-9-2017 8:00,1368.76,728.4880582087503,191.24,4130.12,-3747.64,0
16-9-2017 9:00,1286.86,362.59155366411824,163.2,4100.55,-3774.15,0
16-9-2017 10:00,1447.45,-134.88715511321993,194.65,4130.51,-3741.21,0
16-9-2017 11:00,645.01,-812.9062594088341,172.68,4106.97,-3761.62,0
16-9-2017 12:00,1174.49,-465.4908096273425,190.82,4124.39,-3742.76,0
16-9-2017 13:00,828.9,-456.5364747267945,226.63,4158.62,-3705.35,0
16-9-2017 14:00,1136.84,-61.757489572367376,275.41,4206.24,-3655.41,0
16-9-2017 15:00,1448.39,560.9473107715089,201.1,4130.14,-3727.93,0
16-9-2017 16:00,2706.77,1935.0317545609742,189.31,4116.61,-3738.0,0
16-9-2017 17:00,1381.48,465.32983621288827,14.34,3940.59,-3911.91,0
16-9-2017 18:00,2961.43,2325.66081419206,-114.72,3809.77,-4039.21,0
16-9-2017 19:00,513.14,-649.0505276890731,-200.32,3723.9,-4124.54,0
16-9-2017 20:00,1591.87,791.4048246103237,-173.66,3748.99,-4096.31,0
16-9-2017 21:00,238.25,-324.6840076667995,-205.69,3715.22,-4126.6,0
16-9-2017 22:00,25.79,-1179.7463375365205,23.08,3942.49,-3896.32,0
16-9-2017 23:00,10640.62,-9367.672864412476,59.9,3979.19,-3859.4,0
17-9-2017 0:00,314.76,-1498.3148949904285,348.68,4285.12,-3587.77,0
17-9-2017 1:00,179.34,-994.5505677960803,641.58,4576.32,-3293.15,0
17-9-2017 2:00,228.84,1064.1745004426375,649.34,4582.23,-3283.54,0
17-9-2017 3:00,195.12,-54.10247698418016,-50.13,3881.41,-3981.67,0
17-9-2017 4:00,188.46,1405.6318604501262,-71.18,3859.78,-4002.13,0
17-9-2017 5:00,470.8,1454.2935911287157,-219.6,3710.36,-4149.57,0
17-9-2017 6:00,791.93,1676.2180797115898,-306.81,3622.72,-4236.34,0
17-9-2017 7:00,392.16,790.7248723223854,-304.78,3624.08,-4233.64,0
17-9-2017 8:00,530.96,745.2415162579252,-333.07,3594.35,-4260.49,0
17-9-2017 9:00,845.57,647.7366422376433,-263.91,3661.95,-4189.77,0
17-9-2017 10:00,2900.11,1904.690064706192,-168.13,3756.24,-4092.5,0
17-9-2017 11:00,720.11,-272.08418639322394,-180.73,3743.79,-4105.24,0
17-9-2017 12:00,836.49,-475.45970251329686,-246.62,3676.11,-4169.34,0
17-9-2017 13:00,610.82,-419.62433750659716,-251.82,3669.11,-4172.75,0
17-9-2017 14:00,683.04,-376.1353254622329,4.54,3923.77,-3914.7,0
17-9-2017 15:00,516.44,-335.29402819701704,11.68,3929.15,-3905.79,0
17-9-2017 16:00,801.19,-32.34405717288655,70.31,3986.05,-3845.42,0
17-9-2017 17:00,1508.99,495.92090693950126,60.8,3974.88,-3853.28,0
17-9-2017 18:00,1018.56,248.89833278363972,53.73,3966.07,-3858.62,0
17-9-2017 19:00,911.52,-425.45745472356907,18.7,3929.26,-3891.85,0
17-9-2017 20:00,921.92,-103.54085177424963,-54.56,3854.36,-3963.47,0
17-9-2017 21:00,624.24,-195.05371560482104,14.76,3922.04,-3892.53,0
17-9-2017 22:00,2503.9,1009.508696625358,22.03,3927.68,-3883.62,0
17-9-2017 23:00,16632.77,-3806.7345963043626,59.47,3963.63,-3844.7,0
18-9-2017 0:00,309.99,-1974.1333170270705,11.29,3916.7,-3894.12,0
18-9-2017 1:00,198.75,-1490.6850444080603,-41.39,3862.35,-3945.13,0
18-9-2017 2:00,184.99,588.6598290362328,38.77,3940.88,-3863.34,0
18-9-2017 3:00,231.23,-560.9567974236525,53.91,3954.35,-3846.53,0
18-9-2017 4:00,1092.53,1786.9145974428893,38.39,3937.17,-3860.39,0
18-9-2017 5:00,846.63,1259.2619050869607,-38.78,3858.59,-3936.14,0
18-9-2017 6:00,660.24,961.9017114089811,-89.54,3806.31,-3985.39,0
18-9-2017 7:00,363.74,130.47096234091646,-134.69,3759.47,-4028.86,0
18-9-2017 8:00,657.66,192.34896474049242,-75.68,3816.87,-3968.23,0
18-9-2017 9:00,3262.9,2408.148455517704,12.83,3903.81,-3878.15,0
18-9-2017 10:00,1365.82,-275.24325649471734,18.23,3908.75,-3872.29,0
18-9-2017 11:00,1123.18,-485.05992012479055,-78.71,3810.25,-3967.66,0
18-9-2017 12:00,1740.12,-174.77366787328447,-161.45,3725.98,-4048.87,0
18-9-2017 13:00,1853.14,275.69518004087786,78.94,3964.75,-3806.87,0
18-9-2017 14:00,1517.5,-75.26332822350969,41.54,3925.73,-3842.66,0
18-9-2017 15:00,2533.16,1173.1069187643566,-11.95,3870.57,-3894.46,0
18-9-2017 16:00,2928.04,1617.665390126946,15.52,3896.71,-3865.66,0
18-9-2017 17:00,0.0,-1486.9408591142967,-63.73,3816.0,-3943.46,0
18-9-2017 18:00,2122.04,879.6249187807039,-122.88,3756.2,-4001.96,0
18-9-2017 19:00,3334.86,1522.3278613159698,26.38,3903.85,-3851.1,0
18-9-2017 20:00,1563.06,49.928890583760904,124.44,4001.16,-3752.28,0
18-9-2017 21:00,2042.44,719.808847210156,-130.58,3744.81,-4005.98,0
18-9-2017 22:00,4535.09,2520.5632529176373,-115.61,3758.13,-3989.35,0
18-9-2017 23:00,8065.03,-13021.269554688442,45.34,3918.25,-3827.58,0
19-9-2017 0:00,988.24,-1966.8177141785065,83.32,3987.41,-3820.78,0
19-9-2017 1:00,1646.18,-735.3442535850197,472.44,4374.85,-3429.97,0
19-9-2017 2:00,1626.6,1445.401667614662,945.78,4846.47,-2954.91,0
19-9-2017 3:00,768.31,-696.7033653284752,-35.25,3863.95,-3934.45,0
19-9-2017 4:00,670.87,735.9414329519718,-58.56,3839.19,-3956.31,0
19-9-2017 5:00,1846.0,1534.6234018439718,-89.66,3806.43,-3985.74,0
19-9-2017 6:00,1417.83,937.0976101875867,-134.02,3761.36,-4029.39,0
19-9-2017 7:00,1415.36,303.8617059178764,-161.91,3732.01,-4055.83,0
19-9-2017 8:00,1490.8,52.87345325870274,-238.29,3654.11,-4130.68,0
19-9-2017 9:00,2032.23,3.9239804053181615,-142.4,3748.39,-4033.2,0
19-9-2017 10:00,2622.04,-404.9237736644436,-110.27,3778.93,-3999.48,0
19-9-2017 11:00,3918.52,730.3562425984546,-93.13,3794.61,-3980.88,0
19-9-2017 12:00,4691.1,985.7633556451701,-144.33,3743.02,-4031.68,0
19-9-2017 13:00,4565.82,1067.714917981949,-275.95,3611.66,-4163.57,0
19-9-2017 14:00,2673.19,-1012.9818790760346,-426.4,3460.57,-4313.38,0
19-9-2017 15:00,3593.51,-20.843450850362387,-412.66,3472.58,-4297.91,0
19-9-2017 16:00,3091.04,-628.3190500848409,-253.69,3629.97,-4137.35,0
19-9-2017 17:00,3204.87,-733.839020848392,-99.25,3782.74,-3981.25,0
19-9-2017 18:00,3160.68,-578.1373990712073,-86.82,3793.29,-3966.93,0
19-9-2017 19:00,2866.39,-1491.0970571723055,37.92,3916.3,-3840.45,0
19-9-2017 20:00,3458.19,-657.7629322648809,41.75,3918.78,-3835.28,0
19-9-2017 21:00,8771.95,4869.682089584995,119.65,3995.11,-3755.8,0
19-9-2017 22:00,4184.07,-388.0343254440277,26.08,3906.44,-3854.27,0
19-9-2017 23:00,35911.82,12180.140538059726,-213.06,3666.35,-4092.47,1
20-9-2017 0:00,1841.19,-3749.679032463063,-875.89,3091.09,-4842.88,0
20-9-2017 1:00,2117.32,-2882.8253242465944,-670.38,3297.41,-4638.17,0
20-9-2017 2:00,1453.69,-1196.520016421835,-1559.14,2410.49,-5528.78,0
20-9-2017 3:00,2186.77,-1805.796499564708,572.8,4543.06,-3397.46,0
20-9-2017 4:00,3151.1,777.0749407919266,617.44,4591.16,-3356.27,0
20-9-2017 5:00,1334.97,-1414.9527110842246,613.73,4588.78,-3361.31,0
20-9-2017 6:00,1118.73,-1761.1488637990674,782.05,4762.15,-3198.05,0
20-9-2017 7:00,3065.87,-446.0230140906324,752.5,4737.58,-3232.57,0
20-9-2017 8:00,2093.76,-1740.7457831857682,845.49,4830.25,-3139.27,0
20-9-2017 9:00,3859.66,-490.44822980310437,728.15,4714.02,-3257.72,0
20-9-2017 10:00,3763.66,-1524.180884075582,486.89,4471.29,-3497.51,0
20-9-2017 11:00,5104.65,-259.39872467306395,473.8,4456.37,-3508.78,0
20-9-2017 12:00,3917.44,-1900.2205760668667,217.36,4198.13,-3763.41,0
20-9-2017 13:00,2378.57,-3117.2940958654576,116.44,4094.87,-3861.99,0
20-9-2017 14:00,9136.47,3514.578818136836,36.4,4012.71,-3939.91,1
20-9-2017 15:00,6431.13,960.6515697700816,-24.44,3960.96,-4009.85,0
20-9-2017 16:00,5210.18,-278.75326616555503,-207.62,3778.25,-4193.48,0
20-9-2017 17:00,11074.05,5414.467448322226,-767.78,3216.51,-4752.07,1
20-9-2017 18:00,5861.03,448.9012490631276,-532.16,3468.89,-4533.22,0
20-9-2017 19:00,9514.73,3524.272974560501,-560.75,3438.72,-4560.23,0
20-9-2017 20:00,6564.58,854.3649334883876,-928.48,3074.72,-4931.67,0
20-9-2017 21:00,5218.37,-215.85613461375306,-386.55,3614.98,-4388.09,0
20-9-2017 22:00,7853.06,1811.6729768871537,-466.62,3534.43,-4467.67,0
20-9-2017 23:00,38373.33,13101.724394944737,-63.51,3935.54,-4062.56,1
21-9-2017 0:00,4342.24,-2722.979552245166,-329.68,3723.69,-4383.04,0
21-9-2017 1:00,2233.75,-4096.766593044821,-752.58,3303.04,-4808.2,0
21-9-2017 2:00,800.43,-2903.7528952340895,-1016.64,3046.86,-5080.13,0
21-9-2017 3:00,1157.31,-3820.981825215801,783.85,4855.77,-3288.07,0
21-9-2017 4:00,982.06,-2162.460146584824,1002.08,5086.28,-3082.13,0
21-9-2017 5:00,1299.98,-2007.620323232707,1062.24,5158.17,-3033.68,0
21-9-2017 6:00,835.21,-2350.679741009589,1086.23,5188.6,-3016.14,0
21-9-2017 7:00,1927.86,-1679.037745239615,947.65,5055.16,-3159.85,0
21-9-2017 8:00,3226.44,-487.00063868732195,765.06,4873.22,-3343.09,0
21-9-2017 9:00,4107.91,93.37104739615188,626.36,4732.26,-3479.55,0
21-9-2017 10:00,4592.85,-158.77849095898455,388.2,4491.15,-3714.76,0
21-9-2017 11:00,5705.06,1101.9338277032084,172.87,4272.63,-3926.88,0
21-9-2017 12:00,9519.18,4665.721027988942,14.26,4112.59,-4084.06,1
21-9-2017 13:00,4415.9,-5.605100237627084,-213.1,3893.99,-4320.18,0
21-9-2017 14:00,4915.87,425.96999853233683,-434.25,3669.85,-4538.36,0
21-9-2017 15:00,4448.67,185.36954728054206,-541.94,3559.5,-4643.38,0
21-9-2017 16:00,6664.76,2465.1471865054227,-151.99,3947.92,-4251.9,0
21-9-2017 17:00,4585.13,209.69246778566594,-213.77,3886.39,-4313.94,0
21-9-2017 18:00,4837.56,703.2623290314141,-237.48,3861.12,-4336.07,0
21-9-2017 19:00,5448.17,722.0130401235374,-265.24,3831.85,-4362.33,0
21-9-2017 20:00,3217.19,-1243.8895649318415,-113.51,3982.24,-4209.27,0
21-9-2017 21:00,3442.2,-717.0677944585141,-124.04,3970.99,-4219.08,0
21-9-2017 22:00,5668.41,928.1815118534614,-37.24,4056.7,-4131.18,0
21-9-2017 23:00,13723.79,-10353.775847253988,135.2,4227.1,-3956.71,0
22-9-2017 0:00,8462.2,2620.1204971701445,220.07,4335.82,-3895.67,1
22-9-2017 1:00,1607.02,-3517.487403972724,200.08,4324.67,-3924.52,0
22-9-2017 2:00,8132.78,5749.894572496891,450.24,4573.62,-3673.14,1
22-9-2017 3:00,5192.07,1442.2130843492487,-580.73,3550.44,-4711.9,0
22-9-2017 4:00,1155.98,-705.979854775223,-162.46,3970.42,-4295.35,0
22-9-2017 5:00,1382.1,-831.807512697631,-521.27,3611.03,-4653.58,0
22-9-2017 6:00,2163.36,-78.85515203934483,-145.06,3985.89,-4276.01,0
22-9-2017 7:00,3626.33,772.4310363432742,240.79,4370.37,-3888.8,0
22-9-2017 8:00,3144.37,-1.6839349059000597,125.6,4253.62,-4002.43,0
22-9-2017 9:00,2922.44,-778.3289058165137,75.66,4202.12,-4050.8,0
22-9-2017 10:00,2809.93,-1895.4053623509985,51.7,4176.91,-4073.51,0
22-9-2017 11:00,5954.9,1154.6570814741826,124.84,4248.8,-3999.12,0
22-9-2017 12:00,4191.4,-1124.016700657231,104.16,4227.41,-4019.09,0
22-9-2017 13:00,3285.16,-1731.2785036889409,36.75,4158.59,-4085.09,0
22-9-2017 14:00,4002.31,-1268.024286528468,-119.81,4000.62,-4240.25,0
22-9-2017 15:00,5019.39,-192.29100704246048,53.06,4171.98,-4065.85,0
22-9-2017 16:00,4624.69,-684.2939590342248,11.64,4129.22,-4105.93,0
22-9-2017 17:00,5694.08,115.93503539012636,-64.19,4051.78,-4180.17,0
22-9-2017 18:00,5973.56,542.0801034923679,-150.41,3964.54,-4265.36,0
22-9-2017 19:00,6283.43,158.39894653088595,-135.11,3979.12,-4249.35,0
22-9-2017 20:00,5855.63,-107.64907615611173,-250.64,3862.66,-4363.94,0
22-9-2017 21:00,5742.11,-19.784615781853972,-264.91,3847.2,-4377.03,0
22-9-2017 22:00,3759.74,-2683.1652633333483,-223.37,3887.24,-4333.98,0
22-9-2017 23:00,40877.71,14864.09845171963,-96.19,4014.43,-4206.81,1
23-9-2017 0:00,2078.99,-5796.285060916741,-513.25,3685.54,-4712.04,0
23-9-2017 1:00,1622.24,-5562.329291078984,-343.95,3858.55,-4546.45,0
23-9-2017 2:00,2754.9,-1582.4945046266475,-1249.54,2955.6,-5454.68,0
23-9-2017 3:00,26798.47,20991.50598038362,566.05,4770.52,-3638.43,1
23-9-2017 4:00,1033.61,-2841.0670451724654,-97.76,4209.46,-4404.98,0
23-9-2017 5:00,1180.11,-2927.0959638319882,-569.74,3748.33,-4887.82,0
23-9-2017 6:00,1085.42,-2891.8256042011226,-1412.0,2913.0,-5737.0,0
23-9-2017 7:00,1713.87,-2757.449002668453,1133.02,5462.49,-3196.45,0
23-9-2017 8:00,1949.67,-2691.129831181683,1017.29,5358.72,-3324.14,0
23-9-2017 9:00,2750.6,-2097.8883499592157,1012.07,5361.66,-3337.53,0
23-9-2017 10:00,14152.9,8633.011384454123,1142.41,5496.92,-3212.09,1
23-9-2017 11:00,3441.46,-1816.1029374305353,865.75,5229.44,-3497.95,0
23-9-2017 12:00,6437.72,1000.7854071480715,418.61,4786.73,-3949.5,0
23-9-2017 13:00,3369.12,-1367.5895794640883,-282.66,4083.7,-4649.03,0
23-9-2017 14:00,3458.93,-1182.9537526884183,663.22,5028.0,-3701.55,0
23-9-2017 15:00,3573.31,-643.6442512399208,362.83,4727.66,-4002.01,0
23-9-2017 16:00,5153.58,1212.5546967763612,498.77,4861.93,-3864.39,0
23-9-2017 17:00,7148.46,3160.501207385487,493.89,4854.34,-3866.55,0
23-9-2017 18:00,6546.52,2926.3152853848887,236.95,4595.63,-4121.74,0
23-9-2017 19:00,4704.26,604.376063410471,-38.26,4318.22,-4394.74,0
23-9-2017 20:00,3396.59,-329.30357386747755,-234.57,4119.72,-4588.86,0
23-9-2017 21:00,2549.65,-826.9057303379482,-136.22,4216.02,-4488.47,0
23-9-2017 22:00,1285.1,-2624.135638498571,81.7,4432.55,-4269.15,0
23-9-2017 23:00,13818.46,-9646.470156030822,236.12,4587.68,-4115.44,0
24-9-2017 0:00,1878.45,-3296.9128324733556,530.38,4902.95,-3842.19,0
24-9-2017 1:00,1130.09,-3276.7416455436446,750.09,5121.0,-3620.81,0
24-9-2017 2:00,1038.77,-310.6423029972593,840.43,5209.82,-3528.96,0
24-9-2017 3:00,10567.78,7750.891901282244,-45.0,4322.9,-4412.9,1
24-9-2017 4:00,1197.35,461.8305354058775,-247.7,4137.18,-4632.59,0
24-9-2017 5:00,1930.14,842.4061274928799,-504.66,3879.47,-4888.78,0
24-9-2017 6:00,2263.48,1224.870257579962,-1049.37,3335.21,-5433.95,0
24-9-2017 7:00,1895.42,241.24304374632538,-401.22,3984.6,-4787.04,0
24-9-2017 8:00,1514.84,-425.24787054732224,-477.32,3907.22,-4861.86,0
24-9-2017 9:00,1752.52,-685.8445520307159,-424.35,3958.51,-4807.21,0
24-9-2017 10:00,3435.75,21.53675849150386,-182.93,4198.17,-4564.03,0
24-9-2017 11:00,3273.8,-158.46894394193987,-94.82,4284.47,-4474.12,0
24-9-2017 12:00,4070.2,156.74691250774504,-56.62,4320.82,-4434.06,0
24-9-2017 13:00,2043.28,-1339.667410066495,-81.22,4294.31,-4456.76,0
24-9-2017 14:00,2684.8,-825.5661260572583,-96.39,4277.29,-4470.08,0
24-9-2017 15:00,5706.42,2416.293444972099,-75.57,4296.25,-4447.39,0
24-9-2017 16:00,2339.76,-872.1718593852033,-53.93,4317.84,-4425.7,0
24-9-2017 17:00,4161.75,801.7299853808954,-121.93,4248.58,-4492.44,0
24-9-2017 18:00,2446.56,-647.9991087503463,-261.77,4106.84,-4630.37,0
24-9-2017 19:00,4625.74,941.9914222344951,113.6,4480.66,-4253.46,0
24-9-2017 20:00,6319.0,2898.0979883377945,-36.72,4328.86,-4402.29,0
24-9-2017 21:00,4705.7,1471.7608060231705,-26.52,4339.62,-4392.66,0
24-9-2017 22:00,4761.84,833.2232282539953,-259.12,4105.66,-4623.9,0
24-9-2017 23:00,21799.16,-1980.4679308629106,-355.82,4007.54,-4719.18,0
25-9-2017 0:00,2823.93,-2825.228180111033,-118.35,4243.93,-4480.63,0
25-9-2017 1:00,1709.46,-3347.203681733349,-57.62,4303.01,-4418.24,0
25-9-2017 2:00,1447.94,-594.9218887368943,24.08,4383.09,-4334.94,0
25-9-2017 3:00,942.66,-2819.446070832136,91.84,4449.53,-4265.84,0
25-9-2017 4:00,623.38,-1162.137882672765,257.27,4619.88,-4105.33,0
25-9-2017 5:00,1126.94,-1129.2227022613406,394.82,4755.82,-3966.18,0
25-9-2017 6:00,967.44,-1319.1797241401418,564.95,4924.29,-3794.4,0
25-9-2017 7:00,5233.14,2210.7143242378133,152.57,4510.34,-4205.19,0
25-9-2017 8:00,2454.34,-969.1715982583537,9.48,4369.22,-4350.25,0
25-9-2017 9:00,3693.6,-243.2368698104092,-103.53,4254.58,-4461.64,0
25-9-2017 10:00,6767.79,1826.1955894578932,-412.11,3944.76,-4768.97,0
25-9-2017 11:00,5412.73,448.2380791128653,-172.8,4184.53,-4530.13,0
25-9-2017 12:00,10214.61,4742.66102007083,-298.88,4057.44,-4655.19,0
25-9-2017 13:00,5868.81,929.3650168222939,-498.59,3863.5,-4860.69,0
25-9-2017 14:00,9444.52,4327.129413352881,-465.1,3896.15,-4826.35,0
25-9-2017 15:00,4395.7,-534.4232907491169,-747.71,3616.19,-5111.6,0
25-9-2017 16:00,5362.55,484.60601214768667,-385.35,3977.41,-4748.12,0
25-9-2017 17:00,5859.15,832.9972296133419,-388.32,3972.99,-4749.64,0
25-9-2017 18:00,6320.1,1558.1490018940412,157.34,4517.24,-4202.56,0
25-9-2017 19:00,5878.36,518.74669810469,130.36,4488.51,-4227.79,0
25-9-2017 20:00,7252.08,2145.206879855784,148.96,4506.06,-4208.15,0
25-9-2017 21:00,6352.02,1552.8739285018983,144.37,4499.56,-4210.83,0
25-9-2017 22:00,11665.77,6293.091392030111,172.73,4526.46,-4181.0,0
25-9-2017 23:00,8823.56,-16412.303697765507,-33.36,4322.09,-4388.82,0
26-9-2017 0:00,6114.49,-866.8588089132763,420.91,4848.62,-4006.79,0
26-9-2017 1:00,2008.11,-4204.530705197994,323.57,4749.84,-4102.69,0
26-9-2017 2:00,3453.6,563.3938321381538,1715.18,6140.53,-2710.17,0
26-9-2017 3:00,1741.92,-2767.0484424422057,117.59,4542.13,-4306.95,0
26-9-2017 4:00,1765.59,-519.3224183487373,486.84,4913.95,-3940.27,0
26-9-2017 5:00,6783.99,4127.62293298125,452.51,4877.4,-3972.39,0
26-9-2017 6:00,2677.26,128.47534173070562,387.6,4816.97,-4041.78,0
26-9-2017 7:00,1917.44,-1269.773677345649,-85.34,4341.77,-4512.45,0
26-9-2017 8:00,5428.2,1942.3410622897654,-407.78,4017.14,-4832.69,0
26-9-2017 9:00,4898.13,870.5795142304023,-76.51,4349.65,-4502.67,0
26-9-2017 10:00,3763.56,-1310.9823723827985,-110.57,4314.35,-4535.49,0
26-9-2017 11:00,8317.03,3201.4228147330086,-369.46,4054.01,-4792.92,0
26-9-2017 12:00,6001.68,339.01734557166765,-249.6,4176.81,-4676.02,0
26-9-2017 13:00,8801.99,3691.8807119633393,-100.4,4324.5,-4525.3,0
26-9-2017 14:00,4466.34,-854.1907286702153,-611.56,3816.45,-5039.56,0
26-9-2017 15:00,3324.25,-1823.9346575890618,-242.74,4183.98,-4669.46,0
26-9-2017 16:00,4129.34,-974.6360315957927,-386.17,4040.14,-4812.48,0
26-9-2017 17:00,4730.04,-457.4397087633606,146.45,4571.5,-4278.59,0
26-9-2017 18:00,4318.09,-541.6213374034987,254.61,4678.36,-4169.14,0
26-9-2017 19:00,5084.37,-316.6573150966369,192.99,4615.47,-4229.48,0
26-9-2017 20:00,4303.58,-789.9943568273438,210.71,4631.61,-4210.19,0
26-9-2017 21:00,3911.21,-794.2666300161682,216.84,4636.59,-4202.91,0
26-9-2017 22:00,6222.25,1023.987800393139,168.44,4587.05,-4250.17,0
26-9-2017 23:00,42149.26,17035.240705502518,197.99,4615.08,-4219.1,1
27-9-2017 0:00,2911.07,-3875.439014738833,-419.98,4093.71,-4933.68,0
27-9-2017 1:00,919.32,-5037.697798847116,-793.58,3720.1,-5307.26,0
27-9-2017 2:00,1070.7,-1361.7598993601077,-1902.04,2611.55,-6415.64,0
27-9-2017 3:00,1353.21,-2720.9555625363305,474.48,4987.08,-4038.13,0
27-9-2017 4:00,2165.58,452.1777573390709,604.21,5126.6,-3918.19,0
27-9-2017 5:00,1411.54,-605.9613310375858,588.05,5109.39,-3933.3,0
27-9-2017 6:00,1275.3,-525.3214345188971,933.57,5455.15,-3588.0,0
27-9-2017 7:00,2185.15,-187.96514790484161,455.19,4976.48,-4066.09,0
27-9-2017 8:00,2088.39,-510.080854344581,508.25,5028.36,-4011.87,0
27-9-2017 9:00,2775.44,-176.91630563640956,418.37,4937.33,-4100.59,0
27-9-2017 10:00,2962.17,-865.6796755761379,288.47,4806.0,-4229.05,0
27-9-2017 11:00,3591.1,-78.26543180277304,291.96,4808.58,-4224.66,0
27-9-2017 12:00,3406.08,-635.2981131764845,231.68,4746.53,-4283.17,0
27-9-2017 13:00,3338.27,10.024949075898348,272.99,4786.21,-4240.23,0
27-9-2017 14:00,3929.7,494.67774953713433,131.6,4642.98,-4379.78,0
27-9-2017 15:00,4878.0,1739.3077875557692,102.08,4611.75,-4407.6,0
27-9-2017 16:00,2812.09,-150.0412855636464,-120.16,4389.19,-4629.51,0
27-9-2017 17:00,4060.76,976.3756212352896,-186.67,4320.84,-4694.18,0
27-9-2017 18:00,1616.51,-1177.9977299834354,-279.42,4226.65,-4785.48,0
27-9-2017 19:00,5502.22,2116.779478039947,-52.16,4452.26,-4556.57,0
27-9-2017 20:00,3223.42,101.28107765226832,-175.92,4328.48,-4680.32,0
27-9-2017 21:00,5824.92,3004.1217313534726,-63.2,4439.64,-4566.05,0
27-9-2017 22:00,3270.36,-129.52799723766793,-419.19,4084.05,-4922.43,0
27-9-2017 23:00,22209.73,-1348.4631748714492,-200.38,4301.37,-4702.14,0
28-9-2017 0:00,1665.49,-3643.3740272063696,-360.32,4140.98,-4861.62,0
28-9-2017 1:00,497.45,-4049.130020914423,-35.63,4464.07,-4535.33,0
28-9-2017 2:00,1371.39,423.500918947243,-118.67,4379.36,-4616.71,0
28-9-2017 3:00,755.88,-1984.6484546010483,-36.11,4460.25,-4532.47,0
28-9-2017 4:00,1440.79,1069.7320441620082,71.89,4568.48,-4424.69,0
28-9-2017 5:00,856.62,56.734358327199516,33.32,4528.75,-4462.1,0
28-9-2017 6:00,972.82,307.02758486361563,236.78,4730.52,-4256.96,0
28-9-2017 7:00,1387.08,22.634898503123168,-129.4,4362.77,-4621.58,0
28-9-2017 8:00,1368.77,-339.83553267672914,-25.78,4464.87,-4516.44,0
28-9-2017 9:00,3549.49,1032.3393532129803,-48.29,4440.78,-4537.35,0
28-9-2017 10:00,3602.91,-260.71049005111763,-85.19,4403.02,-4573.39,0
28-9-2017 11:00,3998.91,-149.15217961803228,-79.76,4406.87,-4566.38,0
28-9-2017 12:00,2898.91,-2088.597063201956,-207.84,4277.3,-4692.98,0
28-9-2017 13:00,5726.78,927.2354552272536,-38.19,4445.68,-4522.06,0
28-9-2017 14:00,2998.47,-2489.957742900601,-128.47,4355.74,-4612.68,0
28-9-2017 15:00,2711.36,-3042.5039776283684,-23.51,4459.2,-4506.22,0
28-9-2017 16:00,2859.35,-3271.3549153366844,-276.36,4204.87,-4757.59,0
28-9-2017 17:00,2681.55,-3864.1495686565527,66.89,4546.57,-4412.79,0
28-9-2017 18:00,1941.06,-4606.64678653917,95.45,4573.96,-4383.06,0
28-9-2017 19:00,6844.39,-597.8583612334623,102.15,4579.56,-4375.25,0
28-9-2017 20:00,3721.93,-3755.1600887123086,85.91,4563.6,-4391.78,0
28-9-2017 21:00,1812.21,-5414.714776848392,0.58,4476.69,-4475.53,0
28-9-2017 22:00,2737.03,-5119.704546585812,-267.36,4208.16,-4742.89,0
28-9-2017 23:00,27565.0,-657.0036891085829,128.85,4603.14,-4345.43,0
29-9-2017 0:00,45951.33,35936.058444317096,97.44,4576.18,-4381.31,1
29-9-2017 1:00,49321.22,40098.786593951605,-540.44,4330.84,-5411.73,1
29-9-2017 2:00,2060.25,-3391.5980728697423,1063.26,6236.26,-4109.74,0
29-9-2017 3:00,936.1,-6361.559803847769,-8696.71,-3492.22,-13901.21,0
29-9-2017 4:00,834.19,-3987.5268816913203,-5581.47,-378.51,-10784.43,0
29-9-2017 5:00,1473.86,-3579.817340784308,957.31,6167.3,-4252.68,0
29-9-2017 6:00,1201.12,-3479.6549600301914,-787.79,4457.63,-6033.21,0
29-9-2017 7:00,1280.21,-3903.7781908385527,1036.82,6305.1,-4231.45,0
29-9-2017 8:00,4308.99,-1016.3649182318404,2086.37,7387.21,-3214.48,0
29-9-2017 9:00,2773.71,-2598.733628277065,1783.6,7099.48,-3532.27,0
29-9-2017 10:00,2027.05,-3946.7231668705476,1316.31,6649.43,-4016.82,0
29-9-2017 11:00,2977.1,-2507.9240117827608,564.28,5913.51,-4784.95,0
29-9-2017 12:00,3809.84,-1765.9443195819126,896.04,6249.52,-4457.45,0
29-9-2017 13:00,4195.88,-264.6157237492271,827.53,6182.14,-4527.07,0
29-9-2017 14:00,4215.93,-63.058299239526605,663.51,6015.18,-4688.16,0
29-9-2017 15:00,2872.88,-780.814185487051,533.78,5881.06,-4813.5,0
29-9-2017 16:00,3997.28,865.840527811089,199.75,5540.53,-5141.04,0
29-9-2017 17:00,2141.01,-1075.8270596175407,327.68,5660.91,-5005.55,0
29-9-2017 18:00,3712.46,824.0704818459913,37.37,5361.44,-5286.69,0
29-9-2017 19:00,2542.83,-921.3686587343573,156.96,5472.68,-5158.76,0
29-9-2017 20:00,4728.75,1553.9075035272494,24.0,5336.74,-5288.74,0
29-9-2017 21:00,3101.12,248.56262783345846,36.98,5350.05,-5276.09,0
29-9-2017 22:00,1642.31,-1767.4789445636131,-52.67,5259.17,-5364.51,0
29-9-2017 23:00,27147.47,3288.746186511255,-591.25,4718.89,-5901.39,1
30-9-2017 0:00,1402.09,-4169.200455815844,480.87,5802.27,-4840.53,0
30-9-2017 1:00,1144.73,-3616.5279543577826,-805.44,4518.29,-6129.17,0
30-9-2017 2:00,841.19,9.051980618851303,-946.36,4377.16,-6269.87,0
30-9-2017 3:00,1690.57,-1053.9118993079205,764.41,6089.52,-4560.7,0
30-9-2017 4:00,576.96,401.53414427903635,-106.98,5215.71,-5429.67,0
30-9-2017 5:00,1022.01,407.71829129636535,-194.31,5127.74,-5516.37,0
30-9-2017 6:00,2898.52,2492.167205636677,81.48,5402.17,-5239.2,0
30-9-2017 7:00,3299.04,2181.1393070906233,-55.05,5265.99,-5376.09,0
30-9-2017 8:00,2108.65,648.4021601940781,-168.1,5152.63,-5488.84,0
30-9-2017 9:00,2104.15,75.80295691645097,-516.99,4801.53,-5835.52,0
30-9-2017 10:00,3009.8,-157.20793932731658,-352.63,4963.58,-5668.83,0
30-9-2017 11:00,1932.89,-1254.6496019057245,-132.15,5181.75,-5446.04,0
30-9-2017 12:00,2550.89,-1261.196996241003,-199.67,5112.56,-5511.9,0
30-9-2017 13:00,1969.93,-1184.9573739698571,-37.42,5273.17,-5348.0,0
30-9-2017 14:00,3271.58,-216.82437778761687,131.31,5440.19,-5177.57,0
30-9-2017 15:00,4634.05,1276.2550334800908,191.79,5498.79,-5115.22,0
30-9-2017 16:00,1994.07,-1327.7918701380622,277.93,5583.63,-5027.76,0
30-9-2017 17:00,1366.24,-2201.409035784074,-238.93,5065.28,-5543.14,0
30-9-2017 18:00,2178.13,-1220.6033790830106,-289.07,5013.74,-5591.88,0
30-9-2017 19:00,1656.97,-2488.8324178836237,237.35,5538.36,-5063.66,0
30-9-2017 20:00,1988.23,-2034.0106982157731,-1.43,5298.53,-5301.38,0
30-9-2017 21:00,894.76,-2908.6064588892586,30.78,5329.04,-5267.47,0
30-9-2017 22:00,2464.17,-1999.3871876520484,127.45,5424.29,-5169.4,0
30-9-2017 23:00,37539.18,12367.484863314387,144.96,5440.01,-5150.1,1
