Time,Actual,STL processed,Forecasts,Upper Interval,Lower Interval,Is Anomalies
1-8-2017 0:00,179.76,4.625720423794775,0.0,0.0,0.0,0
1-8-2017 1:00,198.38,22.594456457514923,0.0,0.0,0.0,0
1-8-2017 2:00,208.9,38.93908675503479,0.0,0.0,0.0,0
1-8-2017 3:00,184.51,26.786117850774474,0.0,0.0,0.0,0
1-8-2017 4:00,159.14,11.677537389318474,0.0,0.0,0.0,0
1-8-2017 5:00,158.19,15.893954967884753,0.0,0.0,0.0,0
1-8-2017 6:00,96.47,-32.76570499700358,0.0,0.0,0.0,0
1-8-2017 7:00,107.88,-21.210567926507963,0.0,0.0,0.0,0
1-8-2017 8:00,139.13,-0.5425878905325874,0.0,0.0,0.0,0
1-8-2017 9:00,169.47,-9.487680265043423,0.0,0.0,0.0,0
1-8-2017 10:00,138.39,-32.54682320324562,0.0,0.0,0.0,0
1-8-2017 11:00,200.03,9.750953859957349,0.0,0.0,0.0,0
1-8-2017 12:00,120.09,-78.1249179291458,0.0,0.0,0.0,0
1-8-2017 13:00,142.4,7.105533231523282,0.0,0.0,0.0,0
1-8-2017 14:00,117.47,-21.042136851133023,0.0,0.0,0.0,0
1-8-2017 15:00,149.0,2.8314221935653734,0.0,0.0,0.0,0
1-8-2017 16:00,142.71,13.223239707486044,0.0,0.0,0.0,0
1-8-2017 17:00,128.53,-32.1525948587297,0.0,0.0,0.0,0
1-8-2017 18:00,125.04,-57.22671800733116,0.0,0.0,0.0,0
1-8-2017 19:00,145.72,-33.06233511958699,0.0,0.0,0.0,0
1-8-2017 20:00,137.03,16.427924738665965,0.0,0.0,0.0,0
1-8-2017 21:00,140.37,48.464931829137285,0.0,0.0,0.0,0
1-8-2017 22:00,193.39,75.85557544778706,0.0,0.0,0.0,0
1-8-2017 23:00,124.77,18.072105847032077,0.0,0.0,0.0,0
2-8-2017 0:00,130.4,22.39965324782392,0.0,0.0,0.0,0
2-8-2017 1:00,141.34,30.298288877066767,0.0,0.0,0.0,0
2-8-2017 2:00,117.69,9.76101768306809,0.0,0.0,0.0,0
2-8-2017 3:00,68.28,-30.399906193514425,0.0,0.0,0.0,0
2-8-2017 4:00,48.13,-43.177064329801084,0.0,0.0,0.0,0
2-8-2017 5:00,48.8,-39.72212155801893,0.0,0.0,0.0,0
2-8-2017 6:00,58.13,-19.933925457002857,0.0,0.0,0.0,0
2-8-2017 7:00,62.95,-17.17561734456777,0.0,0.0,0.0,0
2-8-2017 8:00,84.33,-8.468981951092445,0.0,0.0,0.0,0
2-8-2017 9:00,123.7,-9.889890390715053,0.0,0.0,0.0,0
2-8-2017 10:00,132.99,4.432408476366561,0.0,0.0,0.0,0
2-8-2017 11:00,118.51,-31.887320071803686,0.0,0.0,0.0,0
2-8-2017 12:00,153.88,-6.575993194678972,0.0,0.0,0.0,0
2-8-2017 13:00,125.03,22.630499211779323,0.0,0.0,0.0,0
2-8-2017 14:00,157.49,48.536920997254484,0.0,0.0,0.0,0
2-8-2017 15:00,112.7,-6.991491792787542,0.0,0.0,0.0,0
2-8-2017 16:00,125.28,19.012164587180933,0.0,0.0,0.0,0
2-8-2017 17:00,101.87,-37.479998468008986,0.0,0.0,0.0,0
2-8-2017 18:00,131.15,-31.868970779836843,0.0,0.0,0.0,0
2-8-2017 19:00,122.41,-40.26850859670709,0.0,0.0,0.0,0
2-8-2017 20:00,100.89,-8.101588282407064,0.0,0.0,0.0,0
2-8-2017 21:00,160.6,78.81258255287787,0.0,0.0,0.0,0
2-8-2017 22:00,189.19,81.04123895189953,0.0,0.0,0.0,0
2-8-2017 23:00,150.54,51.35377083621901,0.0,0.0,0.0,0
3-8-2017 0:00,81.68,-19.874222892760244,0.0,0.0,0.0,0
3-8-2017 1:00,66.09,-38.96506510442292,0.0,0.0,0.0,0
3-8-2017 2:00,69.84,-32.88361522636839,0.0,0.0,0.0,0
3-8-2017 3:00,75.31,-19.221871511701323,0.0,0.0,0.0,0
3-8-2017 4:00,77.48,-10.636993091190163,0.0,0.0,0.0,0
3-8-2017 5:00,80.12,-5.692212543681791,0.0,0.0,0.0,0
3-8-2017 6:00,86.83,10.77515220574898,0.0,0.0,0.0,0
3-8-2017 7:00,64.54,-13.882038857559337,0.0,0.0,0.0,0
3-8-2017 8:00,72.86,-18.425418324266957,0.0,0.0,0.0,0
3-8-2017 9:00,128.2,-2.9282087970744612,0.0,0.0,0.0,0
3-8-2017 10:00,177.08,50.44946039406145,0.0,0.0,0.0,0
3-8-2017 11:00,88.99,-59.52384524671157,0.0,0.0,0.0,0
3-8-2017 12:00,150.76,-7.48139118458856,0.0,0.0,0.0,0
3-8-2017 13:00,178.58,77.11079881432443,0.0,0.0,0.0,0
3-8-2017 14:00,138.55,30.770968814596557,0.0,0.0,0.0,0
3-8-2017 15:00,103.05,-14.969759463520418,0.0,0.0,0.0,0
3-8-2017 16:00,103.83,-0.4443819004267624,0.0,0.0,0.0,0
3-8-2017 17:00,114.23,-20.795541637144083,0.0,0.0,0.0,0
3-8-2017 18:00,129.77,-26.792031304751603,0.0,0.0,0.0,0
3-8-2017 19:00,124.42,-30.72795801707339,0.0,0.0,0.0,0
3-8-2017 20:00,154.17,52.43315456243654,0.0,0.0,0.0,0
3-8-2017 21:00,102.54,29.858340614489606,0.0,0.0,0.0,0
3-8-2017 22:00,85.56,-10.871026530263705,0.0,0.0,0.0,0
3-8-2017 23:00,111.18,25.181470514983374,0.0,0.0,0.0,0
4-8-2017 0:00,136.05,49.96189933208613,0.0,0.0,0.0,0
4-8-2017 1:00,106.28,18.578524977200658,0.0,0.0,0.0,0
4-8-2017 2:00,66.06,-17.74435837500883,0.0,0.0,0.0,0
4-8-2017 3:00,47.6,-26.723001371409424,0.0,0.0,0.0,0
4-8-2017 4:00,52.29,-14.229130927126093,0.0,0.0,0.0,0
4-8-2017 5:00,38.46,-24.435442539321883,0.0,0.0,0.0,0
4-8-2017 6:00,32.08,-19.95983907690676,0.0,0.0,0.0,0
4-8-2017 7:00,52.08,-0.8334568326435061,0.0,0.0,0.0,0
4-8-2017 8:00,61.17,-2.9977786762190277,0.0,0.0,0.0,0
4-8-2017 9:00,103.8,2.411389604850399,0.0,0.0,0.0,0
4-8-2017 10:00,97.73,1.9782704067124683,0.0,0.0,0.0,0
4-8-2017 11:00,99.84,-16.16477103999143,0.0,0.0,0.0,0
4-8-2017 12:00,98.25,-25.477348506198226,0.0,0.0,0.0,0
4-8-2017 13:00,77.08,9.803518685974609,0.0,0.0,0.0,0
4-8-2017 14:00,83.1,10.720416501848874,0.0,0.0,0.0,0
4-8-2017 15:00,120.08,38.92035233646216,0.0,0.0,0.0,0
4-8-2017 16:00,82.38,16.250430683486186,0.0,0.0,0.0,0
4-8-2017 17:00,119.19,22.042875571926785,0.0,0.0,0.0,0
4-8-2017 18:00,112.32,-6.828530144775023,0.0,0.0,0.0,0
4-8-2017 19:00,68.49,-50.76824444586297,0.0,0.0,0.0,0
4-8-2017 20:00,63.5,-5.220338294457704,0.0,0.0,0.0,0
4-8-2017 21:00,60.32,13.669317599565929,0.0,0.0,0.0,0
4-8-2017 22:00,65.66,-10.964618463759905,0.0,0.0,0.0,0
4-8-2017 23:00,51.76,-21.798701632382745,0.0,0.0,0.0,0
5-8-2017 0:00,64.63,-15.576395643995511,0.0,0.0,0.0,0
5-8-2017 1:00,11.59,-82.83947919334967,0.0,0.0,0.0,0
5-8-2017 2:00,12.71,-90.75387282706913,0.0,0.0,0.0,0
5-8-2017 3:00,16.78,-90.41007958578331,0.0,0.0,0.0,0
5-8-2017 4:00,21.08,-91.41439416897369,0.0,0.0,0.0,0
5-8-2017 5:00,26.07,-97.37235765731505,0.0,0.0,0.0,0
5-8-2017 6:00,35.11,-92.26907519835696,0.0,0.0,0.0,0
5-8-2017 7:00,58.88,-83.76967936296353,0.0,0.0,0.0,0
5-8-2017 8:00,99.6,-68.58550329984838,0.0,0.0,0.0,0
5-8-2017 9:00,159.44,-58.008246404571764,0.0,0.0,0.0,0
5-8-2017 10:00,236.49,11.153975868346748,0.0,0.0,0.0,0
5-8-2017 11:00,378.37,119.74732847604224,0.0,0.0,0.0,0
5-8-2017 12:00,428.64,149.6358493418359,0.0,0.0,0.0,0
5-8-2017 13:00,409.92,174.10500696430185,0.0,0.0,0.0,0
5-8-2017 14:00,398.04,145.38824583281144,0.0,0.0,0.0,0
5-8-2017 15:00,404.49,131.57845901718815,0.0,0.0,0.0,0
5-8-2017 16:00,333.82,64.28285138517572,0.0,0.0,0.0,0
5-8-2017 17:00,413.43,106.40982784303628,0.0,0.0,0.0,0
5-8-2017 18:00,490.32,154.63443302150216,0.0,0.0,0.0,0
5-8-2017 19:00,424.86,81.34185807591007,0.0,0.0,0.0,0
5-8-2017 20:00,214.09,-87.96251525652741,0.0,0.0,0.0,0
5-8-2017 21:00,108.3,-168.57418286387488,0.0,0.0,0.0,0
5-8-2017 22:00,188.55,-114.4284811891149,0.0,0.0,0.0,0
5-8-2017 23:00,240.91,-56.27493791494939,0.0,0.0,0.0,0
6-8-2017 0:00,269.71,-30.586548098619346,0.0,0.0,0.0,0
6-8-2017 1:00,280.12,-20.780284870728053,0.0,0.0,0.0,0
6-8-2017 2:00,277.26,-19.37713281424334,0.0,0.0,0.0,0
6-8-2017 3:00,280.25,-7.091847363556951,0.0,0.0,0.0,0
6-8-2017 4:00,281.99,2.464708997493119,0.0,0.0,0.0,0
6-8-2017 5:00,282.99,4.806969328398907,0.0,0.0,0.0,0
6-8-2017 6:00,287.45,17.399806479292636,0.0,0.0,0.0,0
6-8-2017 7:00,290.58,17.724091601208897,0.0,0.0,0.0,0
6-8-2017 8:00,311.94,26.128641266407442,0.0,0.0,0.0,0
6-8-2017 9:00,363.84,36.874519275285195,0.0,0.0,0.0,0
6-8-2017 10:00,438.45,110.22261551865404,0.0,0.0,0.0,0
6-8-2017 11:00,514.55,160.15289468014277,0.0,0.0,0.0,0
6-8-2017 12:00,358.8,-8.486953622669091,0.0,0.0,0.0,0
6-8-2017 13:00,113.65,-206.7393885289926,0.0,0.0,0.0,0
6-8-2017 14:00,166.71,-165.27969156693013,0.0,0.0,0.0,0
6-8-2017 15:00,237.86,-108.89908399187243,0.0,0.0,0.0,0
6-8-2017 16:00,309.09,-28.980260562003764,0.0,0.0,0.0,0
6-8-2017 17:00,378.36,6.52666999394819,0.0,0.0,0.0,0
6-8-2017 18:00,446.87,49.892708596253215,0.0,0.0,0.0,0
6-8-2017 19:00,485.17,82.82269553482843,0.0,0.0,0.0,0
6-8-2017 20:00,378.38,18.611465247219655,0.0,0.0,0.0,0
6-8-2017 21:00,290.04,-47.07653692004044,0.0,0.0,0.0,0
6-8-2017 22:00,313.92,-51.06620856573613,0.0,0.0,0.0,0
6-8-2017 23:00,361.45,-0.650049907323762,0.0,0.0,0.0,0
7-8-2017 0:00,390.31,22.999412678407566,0.0,0.0,0.0,0
7-8-2017 1:00,399.85,27.782334482636713,0.0,0.0,0.0,0
7-8-2017 2:00,400.98,28.70034402841793,0.0,0.0,0.0,0
7-8-2017 3:00,403.64,35.904433487597146,0.0,0.0,0.0,0
7-8-2017 4:00,401.16,36.58917259198006,0.0,0.0,0.0,0
7-8-2017 5:00,399.0,37.18402968715964,0.0,0.0,0.0,0
7-8-2017 6:00,399.29,46.79879447501577,0.0,0.0,0.0,0
7-8-2017 7:00,403.8,50.090341828481655,0.0,0.0,0.0,0
7-8-2017 8:00,425.71,60.747638040790264,0.0,0.0,0.0,0
7-8-2017 9:00,490.52,94.65363395385668,0.0,0.0,0.0,0
7-8-2017 10:00,453.24,64.87910095826345,0.0,0.0,0.0,0
7-8-2017 11:00,546.58,141.30780346413314,0.0,0.0,0.0,0
7-8-2017 12:00,420.59,12.061082783303107,0.0,0.0,0.0,0
7-8-2017 13:00,223.63,-124.2265645307647,0.0,0.0,0.0,0
7-8-2017 14:00,232.85,-111.30402935410427,0.0,0.0,0.0,0
7-8-2017 15:00,326.31,-17.0566472673205,0.0,0.0,0.0,0
7-8-2017 16:00,261.34,-57.95702937361938,0.0,0.0,0.0,0
7-8-2017 17:00,320.95,-13.211482807770949,0.0,0.0,0.0,0
7-8-2017 18:00,412.25,71.64465113017837,0.0,0.0,0.0,0
7-8-2017 19:00,482.28,153.9457639251459,0.0,0.0,0.0,0
7-8-2017 20:00,383.28,113.81624065459113,0.0,0.0,0.0,0
7-8-2017 21:00,318.08,83.78249556091868,0.0,0.0,0.0,0
7-8-2017 22:00,362.53,113.63778223287858,0.0,0.0,0.0,0
7-8-2017 23:00,177.5,-56.37311208635083,0.0,0.0,0.0,0
8-8-2017 0:00,78.88,-147.2622450931069,0.0,0.0,0.0,0
8-8-2017 1:00,83.94,-143.23336133684268,0.0,0.0,0.0,0
8-8-2017 2:00,88.28,-135.70119092606754,0.0,0.0,0.0,0
8-8-2017 3:00,88.1,-128.208994082698,0.0,0.0,0.0,0
8-8-2017 4:00,85.62,-124.2971732991321,0.0,0.0,0.0,0
8-8-2017 5:00,86.91,-121.99943743251907,0.0,0.0,0.0,0
8-8-2017 6:00,89.46,-112.09246300054107,0.0,0.0,0.0,0
8-8-2017 7:00,94.26,-110.08359773563092,0.0,0.0,0.0,0
8-8-2017 8:00,121.68,-95.37349929631753,0.0,0.0,0.0,0
8-8-2017 9:00,178.59,-77.96261366540693,0.0,0.0,0.0,0
8-8-2017 10:00,275.03,15.905040603743316,0.0,0.0,0.0,0
8-8-2017 11:00,392.2,106.57698295769944,0.0,0.0,0.0,0
8-8-2017 12:00,477.29,179.198206402557,0.0,0.0,0.0,0
8-8-2017 13:00,351.65,91.9751011326859,0.0,0.0,0.0,0
8-8-2017 14:00,387.39,110.6902289758853,0.0,0.0,0.0,0
8-8-2017 15:00,386.91,90.52414002633623,0.0,0.0,0.0,0
8-8-2017 16:00,409.94,116.97476948235811,0.0,0.0,0.0,0
8-8-2017 17:00,350.87,21.59032872293352,0.0,0.0,0.0,0
8-8-2017 18:00,204.2,-153.17204533864248,0.0,0.0,0.0,0
8-8-2017 19:00,237.12,-130.68784747552752,0.0,0.0,0.0,0
8-8-2017 20:00,334.05,1.0562954827265116,0.0,0.0,0.0,0
8-8-2017 21:00,349.53,39.55575874424727,0.0,0.0,0.0,0
8-8-2017 22:00,286.18,-49.774330742391044,0.0,0.0,0.0,0
8-8-2017 23:00,306.68,-26.78261251551612,0.0,0.0,0.0,0
9-8-2017 0:00,337.03,-0.3706139266209334,0.0,0.0,0.0,0
9-8-2017 1:00,351.21,11.620343139333727,0.0,0.0,0.0,0
9-8-2017 2:00,354.67,16.699742296518878,0.0,0.0,0.0,0
9-8-2017 3:00,355.7,23.577638298126146,0.0,0.0,0.0,0
9-8-2017 4:00,358.16,30.669710538562413,0.0,0.0,0.0,0
9-8-2017 5:00,359.65,34.53025322750244,0.0,0.0,0.0,0
9-8-2017 6:00,361.83,45.210353798617746,0.0,0.0,0.0,0
9-8-2017 7:00,362.55,44.68165603928725,0.0,0.0,0.0,0
9-8-2017 8:00,388.26,59.2798270825827,0.0,0.0,0.0,0
9-8-2017 9:00,459.25,97.89787568102349,0.0,0.0,0.0,0
9-8-2017 10:00,440.86,82.67894289358571,0.0,0.0,0.0,0
9-8-2017 11:00,390.22,11.77299412823885,0.0,0.0,0.0,0
9-8-2017 12:00,405.6,21.341967475096794,0.0,0.0,0.0,0
9-8-2017 13:00,249.87,-85.89030811215127,0.0,0.0,0.0,0
9-8-2017 14:00,249.15,-92.21254852438352,0.0,0.0,0.0,0
9-8-2017 15:00,328.73,-20.662619435108525,0.0,0.0,0.0,0
9-8-2017 16:00,303.83,-30.55236635835837,0.0,0.0,0.0,0
9-8-2017 17:00,397.29,37.9479038717181,0.0,0.0,0.0,0
9-8-2017 18:00,422.49,46.20903901735028,0.0,0.0,0.0,0
9-8-2017 19:00,300.05,-76.4978869599851,0.0,0.0,0.0,0
9-8-2017 20:00,205.17,-127.77334266611393,0.0,0.0,0.0,0
9-8-2017 21:00,216.6,-88.87175724525852,0.0,0.0,0.0,0
9-8-2017 22:00,259.44,-66.82754623050351,0.0,0.0,0.0,0
9-8-2017 23:00,314.43,-5.302100058343115,0.0,0.0,0.0,0
10-8-2017 0:00,339.76,21.018022245333384,0.0,0.0,0.0,0
10-8-2017 1:00,356.36,35.71269105911131,0.0,0.0,0.0,0
10-8-2017 2:00,356.65,37.49095740083931,0.0,0.0,0.0,0
10-8-2017 3:00,351.96,38.26619099881731,0.0,0.0,0.0,0
10-8-2017 4:00,348.14,38.75976770618257,0.0,0.0,0.0,0
10-8-2017 5:00,343.91,35.74417287857926,0.0,0.0,0.0,0
10-8-2017 6:00,344.4,43.35845524996137,0.0,0.0,0.0,0
10-8-2017 7:00,350.06,46.79304121602269,0.0,0.0,0.0,0
10-8-2017 8:00,297.85,-17.449868387067227,0.0,0.0,0.0,0
10-8-2017 9:00,351.52,1.2446801429726406,0.0,0.0,0.0,0
10-8-2017 10:00,369.94,18.848543718723988,0.0,0.0,0.0,0
10-8-2017 11:00,410.56,35.70408725385147,0.0,0.0,0.0,0
10-8-2017 12:00,428.69,44.95019392248702,0.0,0.0,0.0,0
10-8-2017 13:00,346.54,6.163874487434725,0.0,0.0,0.0,0
10-8-2017 14:00,244.36,-105.4106077106565,0.0,0.0,0.0,0
10-8-2017 15:00,281.25,-80.10953411298465,0.0,0.0,0.0,0
10-8-2017 16:00,279.81,-70.16410173757373,0.0,0.0,0.0,0
10-8-2017 17:00,310.14,-66.70005969230465,0.0,0.0,0.0,0
10-8-2017 18:00,327.15,-68.73635451377265,0.0,0.0,0.0,0
10-8-2017 19:00,375.22,-24.024976838102134,0.0,0.0,0.0,0
10-8-2017 20:00,337.82,-22.29060371515766,0.0,0.0,0.0,0
10-8-2017 21:00,335.87,2.465427972136183,0.0,0.0,0.0,0
10-8-2017 22:00,407.54,53.30645784675107,0.0,0.0,0.0,0
10-8-2017 23:00,465.1,116.22815032266334,0.0,0.0,0.0,0
11-8-2017 0:00,434.43,86.25891469958759,0.0,0.0,0.0,0
11-8-2017 1:00,365.25,16.758061921569265,0.0,0.0,0.0,0
11-8-2017 2:00,366.02,20.185962108220735,0.0,0.0,0.0,0
11-8-2017 3:00,368.68,29.229299962949938,0.0,0.0,0.0,0
11-8-2017 4:00,366.71,32.55513829173816,0.0,0.0,0.0,0
11-8-2017 5:00,365.34,35.358472018433304,0.0,0.0,0.0,0
11-8-2017 6:00,368.43,48.312002260924146,0.0,0.0,0.0,0
11-8-2017 7:00,369.09,49.88492931533517,0.0,0.0,0.0,0
11-8-2017 8:00,397.56,69.51599642881786,0.0,0.0,0.0,0
11-8-2017 9:00,440.59,85.10481318532487,0.0,0.0,0.0,0
11-8-2017 10:00,242.47,-107.6807594636957,0.0,0.0,0.0,0
11-8-2017 11:00,229.21,-138.06595621605487,0.0,0.0,0.0,0
11-8-2017 12:00,334.1,-34.99494881360283,0.0,0.0,0.0,0
11-8-2017 13:00,356.48,35.994814174580654,0.0,0.0,0.0,0
11-8-2017 14:00,405.19,81.89821646167036,0.0,0.0,0.0,0
11-8-2017 15:00,256.13,-71.92943916122115,0.0,0.0,0.0,0
11-8-2017 16:00,174.32,-135.5987012161095,0.0,0.0,0.0,0
11-8-2017 17:00,253.22,-78.09525034499146,0.0,0.0,0.0,0
11-8-2017 18:00,345.81,0.7166618770966693,0.0,0.0,0.0,0
11-8-2017 19:00,436.76,92.59198021642925,0.0,0.0,0.0,0
11-8-2017 20:00,398.21,96.08181917910338,0.0,0.0,0.0,0
11-8-2017 21:00,279.16,4.897192572931374,0.0,0.0,0.0,0
11-8-2017 22:00,202.77,-90.43006325249814,0.0,0.0,0.0,0
11-8-2017 23:00,232.23,-54.85722903273822,0.0,0.0,0.0,0
12-8-2017 0:00,262.47,-22.280927142470375,0.0,0.0,0.0,0
12-8-2017 1:00,273.28,-13.410113588670242,0.0,0.0,0.0,0
12-8-2017 2:00,272.84,-13.22539163348074,0.0,0.0,0.0,0
12-8-2017 3:00,270.81,-11.156761598385685,0.0,0.0,0.0,0
12-8-2017 4:00,276.03,-2.8614737245596302,0.0,0.0,0.0,0
12-8-2017 5:00,276.69,-1.197028827185079,0.0,0.0,0.0,0
12-8-2017 6:00,276.65,5.237931902795367,0.0,0.0,0.0,0
12-8-2017 7:00,284.44,10.951382661937089,0.0,0.0,0.0,0
12-8-2017 8:00,314.03,28.768609108373255,0.0,0.0,0.0,0
12-8-2017 9:00,372.73,57.06362855880769,0.0,0.0,0.0,0
12-8-2017 10:00,316.75,2.0705541524752675,0.0,0.0,0.0,0
12-8-2017 11:00,306.88,-28.783448419910485,0.0,0.0,0.0,0
12-8-2017 12:00,312.8,-28.115605816181755,0.0,0.0,0.0,0
12-8-2017 13:00,284.35,-12.507401268166404,0.0,0.0,0.0,0
12-8-2017 14:00,343.16,40.28624464070043,0.0,0.0,0.0,0
12-8-2017 15:00,388.2,77.58221893384189,0.0,0.0,0.0,0
12-8-2017 16:00,350.86,55.34062158525046,0.0,0.0,0.0,0
12-8-2017 17:00,422.33,106.92365904817859,0.0,0.0,0.0,0
12-8-2017 18:00,429.01,101.13395607978401,0.0,0.0,0.0,0
12-8-2017 19:00,293.5,-33.12660715126,0.0,0.0,0.0,0
12-8-2017 20:00,237.39,-48.25112458289507,0.0,0.0,0.0,0
12-8-2017 21:00,145.32,-109.06252378133433,0.0,0.0,0.0,0
12-8-2017 22:00,243.34,-25.854179605609545,0.0,0.0,0.0,0
12-8-2017 23:00,226.09,-34.00631794080337,0.0,0.0,0.0,0
13-8-2017 0:00,233.45,-20.44059283599347,0.0,0.0,0.0,0
13-8-2017 1:00,239.15,-12.315485626541829,0.0,0.0,0.0,0
13-8-2017 2:00,243.22,-3.6713145789813098,0.0,0.0,0.0,0
13-8-2017 3:00,244.24,5.145234960312507,0.0,0.0,0.0,0
13-8-2017 4:00,241.36,9.102599703009332,0.0,0.0,0.0,0
13-8-2017 5:00,245.71,15.606341247103217,0.0,0.0,0.0,0
13-8-2017 6:00,201.95,-20.74908205938678,0.0,0.0,0.0,0
13-8-2017 7:00,157.82,-65.62692211947433,0.0,0.0,0.0,0
13-8-2017 8:00,175.79,-58.04535086404471,0.0,0.0,0.0,0
13-8-2017 9:00,218.24,-50.252263879802626,0.0,0.0,0.0,0
13-8-2017 10:00,211.54,-61.60097520356635,0.0,0.0,0.0,0
13-8-2017 11:00,256.46,-42.811918756098265,0.0,0.0,0.0,0
13-8-2017 12:00,327.68,18.4346238887876,0.0,0.0,0.0,0
13-8-2017 13:00,331.45,56.26752883908489,0.0,0.0,0.0,0
13-8-2017 14:00,329.61,39.75767721217903,0.0,0.0,0.0,0
13-8-2017 15:00,316.09,10.073540263803636,0.0,0.0,0.0,0
13-8-2017 16:00,240.6,-58.80413353604078,0.0,0.0,0.0,0
13-8-2017 17:00,294.01,-32.620330361455615,0.0,0.0,0.0,0
13-8-2017 18:00,331.65,-14.990469400486006,0.0,0.0,0.0,0
13-8-2017 19:00,294.58,-59.335735082059784,0.0,0.0,0.0,0
13-8-2017 20:00,253.94,-68.89342978815714,0.0,0.0,0.0,0
13-8-2017 21:00,317.66,20.652180819868818,0.0,0.0,0.0,0
13-8-2017 22:00,369.91,53.38990739548029,0.0,0.0,0.0,0
13-8-2017 23:00,406.95,93.68657890406513,0.0,0.0,0.0,0
14-8-2017 0:00,431.07,119.05550962214954,0.0,0.0,0.0,0
14-8-2017 1:00,441.34,130.75883772724137,0.0,0.0,0.0,0
14-8-2017 2:00,446.65,139.23638510716177,0.0,0.0,0.0,0
14-8-2017 3:00,385.78,84.50478139064319,0.0,0.0,0.0,0
14-8-2017 4:00,322.31,26.27815024219956,0.0,0.0,0.0,0
14-8-2017 5:00,322.07,31.822495118916834,0.0,0.0,0.0,0
14-8-2017 6:00,253.57,-25.862005538139442,0.0,0.0,0.0,0
14-8-2017 7:00,228.05,-48.319829731552375,0.0,0.0,0.0,0
14-8-2017 8:00,212.05,-70.84260698122517,0.0,0.0,0.0,0
14-8-2017 9:00,217.1,-87.78398273958547,0.0,0.0,0.0,0
14-8-2017 10:00,284.1,-14.150861257190513,0.0,0.0,0.0,0
14-8-2017 11:00,269.44,-43.171276066278665,0.0,0.0,0.0,0
14-8-2017 12:00,369.35,58.96143634335425,0.0,0.0,0.0,0
14-8-2017 13:00,302.55,38.28193625983971,0.0,0.0,0.0,0
14-8-2017 14:00,302.22,36.68148166106721,0.0,0.0,0.0,0
14-8-2017 15:00,249.84,-18.229871964919056,0.0,0.0,0.0,0
14-8-2017 16:00,181.45,-66.44073923476748,0.0,0.0,0.0,0
14-8-2017 17:00,252.08,-14.45724333287896,0.0,0.0,0.0,0
14-8-2017 18:00,298.35,20.18110857310114,0.0,0.0,0.0,0
14-8-2017 19:00,340.51,62.45999986353672,0.0,0.0,0.0,0
14-8-2017 20:00,259.75,18.797987305516216,0.0,0.0,0.0,0
14-8-2017 21:00,64.77,-148.28011852884293,0.0,0.0,0.0,0
14-8-2017 22:00,132.0,-97.7539200508167,0.0,0.0,0.0,0
14-8-2017 23:00,176.17,-48.65934919592496,0.0,0.0,0.0,0
15-8-2017 0:00,199.92,-21.108123362037873,0.0,0.0,0.0,0
15-8-2017 1:00,209.35,-12.941703736536027,0.0,0.0,0.0,0
15-8-2017 2:00,211.26,-10.975909399486,0.0,0.0,0.0,0
15-8-2017 3:00,214.27,-5.190795747047105,0.0,0.0,0.0,0
15-8-2017 4:00,216.18,-1.336900097351844,0.0,0.0,0.0,0
15-8-2017 5:00,216.82,-2.4145116865119007,0.0,0.0,0.0,0
15-8-2017 6:00,218.02,1.8793505073647054,0.0,0.0,0.0,0
15-8-2017 7:00,229.31,8.908745316809586,0.0,0.0,0.0,0
15-8-2017 8:00,263.37,29.178822698217317,0.0,0.0,0.0,0
15-8-2017 9:00,301.15,36.41363234685298,0.0,0.0,0.0,0
15-8-2017 10:00,225.31,-42.73077894705105,0.0,0.0,0.0,0
15-8-2017 11:00,208.04,-83.81003059515302,0.0,0.0,0.0,0
15-8-2017 12:00,289.66,-8.99051400323063,0.0,0.0,0.0,0
15-8-2017 13:00,276.41,16.750228320532017,0.0,0.0,0.0,0
15-8-2017 14:00,344.83,78.11181819098204,0.0,0.0,0.0,0
15-8-2017 15:00,406.37,131.56589532847408,0.0,0.0,0.0,0
15-8-2017 16:00,454.87,194.62483238844663,0.0,0.0,0.0,0
15-8-2017 17:00,342.02,63.878347607155376,0.0,0.0,0.0,0
15-8-2017 18:00,267.5,-21.72448295233707,0.0,0.0,0.0,0
15-8-2017 19:00,260.79,-28.750650530062217,0.0,0.0,0.0,0
15-8-2017 20:00,267.46,13.203803219823925,0.0,0.0,0.0,0
15-8-2017 21:00,324.51,100.71953959342784,0.0,0.0,0.0,0
15-8-2017 22:00,211.75,-25.44766016367103,0.0,0.0,0.0,0
15-8-2017 23:00,154.62,-75.49706010001242,0.0,0.0,0.0,0
16-8-2017 0:00,130.54,-92.69886926779654,0.0,0.0,0.0,0
16-8-2017 1:00,145.34,-73.12022386846422,0.0,0.0,0.0,0
16-8-2017 2:00,150.78,-62.07926512269859,0.0,0.0,0.0,0
16-8-2017 3:00,154.65,-50.09333600064522,0.0,0.0,0.0,0
16-8-2017 4:00,156.44,-40.98078236402188,0.0,0.0,0.0,0
16-8-2017 5:00,158.36,-35.37435287610592,0.0,0.0,0.0,0
16-8-2017 6:00,162.87,-22.562704353713542,0.0,0.0,0.0,0
16-8-2017 7:00,181.1,-3.00453263236264,0.0,0.0,0.0,0
16-8-2017 8:00,222.24,29.947027084387088,0.0,0.0,0.0,0
16-8-2017 9:00,283.46,62.02467541364817,0.0,0.0,0.0,0
16-8-2017 10:00,297.54,72.9567232004382,0.0,0.0,0.0,0
16-8-2017 11:00,222.3,-25.49671992287128,0.0,0.0,0.0,0
16-8-2017 12:00,207.44,-46.27423309629211,0.0,0.0,0.0,0
16-8-2017 13:00,243.38,24.364842068514548,0.0,0.0,0.0,0
16-8-2017 14:00,196.13,-33.054559583175575,0.0,0.0,0.0,0
16-8-2017 15:00,212.94,-27.134234288046542,0.0,0.0,0.0,0
16-8-2017 16:00,223.71,-4.601890459594614,0.0,0.0,0.0,0
16-8-2017 17:00,320.52,74.57285090409573,0.0,0.0,0.0,0
16-8-2017 18:00,279.93,22.90354150084906,0.0,0.0,0.0,0
16-8-2017 19:00,210.89,-47.39790627517584,0.0,0.0,0.0,0
16-8-2017 20:00,250.06,24.788823023445303,0.0,0.0,0.0,0
16-8-2017 21:00,289.31,96.04084334477807,0.0,0.0,0.0,0
16-8-2017 22:00,317.93,113.5238193588107,0.0,0.0,0.0,0
16-8-2017 23:00,186.58,-9.596263329880543,0.0,0.0,0.0,0
17-8-2017 0:00,169.49,-17.694939194813145,0.0,0.0,0.0,0
17-8-2017 1:00,181.93,-4.000433953657108,0.0,0.0,0.0,0
17-8-2017 2:00,184.13,-0.220676731182607,0.0,0.0,0.0,0
17-8-2017 3:00,184.57,4.109701928478557,0.0,0.0,0.0,0
17-8-2017 4:00,184.17,6.844204022155509,0.0,0.0,0.0,0
17-8-2017 5:00,182.84,0.4324386272157028,0.0,0.0,0.0,0
17-8-2017 6:00,181.07,-2.000362481807798,0.0,0.0,0.0,0
17-8-2017 7:00,164.77,-25.555880744641314,0.0,0.0,0.0,0
17-8-2017 8:00,36.86,-170.22530558864008,0.0,0.0,0.0,0
17-8-2017 9:00,11.88,-230.5548530755614,0.0,0.0,0.0,0
17-8-2017 10:00,17.49,-235.54639537519105,0.0,0.0,0.0,0
17-8-2017 11:00,42.29,-240.97407914082157,0.0,0.0,0.0,0
17-8-2017 12:00,144.32,-151.5886712466991,0.0,0.0,0.0,0
17-8-2017 13:00,217.57,-50.29426409650617,0.0,0.0,0.0,0
17-8-2017 14:00,309.29,25.78234187400591,0.0,0.0,0.0,0
17-8-2017 15:00,422.69,123.12591447111413,0.0,0.0,0.0,0
17-8-2017 16:00,516.14,223.17899140580937,0.0,0.0,0.0,0
17-8-2017 17:00,578.92,261.4297061210664,0.0,0.0,0.0,0
17-8-2017 18:00,565.75,230.02866508065074,0.0,0.0,0.0,0
17-8-2017 19:00,572.96,227.8770066970098,0.0,0.0,0.0,0
17-8-2017 20:00,379.68,58.191081135049615,0.0,0.0,0.0,0
17-8-2017 21:00,367.3,69.13106678840728,0.0,0.0,0.0,0
17-8-2017 22:00,440.18,122.92610267273614,0.0,0.0,0.0,0
17-8-2017 23:00,384.5,66.40722133085967,0.0,0.0,0.0,0
18-8-2017 0:00,222.41,-94.79643713205672,0.0,0.0,0.0,0
18-8-2017 1:00,234.62,-78.42378578783581,0.0,0.0,0.0,0
18-8-2017 2:00,233.52,-75.5329438274114,0.0,0.0,0.0,0
18-8-2017 3:00,232.65,-70.30582936890141,0.0,0.0,0.0,0
18-8-2017 4:00,233.4,-64.17709472574097,0.0,0.0,0.0,0
18-8-2017 5:00,237.78,-52.496191375700164,0.0,0.0,0.0,0
18-8-2017 6:00,238.73,-40.022578488303225,0.0,0.0,0.0,0
18-8-2017 7:00,238.3,-35.14092617206353,0.0,0.0,0.0,0
18-8-2017 8:00,264.18,-13.440475013553112,0.0,0.0,0.0,0
18-8-2017 9:00,276.11,-28.00441312926614,0.0,0.0,0.0,0
18-8-2017 10:00,209.72,-97.38673985879979,0.0,0.0,0.0,0
18-8-2017 11:00,261.8,-67.48585861023568,0.0,0.0,0.0,0
18-8-2017 12:00,319.25,-14.344723992054355,0.0,0.0,0.0,0
18-8-2017 13:00,411.6,105.15411657030927,0.0,0.0,0.0,0
18-8-2017 14:00,471.3,149.495831589808,0.0,0.0,0.0,0
18-8-2017 15:00,349.88,12.611752915679972,0.0,0.0,0.0,0
18-8-2017 16:00,337.55,7.484664383402901,0.0,0.0,0.0,0
18-8-2017 17:00,216.45,-137.56316693528206,0.0,0.0,0.0,0
18-8-2017 18:00,238.6,-133.32045899837567,0.0,0.0,0.0,0
18-8-2017 19:00,307.95,-73.95684737514136,0.0,0.0,0.0,0
18-8-2017 20:00,328.37,-31.889947183191566,0.0,0.0,0.0,0
18-8-2017 21:00,372.54,35.72400611219018,0.0,0.0,0.0,0
18-8-2017 22:00,354.11,-0.932895823185504,0.0,0.0,0.0,0
18-8-2017 23:00,395.48,39.33542649175206,0.0,0.0,0.0,0
19-8-2017 0:00,424.23,69.6727877408511,0.0,0.0,0.0,0
19-8-2017 1:00,437.22,85.58952586531365,0.0,0.0,0.0,0
19-8-2017 2:00,440.0,90.62739324086482,0.0,0.0,0.0,0
19-8-2017 3:00,439.7,94.4871841754005,0.0,0.0,0.0,0
19-8-2017 4:00,441.46,99.7260920452211,0.0,0.0,0.0,0
19-8-2017 5:00,377.45,42.746237896658386,0.0,0.0,0.0,0
19-8-2017 6:00,311.29,-12.357161463108241,0.0,0.0,0.0,0
19-8-2017 7:00,313.76,-4.661764811379555,0.0,0.0,0.0,0
19-8-2017 8:00,330.42,7.745136106055895,0.0,0.0,0.0,0
19-8-2017 9:00,383.47,45.568886150957326,0.0,0.0,0.0,0
19-8-2017 10:00,458.59,127.71785378092585,0.0,0.0,0.0,0
19-8-2017 11:00,488.17,145.5793788330907,0.0,0.0,0.0,0
19-8-2017 12:00,382.51,46.358318964737066,0.0,0.0,0.0,0
19-8-2017 13:00,214.28,-78.88097810992937,0.0,0.0,0.0,0
19-8-2017 14:00,284.38,-7.116725090644763,0.0,0.0,0.0,0
19-8-2017 15:00,197.61,-92.02102608520991,0.0,0.0,0.0,0
19-8-2017 16:00,244.23,-20.860851133659963,0.0,0.0,0.0,0
19-8-2017 17:00,267.16,-5.25679945015051,0.0,0.0,0.0,0
19-8-2017 18:00,238.93,-35.02991349978555,0.0,0.0,0.0,0
19-8-2017 19:00,283.75,15.219397166460425,0.0,0.0,0.0,0
19-8-2017 20:00,95.28,-137.51044785154346,0.0,0.0,0.0,0
19-8-2017 21:00,71.46,-127.16858273751564,0.0,0.0,0.0,0
19-8-2017 22:00,54.95,-150.45347831597388,0.0,0.0,0.0,0
19-8-2017 23:00,172.63,-23.544008167600225,0.0,0.0,0.0,0
20-8-2017 0:00,180.38,-2.9116830298636955,0.0,0.0,0.0,0
20-8-2017 1:00,185.58,7.694269193899146,0.0,0.0,0.0,0
20-8-2017 2:00,186.94,13.294289303635821,0.0,0.0,0.0,0
20-8-2017 3:00,196.19,28.481884033255966,0.0,0.0,0.0,0
20-8-2017 4:00,180.92,18.506092448795442,0.0,0.0,0.0,0
20-8-2017 5:00,191.7,30.67318882534741,0.0,0.0,0.0,0
20-8-2017 6:00,195.43,39.62048524213523,0.0,0.0,0.0,0
20-8-2017 7:00,185.83,29.787334253071208,0.0,0.0,0.0,0
20-8-2017 8:00,192.16,26.418392953149834,0.0,0.0,0.0,0
20-8-2017 9:00,115.8,-75.9486943957761,0.0,0.0,0.0,0
20-8-2017 10:00,115.85,-80.89695796074709,0.0,0.0,0.0,0
20-8-2017 11:00,160.1,-59.95331465942337,0.0,0.0,0.0,0
20-8-2017 12:00,207.88,-17.035094568753664,0.0,0.0,0.0,0
20-8-2017 13:00,248.97,53.06630636756091,0.0,0.0,0.0,0
20-8-2017 14:00,284.85,77.8119330346425,0.0,0.0,0.0,0
20-8-2017 15:00,317.39,99.72624536765122,0.0,0.0,0.0,0
20-8-2017 16:00,251.85,46.24251945103927,0.0,0.0,0.0,0
20-8-2017 17:00,136.18,-86.99872118284375,0.0,0.0,0.0,0
20-8-2017 18:00,169.89,-65.33483253860703,0.0,0.0,0.0,0
20-8-2017 19:00,209.97,-31.2769981489362,0.0,0.0,0.0,0
20-8-2017 20:00,158.59,-59.69076369648059,0.0,0.0,0.0,0
20-8-2017 21:00,160.8,-31.66719244059857,0.0,0.0,0.0,0
20-8-2017 22:00,194.11,-12.746287338931296,0.0,0.0,0.0,0
20-8-2017 23:00,211.38,5.018124966086447,0.0,0.0,0.0,0
21-8-2017 0:00,221.66,20.409208315668508,0.0,0.0,0.0,0
21-8-2017 1:00,221.86,25.39640456495428,0.0,0.0,0.0,0
21-8-2017 2:00,219.75,26.410607335098973,0.0,0.0,0.0,0
21-8-2017 3:00,216.09,27.36803578602607,0.0,0.0,0.0,0
21-8-2017 4:00,218.9,34.18957467350705,0.0,0.0,0.0,0
21-8-2017 5:00,220.56,39.74063099358659,0.0,0.0,0.0,0
21-8-2017 6:00,222.23,48.93563260534185,0.0,0.0,0.0,0
21-8-2017 7:00,232.57,61.73094339389803,0.0,0.0,0.0,0
21-8-2017 8:00,246.04,68.20316929503278,0.0,0.0,0.0,0
21-8-2017 9:00,210.15,9.201280163297128,0.0,0.0,0.0,0
21-8-2017 10:00,181.14,-23.15817898559581,0.0,0.0,0.0,0
21-8-2017 11:00,239.0,13.483618175904468,0.0,0.0,0.0,0
21-8-2017 12:00,274.12,46.117153836615074,0.0,0.0,0.0,0
21-8-2017 13:00,200.29,0.668534795196166,0.0,0.0,0.0,0
21-8-2017 14:00,106.43,-103.77518287863977,0.0,0.0,0.0,0
21-8-2017 15:00,129.13,-90.84297520677146,0.0,0.0,0.0,0
21-8-2017 16:00,114.02,-93.03131521840322,0.0,0.0,0.0,0
21-8-2017 17:00,102.88,-120.45760457693156,0.0,0.0,0.0,0
21-8-2017 18:00,144.24,-90.11646964607596,0.0,0.0,0.0,0
21-8-2017 19:00,197.97,-42.32985886915981,0.0,0.0,0.0,0
21-8-2017 20:00,201.71,-16.86729228242413,0.0,0.0,0.0,0
21-8-2017 21:00,193.35,-0.7960353004340277,0.0,0.0,0.0,0
21-8-2017 22:00,222.17,12.986640398208863,0.0,0.0,0.0,0
21-8-2017 23:00,239.32,28.86196477672084,0.0,0.0,0.0,0
22-8-2017 0:00,254.91,48.75777625499853,0.0,0.0,0.0,0
22-8-2017 1:00,253.16,47.992646172484626,0.0,0.0,0.0,0
22-8-2017 2:00,253.5,47.15746124571484,0.0,0.0,0.0,0
22-8-2017 3:00,253.73,47.50115306062631,0.0,0.0,0.0,0
22-8-2017 4:00,256.27,49.586352509715056,0.0,0.0,0.0,0
22-8-2017 5:00,254.21,48.86586714240781,0.0,0.0,0.0,0
22-8-2017 6:00,255.79,55.223072318216026,0.0,0.0,0.0,0
22-8-2017 7:00,258.83,58.351212486172585,0.0,0.0,0.0,0
22-8-2017 8:00,263.18,53.34897319014371,0.0,0.0,0.0,0
22-8-2017 9:00,224.07,-7.178327028602752,0.0,0.0,0.0,0
22-8-2017 10:00,198.65,-35.49972166626611,0.0,0.0,0.0,0
22-8-2017 11:00,254.1,-0.38051054943781537,0.0,0.0,0.0,0
22-8-2017 12:00,272.93,17.13760077646515,0.0,0.0,0.0,0
22-8-2017 13:00,197.99,-28.940971711227547,0.0,0.0,0.0,0
22-8-2017 14:00,252.31,16.45603280547863,0.0,0.0,0.0,0
22-8-2017 15:00,297.66,54.00620234766609,0.0,0.0,0.0,0
22-8-2017 16:00,169.88,-58.87672062189438,0.0,0.0,0.0,0
22-8-2017 17:00,130.81,-110.96416213363848,0.0,0.0,0.0,0
22-8-2017 18:00,181.9,-67.8818843447344,0.0,0.0,0.0,0
22-8-2017 19:00,145.28,-108.38256297633073,0.0,0.0,0.0,0
22-8-2017 20:00,153.75,-77.44973005107286,0.0,0.0,0.0,0
22-8-2017 21:00,195.77,-7.002522985427419,0.0,0.0,0.0,0
22-8-2017 22:00,223.13,10.050297767058396,0.0,0.0,0.0,0
22-8-2017 23:00,242.61,31.86490867593193,0.0,0.0,0.0,0
23-8-2017 0:00,244.92,43.00879746294211,0.0,0.0,0.0,0
23-8-2017 1:00,241.1,45.489904274043624,0.0,0.0,0.0,0
23-8-2017 2:00,238.57,46.580902856988644,0.0,0.0,0.0,0
23-8-2017 3:00,238.34,51.11406294142296,0.0,0.0,0.0,0
23-8-2017 4:00,238.83,55.801370617421895,0.0,0.0,0.0,0
23-8-2017 5:00,247.1,65.82052804167307,0.0,0.0,0.0,0
23-8-2017 6:00,242.76,66.49779130480437,0.0,0.0,0.0,0
23-8-2017 7:00,257.5,81.88218242712634,0.0,0.0,0.0,0
23-8-2017 8:00,236.19,51.77440333045732,0.0,0.0,0.0,0
23-8-2017 9:00,172.23,-36.0936543184105,0.0,0.0,0.0,0
23-8-2017 10:00,169.98,-45.03033252882523,0.0,0.0,0.0,0
23-8-2017 11:00,145.63,-93.05810501382612,0.0,0.0,0.0,0
23-8-2017 12:00,145.09,-97.99105354326682,0.0,0.0,0.0,0
23-8-2017 13:00,131.94,-87.03792586049295,0.0,0.0,0.0,0
23-8-2017 14:00,113.01,-118.32914590982043,0.0,0.0,0.0,0
23-8-2017 15:00,164.34,-77.88355193649451,0.0,0.0,0.0,0
23-8-2017 16:00,143.4,-87.0465425349127,0.0,0.0,0.0,0
23-8-2017 17:00,179.25,-66.23809928694587,0.0,0.0,0.0,0
23-8-2017 18:00,219.24,-36.79986972364745,0.0,0.0,0.0,0
23-8-2017 19:00,266.21,2.7520320674766765,0.0,0.0,0.0,0
23-8-2017 20:00,317.73,71.90868318949225,0.0,0.0,0.0,0
23-8-2017 21:00,356.09,134.6385091109894,0.0,0.0,0.0,0
23-8-2017 22:00,376.79,141.7779363414371,0.0,0.0,0.0,0
23-8-2017 23:00,234.76,-2.158106560501409,0.0,0.0,0.0,0
24-8-2017 0:00,259.0,27.58114377730243,0.0,0.0,0.0,0
24-8-2017 1:00,283.5,57.78627839753199,0.0,0.0,0.0,0
24-8-2017 2:00,262.19,38.981251405704654,0.0,0.0,0.0,0
24-8-2017 3:00,265.36,45.651670675174586,0.0,0.0,0.0,0
24-8-2017 4:00,254.9,38.12861855382138,0.0,0.0,0.0,0
24-8-2017 5:00,245.7,35.20039506742319,0.0,0.0,0.0,0
24-8-2017 6:00,257.58,56.450692715669845,0.0,0.0,0.0,0
24-8-2017 7:00,251.46,55.644092951737775,0.0,0.0,0.0,0
24-8-2017 8:00,278.56,78.61353221380918,0.0,0.0,0.0,0
24-8-2017 9:00,291.7,76.15188836508361,0.0,0.0,0.0,0
24-8-2017 10:00,198.34,-16.883047667365076,0.0,0.0,0.0,0
24-8-2017 11:00,209.38,-22.070778003477727,0.0,0.0,0.0,0
24-8-2017 12:00,126.18,-101.94776063754466,0.0,0.0,0.0,0
24-8-2017 13:00,82.78,-116.48423657113652,0.0,0.0,0.0,0
24-8-2017 14:00,121.52,-84.02498497333,0.0,0.0,0.0,0
24-8-2017 15:00,113.25,-96.74527035569804,0.0,0.0,0.0,0
24-8-2017 16:00,77.35,-114.46965824046161,0.0,0.0,0.0,0
24-8-2017 17:00,170.69,-29.68219074903905,0.0,0.0,0.0,0
24-8-2017 18:00,203.78,-1.1748699276015202,0.0,0.0,0.0,0
24-8-2017 19:00,242.01,34.612807544947316,0.0,0.0,0.0,0
24-8-2017 20:00,261.72,75.64647212242468,0.0,0.0,0.0,0
24-8-2017 21:00,128.35,-30.493159369531924,0.0,0.0,0.0,0
24-8-2017 22:00,146.91,-21.82911116591569,0.0,0.0,0.0,0
24-8-2017 23:00,160.57,-7.39779338345943,0.0,0.0,0.0,0
25-8-2017 0:00,168.51,9.624833000344722,0.0,0.0,0.0,0
25-8-2017 1:00,172.14,18.459043992971118,0.0,0.0,0.0,0
25-8-2017 2:00,171.1,18.903039989640035,0.0,0.0,0.0,0
25-8-2017 3:00,170.76,20.89576700741418,0.0,0.0,0.0,0
25-8-2017 4:00,170.37,22.27748334535943,0.0,0.0,0.0,0
25-8-2017 5:00,171.94,26.13308420887708,0.0,0.0,0.0,0
25-8-2017 6:00,174.22,33.62762150280432,0.0,0.0,0.0,0
25-8-2017 7:00,176.83,37.71127979873651,0.0,0.0,0.0,0
25-8-2017 8:00,188.77,41.67918636566668,0.0,0.0,0.0,0
25-8-2017 9:00,209.67,44.00118075863591,0.0,0.0,0.0,0
25-8-2017 10:00,235.28,65.66521878515519,0.0,0.0,0.0,0
25-8-2017 11:00,182.22,-7.455237521067318,0.0,0.0,0.0,0
25-8-2017 12:00,60.99,-128.9290223787586,0.0,0.0,0.0,0
25-8-2017 13:00,87.98,-75.7892124158513,0.0,0.0,0.0,0
25-8-2017 14:00,112.33,-59.11359965804593,0.0,0.0,0.0,0
25-8-2017 15:00,135.33,-41.603874883242966,0.0,0.0,0.0,0
25-8-2017 16:00,165.69,5.856229458512928,0.0,0.0,0.0,0
25-8-2017 17:00,191.96,26.020367550444405,0.0,0.0,0.0,0
25-8-2017 18:00,215.02,46.424425987074244,0.0,0.0,0.0,0
25-8-2017 19:00,241.3,71.195525498101,0.0,0.0,0.0,0
25-8-2017 20:00,268.81,119.67384988809334,0.0,0.0,0.0,0
25-8-2017 21:00,137.96,17.559664570770565,0.0,0.0,0.0,0
25-8-2017 22:00,61.88,-66.10676266435694,0.0,0.0,0.0,0
25-8-2017 23:00,74.76,-51.13318060941825,0.0,0.0,0.0,0
26-8-2017 0:00,82.9,-31.682274591526138,0.0,0.0,0.0,0
26-8-2017 1:00,85.38,-22.1609500770016,0.0,0.0,0.0,0
26-8-2017 2:00,82.45,-22.289893942335098,0.0,0.0,0.0,0
26-8-2017 3:00,80.51,-20.726822026755343,0.0,0.0,0.0,0
26-8-2017 4:00,79.43,-18.862300080010286,0.0,0.0,0.0,0
26-8-2017 5:00,79.3,-15.772504212094262,0.0,0.0,0.0,0
26-8-2017 6:00,80.63,-8.46335661800397,0.0,0.0,0.0,0
26-8-2017 7:00,85.27,-1.2690696077249015,0.0,0.0,0.0,0
26-8-2017 8:00,95.58,2.1476749185465565,0.0,0.0,0.0,0
26-8-2017 9:00,117.89,5.113791032510434,0.0,0.0,0.0,0
26-8-2017 10:00,145.28,26.497286597297517,0.0,0.0,0.0,0
26-8-2017 11:00,170.86,30.394587800264958,0.0,0.0,0.0,0
26-8-2017 12:00,120.64,-21.42551580175082,0.0,0.0,0.0,0
26-8-2017 13:00,110.43,-11.49316455278884,0.0,0.0,0.0,0
26-8-2017 14:00,135.48,1.19506475457095,0.0,0.0,0.0,0
26-8-2017 15:00,160.06,15.951055076100403,0.0,0.0,0.0,0
26-8-2017 16:00,131.54,0.16190703393135664,0.0,0.0,0.0,0
26-8-2017 17:00,121.19,-19.663319601599454,0.0,0.0,0.0,0
26-8-2017 18:00,149.69,2.2914411222514843,0.0,0.0,0.0,0
26-8-2017 19:00,177.64,23.849927343784913,0.0,0.0,0.0,0
26-8-2017 20:00,184.72,45.72687621832104,0.0,0.0,0.0,0
26-8-2017 21:00,17.7,-95.48249191938285,0.0,0.0,0.0,0
26-8-2017 22:00,91.17,-31.720023588269086,0.0,0.0,0.0,0
26-8-2017 23:00,104.44,-19.464806255862953,0.0,0.0,0.0,0
27-8-2017 0:00,112.35,-2.4462495988978077,0.0,0.0,0.0,0
27-8-2017 1:00,115.95,7.80560250844394,0.0,0.0,0.0,0
27-8-2017 2:00,114.01,7.757132852027098,0.0,0.0,0.0,0
27-8-2017 3:00,115.05,11.243963736331509,0.0,0.0,0.0,0
27-8-2017 4:00,116.28,14.364705362795434,0.0,0.0,0.0,0
27-8-2017 5:00,114.65,14.537711428878325,0.0,0.0,0.0,0
27-8-2017 6:00,115.72,20.000484516900144,0.0,0.0,0.0,0
27-8-2017 7:00,116.92,22.48441543529451,0.0,0.0,0.0,0
27-8-2017 8:00,126.26,23.65901311467576,0.0,0.0,0.0,0
27-8-2017 9:00,141.29,19.413524730241875,0.0,0.0,0.0,0
27-8-2017 10:00,161.34,32.23075161390442,0.0,0.0,0.0,0
27-8-2017 11:00,187.29,35.71008410666943,0.0,0.0,0.0,0
27-8-2017 12:00,166.16,12.457935540936802,0.0,0.0,0.0,0
27-8-2017 13:00,134.89,1.1690987393473478,0.0,0.0,0.0,0
27-8-2017 14:00,76.87,-68.05378474034448,0.0,0.0,0.0,0
27-8-2017 15:00,71.88,-81.35525820869465,0.0,0.0,0.0,0
27-8-2017 16:00,89.82,-49.20738797139475,0.0,0.0,0.0,0
27-8-2017 17:00,110.9,-33.988331668534144,0.0,0.0,0.0,0
27-8-2017 18:00,134.58,-13.759220991608387,0.0,0.0,0.0,0
27-8-2017 19:00,156.09,3.46029960628546,0.0,0.0,0.0,0
27-8-2017 20:00,178.63,41.60952063121907,0.0,0.0,0.0,0
27-8-2017 21:00,200.49,91.06335119077151,0.0,0.0,0.0,0
27-8-2017 22:00,210.75,94.20309660576397,0.0,0.0,0.0,0
27-8-2017 23:00,79.57,-36.391669266725,0.0,0.0,0.0,0
28-8-2017 0:00,81.28,-23.0670804530494,0.0,0.0,0.0,0
28-8-2017 1:00,81.27,-15.309967467489784,0.0,0.0,0.0,0
28-8-2017 2:00,82.26,-11.833229629589283,0.0,0.0,0.0,0
28-8-2017 3:00,83.69,-7.507906491159531,0.0,0.0,0.0,0
28-8-2017 4:00,84.24,-4.616211899576058,0.0,0.0,0.0,0
28-8-2017 5:00,84.77,-1.6400150379351288,0.0,0.0,0.0,0
28-8-2017 6:00,85.81,4.266364141409454,0.0,0.0,0.0,0
28-8-2017 7:00,91.5,12.029919565310323,0.0,0.0,0.0,0
28-8-2017 8:00,103.46,16.612350995192514,0.0,0.0,0.0,0
28-8-2017 9:00,123.1,19.202638768907192,0.0,0.0,0.0,0
28-8-2017 10:00,106.91,-3.2890223720085174,0.0,0.0,0.0,0
28-8-2017 11:00,80.7,-50.600277932899616,0.0,0.0,0.0,0
28-8-2017 12:00,134.61,2.8229091941971944,0.0,0.0,0.0,0
28-8-2017 13:00,146.33,32.679810332435466,0.0,0.0,0.0,0
28-8-2017 14:00,49.84,-75.53725994392894,0.0,0.0,0.0,0
28-8-2017 15:00,69.78,-64.07927121177954,0.0,0.0,0.0,0
28-8-2017 16:00,105.27,-14.587460965164382,0.0,0.0,0.0,0
28-8-2017 17:00,140.68,15.003588096132148,0.0,0.0,0.0,0
28-8-2017 18:00,174.48,44.87475854617722,0.0,0.0,0.0,0
28-8-2017 19:00,202.61,67.24290342158866,0.0,0.0,0.0,0
28-8-2017 20:00,169.31,46.791986498076966,0.0,0.0,0.0,0
28-8-2017 21:00,86.87,-9.593951935087375,0.0,0.0,0.0,0
28-8-2017 22:00,62.18,-42.1403825129845,0.0,0.0,0.0,0
28-8-2017 23:00,76.37,-29.0885846671369,0.0,0.0,0.0,0
29-8-2017 0:00,85.2,-9.461416773519147,0.0,0.0,0.0,0
29-8-2017 1:00,85.65,-1.6317239187848145,0.0,0.0,0.0,0
29-8-2017 2:00,84.9,-0.8024595956101734,0.0,0.0,0.0,0
29-8-2017 3:00,84.38,0.5186747879017304,0.0,0.0,0.0,0
29-8-2017 4:00,81.66,-0.911867203257259,0.0,0.0,0.0,0
29-8-2017 5:00,80.66,0.07111612621906716,0.0,0.0,0.0,0
29-8-2017 6:00,82.88,6.524697069163722,0.0,0.0,0.0,0
29-8-2017 7:00,84.41,9.81145296962444,0.0,0.0,0.0,0
29-8-2017 8:00,95.06,12.765294121060933,0.0,0.0,0.0,0
29-8-2017 9:00,80.48,-18.98057526116952,0.0,0.0,0.0,0
29-8-2017 10:00,139.2,32.027326663535405,0.0,0.0,0.0,0
29-8-2017 11:00,171.51,42.26393413918714,0.0,0.0,0.0,0
29-8-2017 12:00,97.86,-32.5790919506877,0.0,0.0,0.0,0
29-8-2017 13:00,130.41,16.795829847002707,0.0,0.0,0.0,0
29-8-2017 14:00,72.07,-53.2631445064098,0.0,0.0,0.0,0
29-8-2017 15:00,113.47,-19.98341085413641,0.0,0.0,0.0,0
29-8-2017 16:00,144.19,25.065346786881378,0.0,0.0,0.0,0
29-8-2017 17:00,130.93,8.57024596255006,0.0,0.0,0.0,0
29-8-2017 18:00,104.64,-19.584666458349346,0.0,0.0,0.0,0
29-8-2017 19:00,138.09,9.174411801960972,0.0,0.0,0.0,0
29-8-2017 20:00,137.52,21.235666037385286,0.0,0.0,0.0,0
29-8-2017 21:00,103.07,14.016311792084537,0.0,0.0,0.0,0
29-8-2017 22:00,124.95,30.020765323840294,0.0,0.0,0.0,0
29-8-2017 23:00,138.56,43.486186990566964,0.0,0.0,0.0,0
30-8-2017 0:00,93.79,11.30343210899862,0.0,0.0,0.0,0
30-8-2017 1:00,40.66,-32.856627721291574,0.0,0.0,0.0,0
30-8-2017 2:00,39.8,-31.301586429747502,0.0,0.0,0.0,0
30-8-2017 3:00,39.45,-28.65368333815036,0.0,0.0,0.0,0
30-8-2017 4:00,40.69,-25.269833165153983,0.0,0.0,0.0,0
30-8-2017 5:00,42.16,-21.124439054414694,0.0,0.0,0.0,0
30-8-2017 6:00,43.44,-15.194001266460248,0.0,0.0,0.0,0
30-8-2017 7:00,46.19,-10.288239302501864,0.0,0.0,0.0,0
30-8-2017 8:00,60.53,-3.3970290150940485,0.0,0.0,0.0,0
30-8-2017 9:00,83.95,3.6823028047365227,0.0,0.0,0.0,0
30-8-2017 10:00,116.0,28.040126901600118,0.0,0.0,0.0,0
30-8-2017 11:00,156.03,46.3312944216582,0.0,0.0,0.0,0
30-8-2017 12:00,131.85,21.563062136408803,0.0,0.0,0.0,0
30-8-2017 13:00,88.39,-6.7625341280486,0.0,0.0,0.0,0
30-8-2017 14:00,88.06,-19.687139140500435,0.0,0.0,0.0,0
30-8-2017 15:00,94.16,-22.62638116190334,0.0,0.0,0.0,0
30-8-2017 16:00,106.03,2.5734997722050394,0.0,0.0,0.0,0
30-8-2017 17:00,136.54,29.71010405685155,0.0,0.0,0.0,0
30-8-2017 18:00,78.27,-31.240913372442265,0.0,0.0,0.0,0
30-8-2017 19:00,74.97,-40.47534229844969,0.0,0.0,0.0,0
30-8-2017 20:00,88.55,-16.91233671193521,0.0,0.0,0.0,0
30-8-2017 21:00,111.75,32.93275571056785,0.0,0.0,0.0,0
30-8-2017 22:00,123.49,38.82420655276374,0.0,0.0,0.0,0
30-8-2017 23:00,98.45,13.247006895430957,0.0,0.0,0.0,0
31-8-2017 0:00,60.73,-12.167009091926815,0.0,0.0,0.0,0
31-8-2017 1:00,60.18,-3.8221221000335674,0.0,0.0,0.0,0
31-8-2017 2:00,60.64,-1.776604332912143,0.0,0.0,0.0,0
31-8-2017 3:00,59.71,-0.21723302602180183,0.0,0.0,0.0,0
31-8-2017 4:00,58.04,-0.5542352714042664,0.0,0.0,0.0,0
31-8-2017 5:00,58.2,0.10483870139995588,0.0,0.0,0.0,0
31-8-2017 6:00,51.37,-4.526597584833894,0.0,0.0,0.0,0
31-8-2017 7:00,44.13,-12.080332494552536,0.0,0.0,0.0,0
31-8-2017 8:00,53.72,-12.560256008348134,0.0,0.0,0.0,0
31-8-2017 9:00,67.23,-17.450885843293705,0.0,0.0,0.0,0
31-8-2017 10:00,86.88,-8.357875825739157,0.0,0.0,0.0,0
31-8-2017 11:00,112.46,-7.066884512742391,0.0,0.0,0.0,0
31-8-2017 12:00,87.33,-35.06505924483399,13.17,93.87,-67.52,0
31-8-2017 13:00,80.54,-29.700281941531784,24.32,104.92,-56.28,0
31-8-2017 14:00,134.73,9.730374016884454,13.38,93.96,-67.2,0
31-8-2017 15:00,110.14,-26.106952048287297,65.98,146.73,-14.78,0
31-8-2017 16:00,127.57,2.365659953216422,11.2,91.87,-69.47,0
31-8-2017 17:00,163.63,33.71322281702369,21.66,102.33,-59.01,0
31-8-2017 18:00,115.66,-18.954646150481636,37.1,117.74,-43.54,0
31-8-2017 19:00,154.7,11.706883121046559,-14.43,66.19,-95.04,0
31-8-2017 20:00,145.87,9.011105442504572,1.52,82.1,-79.05,0
31-8-2017 21:00,139.38,26.917953931719282,-22.46,58.13,-103.06,0
31-8-2017 22:00,166.17,46.22344763163477,11.57,92.16,-69.02,0
31-8-2017 23:00,124.92,2.3806721975219887,12.37,92.87,-68.13,0
1-9-2017 0:00,119.08,6.902440651654274,-6.95,73.5,-87.4,0
1-9-2017 1:00,111.8,9.279048111197142,-4.48,75.93,-84.89,0
1-9-2017 2:00,112.49,11.561815999362167,-4.76,75.57,-85.09,0
1-9-2017 3:00,112.7,14.589429167011872,-5.01,75.29,-85.3,0
1-9-2017 4:00,115.65,18.89806592417844,-6.4,73.82,-86.62,0
1-9-2017 5:00,103.13,8.786465715563267,-7.05,73.13,-87.24,0
1-9-2017 6:00,94.3,3.7888013116568118,-14.06,66.05,-94.18,0
1-9-2017 7:00,104.02,14.811091643153091,-20.96,59.15,-101.07,0
1-9-2017 8:00,116.04,18.225556443046116,-10.19,69.83,-90.22,0
1-9-2017 9:00,134.62,20.654005468187705,-11.93,68.06,-91.91,0
1-9-2017 10:00,111.92,-11.158779179241918,7.18,87.13,-72.78,0
1-9-2017 11:00,129.85,-15.758944658981605,-30.27,49.75,-110.29,0
1-9-2017 12:00,88.05,-58.39804242359055,-15.25,64.66,-95.16,0
1-9-2017 13:00,82.87,-51.25398084664391,-6.93,72.94,-86.8,0
1-9-2017 14:00,118.94,-28.959153211474728,-8.39,71.39,-88.18,0
1-9-2017 15:00,106.26,-51.9456526145305,28.1,107.86,-51.66,0
1-9-2017 16:00,157.2,10.898601160253364,-2.25,77.48,-81.97,0
1-9-2017 17:00,153.85,5.028851356237823,27.06,106.82,-52.69,0
1-9-2017 18:00,178.93,26.92585960353736,6.33,86.01,-73.35,0
1-9-2017 19:00,76.56,-82.73492417438244,26.09,105.78,-53.61,0
1-9-2017 20:00,122.79,-30.687756364964542,-76.84,3.0,-156.69,0
1-9-2017 21:00,129.27,0.4539652409024484,-18.52,61.61,-98.64,0
1-9-2017 22:00,144.93,9.506618848478126,11.33,91.41,-68.75,0
1-9-2017 23:00,165.9,28.341384687525874,4.03,83.83,-75.76,0
2-9-2017 0:00,175.9,49.2720546330888,35.28,115.28,-44.72,0
2-9-2017 1:00,174.82,58.454331770005524,31.31,111.44,-48.82,0
2-9-2017 2:00,173.83,58.90829898893844,27.72,107.63,-52.19,0
2-9-2017 3:00,173.67,61.738103227071804,21.43,101.45,-58.58,0
2-9-2017 4:00,171.1,60.396328196511604,16.56,96.38,-63.26,0
2-9-2017 5:00,137.45,29.25741127944039,8.62,88.27,-71.03,0
2-9-2017 6:00,98.58,-5.953123769175278,-13.67,66.19,-93.54,0
2-9-2017 7:00,82.44,-20.9814507235007,-35.64,44.06,-115.33,0
2-9-2017 8:00,69.49,-42.87924013695573,-36.86,42.98,-116.71,0
2-9-2017 9:00,92.42,-34.65945381307543,-45.15,34.47,-124.76,0
2-9-2017 10:00,134.43,-1.1257746868376444,-14.35,65.16,-93.86,0
2-9-2017 11:00,165.49,8.355161479337795,-1.87,77.73,-81.47,0
2-9-2017 12:00,120.97,-35.78260087913698,5.0,84.5,-74.5,0
2-9-2017 13:00,166.48,22.50296800593287,5.12,84.52,-74.28,0
2-9-2017 14:00,136.61,-19.87580964766623,34.28,113.71,-45.16,0
2-9-2017 15:00,57.01,-108.55925935412725,4.37,83.76,-75.03,0
2-9-2017 16:00,94.99,-57.53114077158445,-50.08,29.59,-129.74,0
2-9-2017 17:00,135.33,-18.703302257984234,-14.59,64.9,-94.08,0
2-9-2017 18:00,182.1,25.2134841895587,7.35,86.79,-72.08,0
2-9-2017 19:00,168.71,4.435288347629523,31.14,110.69,-48.4,0
2-9-2017 20:00,162.31,2.3503026304458956,0.21,79.68,-79.27,0
2-9-2017 21:00,98.42,-37.850127884671025,-17.81,61.41,-97.04,0
2-9-2017 22:00,0.0,-143.2373396070713,-29.05,50.41,-108.51,0
2-9-2017 23:00,213.1,66.94794226750093,-89.51,-9.98,-169.03,1
3-9-2017 0:00,226.03,90.14048846685836,102.21,182.91,21.5,0
3-9-2017 1:00,194.96,67.95937781545652,51.14,131.62,-29.33,0
3-9-2017 2:00,162.28,34.595486899464674,26.75,107.27,-53.77,0
3-9-2017 3:00,162.02,35.518424742389215,6.65,87.04,-73.75,0
3-9-2017 4:00,162.69,35.30718045840976,10.61,91.01,-69.8,0
3-9-2017 5:00,164.5,36.24707000719988,7.34,87.65,-72.97,0
3-9-2017 6:00,167.15,38.89978748819232,12.81,93.12,-67.51,0
3-9-2017 7:00,137.91,7.096966422362556,11.36,91.56,-68.85,0
3-9-2017 8:00,89.83,-53.756954030123154,-11.75,68.41,-91.91,0
3-9-2017 9:00,103.46,-56.31842146566781,-43.46,36.83,-123.75,0
3-9-2017 10:00,133.01,-37.53086962392629,-19.01,61.14,-99.16,0
3-9-2017 11:00,165.28,-28.811422869999376,-15.93,64.22,-96.08,0
3-9-2017 12:00,135.47,-59.94044088050359,-7.49,72.6,-87.58,0
3-9-2017 13:00,138.68,-44.1462066381507,8.87,88.89,-71.14,0
3-9-2017 14:00,186.43,-8.281431531358265,-1.05,78.93,-81.03,0
3-9-2017 15:00,225.65,22.435326507935343,39.98,119.91,-39.96,0
3-9-2017 16:00,259.12,69.45446794739689,52.75,132.87,-27.37,0
3-9-2017 17:00,296.64,107.4744898746664,37.22,117.13,-42.69,0
3-9-2017 18:00,202.75,12.06564961850637,43.55,123.61,-36.51,0
3-9-2017 19:00,162.24,-34.925363191378636,-35.97,44.22,-116.17,0
3-9-2017 20:00,201.15,7.802092660889798,-42.89,37.08,-122.86,0
3-9-2017 21:00,220.75,51.618879364884435,-21.11,58.9,-101.12,0
3-9-2017 22:00,153.38,-21.578828347396353,17.05,97.08,-62.97,0
3-9-2017 23:00,133.02,-44.133661097204225,-38.4,41.85,-118.66,0
4-9-2017 0:00,143.15,-22.90986930395684,-48.72,31.39,-128.83,0
4-9-2017 1:00,144.44,-8.661908042063345,-27.44,52.8,-107.69,0
4-9-2017 2:00,145.11,-5.361197391365749,-15.75,64.29,-95.79,0
4-9-2017 3:00,144.51,-1.142666242036114,-10.6,69.5,-90.7,0
4-9-2017 4:00,147.36,4.159079922179274,-11.3,68.65,-91.25,0
4-9-2017 5:00,150.04,11.108873907385856,-7.49,72.47,-87.45,0
4-9-2017 6:00,154.68,20.615941888541585,0.68,80.55,-79.2,0
4-9-2017 7:00,163.91,32.12972468176264,5.01,84.83,-74.8,0
4-9-2017 8:00,189.5,49.64077116080139,12.87,92.64,-66.89,0
4-9-2017 9:00,219.97,67.17355537481183,27.22,106.94,-52.49,0
4-9-2017 10:00,172.03,10.920485341037079,39.38,119.28,-40.52,0
4-9-2017 11:00,126.73,-55.166051908304595,-23.77,55.95,-103.49,0
4-9-2017 12:00,164.62,-15.560820161858203,-49.44,30.31,-129.2,0
4-9-2017 13:00,165.09,-2.239394589898666,33.93,113.75,-45.89,0
4-9-2017 14:00,204.36,26.227459249608927,3.99,83.8,-75.83,0
4-9-2017 15:00,223.41,37.81295100698071,34.66,114.4,-45.09,0
4-9-2017 16:00,110.45,-60.63837647582119,34.1,113.93,-45.72,0
4-9-2017 17:00,119.99,-47.107158256008574,-73.8,6.56,-154.16,0
4-9-2017 18:00,137.58,-28.222612336997713,-38.22,41.89,-118.32,0
4-9-2017 19:00,144.1,-25.79749431300594,-12.1,68.08,-92.29,0
4-9-2017 20:00,113.39,-51.70864908945282,-9.23,70.79,-89.25,0
4-9-2017 21:00,108.81,-30.04540134027961,-53.4,26.94,-133.74,0
4-9-2017 22:00,140.08,-1.9645147531491887,-12.08,67.93,-92.09,0
4-9-2017 23:00,146.33,4.309628161954549,20.81,100.86,-59.24,0
5-9-2017 0:00,135.17,6.57375583838359,2.66,82.79,-77.47,0
5-9-2017 1:00,134.6,19.303034410458338,-3.12,76.79,-83.03,0
5-9-2017 2:00,136.0,22.920592024731036,10.15,90.23,-69.93,0
5-9-2017 3:00,138.01,29.65696187735162,12.47,92.42,-67.48,0
5-9-2017 4:00,139.4,33.10388893705556,11.83,91.56,-67.9,0
5-9-2017 5:00,142.68,38.62515105281304,9.81,89.59,-69.97,0
5-9-2017 6:00,148.07,46.57813322826644,17.08,96.99,-62.84,0
5-9-2017 7:00,92.14,-9.38973169098324,17.32,97.07,-62.44,0
5-9-2017 8:00,87.3,-24.781969851941625,-21.34,58.36,-101.03,0
5-9-2017 9:00,113.07,-12.016513478215415,-11.56,68.16,-91.28,0
5-9-2017 10:00,137.08,2.8085731997327343,3.97,83.53,-75.59,0
5-9-2017 11:00,176.81,21.19483053436167,6.35,85.91,-73.21,0
5-9-2017 12:00,141.13,-13.056909375002277,24.34,103.75,-55.07,0
5-9-2017 13:00,108.21,-33.37872321579974,20.64,100.12,-58.84,0
5-9-2017 14:00,152.02,0.18977861405933538,-12.53,66.92,-91.98,0
5-9-2017 15:00,165.03,6.253573347145675,26.07,105.47,-53.33,0
5-9-2017 16:00,150.83,7.001749669255929,20.31,99.72,-59.11,0
5-9-2017 17:00,114.74,-25.847555761048127,-0.84,78.51,-80.18,0
5-9-2017 18:00,129.29,-11.43134360952628,-34.1,45.2,-113.4,0
5-9-2017 19:00,141.4,-5.271600207965093,-3.32,75.95,-82.6,0
5-9-2017 20:00,130.29,-14.842871069434736,2.33,81.56,-76.91,0
5-9-2017 21:00,124.42,-1.5523278171884272,-24.8,54.48,-104.07,0
5-9-2017 22:00,99.51,-36.12186722355773,-1.38,77.84,-80.59,0
5-9-2017 23:00,59.06,-83.43776893645331,-10.61,68.59,-89.81,0
6-9-2017 0:00,82.78,-52.883251675575266,-44.71,34.52,-123.94,0
6-9-2017 1:00,91.54,-38.36440231682218,-9.9,69.31,-89.11,0
6-9-2017 2:00,95.33,-40.54829315583635,0.57,79.72,-78.58,0
6-9-2017 3:00,98.75,-40.13013467325669,4.49,83.59,-74.62,0
6-9-2017 4:00,100.91,-43.974585424643664,4.6,83.67,-74.46,0
6-9-2017 5:00,102.89,-46.89760202788759,5.04,84.04,-73.97,0
6-9-2017 6:00,111.9,-42.76694608870983,9.96,88.94,-69.03,0
6-9-2017 7:00,135.47,-26.836142165253506,14.59,93.51,-64.32,0
6-9-2017 8:00,176.88,-3.783247879347414,35.03,114.01,-43.96,0
6-9-2017 9:00,241.01,38.68311863562545,50.2,129.15,-28.74,0
6-9-2017 10:00,329.88,109.24388672866678,73.34,152.52,-5.85,0
6-9-2017 11:00,432.37,181.43995755960384,95.68,174.84,16.52,1
6-9-2017 12:00,460.88,202.56435428996494,129.42,209.1,49.74,0
6-9-2017 13:00,372.16,116.50843239350783,135.1,214.72,55.49,0
6-9-2017 14:00,253.63,-22.049874899975578,30.21,109.55,-49.13,0
6-9-2017 15:00,244.77,-47.890307286694735,-46.88,32.52,-126.27,0
6-9-2017 16:00,203.58,-83.8563180510501,-29.83,49.47,-109.14,0
6-9-2017 17:00,255.5,-32.48005072201724,-63.87,15.67,-143.41,0
6-9-2017 18:00,231.77,-60.47564867233538,-22.2,57.15,-101.55,0
6-9-2017 19:00,223.88,-78.50934734166685,-47.69,31.88,-127.26,0
6-9-2017 20:00,201.12,-105.52654108135849,-45.29,34.04,-124.63,0
6-9-2017 21:00,222.54,-59.39976502069095,-76.48,3.19,-156.16,0
6-9-2017 22:00,302.25,16.195357468592988,-26.99,52.5,-106.47,0
6-9-2017 23:00,341.45,54.19861407449662,31.64,111.07,-47.78,0
7-9-2017 0:00,302.74,27.674334531070485,26.47,106.0,-53.06,0
7-9-2017 1:00,315.97,56.11117976147136,-17.56,61.95,-97.07,0
7-9-2017 2:00,318.5,61.46426555413973,9.4,88.92,-70.12,0
7-9-2017 3:00,321.11,70.33263775164801,3.04,82.21,-76.13,0
7-9-2017 4:00,322.92,75.06560073734039,2.07,81.49,-77.36,0
7-9-2017 5:00,328.1,84.10355753041932,-3.71,75.64,-83.07,0
7-9-2017 6:00,333.96,93.54713934864571,4.14,83.09,-74.8,0
7-9-2017 7:00,352.33,112.58227285430274,-0.14,78.84,-79.11,0
7-9-2017 8:00,269.62,19.615960326568086,18.56,97.85,-60.73,0
7-9-2017 9:00,196.94,-62.79863455407826,-59.38,20.09,-138.85,0
7-9-2017 10:00,203.53,-63.05365656379425,-92.95,-13.59,-172.32,0
7-9-2017 11:00,185.23,-100.00924375439982,-81.58,-1.76,-161.4,0
7-9-2017 12:00,266.97,-13.88018190216411,-93.51,-14.13,-172.88,0
7-9-2017 13:00,343.12,78.55939936767126,12.93,92.39,-66.52,0
7-9-2017 14:00,340.07,69.2538941727976,49.53,129.17,-30.11,0
7-9-2017 15:00,219.46,-54.81115411177478,31.13,110.53,-48.28,0
7-9-2017 16:00,153.08,-102.13137277411599,-56.94,22.6,-136.48,0
7-9-2017 17:00,192.46,-54.16343255759159,-68.37,11.32,-148.05,0
7-9-2017 18:00,201.09,-41.01474048159531,-27.1,52.36,-106.56,0
7-9-2017 19:00,212.34,-31.18569676139481,-12.07,67.44,-91.58,0
7-9-2017 20:00,201.98,-38.682628918883864,-0.83,78.51,-80.18,0
7-9-2017 21:00,176.06,-39.749453465741,-20.0,59.47,-99.46,0
7-9-2017 22:00,231.81,12.030335678894232,-15.64,63.64,-94.93,0
7-9-2017 23:00,197.48,-23.227244636704967,34.29,113.59,-45.02,0
8-9-2017 0:00,191.5,-17.07031622473727,-11.54,67.51,-90.58,0
8-9-2017 1:00,197.0,1.632210813235588,3.02,82.03,-75.98,0
8-9-2017 2:00,195.54,0.3399591735108345,13.86,92.85,-65.14,0
8-9-2017 3:00,193.85,2.7162310218718346,15.13,94.05,-63.8,0
8-9-2017 4:00,194.25,3.5140829741714867,12.27,91.17,-66.64,0
8-9-2017 5:00,194.76,4.874870564578288,13.02,91.87,-65.82,0
8-9-2017 6:00,199.87,10.26323566285842,14.97,93.8,-63.86,0
8-9-2017 7:00,204.45,12.04444420680801,16.14,94.9,-62.63,0
8-9-2017 8:00,225.59,19.260670321524316,19.28,98.03,-59.47,0
8-9-2017 9:00,271.76,52.854776839428126,34.9,113.62,-43.82,0
8-9-2017 10:00,307.29,78.23360655015568,51.96,130.55,-26.63,0
8-9-2017 11:00,337.52,86.67600316120851,38.36,117.01,-40.28,0
8-9-2017 12:00,262.17,12.719371958519616,35.39,114.17,-43.39,0
8-9-2017 13:00,219.49,-13.083125623568435,-10.78,67.88,-89.43,0
8-9-2017 14:00,206.65,-31.443410738048215,-32.4,46.19,-111.0,0
8-9-2017 15:00,282.62,41.5593430613101,-18.42,60.19,-97.03,0
8-9-2017 16:00,201.46,-19.742665517232865,48.39,127.22,-30.44,0
8-9-2017 17:00,259.81,52.87157662662466,-32.73,46.21,-111.67,0
8-9-2017 18:00,255.62,58.52918776877715,16.88,95.24,-61.49,0
8-9-2017 19:00,211.05,17.805602918351326,2.33,81.23,-76.57,0
8-9-2017 20:00,190.2,3.4835613829064584,-25.35,53.5,-104.2,0
8-9-2017 21:00,227.13,67.67460125504698,-42.58,36.33,-121.49,0
8-9-2017 22:00,200.52,39.50052208155586,12.72,91.61,-66.17,0
8-9-2017 23:00,175.94,16.523569870976218,-28.42,50.51,-107.35,0
9-9-2017 0:00,41.23,-103.83682873513993,-33.25,45.6,-112.11,0
9-9-2017 1:00,0.0,-140.0436886309661,-119.61,-40.25,-198.97,0
9-9-2017 2:00,0.0,-148.70634644445514,-87.58,-8.77,-166.39,0
9-9-2017 3:00,0.0,-153.0072436866124,-68.78,10.43,-147.99,0
9-9-2017 4:00,0.0,-161.30957150907665,-46.58,32.5,-125.66,0
9-9-2017 5:00,0.0,-176.52653531125475,-43.3,35.79,-122.39,0
9-9-2017 6:00,13.34,-179.27396912283382,-19.34,59.01,-97.69,0
9-9-2017 7:00,24.72,-187.2172677305045,-10.55,68.4,-89.5,0
9-9-2017 8:00,61.39,-181.19908516325003,15.12,93.23,-62.99,0
9-9-2017 9:00,132.02,-143.0121190383092,38.17,117.05,-40.7,0
9-9-2017 10:00,229.2,-76.31527939865117,78.74,157.75,-0.26,0
9-9-2017 11:00,341.96,-5.500740777453132,98.81,177.79,19.82,1
9-9-2017 12:00,459.47,93.38109317342031,144.3,223.84,64.77,1
9-9-2017 13:00,565.41,192.4016591576551,200.36,280.17,120.55,1
9-9-2017 14:00,659.51,257.3317365418156,226.37,306.89,145.84,1
9-9-2017 15:00,721.74,292.69743484335095,234.03,314.73,153.33,1
9-9-2017 16:00,676.46,243.68877876685258,228.29,309.22,147.35,0
9-9-2017 17:00,669.53,232.43207115715632,141.79,222.25,61.32,0
9-9-2017 18:00,578.58,132.39134968457796,91.1,171.49,10.72,0
9-9-2017 19:00,558.96,97.6178845826388,-0.47,79.07,-80.02,0
9-9-2017 20:00,650.74,175.3234819883512,-0.97,79.13,-81.06,0
9-9-2017 21:00,344.91,-104.48664690596132,32.76,112.39,-46.86,0
9-9-2017 22:00,342.87,-109.33362758302962,-215.02,-132.8,-297.24,0
9-9-2017 23:00,454.73,3.0110151259595455,-141.38,-59.96,-222.79,0
10-9-2017 0:00,407.33,-31.475743683691178,-60.14,21.67,-141.95,0
10-9-2017 1:00,410.61,-1.1302723416895333,-108.4,-26.19,-190.6,0
10-9-2017 2:00,408.86,9.848381842684034,-86.94,-4.96,-168.93,0
10-9-2017 3:00,408.91,27.452033681635328,-88.34,-6.18,-170.5,0
10-9-2017 4:00,412.92,44.68124425603406,-82.05,-0.08,-164.02,0
10-9-2017 5:00,412.97,58.62480453631923,-76.39,5.71,-158.49,0
10-9-2017 6:00,341.15,-0.4701527100708063,-65.44,16.44,-147.32,0
10-9-2017 7:00,267.3,-64.98968299431357,-114.97,-32.74,-197.2,0
10-9-2017 8:00,281.66,-52.831268499472685,-128.26,-46.16,-210.36,0
10-9-2017 9:00,327.1,-15.798194201517731,-84.33,-2.29,-166.36,0
10-9-2017 10:00,359.49,9.679903933047854,-48.74,32.95,-130.44,0
10-9-2017 11:00,408.88,40.869833130368306,-48.41,33.39,-130.2,0
10-9-2017 12:00,366.56,3.803380800781156,-19.16,62.51,-100.84,0
10-9-2017 13:00,282.87,-68.33827540979331,-36.01,45.66,-117.68,0
10-9-2017 14:00,253.45,-108.31312128812493,-81.59,-0.01,-163.17,0
10-9-2017 15:00,291.29,-78.96976424554452,-62.03,18.97,-143.02,0
10-9-2017 16:00,273.23,-82.08035358113062,-9.0,72.56,-90.55,0
10-9-2017 17:00,242.57,-107.36602369138845,-0.27,81.24,-81.78,0
10-9-2017 18:00,217.98,-131.69309052570526,-28.05,53.45,-109.55,0
10-9-2017 19:00,259.15,-96.38444862616552,-5.72,75.76,-87.19,0
10-9-2017 20:00,343.38,-18.53922502630354,45.14,126.7,-36.41,0
10-9-2017 21:00,418.25,77.94604216345488,75.94,157.4,-5.52,1
10-9-2017 22:00,366.92,19.40272483333365,151.1,233.17,69.03,0
10-9-2017 23:00,357.05,5.735527312415684,67.42,149.02,-14.18,0
11-9-2017 0:00,383.41,40.40897314975456,54.83,136.69,-27.04,0
11-9-2017 1:00,389.41,58.70466825097287,89.52,171.38,7.65,0
11-9-2017 2:00,389.74,56.34252695459804,79.5,161.47,-2.47,0
11-9-2017 3:00,389.08,58.27862039604679,62.71,144.37,-18.95,0
11-9-2017 4:00,389.03,56.15726188869746,52.16,134.01,-29.7,0
11-9-2017 5:00,390.98,58.31915702396418,36.13,117.57,-45.31,0
11-9-2017 6:00,392.91,58.99448711528146,33.01,113.94,-47.92,0
11-9-2017 7:00,400.31,61.58653592698471,24.44,105.71,-56.83,0
11-9-2017 8:00,428.92,73.6529931219302,30.74,112.37,-50.89,0
11-9-2017 9:00,409.0,41.76946660272699,30.82,112.05,-50.41,0
11-9-2017 10:00,318.07,-60.093885757972146,-16.57,64.95,-98.09,0
11-9-2017 11:00,324.08,-76.13127497470157,-111.47,-29.59,-193.35,0
11-9-2017 12:00,374.97,-23.69872257492159,-93.93,-12.43,-175.43,0
11-9-2017 13:00,348.14,-36.48379811389077,-34.2,47.54,-115.94,0
11-9-2017 14:00,429.95,37.41523561170004,-62.73,18.86,-144.33,0
11-9-2017 15:00,456.42,57.7850542617399,11.71,93.44,-70.02,0
11-9-2017 16:00,318.59,-62.38867785028509,4.38,86.08,-77.32,0
11-9-2017 17:00,287.6,-82.17971885813415,-79.54,2.39,-161.47,0
11-9-2017 18:00,386.45,22.410460548780804,-76.89,4.89,-158.68,1
11-9-2017 19:00,416.85,52.36473899988573,34.83,116.74,-47.08,0
11-9-2017 20:00,370.78,3.7231183439834012,33.46,115.43,-48.5,0
11-9-2017 21:00,289.67,-49.9858857893056,-33.84,48.19,-115.86,0
11-9-2017 22:00,246.37,-94.71536044300169,-42.63,39.23,-124.49,0
11-9-2017 23:00,291.52,-47.45421886434849,-46.67,35.28,-128.61,0
12-9-2017 0:00,321.95,-3.1203890505419167,-7.8,74.16,-89.76,0
12-9-2017 1:00,330.66,23.33579340803658,28.57,110.28,-53.13,0
12-9-2017 2:00,328.58,23.363120229056562,30.32,112.24,-51.6,0
12-9-2017 3:00,329.98,32.62191887114625,25.82,107.67,-56.03,0
12-9-2017 4:00,330.78,36.27997578134858,25.91,107.76,-55.93,0
12-9-2017 5:00,330.22,36.500283589873675,22.13,103.66,-59.41,0
12-9-2017 6:00,330.3,35.595978837175096,22.02,103.78,-59.75,0
12-9-2017 7:00,295.0,-4.400518446038745,22.0,103.47,-59.47,0
12-9-2017 8:00,289.63,-26.406143741852077,0.27,81.94,-81.4,0
12-9-2017 9:00,344.39,13.117772531932644,-3.25,78.07,-84.58,0
12-9-2017 10:00,342.34,-3.6030193119958085,25.31,106.94,-56.33,0
12-9-2017 11:00,337.76,-33.79371593073978,-8.97,72.64,-90.57,0
12-9-2017 12:00,341.45,-31.988147789557274,-30.25,51.33,-111.84,0
12-9-2017 13:00,246.52,-113.07026956641758,-12.46,69.08,-94.0,0
12-9-2017 14:00,281.11,-86.44098314640058,-78.26,3.35,-159.87,0
12-9-2017 15:00,378.33,4.381670201602276,-26.12,55.33,-107.57,0
12-9-2017 16:00,443.03,86.75144567714028,34.57,115.85,-46.72,0
12-9-2017 17:00,341.67,0.8265032247421686,89.15,170.96,7.34,0
12-9-2017 18:00,424.1,92.88539832593102,-24.28,57.62,-106.18,1
12-9-2017 19:00,442.26,114.42717226803433,67.98,150.3,-14.33,0
12-9-2017 20:00,411.29,83.11056629580122,52.74,134.86,-29.37,0
12-9-2017 21:00,442.45,145.34918417182536,1.1,83.22,-81.02,0
12-9-2017 22:00,520.23,225.375940844076,59.36,141.55,-22.83,0
12-9-2017 23:00,315.31,26.367810171821873,101.66,184.19,19.12,0
13-9-2017 0:00,197.91,-73.58554565901892,-104.51,-21.06,-187.96,0
13-9-2017 1:00,147.69,-102.24487920434672,-106.41,-23.31,-189.5,0
13-9-2017 2:00,148.63,-96.0872298554018,-115.01,-31.54,-198.49,0
13-9-2017 3:00,150.11,-83.14653781610505,-75.11,8.0,-158.21,0
13-9-2017 4:00,149.01,-78.1289934156552,-64.19,19.13,-147.51,0
13-9-2017 5:00,150.75,-71.052480655424,-53.2,29.87,-136.26,0
13-9-2017 6:00,153.66,-64.85106121578605,-39.28,43.89,-122.45,0
13-9-2017 7:00,158.96,-60.152367231629086,-23.8,59.22,-106.81,0
13-9-2017 8:00,160.83,-71.0624003123286,-2.87,80.14,-85.88,0
13-9-2017 9:00,179.57,-65.45265534847891,-2.86,80.07,-85.79,0
13-9-2017 10:00,255.32,-2.6323958864360293,-1.96,80.93,-84.86,0
13-9-2017 11:00,217.53,-64.18409522323839,41.88,124.89,-41.13,0
13-9-2017 12:00,263.46,-18.252421494597485,-19.4,63.64,-102.43,0
13-9-2017 13:00,310.12,37.614753149088386,38.4,121.57,-44.77,0
13-9-2017 14:00,333.82,48.653783550365915,70.4,153.46,-12.66,0
13-9-2017 15:00,330.99,34.531704702892455,69.33,152.61,-13.94,0
13-9-2017 16:00,349.29,66.05437076861557,33.91,116.9,-49.07,0
13-9-2017 17:00,290.32,15.85191481467757,79.19,162.5,-4.12,0
13-9-2017 18:00,333.35,61.39811436013531,10.22,93.5,-73.06,0
13-9-2017 19:00,340.38,64.6613438051379,60.51,143.85,-22.83,0
13-9-2017 20:00,353.07,68.32253837548723,37.82,121.1,-45.45,0
13-9-2017 21:00,374.27,114.95312349303902,33.69,116.93,-49.55,0
13-9-2017 22:00,291.06,28.214763712101217,58.23,141.48,-25.03,0
13-9-2017 23:00,207.79,-54.6802438471764,-14.46,68.81,-97.72,0
14-9-2017 0:00,181.08,-69.75307148644893,-58.73,24.61,-142.08,0
14-9-2017 1:00,182.32,-48.86169323759546,-34.52,48.77,-117.81,0
14-9-2017 2:00,181.73,-46.84749356263802,-26.02,57.23,-109.27,0
14-9-2017 3:00,178.56,-40.678680328046454,-24.07,59.14,-107.28,0
14-9-2017 4:00,179.88,-35.70573979216334,-27.68,55.5,-110.87,0
14-9-2017 5:00,180.72,-29.51026821456017,-23.22,59.92,-106.36,0
14-9-2017 6:00,185.27,-21.930370716919953,-20.47,62.64,-103.58,0
14-9-2017 7:00,191.98,-16.263942600739824,-10.78,72.28,-93.85,0
14-9-2017 8:00,230.35,8.644159398326735,2.66,85.69,-80.37,0
14-9-2017 9:00,296.7,62.84404465871489,25.12,108.14,-57.89,0
14-9-2017 10:00,314.59,68.41963260996982,44.64,127.63,-38.36,0
14-9-2017 11:00,297.38,28.17120773834992,19.63,102.58,-63.32,0
14-9-2017 12:00,294.65,26.203264237690064,-8.74,74.19,-91.67,0
14-9-2017 13:00,266.91,7.718321339263412,-2.55,80.33,-85.44,0
14-9-2017 14:00,271.97,0.105681759142783,-17.96,64.89,-100.81,0
14-9-2017 15:00,279.3,-4.0625432464657365,-14.28,68.54,-97.09,0
14-9-2017 16:00,219.73,-50.16814804724956,-20.98,61.81,-103.77,0
14-9-2017 17:00,257.15,-5.7135684007260465,-37.45,45.33,-120.22,0
14-9-2017 18:00,286.89,24.364484691001678,14.46,97.23,-68.31,0
14-9-2017 19:00,267.76,-0.7460158784722637,16.44,99.18,-66.29,0
14-9-2017 20:00,162.38,-118.90220628291615,-1.17,81.53,-83.88,0
14-9-2017 21:00,94.36,-167.9954992136881,-90.78,-7.88,-173.67,0
14-9-2017 22:00,171.67,-100.84463194731177,-76.08,6.8,-158.95,0
14-9-2017 23:00,223.94,-54.59217289310996,10.1,92.99,-72.78,0
15-9-2017 0:00,254.12,-19.44012884031156,44.76,127.64,-38.12,0
15-9-2017 1:00,264.53,0.16482142269484257,70.89,153.8,-12.03,0
15-9-2017 2:00,273.3,0.3784316436364179,64.65,147.55,-18.24,0
15-9-2017 3:00,278.36,4.108226293494283,59.95,142.82,-22.92,0
15-9-2017 4:00,279.13,-2.4805567881886077,51.19,134.04,-31.65,0
15-9-2017 5:00,279.67,-8.469127078113047,41.07,123.88,-41.74,0
15-9-2017 6:00,287.05,-10.223752207370069,33.45,116.22,-49.31,0
15-9-2017 7:00,313.45,2.7874133518702706,33.35,116.08,-49.39,0
15-9-2017 8:00,359.73,23.020653741739977,49.95,132.68,-32.78,0
15-9-2017 9:00,428.83,73.40386111171756,57.75,140.47,-24.97,0
15-9-2017 10:00,520.99,146.31796027779677,63.21,145.9,-19.47,0
15-9-2017 11:00,630.48,225.94599259697122,84.34,167.07,1.62,0
15-9-2017 12:00,459.28,48.72161459262264,117.55,200.46,34.63,0
15-9-2017 13:00,362.86,-31.746558018117526,-61.14,22.06,-144.35,0
15-9-2017 14:00,437.63,36.98802025016272,-78.22,4.95,-161.4,0
15-9-2017 15:00,482.38,76.68253691621823,-20.68,62.46,-103.82,0
15-9-2017 16:00,544.73,159.38754907872658,-16.78,66.33,-99.88,0
15-9-2017 17:00,477.82,117.54641981962413,40.29,123.43,-42.85,0
15-9-2017 18:00,284.17,-58.17641804846539,-37.83,45.38,-121.04,0
15-9-2017 19:00,329.46,-1.3133931385031588,-172.47,-88.54,-256.41,0
15-9-2017 20:00,302.66,-24.869713023827615,-69.03,14.79,-152.86,0
15-9-2017 21:00,382.65,93.26944046809541,-106.8,-22.89,-190.7,0
15-9-2017 22:00,444.14,163.69585925280478,7.95,91.87,-75.98,0
15-9-2017 23:00,443.31,176.1821093915048,16.9,100.78,-66.99,0
16-9-2017 0:00,300.75,57.65534960739291,19.28,103.17,-64.62,0
16-9-2017 1:00,31.23,-190.35191691014904,-81.63,2.46,-165.72,0
16-9-2017 2:00,0.0,-218.52468493792463,-227.09,-142.02,-312.16,0
16-9-2017 3:00,0.0,-207.74969766750172,-155.27,-70.42,-240.12,0
16-9-2017 4:00,0.0,-203.34599316145196,-121.42,-36.63,-206.2,0
16-9-2017 5:00,6.85,-197.8169149222575,-94.49,-9.78,-179.2,0
16-9-2017 6:00,11.08,-197.79437228176533,-64.56,20.06,-149.19,0
16-9-2017 7:00,18.39,-199.12677888281831,-39.08,45.47,-123.62,0
16-9-2017 8:00,51.87,-187.18670970549897,-11.62,72.85,-96.09,0
16-9-2017 9:00,109.08,-150.08054502253825,16.02,100.44,-68.4,0
16-9-2017 10:00,195.91,-84.24829943824136,36.93,121.31,-47.45,0
16-9-2017 11:00,293.75,-17.914174724878762,74.56,158.98,-9.85,0
16-9-2017 12:00,400.38,81.08464797047753,114.49,199.08,29.89,1
16-9-2017 13:00,510.73,193.9867882326737,187.32,272.22,102.41,1
16-9-2017 14:00,610.83,274.59212693460483,234.3,319.79,148.81,1
16-9-2017 15:00,584.88,229.9329278575742,236.36,321.97,150.75,0
16-9-2017 16:00,634.12,286.32209956862454,143.58,228.96,58.21,1
16-9-2017 17:00,610.47,270.254062593275,188.12,273.81,102.43,0
16-9-2017 18:00,342.62,2.399134954747012,122.71,208.24,37.18,0
16-9-2017 19:00,352.26,5.64448653352423,-90.18,-4.18,-176.18,0
16-9-2017 20:00,411.81,48.93683835669799,-22.92,63.07,-108.91,0
16-9-2017 21:00,255.73,-76.69038311460042,-0.3,85.63,-86.22,0
16-9-2017 22:00,197.0,-134.30723419747463,-123.78,-37.43,-210.13,0
16-9-2017 23:00,431.83,106.25398563980684,-129.25,-42.88,-215.62,1
17-9-2017 0:00,386.76,77.35960063286814,77.14,164.01,-9.73,0
17-9-2017 1:00,238.77,-40.82835208483169,-13.01,73.89,-99.91,0
17-9-2017 2:00,206.76,-62.19596778093407,-76.88,10.12,-163.88,0
17-9-2017 3:00,202.57,-47.5342573095557,-79.54,7.44,-166.52,0
17-9-2017 4:00,204.89,-33.076534635382814,-68.32,18.62,-155.27,0
17-9-2017 5:00,208.4,-19.500404560606057,-63.28,23.63,-150.19,0
17-9-2017 6:00,213.78,-7.221290843901272,-52.0,34.87,-138.87,0
17-9-2017 7:00,217.14,-1.57786629878413,-41.98,44.84,-128.8,0
17-9-2017 8:00,224.37,-5.201565027551709,-28.74,58.03,-115.5,0
17-9-2017 9:00,160.72,-80.00052262598476,-31.55,55.16,-118.26,0
17-9-2017 10:00,144.89,-108.2382102178469,-100.0,-13.14,-186.86,0
17-9-2017 11:00,201.49,-74.44607270467296,-99.77,-12.94,-186.6,0
17-9-2017 12:00,263.52,-11.312128903988622,-55.09,31.63,-141.82,0
17-9-2017 13:00,287.31,24.08718433324225,6.73,93.39,-79.93,0
17-9-2017 14:00,328.43,54.71014357092258,19.38,106.02,-67.25,0
17-9-2017 15:00,372.87,89.24408885290433,28.43,115.02,-58.16,0
17-9-2017 16:00,240.1,-27.12571978540504,48.05,134.62,-38.52,0
17-9-2017 17:00,138.84,-115.29893143242708,-49.37,37.32,-136.05,0
17-9-2017 18:00,195.47,-53.614215796819224,-62.57,24.11,-149.25,0
17-9-2017 19:00,256.32,5.865195495347393,44.43,131.24,-42.37,0
17-9-2017 20:00,275.16,11.937952071593884,58.68,145.45,-28.09,0
17-9-2017 21:00,284.97,48.25867295658287,55.37,142.13,-31.39,0
17-9-2017 22:00,326.67,87.00286932563407,78.89,165.68,-7.89,0
17-9-2017 23:00,273.04,35.27337618100614,93.41,180.25,6.58,0
18-9-2017 0:00,196.77,-28.924316729250393,12.16,98.99,-74.67,0
18-9-2017 1:00,199.59,-3.1780945894140586,8.64,95.43,-78.15,0
18-9-2017 2:00,202.46,2.754303103851015,53.05,139.89,-33.8,0
18-9-2017 3:00,206.74,18.79759783387908,39.0,125.8,-47.79,0
18-9-2017 4:00,205.99,22.75419973386923,34.09,120.84,-52.67,0
18-9-2017 5:00,205.11,28.75413016180218,21.94,108.66,-64.78,0
18-9-2017 6:00,206.16,33.236563472293426,16.07,102.74,-70.6,0
18-9-2017 7:00,206.12,31.83256768115453,9.96,96.59,-76.66,0
18-9-2017 8:00,226.5,37.47184956387386,8.09,94.67,-78.5,0
18-9-2017 9:00,173.61,-24.516814743531313,4.5,91.05,-82.04,0
18-9-2017 10:00,236.0,27.150980060869102,-64.27,22.37,-150.9,0
18-9-2017 11:00,265.32,35.456545946275924,-18.84,67.75,-105.43,0
18-9-2017 12:00,212.82,-14.108973575290065,-42.66,43.92,-129.24,0
18-9-2017 13:00,200.96,-10.545889640672982,-70.46,16.19,-157.11,0
18-9-2017 14:00,242.84,24.591287855107964,-59.92,26.67,-146.5,0
18-9-2017 15:00,197.94,-26.655024781546587,-42.1,44.46,-128.66,0
18-9-2017 16:00,175.02,-29.167208296580554,-88.15,-1.49,-174.81,0
18-9-2017 17:00,2.21,-183.5587903171168,-47.75,38.84,-134.34,0
18-9-2017 18:00,182.81,6.982372890785484,-152.95,-65.93,-239.98,1
18-9-2017 19:00,125.61,-46.73731994724723,87.55,175.19,-0.08,0
18-9-2017 20:00,188.7,6.902677538483175,-43.92,43.91,-131.76,0
18-9-2017 21:00,151.52,-0.8150701616603158,52.71,140.63,-35.21,0
18-9-2017 22:00,125.5,-26.9661755844716,7.39,95.27,-80.49,0
18-9-2017 23:00,178.0,30.497269045203097,16.35,104.19,-71.48,0
19-9-2017 0:00,176.08,43.4399189878408,38.29,126.11,-49.54,0
19-9-2017 1:00,152.85,42.94894644233267,74.77,162.63,-13.09,0
19-9-2017 2:00,122.61,14.879987982084515,72.81,160.67,-15.05,0
19-9-2017 3:00,77.27,-19.096502572118425,48.21,136.03,-39.6,0
19-9-2017 4:00,76.24,-16.162287506455442,10.22,98.0,-77.55,0
19-9-2017 5:00,74.05,-14.637060212365526,20.14,107.88,-67.6,0
19-9-2017 6:00,78.6,-10.099810795087024,11.41,99.11,-76.29,0
19-9-2017 7:00,100.83,7.140340823726035,15.66,103.32,-72.0,0
19-9-2017 8:00,157.69,45.39417106414027,28.07,115.7,-59.56,0
19-9-2017 9:00,195.57,70.44699569507338,46.94,134.55,-40.67,0
19-9-2017 10:00,119.32,-20.61852267671604,39.9,127.47,-47.68,0
19-9-2017 11:00,176.82,11.881676008471146,-62.21,25.5,-149.92,0
19-9-2017 12:00,136.74,-29.21210240779756,-14.76,72.92,-102.44,0
19-9-2017 13:00,125.31,-30.06296816904043,-56.06,31.66,-143.79,0
19-9-2017 14:00,124.0,-43.019292808404984,-39.97,47.68,-127.63,0
19-9-2017 15:00,137.95,-40.51358375694198,-68.27,19.43,-155.98,0
19-9-2017 16:00,137.42,-25.28599409179199,-44.81,42.84,-132.46,0
19-9-2017 17:00,142.51,-6.6522811128025126,-21.09,66.53,-108.7,0
19-9-2017 18:00,142.66,-1.881004959565928,24.0,111.6,-63.6,0
19-9-2017 19:00,114.41,-32.00633797183916,16.93,104.49,-70.63,0
19-9-2017 20:00,121.72,-41.03563562066594,-3.11,84.41,-90.64,0
19-9-2017 21:00,117.91,-18.97996308330137,-3.6,83.88,-91.09,0
19-9-2017 22:00,125.72,-15.024718381089187,21.91,109.37,-65.56,0
19-9-2017 23:00,111.02,-28.246684060225874,21.44,108.87,-65.99,0
20-9-2017 0:00,117.59,-10.616847979217283,-3.67,83.76,-91.1,0
20-9-2017 1:00,131.68,25.51738265423171,45.58,133.05,-41.89,0
20-9-2017 2:00,177.52,72.11374761256457,75.05,162.55,-12.46,0
20-9-2017 3:00,143.05,48.15590591381519,94.15,181.69,6.61,0
20-9-2017 4:00,146.08,53.92947054728384,43.57,131.04,-43.91,0
20-9-2017 5:00,148.08,60.1266700943371,46.33,133.72,-41.05,0
20-9-2017 6:00,173.12,85.34723429884059,31.9,119.3,-55.51,0
20-9-2017 7:00,164.13,71.32403237743486,43.53,130.91,-43.85,0
20-9-2017 8:00,140.7,29.015641932813452,16.91,104.24,-70.42,0
20-9-2017 9:00,147.67,24.428759476647883,-20.38,66.95,-107.7,0
20-9-2017 10:00,126.48,-10.590024384868059,-26.05,61.25,-113.34,0
20-9-2017 11:00,126.89,-34.17371878928431,-62.67,24.51,-149.85,0
20-9-2017 12:00,126.74,-34.4371111670324,-80.49,6.84,-167.82,0
20-9-2017 13:00,114.34,-32.24243914270025,-59.88,27.43,-147.2,0
20-9-2017 14:00,113.0,-41.32992634489361,-63.55,23.73,-150.84,0
20-9-2017 15:00,102.18,-59.8633430575856,-77.35,9.97,-164.67,0
20-9-2017 16:00,103.11,-39.04107409414483,-77.45,9.85,-164.76,0
20-9-2017 17:00,102.65,-20.114754779453392,-39.03,48.23,-126.3,0
20-9-2017 18:00,89.16,-23.672968197540655,-1.83,85.38,-89.04,0
20-9-2017 19:00,90.54,-18.86273165968123,-7.82,79.36,-95.01,0
20-9-2017 20:00,95.46,-26.417586006319013,1.96,89.09,-85.18,0
20-9-2017 21:00,89.41,-4.80221206694371,-4.98,82.12,-92.07,0
20-9-2017 22:00,96.55,0.13457611343378062,19.9,106.96,-67.16,0
20-9-2017 23:00,99.94,6.970047640726904,21.8,108.83,-65.22,0
21-9-2017 0:00,118.17,37.84604472908221,14.85,101.83,-72.14,0
21-9-2017 1:00,102.69,43.77162030809211,62.75,149.78,-24.28,0
21-9-2017 2:00,100.43,40.90945045160984,66.2,153.22,-20.83,0
21-9-2017 3:00,34.57,-15.233600625082119,55.13,142.12,-31.85,0
21-9-2017 4:00,19.02,-29.20435608061652,3.63,90.58,-83.33,0
21-9-2017 5:00,20.01,-26.496592251933677,5.02,91.94,-81.9,0
21-9-2017 6:00,26.31,-22.784121231538904,3.76,90.65,-83.12,0
21-9-2017 7:00,32.81,-24.32198393550901,6.25,93.1,-80.6,0
21-9-2017 8:00,72.92,-6.323902307511801,7.18,94.0,-79.63,0
21-9-2017 9:00,149.25,55.56367525590569,22.49,109.21,-64.24,0
21-9-2017 10:00,131.49,20.805805930384423,48.94,135.71,-37.84,0
21-9-2017 11:00,139.69,1.8623984620858636,-7.67,79.1,-94.43,0
21-9-2017 12:00,147.97,6.773572148579632,-20.27,66.46,-107.01,0
21-9-2017 13:00,132.43,2.119092433419695,-7.68,79.02,-94.38,0
21-9-2017 14:00,125.95,-15.934246856669546,-20.65,66.01,-107.32,0
21-9-2017 15:00,126.86,-26.731478858583714,-44.95,41.72,-131.62,0
21-9-2017 16:00,127.27,-10.019336171197509,-39.5,47.13,-126.13,0
21-9-2017 17:00,114.59,-6.1236578452609365,-15.29,71.31,-101.88,0
21-9-2017 18:00,136.64,22.51539184087123,6.6,93.16,-79.95,0
21-9-2017 19:00,119.75,5.707812903831055,25.6,112.13,-60.93,0
21-9-2017 20:00,107.12,-24.185983165649958,2.3,88.73,-84.13,0
21-9-2017 21:00,120.92,16.719622475656436,-13.19,73.28,-99.67,0
21-9-2017 22:00,123.88,16.768370923628993,22.82,109.27,-63.64,0
21-9-2017 23:00,105.07,1.0116964467816274,13.02,99.43,-73.4,0
22-9-2017 0:00,107.83,15.644271331913401,-12.01,74.42,-98.44,0
22-9-2017 1:00,56.35,-12.203442161868523,25.46,111.88,-60.95,0
22-9-2017 2:00,57.78,-9.868780851518608,6.78,93.17,-79.6,0
22-9-2017 3:00,52.3,-3.5616753245058135,13.93,100.28,-72.42,0
22-9-2017 4:00,48.33,-4.2514274343215845,14.35,100.67,-71.98,0
22-9-2017 5:00,51.67,2.7642380356204796,8.46,94.75,-77.83,0
22-9-2017 6:00,59.11,9.285953231536155,6.67,92.92,-79.59,0
22-9-2017 7:00,78.5,22.070752356740826,6.55,92.77,-79.67,0
22-9-2017 8:00,127.31,49.97262866909591,17.53,103.73,-68.67,0
22-9-2017 9:00,128.36,37.627120735387706,29.21,115.38,-56.95,0
22-9-2017 10:00,120.26,13.292618359751188,-4.53,81.61,-90.67,0
22-9-2017 11:00,107.87,-25.45804975853953,-22.47,63.65,-108.59,0
22-9-2017 12:00,127.33,-8.689857593913814,-53.92,32.21,-140.04,0
22-9-2017 13:00,116.83,-8.148558460496048,-17.96,68.13,-104.05,0
22-9-2017 14:00,105.34,-31.172819250411372,-30.62,55.46,-116.69,0
22-9-2017 15:00,95.58,-52.76893595347788,-50.68,35.41,-136.77,0
22-9-2017 16:00,92.41,-39.3619889540764,-51.53,34.53,-137.59,0
22-9-2017 17:00,96.94,-17.04480814136653,-24.79,61.23,-110.81,0
22-9-2017 18:00,90.6,-16.116351875486828,11.11,97.09,-74.88,0
22-9-2017 19:00,100.19,-5.769602811898494,5.39,91.35,-80.56,0
22-9-2017 20:00,100.44,-23.55019712869459,16.46,102.38,-69.46,0
22-9-2017 21:00,117.25,20.111479735585604,1.68,87.57,-84.21,0
22-9-2017 22:00,104.67,4.218027972195955,35.42,121.31,-50.48,0
22-9-2017 23:00,95.4,-2.0849529877491477,15.58,101.37,-70.21,0
23-9-2017 0:00,91.95,5.8700392152018,-1.58,84.18,-87.33,0
23-9-2017 1:00,87.66,23.43793719337411,27.1,112.91,-58.71,0
23-9-2017 2:00,87.79,21.978330215302222,50.81,136.62,-34.99,0
23-9-2017 3:00,82.23,26.2744928907658,37.82,123.53,-47.89,0
23-9-2017 4:00,76.57,21.594644671414684,37.57,123.32,-48.18,0
23-9-2017 5:00,75.4,21.808778612895452,25.02,110.66,-60.62,0
23-9-2017 6:00,75.41,18.320304814611532,14.9,100.5,-70.69,0
23-9-2017 7:00,69.84,3.3283325992704533,9.22,94.79,-76.34,0
23-9-2017 8:00,88.05,-2.4154295737371427,-2.74,82.79,-88.27,0
23-9-2017 9:00,80.38,-23.500449097788618,-6.28,79.21,-91.77,0
23-9-2017 10:00,57.54,-62.87801061675796,-34.08,51.48,-119.64,0
23-9-2017 11:00,78.64,-68.42236547825844,-56.32,29.24,-141.88,0
23-9-2017 12:00,152.05,1.9064190712816185,-50.33,35.18,-135.85,0
23-9-2017 13:00,205.33,67.90428342968048,13.66,99.11,-71.79,0
23-9-2017 14:00,165.93,18.529887516342384,34.96,120.38,-50.47,0
23-9-2017 15:00,172.84,14.995672488526878,-30.26,55.27,-115.8,0
23-9-2017 16:00,191.83,52.358210176347,-11.72,73.77,-97.2,0
23-9-2017 17:00,158.07,38.79020250837476,14.48,99.94,-70.98,0
23-9-2017 18:00,135.3,25.161374386546697,11.08,96.51,-74.35,0
23-9-2017 19:00,130.73,23.215760483308202,-2.42,82.98,-87.82,0
23-9-2017 20:00,96.62,-28.498323048258328,0.63,86.0,-84.74,0
23-9-2017 21:00,62.56,-33.288840308053324,-36.11,49.25,-121.48,0
23-9-2017 22:00,35.79,-61.102757629854175,-32.25,53.09,-117.58,0
23-9-2017 23:00,67.49,-23.850310419946027,-43.98,41.34,-129.31,0
24-9-2017 0:00,96.87,19.138833753775103,-11.52,73.78,-96.82,0
24-9-2017 1:00,57.25,6.400156108861637,28.71,114.02,-56.59,0
24-9-2017 2:00,55.43,7.294093747327935,18.44,103.71,-66.82,0
24-9-2017 3:00,53.87,20.457126476202262,17.15,102.38,-68.08,0
24-9-2017 4:00,30.68,2.7449950522758115,24.51,109.72,-60.69,0
24-9-2017 5:00,22.28,-1.3804708320822527,1.38,86.56,-83.8,0
24-9-2017 6:00,33.76,9.202798078056645,-0.25,84.89,-85.4,0
24-9-2017 7:00,52.69,21.07598622479229,4.74,89.86,-80.37,0
24-9-2017 8:00,59.04,5.608517269044498,16.33,101.41,-68.76,0
24-9-2017 9:00,68.14,-0.7698265340789021,-5.55,79.51,-90.61,0
24-9-2017 10:00,80.16,-7.634259885109714,-9.66,75.37,-94.69,0
24-9-2017 11:00,77.4,-39.366114178548585,-10.99,74.01,-95.99,0
24-9-2017 12:00,74.0,-48.28054993282283,-34.57,50.42,-119.56,0
24-9-2017 13:00,75.98,-40.28782994244951,-29.82,55.14,-114.79,0
24-9-2017 14:00,71.42,-61.644070572216954,-23.75,61.18,-108.68,0
24-9-2017 15:00,105.06,-45.43809351778807,-35.6,49.32,-120.52,0
24-9-2017 16:00,98.38,-40.33167473455598,-4.34,80.54,-89.22,0
24-9-2017 17:00,101.77,-24.872968306008772,-2.66,82.19,-87.51,0
24-9-2017 18:00,90.56,-35.597178238343204,34.45,119.3,-50.41,0
24-9-2017 19:00,105.48,-26.71325253120706,18.98,103.8,-65.84,0
24-9-2017 20:00,93.33,-66.56892270034258,35.33,120.13,-49.48,0
24-9-2017 21:00,95.83,-43.515612828418654,6.91,91.68,-77.86,0
24-9-2017 22:00,92.51,-56.74397445283664,29.94,114.69,-54.81,0
24-9-2017 23:00,115.12,-37.13007781728113,17.8,102.52,-66.91,0
25-9-2017 0:00,167.03,19.459239583004262,27.06,111.76,-57.64,0
25-9-2017 1:00,246.41,118.75125022951994,73.8,158.55,-10.95,1
25-9-2017 2:00,266.8,134.1659963990394,139.74,224.72,54.75,0
25-9-2017 3:00,216.71,91.67316309583939,104.21,189.11,19.31,0
25-9-2017 4:00,231.9,104.84601238185255,55.93,140.77,-28.92,0
25-9-2017 5:00,224.62,98.05369859836901,60.7,145.52,-24.12,0
25-9-2017 6:00,191.14,59.60146214364411,32.59,117.37,-52.19,0
25-9-2017 7:00,235.67,92.76256257916987,-8.15,76.59,-92.89,0
25-9-2017 8:00,221.32,52.05413876739527,23.49,108.22,-61.24,0
25-9-2017 9:00,155.16,-27.06566026631296,-31.02,53.71,-115.75,0
25-9-2017 10:00,179.24,-19.635096400918172,-88.98,-4.15,-173.82,0
25-9-2017 11:00,175.82,-49.77258107780844,-60.89,23.89,-145.68,0
25-9-2017 12:00,191.65,-37.30836808740989,-87.57,-2.76,-172.38,0
25-9-2017 13:00,202.03,-11.888213984271033,-64.92,19.86,-149.71,0
25-9-2017 14:00,184.76,-37.04372084967673,-59.32,25.45,-144.08,0
25-9-2017 15:00,176.21,-54.284973232212295,-77.5,7.28,-162.28,0
25-9-2017 16:00,170.02,-39.542083704148155,-75.91,8.85,-160.68,0
25-9-2017 17:00,174.69,-11.141316450602176,-54.05,30.68,-138.77,0
25-9-2017 18:00,159.67,-14.545561464963555,-13.84,70.84,-98.51,0
25-9-2017 19:00,169.27,0.1433101270537236,-21.65,63.0,-106.3,0
25-9-2017 20:00,179.94,-7.208540405144362,-2.94,81.66,-87.54,0
25-9-2017 21:00,156.67,-1.4316293871150663,-0.72,83.84,-85.28,0
25-9-2017 22:00,143.69,-15.974518934252444,-2.76,81.76,-87.28,0
25-9-2017 23:00,129.89,-24.109256493151918,-3.32,81.16,-87.79,0
26-9-2017 0:00,153.54,12.500150513595457,-17.31,67.16,-101.79,0
26-9-2017 1:00,148.94,34.2507533443152,26.91,111.39,-57.56,0
26-9-2017 2:00,142.01,28.064211937662606,37.38,121.82,-47.07,0
26-9-2017 3:00,142.03,41.96341649516316,26.33,110.74,-58.08,0
26-9-2017 4:00,109.51,13.339416479359443,39.28,123.68,-45.12,0
26-9-2017 5:00,97.14,5.344180993737751,6.87,91.24,-77.5,0
26-9-2017 6:00,107.78,14.610365371136425,6.04,90.38,-78.3,0
26-9-2017 7:00,130.81,29.633505670837934,11.47,95.78,-72.85,0
26-9-2017 8:00,134.06,9.658254578422117,20.09,104.37,-64.2,0
26-9-2017 9:00,142.59,6.50488330554623,-1.61,82.65,-85.87,0
26-9-2017 10:00,139.59,-12.151622859326721,-0.1,84.12,-84.33,0
26-9-2017 11:00,130.0,-47.446805166361614,-18.1,66.1,-102.3,0
26-9-2017 12:00,175.86,-4.046010677983617,-37.19,46.99,-121.37,0
26-9-2017 13:00,177.34,10.789769661797976,2.02,86.18,-82.15,0
26-9-2017 14:00,161.0,-15.236811315368769,-10.95,73.18,-95.08,0
26-9-2017 15:00,158.58,-28.31710101099165,-27.91,56.21,-112.02,0
26-9-2017 16:00,152.53,-14.999797574943443,-27.47,56.62,-111.56,0
26-9-2017 17:00,151.52,5.902118448841037,-13.68,70.37,-97.74,0
26-9-2017 18:00,134.87,-1.4830737023075784,14.0,98.04,-70.03,0
26-9-2017 19:00,116.57,-17.050550990212784,3.27,87.27,-80.74,0
26-9-2017 20:00,122.28,-33.15987665027687,-6.05,77.93,-90.02,0
26-9-2017 21:00,113.68,-14.049579574370313,-2.3,81.64,-86.25,0
26-9-2017 22:00,109.06,-21.7177021818667,4.9,88.82,-79.01,0
26-9-2017 23:00,95.39,-30.891779072860686,5.88,89.77,-78.01,0
27-9-2017 0:00,99.43,-15.47501550922199,-12.22,71.63,-96.08,0
27-9-2017 1:00,94.88,6.301080853644663,10.35,94.19,-73.48,0
27-9-2017 2:00,100.38,11.855327167449133,25.6,109.41,-58.21,0
27-9-2017 3:00,102.32,27.600983702640434,23.26,107.05,-60.52,0
27-9-2017 4:00,103.07,31.796690703305273,33.95,117.72,-49.81,0
27-9-2017 5:00,103.91,36.03549620758494,28.84,112.57,-54.89,0
27-9-2017 6:00,106.14,35.614003379086924,25.18,108.88,-58.52,0
27-9-2017 7:00,119.51,39.4046451775431,18.37,102.04,-65.3,0
27-9-2017 8:00,175.96,70.85632391768925,17.28,100.92,-66.36,0
27-9-2017 9:00,141.08,22.918516969938267,39.75,123.38,-43.88,0
27-9-2017 10:00,121.62,-13.82540424574809,-13.47,70.15,-97.09,0
27-9-2017 11:00,137.4,-25.403737822157765,-25.51,58.08,-109.11,0
27-9-2017 12:00,123.51,-43.610965566510004,-25.18,58.38,-108.73,0
27-9-2017 13:00,128.98,-24.717074898630855,-41.67,41.88,-125.23,0
27-9-2017 14:00,147.71,-15.728994525884374,-30.19,53.33,-113.71,0
27-9-2017 15:00,132.32,-42.03609609367369,-20.45,63.04,-103.93,0
27-9-2017 16:00,111.33,-43.55874449844539,-37.12,46.35,-120.59,0
27-9-2017 17:00,140.42,9.597031830506126,-31.16,52.28,-114.61,0
27-9-2017 18:00,137.44,17.51294934315625,23.26,106.71,-60.19,0
27-9-2017 19:00,110.12,-5.413630360426794,14.2,97.62,-69.22,0
27-9-2017 20:00,123.52,-13.585859788276792,-3.9,79.5,-87.29,0
27-9-2017 21:00,118.37,8.80178848547051,6.26,89.62,-77.11,0
27-9-2017 22:00,121.39,8.403350271314054,11.06,94.39,-72.28,0
27-9-2017 23:00,107.8,-0.6356695626356128,16.26,99.56,-67.05,0
28-9-2017 0:00,99.2,1.6263003073879503,-4.84,78.46,-88.15,0
28-9-2017 1:00,72.17,-0.2636511524483609,5.06,88.34,-78.22,0
28-9-2017 2:00,71.98,-2.2501584730367767,4.78,88.03,-78.47,0
28-9-2017 3:00,62.91,1.2504086849953069,6.01,89.22,-77.21,0
28-9-2017 4:00,50.91,-8.91534461987007,9.64,92.82,-73.55,0
28-9-2017 5:00,33.18,-25.856911971761164,2.03,85.19,-81.13,0
28-9-2017 6:00,34.67,-29.93049585222805,-9.17,73.96,-92.3,0
28-9-2017 7:00,43.78,-33.606521151098974,-5.54,77.56,-88.65,0
28-9-2017 8:00,96.94,-8.85208117447253,-6.37,76.7,-89.44,0
28-9-2017 9:00,145.13,21.839596105360414,18.32,101.37,-64.74,0
28-9-2017 10:00,172.51,27.242238028657766,38.63,121.68,-44.42,0
28-9-2017 11:00,197.43,20.084731372670433,36.31,119.32,-46.71,0
28-9-2017 12:00,273.36,86.77345958538507,28.94,111.94,-54.05,0
28-9-2017 13:00,126.88,-52.23718033450061,71.49,154.53,-11.54,0
28-9-2017 14:00,148.72,-46.21707952770335,-74.57,8.71,-157.86,0
28-9-2017 15:00,115.49,-96.64363388352146,-13.73,69.54,-97.0,0
28-9-2017 16:00,161.43,-37.1591016684427,-59.79,23.51,-143.09,0
28-9-2017 17:00,130.57,-48.68159604345037,14.2,97.5,-69.11,0
28-9-2017 18:00,111.69,-61.91669987612771,-15.86,67.43,-99.15,0
28-9-2017 19:00,172.99,-1.4447766225039231,-5.04,78.22,-88.3,0
28-9-2017 20:00,275.99,73.34769555474489,36.98,120.25,-46.29,0
28-9-2017 21:00,322.34,144.27715660009073,92.99,176.37,9.62,0
28-9-2017 22:00,240.68,56.04265903464301,96.35,179.73,12.97,0
28-9-2017 23:00,196.21,13.39295251310648,16.85,100.2,-66.5,0
29-9-2017 0:00,175.93,0.6743849448837125,-15.59,67.73,-98.92,0
29-9-2017 1:00,151.36,0.26116683310527833,-13.25,70.04,-96.55,0
29-9-2017 2:00,151.87,-2.6733129511151787,-10.55,72.71,-93.82,0
29-9-2017 3:00,144.9,1.8949460005186438,-12.04,71.2,-95.28,0
29-9-2017 4:00,155.55,12.970459592192697,-8.63,74.58,-91.84,0
29-9-2017 5:00,146.02,5.636337697714481,0.15,83.33,-83.03,0
29-9-2017 6:00,146.43,1.5884810788623724,-12.55,70.61,-95.7,0
29-9-2017 7:00,155.34,-1.4764149395479933,-14.04,69.09,-97.17,0
29-9-2017 8:00,182.61,-2.001417348653632,-17.37,65.73,-100.47,0
29-9-2017 9:00,172.55,-23.88750871733623,-16.2,66.87,-99.27,0
29-9-2017 10:00,264.37,51.37443920612105,-32.57,50.5,-115.64,0
29-9-2017 11:00,319.15,79.47050233173223,36.67,119.76,-46.43,0
29-9-2017 12:00,219.84,-23.892070637309985,33.07,116.15,-50.01,0
29-9-2017 13:00,212.14,-17.279842533417394,-67.06,16.18,-150.3,0
29-9-2017 14:00,222.07,-16.45032268102611,-30.06,53.12,-113.24,0
29-9-2017 15:00,280.15,30.951068786670135,-33.96,49.21,-117.14,0
29-9-2017 16:00,231.02,2.2401842114983026,18.35,101.5,-64.81,0
29-9-2017 17:00,193.41,-9.045631686175227,-33.62,49.57,-116.81,0
29-9-2017 18:00,172.2,-18.146807682886703,-17.68,65.48,-100.83,0
29-9-2017 19:00,200.75,16.068591355923445,-24.39,58.74,-107.52,0
29-9-2017 20:00,264.54,56.730737966250615,4.61,87.6,-78.38,0
29-9-2017 21:00,147.24,-30.94435025449934,33.7,116.29,-48.88,0
29-9-2017 22:00,220.54,40.628790496502205,-65.14,18.1,-148.38,1
29-9-2017 23:00,107.56,-65.25790504488066,36.26,119.51,-46.99,0
30-9-2017 0:00,107.2,-53.353312383609236,-74.95,8.53,-158.44,0
30-9-2017 1:00,107.08,-25.708721125037357,-25.22,58.22,-108.67,0
30-9-2017 2:00,114.91,-18.380097350597396,-9.16,74.34,-92.67,0
30-9-2017 3:00,103.49,-14.703070583069518,4.02,87.5,-79.45,0
30-9-2017 4:00,105.4,-9.185095800723246,0.4,83.85,-83.05,0
30-9-2017 5:00,103.97,-8.570174046836655,12.02,95.36,-71.32,0
30-9-2017 6:00,107.12,-10.330705213121973,6.03,89.33,-77.28,0
30-9-2017 7:00,116.92,-13.252781894527345,12.19,95.47,-71.09,0
30-9-2017 8:00,141.19,-17.725536632820734,4.53,87.78,-78.72,0
30-9-2017 9:00,200.37,26.997072303972573,9.16,92.39,-74.06,0
30-9-2017 10:00,197.2,4.384806851340585,41.31,124.53,-41.92,0
30-9-2017 11:00,261.02,38.61092038230112,13.96,97.17,-69.24,0
30-9-2017 12:00,246.57,16.99352685525281,40.96,124.17,-42.25,0
30-9-2017 13:00,199.56,-18.80588314307593,9.56,92.85,-73.73,0
30-9-2017 14:00,207.56,-23.131450371090352,-15.55,67.62,-98.72,0
30-9-2017 15:00,278.32,33.52338079412064,-8.13,75.1,-91.37,0
30-9-2017 16:00,187.48,-39.96743881323917,39.03,122.19,-44.12,0
30-9-2017 17:00,229.66,26.135705465885195,-35.97,47.24,-119.19,0
30-9-2017 18:00,271.86,77.52073900460337,36.48,119.75,-46.8,0
30-9-2017 19:00,200.35,8.781837118901876,58.68,141.96,-24.59,0
30-9-2017 20:00,245.86,26.85588145260931,-16.17,67.25,-99.58,0
30-9-2017 21:00,88.52,-103.16882245553477,13.84,97.14,-69.46,0
30-9-2017 22:00,180.62,-15.303243176372717,-101.52,-17.95,-185.09,1
30-9-2017 23:00,202.86,11.94787247410926,16.73,100.38,-66.93,0
