AppInstanceId,CompInstanceId,Metric_Name,Method
2,2,LINUX1_CPU_UTIL,M001
2,2,LINUX1_MEM_UTIL,M001
2,2,LINUX1_DISK_IOREAD,M001
2,2,LINUX1_DISK_IOWRITE,M001
2,2,LINUX1_EC_CPU_UTIL,M001
2,2,LINUX1_LOAD_AVERAGE,M001
2,122,APACHE1_CPU_LOAD,M001
2,122,APACHE1_BUSY_WORKERS,M001
2,122,APACHE1_TOTAL_ACCESSES,M001
2,122,APACHE1_IDLE_WORKERS,M001
2,122,APACHE1_TOTAL_REQUESTS,M001
2,122,APACHE1_TOTAL_KBYTES_PER_REQUEST,M001
2,122,APACHE1_TOTAL_KBYTES_SERVED,M001
2,442,ORACLE1_BYTES_RECEIVED,M001
2,442,ORACLE1_BYTES_SENT,M001
2,442,ORACLE1_CURRENT_OPEN_CURSORS,M001
2,442,ORACLE1_CURRENT_LOGONS,M001
2,442,ORACLE1_CACHE_HITRATIO,M001
2,442,ORACLE1_PHYSICAL_READS,M001
2,442,ORACLE1_PHYSICAL_WRITES,M001
2,442,ORACLE1_LOGICAL_READS,M001
2,442,ORACLE1_USER_COMMITS,M001
2,442,ORACLE1_USER_CALLS,M001
2,442,ORACLE1_USER_ROLLBACKS,M001
2,442,ORACLE1_EXECUTE_COUNT,M001
2,442,ORACLE1_NUMBEROF_SESSIONS,M001
2,442,ORACLE1_CPU_USAGE,M001
2,442,ORACLE1_HARD_PARSECOUNT,M001
2,442,ORACLE1_SORTS_DISK,M001
2,442,ORACLE1_SORTS_ROWS,M001
2,442,ORACLE1_TABLESCANS_LONG,M001
2,442,ORACLE1_TABLESCANS_SHORT,M001
2,442,ORACLE1_LOCKS_WAITS,M001
2,322,IBM1_JVM_HEAPSIZE,M001
2,322,IBM1_JVM_USEDMEMORY,M001
2,322,IBM1_JVM_CPUUSAGE,M001
2,322,IBM1_THREADPOOL_CREATECOUNT,M001
2,322,IBM1_THREADPOOL_DESTROYCOUNT,M001
2,322,IBM1_THREADPOOL_ACTIVECOUNT,M001
2,322,IBM1_THREADPOOL_POOLSIZE,M001
2,322,IBM1_CONNECTIONPOOL_POOLSIZE,M001
2,322,IBM1_CONNECTIONPOOL_FREEPOOLSIZE,M001
2,322,IBM1_CONNECTIONPOOL_PERCENTUSED,M001
2,322,IBM1_CONNECTIONPOOL_WAITTIME,M001
2,322,IBM1_CONNECTIONPOOL_CREATECOUNT,M001
2,322,IBM1_CONNECTIONPOOL_CLOSECOUNT,M001
2,322,IBM1_CONNECTIONPOOL_WAITINGTHREADCOUNT,M001
2,322,IBM1_CONNECTIONPOOL_USETIME,M001
2,322,IBM1_TOTAL_TRANSACTIONS_ACTIVE,M001
2,322,IBM1_TOTAL_TRANSACTIONS_COMMITTED,M001
2,322,IBM1_TOTAL_TRANSACTIONS_ROLLEDBACK,M001
2,322,IBM1_TOTAL_SESSIONS_CREATED,M001
2,322,IBM1_TOTAL_SESSIONS_INVALIDATED,M001
2,322,IBM1_TOTAL_SESSIONS_LIVE,M001
2,322,IBM1_TOTAL_SERVLETS_LOADED,M001
2,322,IBM1_TOTAL_SERVLETS_RELOADED,M001
2,322,IBM1_EJB_CREATED,M001
2,322,IBM1_EJB_REMOVED,M001
2,322,IBM1_EJB_PASSIVATED,M001
2,322,IBM1_EJB_METHODCALL,M001
2,322,IBM1_EJB_METHODRESPONSE_TIME,M001
2,12,Txn_BANKAWAY_index12_AvgRespTime,M001
2,12,Txn_BANKAWAY_index12_SlowPercentage,M001
2,12,Txn_BANKAWAY_index12_Total,M001
2,14,Txn_BANKAWAY_index14_AvgRespTime,M001
2,14,Txn_BANKAWAY_index14_SlowPercentage,M001
2,14,Txn_BANKAWAY_index14_Total,M001
2,15,Txn_BANKAWAY_index15_AvgRespTime,M001
2,15,Txn_BANKAWAY_index15_SlowPercentage,M001
2,15,Txn_BANKAWAY_index15_Total,M001
2,16,Txn_BANKAWAY_index16_AvgRespTime,M001
2,16,Txn_BANKAWAY_index16_SlowPercentage,M001
2,16,Txn_BANKAWAY_index16_Total,M001
2,17,Txn_BANKAWAY_index17_AvgRespTime,M001
2,17,Txn_BANKAWAY_index17_SlowPercentage,M001
2,17,Txn_BANKAWAY_index17_Total,M001
2,18,Txn_BANKAWAY_index18_AvgRespTime,M001
2,18,Txn_BANKAWAY_index18_SlowPercentage,M001
2,18,Txn_BANKAWAY_index18_Total,M001
2,19,Txn_BANKAWAY_index19_AvgRespTime,M001
2,19,Txn_BANKAWAY_index19_SlowPercentage,M001
2,19,Txn_BANKAWAY_index19_Total,M001
2,20,Txn_BANKAWAY_index20_AvgRespTime,M001
2,20,Txn_BANKAWAY_index20_SlowPercentage,M001
2,20,Txn_BANKAWAY_index20_Total,M001
2,21,Txn_BANKAWAY_index21_AvgRespTime,M001
2,21,Txn_BANKAWAY_index21_SlowPercentage,M001
2,21,Txn_BANKAWAY_index21_Total,M001
2,22,Txn_BANKAWAY_index22_AvgRespTime,M001
2,22,Txn_BANKAWAY_index22_SlowPercentage,M001
2,22,Txn_BANKAWAY_index22_Total,M001
2,24,Txn_BANKAWAY_index24_AvgRespTime,M001
2,24,Txn_BANKAWAY_index24_SlowPercentage,M001
2,24,Txn_BANKAWAY_index24_Total,M001
2,25,Txn_BANKAWAY_index25_AvgRespTime,M001
2,25,Txn_BANKAWAY_index25_SlowPercentage,M001
2,25,Txn_BANKAWAY_index25_Total,M001
2,27,Txn_BANKAWAY_index27_AvgRespTime,M001
2,27,Txn_BANKAWAY_index27_SlowPercentage,M001
2,27,Txn_BANKAWAY_index27_Total,M001
2,29,Txn_BANKAWAY_index29_AvgRespTime,M001
2,29,Txn_BANKAWAY_index29_SlowPercentage,M001
2,29,Txn_BANKAWAY_index29_Total,M001
2,3,Txn_BANKAWAY_index3_AvgRespTime,M001
2,3,Txn_BANKAWAY_index3_SlowPercentage,M001
2,3,Txn_BANKAWAY_index3_Total,M001
2,30,Txn_BANKAWAY_index30_AvgRespTime,M001
2,30,Txn_BANKAWAY_index30_SlowPercentage,M001
2,30,Txn_BANKAWAY_index30_Total,M001
2,33,Txn_BANKAWAY_index33_AvgRespTime,M001
2,33,Txn_BANKAWAY_index33_SlowPercentage,M001
2,33,Txn_BANKAWAY_index33_Total,M001
2,34,Txn_BANKAWAY_index34_AvgRespTime,M001
2,34,Txn_BANKAWAY_index34_SlowPercentage,M001
2,34,Txn_BANKAWAY_index34_Total,M001
2,36,Txn_BANKAWAY_index36_AvgRespTime,M001
2,36,Txn_BANKAWAY_index36_SlowPercentage,M001
2,36,Txn_BANKAWAY_index36_Total,M001
2,37,Txn_BANKAWAY_index37_AvgRespTime,M001
2,37,Txn_BANKAWAY_index37_SlowPercentage,M001
2,37,Txn_BANKAWAY_index37_Total,M001
2,38,Txn_BANKAWAY_index38_AvgRespTime,M001
2,38,Txn_BANKAWAY_index38_SlowPercentage,M001
2,38,Txn_BANKAWAY_index38_Total,M001
2,39,Txn_BANKAWAY_index39_AvgRespTime,M001
2,39,Txn_BANKAWAY_index39_SlowPercentage,M001
2,39,Txn_BANKAWAY_index39_Total,M001
2,5,Txn_BANKAWAY_index5_AvgRespTime,M001
2,5,Txn_BANKAWAY_index5_SlowPercentage,M001
2,5,Txn_BANKAWAY_index5_Total,M001
2,52,Txn_BANKAWAY_index52_AvgRespTime,M001
2,52,Txn_BANKAWAY_index52_SlowPercentage,M001
2,52,Txn_BANKAWAY_index52_Total,M001
2,53,Txn_BANKAWAY_index53_AvgRespTime,M001
2,53,Txn_BANKAWAY_index53_SlowPercentage,M001
2,53,Txn_BANKAWAY_index53_Total,M001
2,54,Txn_BANKAWAY_index54_AvgRespTime,M001
2,54,Txn_BANKAWAY_index54_SlowPercentage,M001
2,54,Txn_BANKAWAY_index54_Total,M001
2,55,Txn_BANKAWAY_index55_AvgRespTime,M001
2,55,Txn_BANKAWAY_index55_SlowPercentage,M001
2,55,Txn_BANKAWAY_index55_Total,M001
2,56,Txn_BANKAWAY_index56_AvgRespTime,M001
2,56,Txn_BANKAWAY_index56_SlowPercentage,M001
2,56,Txn_BANKAWAY_index56_Total,M001
2,57,Txn_BANKAWAY_index57_AvgRespTime,M001
2,57,Txn_BANKAWAY_index57_SlowPercentage,M001
2,57,Txn_BANKAWAY_index57_Total,M001
2,58,Txn_BANKAWAY_index58_AvgRespTime,M001
2,58,Txn_BANKAWAY_index58_SlowPercentage,M001
2,58,Txn_BANKAWAY_index58_Total,M001
2,59,Txn_BANKAWAY_index59_AvgRespTime,M001
2,59,Txn_BANKAWAY_index59_SlowPercentage,M001
2,59,Txn_BANKAWAY_index59_Total,M001
2,6,Txn_BANKAWAY_index6_AvgRespTime,M001
2,6,Txn_BANKAWAY_index6_SlowPercentage,M001
2,6,Txn_BANKAWAY_index6_Total,M001
2,60,Txn_BANKAWAY_index60_AvgRespTime,M001
2,60,Txn_BANKAWAY_index60_SlowPercentage,M001
2,60,Txn_BANKAWAY_index60_Total,M001
2,64,Txn_BANKAWAY_index64_AvgRespTime,M001
2,64,Txn_BANKAWAY_index64_SlowPercentage,M001
2,64,Txn_BANKAWAY_index64_Total,M001
2,65,Txn_BANKAWAY_index65_AvgRespTime,M001
2,65,Txn_BANKAWAY_index65_SlowPercentage,M001
2,65,Txn_BANKAWAY_index65_Total,M001
2,66,Txn_BANKAWAY_index66_AvgRespTime,M001
2,66,Txn_BANKAWAY_index66_SlowPercentage,M001
2,66,Txn_BANKAWAY_index66_Total,M001
2,67,Txn_BANKAWAY_index67_AvgRespTime,M001
2,67,Txn_BANKAWAY_index67_SlowPercentage,M001
2,67,Txn_BANKAWAY_index67_Total,M001
2,68,Txn_BANKAWAY_index68_AvgRespTime,M001
2,68,Txn_BANKAWAY_index68_SlowPercentage,M001
2,68,Txn_BANKAWAY_index68_Total,M001
2,69,Txn_BANKAWAY_index69_AvgRespTime,M001
2,69,Txn_BANKAWAY_index69_SlowPercentage,M001
2,69,Txn_BANKAWAY_index69_Total,M001
2,7,Txn_BANKAWAY_index7_AvgRespTime,M001
2,7,Txn_BANKAWAY_index7_SlowPercentage,M001
2,7,Txn_BANKAWAY_index7_Total,M001
2,70,Txn_BANKAWAY_index70_AvgRespTime,M001
2,70,Txn_BANKAWAY_index70_SlowPercentage,M001
2,70,Txn_BANKAWAY_index70_Total,M001
2,71,Txn_BANKAWAY_index71_AvgRespTime,M001
2,71,Txn_BANKAWAY_index71_SlowPercentage,M001
2,71,Txn_BANKAWAY_index71_Total,M001
2,72,Txn_BANKAWAY_index72_AvgRespTime,M001
2,72,Txn_BANKAWAY_index72_SlowPercentage,M001
2,72,Txn_BANKAWAY_index72_Total,M001
2,73,Txn_BANKAWAY_index73_AvgRespTime,M001
2,73,Txn_BANKAWAY_index73_SlowPercentage,M001
2,73,Txn_BANKAWAY_index73_Total,M001
2,74,Txn_BANKAWAY_index74_AvgRespTime,M001
2,74,Txn_BANKAWAY_index74_SlowPercentage,M001
2,74,Txn_BANKAWAY_index74_Total,M001
2,8,Txn_BANKAWAY_index8_AvgRespTime,M001
2,8,Txn_BANKAWAY_index8_SlowPercentage,M001
2,8,Txn_BANKAWAY_index8_Total,M001
