Metric_Name,rollapply_fun,Pre_Proc
CPU_UTIL,mean,0
MEM_UTIL,mean,0
DISK_IOREAD,mean,0
DISK_IOWRITE,mean,0
EC_CPU_UTIL,mean,0
LOAD_AVERAGE,mean,0
CPU_LOAD,mean,0
BUSY_WORKERS,mean,0
TOTAL_ACCESSES,mean,1
IDLE_WORKERS,mean,1
TOTAL_REQUESTS,mean,1
TOTAL_KBYTES_PER_REQUEST,mean,0
TOTAL_KBYTES_SERVED,mean,0
BYTES_RECEIVED,mean,1
BYTES_SENT,mean,0
CURRENT_OPEN_CURSORS,mean,0
CURRENT_LOGONS,mean,0
CACHE_HITRATIO,mean,0
PHYSICAL_READS,mean,0
PHYSICAL_WRITES,skewness,1
LOGICAL_READS,mean,0
USER_COMMITS,mean,0
USER_CALLS,mean,1
USER_ROLLBACKS,mean,0
EXECUTE_COUNT,mean,0
NUMBEROF_SESSIONS,mean,1
CPU_USAGE,mean,0
HARD_PARSECOUNT,mean,0
SORTS_DISK,mean,1
SORTS_ROWS,mean,0
TABLESCANS_LONG,mean,0
TABLESCANS_SHORT,mean,0
LOCKS_WAITS,mean,0
JVM_HEAPSIZE,mean,1
JVM_USEDMEMORY,mean,0
JVM_CPUUSAGE,mean,0
THREADPOOL_CREATECOUNT,mean,0
THREADPOOL_DESTROYCOUNT,mean,0
THREADPOOL_ACTIVECOUNT,mean,0
THREADPOOL_POOLSIZE,mean,1
CONNECTIONPOOL_POOLSIZE,mean,0
CONNECTIONPOOL_FREEPOOLSIZE,mean,0
CONNECTIONPOOL_PERCENTUSED,mean,0
CONNECTIONPOOL_WAITTIME,mean,0
CONNECTIONPOOL_CREATECOUNT,mean,0
CONNECTIONPOOL_CLOSECOUNT,mean,0
CONNECTIONPOOL_WAITINGTHREADCOUNT,mean,0
CONNECTIONPOOL_USETIME,mean,0
TOTAL_TRANSACTIONS_ACTIVE,mean,0
TOTAL_TRANSACTIONS_COMMITTED,mean,0
TOTAL_TRANSACTIONS_ROLLEDBACK,mean,0
TOTAL_SESSIONS_CREATED,mean,0
TOTAL_SESSIONS_INVALIDATED,mean,0
TOTAL_SESSIONS_LIVE,mean,0
TOTAL_SERVLETS_LOADED,mean,0
TOTAL_SERVLETS_RELOADED,mean,0
EJB_CREATED,mean,0
EJB_REMOVED,mean,0
EJB_PASSIVATED,mean,0
EJB_METHODCALL,mean,0
EJB_METHODRESPONSE_TIME,mean,0
