"Application","Entire_DateRange","Highest_Anomalies_Seen_On","Highest_Violation_Shown_By","Most_Correlated_Transactions_And_KPI"
"Core_Banking","2017-03-01 05:30:00 - 2017-03-31 05:30:00","06-03-2017","CPU_LOAD","THREADPOOL_ACTIVECOUNT, JVM_CPUUSAGE, JVM_HEAPSIZE, TOTAL_SESSIONS_LIVE, CURRENT_OPEN_CURSORS, CPU_UTIL, BUSY_WORKERS, CURRENT_LOGONS, LOCKS_WAITS, CPU_USAGE, MEM_UTIL, JVM_USEDMEMORY, PHYSICAL_READS, CPU_LOAD, CONNECTIONPOOL_USETIME"
"RIB","2017-03-01 11:00:00 - 2017-04-25 10:59:00","01-04-2017","TOTAL_SESSIONS_INVALIDATED","MEM_UTIL, IDLE_WORKERS, BYTES_RECEIVED, TOTAL_SESSIONS_INVALIDATED, NA, NA, NA, NA, NA, NA, NA, NA, NA, NA, NA"
"NetBanking","2017-03-01 03:59:00 - 2017-03-04 23:59:00","03-03-2017","MEM_UTIL","JVM_USEDMEMORY, CONNECTIONPOOL_USETIME, TOTAL_TRANSACTIONS_COMMITTED, TOTAL_TRANSACTIONS_ROLLEDBACK, TOTAL_SESSIONS_CREATED, TOTAL_SESSIONS_INVALIDATED, Txn_BANKAWAY_index73_AvgRespTime, Txn_BANKAWAY_index16_SlowPercentage, Txn_BANKAWAY_index22_SlowPercentage, Txn_BANKAWAY_index24_SlowPercentage, Txn_BANKAWAY_index70_AvgRespTime, Txn_BANKAWAY_index70_SlowPercentage, Txn_BANKAWAY_index16_AvgRespTime, Txn_BANKAWAY_index18_SlowPercentage, Txn_BANKAWAY_index22_AvgRespTime"
