from,to,type,value,arrows
 RIB11xWeb              ,IHS_CLUSTER,Link,2.5,to;from
 RIB11xWeb164           , RIB11xWeb              ,Apache,2,to;from
 RIB11xWeb165           , RIB11xWeb              ,Apache,2,to;from
 RIB11xWeb166           , RIB11xWeb              ,Apache,2,to;from
 RIB11xWeb167           , RIB11xWeb              ,Apache,2,to;from
 RIB11xWeb168           , RIB11xWeb              ,Apache,2,to;from
SHOP11xWeb,IHS_CLUSTER,Link,2.5,to;from
 RIB11xWeb169           ,SHOP11xWeb,Apache,2,to;from
 RIB11xWeb170           ,SHOP11xWeb,Apache,2,to;from
 RIB11xWeb171           ,SHOP11xWeb,Apache,2,to;from
RIB11xWeb173,SHOP11xWeb,Apache,2,to;from
IHS_CLUSTER,WAS_CLUSTER,Link,2.5,to;from
 RIB11x_WAS_CLUSTER             ,WAS_CLUSTER,Link,2.5,to;from
 RIB11x_WAS_199_8880            , RIB11x_WAS_CLUSTER             ,Websphere,2,to;from
 RIB11x_WAS_199_8881            , RIB11x_WAS_CLUSTER             ,Websphere,2,to;from
 RIB11x_WAS_199_8882            , RIB11x_WAS_CLUSTER             ,Websphere,2,to;from
 RIB11x_WAS_199_8883            , RIB11x_WAS_CLUSTER             ,Websphere,2,to;from
 RIB11x_WAS_200_8880            , RIB11x_WAS_CLUSTER             ,Websphere,2,to;from
 RIB11x_WAS_200_8881            , RIB11x_WAS_CLUSTER             ,Websphere,2,to;from
 RIB11x_WAS_200_8882            , RIB11x_WAS_CLUSTER             ,Websphere,2,to;from
 RIB11x_WAS_200_8883            , RIB11x_WAS_CLUSTER             ,Websphere,2,to;from
 RIB11x_WAS_201_8885            , RIB11x_WAS_CLUSTER             ,Websphere,2,to;from
 RIB11x_WAS_201_8886            , RIB11x_WAS_CLUSTER             ,Websphere,2,to;from
 RIB11x_WAS_201_8887            , RIB11x_WAS_CLUSTER             ,Websphere,2,to;from
 RIB11x_WAS_201_8888            , RIB11x_WAS_CLUSTER             ,Websphere,2,to;from
 RIB11x_WAS_202_8880            , RIB11x_WAS_CLUSTER             ,Websphere,2,to;from
 RIB11x_WAS_202_8881            , RIB11x_WAS_CLUSTER             ,Websphere,2,to;from
 RIB11x_WAS_202_8882            , RIB11x_WAS_CLUSTER             ,Websphere,2,to;from
 RIB11x_WAS_202_8883            , RIB11x_WAS_CLUSTER             ,Websphere,2,to;from
 RIB11x_WAS_203_8885            , RIB11x_WAS_CLUSTER             ,Websphere,2,to;from
 RIB11x_WAS_203_8886            , RIB11x_WAS_CLUSTER             ,Websphere,2,to;from
 RIB11x_WAS_203_8887            , RIB11x_WAS_CLUSTER             ,Websphere,2,to;from
 RIB11x_WAS_203_8888            , RIB11x_WAS_CLUSTER             ,Websphere,2,to;from
SHOP11X_WAS_CLUSTER,WAS_CLUSTER,Link,2.5,to;from
 RIB11x_WAS_204_8886            ,SHOP11X_WAS_CLUSTER,Websphere,2,to;from
 RIB11x_WAS_204_8887            ,SHOP11X_WAS_CLUSTER,Websphere,2,to;from
 RIB11x_WAS_205_8886            ,SHOP11X_WAS_CLUSTER,Websphere,2,to;from
 RIB11x_WAS_205_8887            ,SHOP11X_WAS_CLUSTER,Websphere,2,to;from
 RIB11x_WAS_205_8888            ,SHOP11X_WAS_CLUSTER,Websphere,2,to;from
 RIB11x_WAS_205_8889            ,SHOP11X_WAS_CLUSTER,Websphere,2,to;from
 RIB11x_WAS_206_8885            ,SHOP11X_WAS_CLUSTER,Websphere,2,to;from
 RIB11x_WAS_206_8886            ,SHOP11X_WAS_CLUSTER,Websphere,2,to;from
 RIB11x_WAS_206_8887            ,SHOP11X_WAS_CLUSTER,Websphere,2,to;from
 RIB11x_WAS_206_8889            ,SHOP11X_WAS_CLUSTER,Websphere,2,to;from
WAS_CLUSTER,RIB11x_DB_CLUSTER,Link,2.5,to;from
 RIB11x_DB_164 ,RIB11x_DB_CLUSTER,Oracle,2,to;from
